<?xml version="1.0" encoding="UTF-8" standalone="no"?>
<!-- Created with Inkscape (http://www.inkscape.org/) -->

<svg xmlns:dc="http://purl.org/dc/elements/1.1/" xmlns:cc="http://creativecommons.org/ns#" xmlns:rdf="http://www.w3.org/1999/02/22-rdf-syntax-ns#" xmlns:svg="http://www.w3.org/2000/svg" xmlns="http://www.w3.org/2000/svg" xmlns:sodipodi="http://sodipodi.sourceforge.net/DTD/sodipodi-0.dtd" xmlns:inkscape="http://www.inkscape.org/namespaces/inkscape" version="1.1" id="svg2" inkscape:version="0.91+devel r" width="128" height="128" viewBox="0 0 128 128" sodipodi:docname="Parcly Pixel Avatar.svg" inkscape:export-filename="/home/parclytaxel/Pictures/Parcly Taxel/Parcly Pixel Avatar.png" inkscape:export-xdpi="384" inkscape:export-ydpi="384">
  <metadata id="metadata8">
    <rdf:RDF>
      <cc:Work rdf:about="">
        <dc:format>image/svg+xml</dc:format>
        <dc:type rdf:resource="http://purl.org/dc/dcmitype/StillImage" />
        <dc:title />
      </cc:Work>
    </rdf:RDF>
  </metadata>
  <defs id="defs6" />
  <sodipodi:namedview pagecolor="#ffffff" bordercolor="#666666" borderopacity="1" objecttolerance="10" gridtolerance="10" guidetolerance="10" inkscape:pageopacity="0" inkscape:pageshadow="2" inkscape:window-width="640" inkscape:window-height="480" inkscape:document-units="px" id="namedview4" showgrid="true" inkscape:object-nodes="true" inkscape:snap-smooth-nodes="false" inkscape:zoom="16.992188" inkscape:cx="55.407816" inkscape:cy="63.698824" inkscape:current-layer="svg2" />
  <rect style="opacity:1;fill:#230f38;fill-opacity:1;fill-rule:nonzero;stroke:none;stroke-width:1;stroke-linecap:butt;stroke-linejoin:miter;stroke-miterlimit:4;stroke-dasharray:none;stroke-dashoffset:3;stroke-opacity:1" id="rect34" width="128" height="128" x="-128" y="0" transform="scale(-1,1)" />
  <path style="opacity:1;fill:#6dc6fb;fill-opacity:1;fill-rule:nonzero;stroke:none;stroke-width:1;stroke-linecap:butt;stroke-linejoin:miter;stroke-miterlimit:4;stroke-dasharray:none;stroke-dashoffset:3;stroke-opacity:1" d="M 46,10 H 22 V 22 H 34 V 34 H 46 V 46 H 58 V 58 H 46 v 60 H 58 V 82 h 24 v 36 H 94 V 58 h 24 V 46 H 106 V 22 h 12 V 10 H 70 V 22 H 46 Z" id="path30" inkscape:connector-curvature="0" />
  <path id="path22" style="opacity:1;fill:#f3a4d9;fill-opacity:1;fill-rule:nonzero;stroke:none;stroke-width:1;stroke-linecap:butt;stroke-linejoin:miter;stroke-miterlimit:4;stroke-dasharray:none;stroke-dashoffset:3;stroke-opacity:1" d="M 118,22 V 34 H 106 V 10 H 82 V 22 Z M 70,34 H 58 V 70 H 70 Z M 34,58 H 22 v 60 H 10 V 70 h 24 z" inkscape:connector-curvature="0" />
  <path id="path27" style="opacity:1;fill:#961370;fill-opacity:1;fill-rule:nonzero;stroke:none;stroke-width:1;stroke-linecap:butt;stroke-linejoin:miter;stroke-miterlimit:4;stroke-dasharray:none;stroke-dashoffset:3;stroke-opacity:1" d="M 46,58 H 34 V 70 H 22 v 36 H 34 V 82 H 46 Z M 106,22 H 82 V 58 H 70 V 22 H 58 v 12 h 48 z" inkscape:connector-curvature="0" />
  <rect style="opacity:1;fill:#5c2594;fill-opacity:1;fill-rule:nonzero;stroke:none;stroke-width:1;stroke-linecap:butt;stroke-linejoin:miter;stroke-miterlimit:4;stroke-dasharray:none;stroke-dashoffset:3;stroke-opacity:1" id="rect32" width="12" height="12" x="-106" y="34" transform="scale(-1,1)" />
</svg>
