<?xml version="1.0" encoding="UTF-8" standalone="no"?>
<!-- Created with Inkscape (http://www.inkscape.org/) -->

<svg
   xmlns:dc="http://purl.org/dc/elements/1.1/"
   xmlns:cc="http://creativecommons.org/ns#"
   xmlns:rdf="http://www.w3.org/1999/02/22-rdf-syntax-ns#"
   xmlns:svg="http://www.w3.org/2000/svg"
   xmlns="http://www.w3.org/2000/svg"
   xmlns:xlink="http://www.w3.org/1999/xlink"
   xmlns:sodipodi="http://sodipodi.sourceforge.net/DTD/sodipodi-0.dtd"
   xmlns:inkscape="http://www.inkscape.org/namespaces/inkscape"
   width="1024"
   height="1166.2478"
   id="svg3148"
   version="1.1"
   inkscape:version="0.48.2 r9819"
   sodipodi:docname="Parcly Taxel (Revised).svg"
   inkscape:export-filename="C:\Users\tan jierui\Pictures\Parcly Taxel 8.png"
   inkscape:export-xdpi="554.34583"
   inkscape:export-ydpi="554.34583">
  <defs
     id="defs3150">
    <linearGradient
       id="linearGradient4443">
      <stop
         id="stop4445"
         offset="0"
         style="stop-color:#230f38;stop-opacity:1" />
      <stop
         id="stop4447"
         offset="1"
         style="stop-color:#5c2594;stop-opacity:1" />
    </linearGradient>
    <linearGradient
       inkscape:collect="always"
       id="linearGradient4453">
      <stop
         style="stop-color:#230f38;stop-opacity:1"
         offset="0"
         id="stop4455" />
      <stop
         style="stop-color:#5c2594;stop-opacity:1"
         offset="1"
         id="stop4457" />
    </linearGradient>
    <clipPath
       clipPathUnits="userSpaceOnUse"
       id="clipPath4447">
      <path
         transform="matrix(0.98917786,-0.14672138,0.14672138,0.98917786,-24.064355,68.929277)"
         d="m 461.72533,178.59187 a 12.523211,25.59091 0 1 1 -25.04642,0 12.523211,25.59091 0 1 1 25.04642,0 z"
         sodipodi:ry="25.59091"
         sodipodi:rx="12.523211"
         sodipodi:cy="178.59187"
         sodipodi:cx="449.20212"
         id="path4449"
         style="fill:#502080;fill-opacity:1;stroke:none"
         sodipodi:type="arc" />
    </clipPath>
    <clipPath
       clipPathUnits="userSpaceOnUse"
       id="clipPath4431">
      <path
         transform="matrix(0.72618529,0.68749904,-0.68749904,0.72618529,255.73209,-212.69387)"
         d="m 431.23404,221.06189 a 36.752903,27.768858 0 1 1 -73.5058,0 36.752903,27.768858 0 1 1 73.5058,0 z"
         sodipodi:ry="27.768858"
         sodipodi:rx="36.752903"
         sodipodi:cy="221.06189"
         sodipodi:cx="394.48114"
         id="path4433"
         style="fill:#ffffff;stroke:none"
         sodipodi:type="arc" />
    </clipPath>
    <linearGradient
       id="linearGradient4411">
      <stop
         style="stop-color:#331551;stop-opacity:1;"
         offset="0"
         id="stop4413" />
      <stop
         style="stop-color:#502080;stop-opacity:0;"
         offset="1"
         id="stop4415" />
    </linearGradient>
    <clipPath
       clipPathUnits="userSpaceOnUse"
       id="clipPath4405">
      <path
         transform="matrix(0.84980481,-0.52709751,0.52709751,0.84980481,-67.731539,227.81362)"
         d="m 426.42077,227.86798 a 21.594358,29.366409 0 1 1 -43.18871,0 21.594358,29.366409 0 1 1 43.18871,0 z"
         sodipodi:ry="29.366409"
         sodipodi:rx="21.594358"
         sodipodi:cy="227.86798"
         sodipodi:cx="404.82642"
         id="path4407"
         style="fill:#502080;fill-opacity:1;stroke:none"
         sodipodi:type="arc" />
    </clipPath>
    <linearGradient
       inkscape:collect="always"
       xlink:href="#linearGradient4453"
       id="linearGradient4335"
       gradientUnits="userSpaceOnUse"
       x1="443.79022"
       y1="169.87238"
       x2="451.08969"
       y2="199.6805" />
    <linearGradient
       inkscape:collect="always"
       xlink:href="#linearGradient4443"
       id="linearGradient4441"
       gradientUnits="userSpaceOnUse"
       x1="405.23651"
       y1="214.81555"
       x2="405.88406"
       y2="251.6196" />
    <linearGradient
       inkscape:collect="always"
       xlink:href="#linearGradient4453"
       id="linearGradient4476"
       gradientUnits="userSpaceOnUse"
       x1="443.79022"
       y1="169.87238"
       x2="451.08969"
       y2="199.6805" />
    <linearGradient
       inkscape:collect="always"
       xlink:href="#linearGradient4453"
       id="linearGradient4487"
       gradientUnits="userSpaceOnUse"
       x1="445.96164"
       y1="165.25392"
       x2="449.9411"
       y2="198.79883" />
    <clipPath
       clipPathUnits="userSpaceOnUse"
       id="clipPath4517">
      <path
         style="fill:none;stroke:#ffffff;stroke-width:2.71240711px;stroke-linecap:butt;stroke-linejoin:miter;stroke-opacity:1"
         d="M 1008.2291,205.64443 C 1010.7943,137.55853 982.06605,58.330556 938.56736,12.72699 825.2009,122.93375 740.34608,263.8378 1001.4903,256.09943 z"
         id="path4519"
         inkscape:connector-curvature="0"
         sodipodi:nodetypes="ccc" />
    </clipPath>
    <clipPath
       clipPathUnits="userSpaceOnUse"
       id="clipPath3854">
      <path
         style="font-size:medium;font-style:normal;font-variant:normal;font-weight:normal;font-stretch:normal;text-indent:0;text-align:start;text-decoration:none;line-height:normal;letter-spacing:normal;word-spacing:normal;text-transform:none;direction:ltr;block-progression:tb;writing-mode:lr-tb;text-anchor:start;baseline-shift:baseline;color:#000000;fill:none;stroke:#000000;stroke-width:0.36867622;stroke-miterlimit:4;stroke-dasharray:none;marker:none;visibility:visible;display:inline;overflow:visible;enable-background:accumulate;font-family:Sans;-inkscape-font-specification:Sans"
         d="m 428.17414,145.44691 c -10.89,-2.30373 -22.57209,-3.98469 -33.88385,-4.67176 -125.53619,-139.3571181 208.23191,-0.19394 33.88385,4.67176 z"
         id="path3856"
         inkscape:connector-curvature="0"
         sodipodi:nodetypes="ccc" />
    </clipPath>
  </defs>
  <sodipodi:namedview
     id="base"
     pagecolor="#ffffff"
     bordercolor="#666666"
     borderopacity="1.0"
     inkscape:pageopacity="0.0"
     inkscape:pageshadow="2"
     inkscape:zoom="0.44330201"
     inkscape:cx="512"
     inkscape:cy="583.1239"
     inkscape:document-units="px"
     inkscape:current-layer="layer1"
     showgrid="false"
     fit-margin-top="0"
     fit-margin-left="0"
     fit-margin-right="0"
     fit-margin-bottom="0"
     inkscape:window-width="1366"
     inkscape:window-height="706"
     inkscape:window-x="-8"
     inkscape:window-y="-8"
     inkscape:window-maximized="1" />
  <metadata
     id="metadata3153">
    <rdf:RDF>
      <cc:Work
         rdf:about="">
        <dc:format>image/svg+xml</dc:format>
        <dc:type
           rdf:resource="http://purl.org/dc/dcmitype/StillImage" />
        <dc:title />
      </cc:Work>
    </rdf:RDF>
  </metadata>
  <g
     inkscape:label="Layer 1"
     inkscape:groupmode="layer"
     id="layer1"
     transform="translate(-40.608801,129.65534)">
    <path
       sodipodi:type="arc"
       style="fill:#b3b3b3;stroke:none"
       id="path4264"
       sodipodi:cx="706.65643"
       sodipodi:cy="1120.6348"
       sodipodi:rx="306.03232"
       sodipodi:ry="67.88353"
       d="m 1012.6888,1120.6348 c 0,37.491 -137.01538,67.8835 -306.03237,67.8835 -169.01698,0 -306.03232,-30.3925 -306.03232,-67.8835 0,-37.4911 137.01534,-67.8836 306.03232,-67.8836 169.01699,0 306.03237,30.3925 306.03237,67.8836 z"
       transform="translate(37.330112,-151.92584)" />
    <path
       style="fill:#ffffff;fill-opacity:1;stroke:#b9e0f7;stroke-width:5;stroke-linecap:butt;stroke-linejoin:miter;stroke-miterlimit:4;stroke-opacity:1;stroke-dasharray:none"
       d="m 1010.8981,249.48519 -31.13165,62.29954 -47.70913,-0.76714 5.56423,-66.21427 z"
       id="path3426"
       inkscape:connector-curvature="0"
       sodipodi:nodetypes="ccccc" />
    <path
       style="fill:#b9e0f7;fill-opacity:1;stroke:none"
       d="m 929.6575,273.78282 0.49952,12.2163 53.80844,-4.87936 z"
       id="path4262"
       inkscape:connector-curvature="0"
       sodipodi:nodetypes="cccc" />
    <path
       style="fill:#961370;fill-opacity:1;stroke:#d91e9b;stroke-width:9.49342537000000060;stroke-linecap:butt;stroke-linejoin:miter;stroke-miterlimit:10;stroke-opacity:1;stroke-dasharray:none"
       d="m 551.06377,421.32553 20.67621,-19.19936 C 551.94697,343.578 304.05551,137.3507 158.85809,555.6807 l 48.4931,-21.4209 c 0,0 -76.33712,202.09063 -161.995676,205.04437 C 358.40295,917.5523 308.3245,227.79017 551.06377,421.32553 z"
       id="path3912"
       inkscape:connector-curvature="0"
       sodipodi:nodetypes="cccccc" />
    <path
       style="fill:#f3a4d9;fill-opacity:1;stroke:#d91e9b;stroke-width:9.49342537000000060;stroke-linecap:butt;stroke-linejoin:miter;stroke-miterlimit:10;stroke-opacity:1;stroke-dasharray:none"
       d="M 539.24879,425.75612 C 331.89606,363.61851 429.43446,1049.9517 73.999808,801.77826 140.0623,814.22335 209.75872,720.82508 251.90101,588.29228 l -41.23202,20.59595 66.98096,-130.12527 -50.33405,16.12518 c 0,0 56.37887,-143.14655 178.55653,-145.77781 41.62149,-0.89636 90.87906,14.51431 148.1451,57.44648 z"
       id="path3910"
       inkscape:connector-curvature="0"
       sodipodi:nodetypes="ccccccscc" />
    <path
       style="fill:#41b5fa;fill-opacity:1;stroke:none"
       d="m 773.02387,626.19392 c 0,0 21.45372,67.04284 107.8049,13.40855 -3.21808,40.22571 -28.42619,30.0352 -32.18057,67.04286 -3.7544,37.00763 38.61668,113.16832 67.04286,111.55929 28.42615,-1.60905 59.53401,-76.69703 48.27083,-133.01301 -11.2632,-56.31598 -16.98878,-130.22638 -66.50649,-129.79493 -42.70896,0.37216 -58.43285,40.8149 -97.07806,42.37106 z"
       id="path3837"
       inkscape:connector-curvature="0"
       sodipodi:nodetypes="ccsssscc" />
    <path
       style="fill:#1c92cd;fill-opacity:1;stroke:none"
       d="m 811.43605,597.87556 c 0,0 56.88886,-47.85841 83.51316,-47.85841 59.52255,0 70.32744,100.78185 74.34936,136.87109 8.50484,76.31503 -24.77613,135.46409 -51.3879,135.46409 -29.60427,0 -74.04568,-53.90581 -74.04568,-115.18826 0,-37.03082 36.85185,-32.43669 36.85185,-87.66405 13.22657,55.07762 -26.70524,56.57378 -26.70524,87.68165 0,47.42905 37.11809,104.58684 63.82481,104.58684 8.14702,0 25.75564,-16.41851 33.06979,-42.46494 5.91842,-21.07607 12.14429,-38.89405 9.08797,-81.96659 -1.33076,-18.75423 -15.2883,-129.1497 -65.22332,-129.1497 -12.8553,0 -39.69418,15.69476 -68.64903,42.2622 z"
       id="path3009"
       inkscape:connector-curvature="0"
       sodipodi:nodetypes="csssscssssscc" />
    <path
       style="fill:#1c92cd;fill-opacity:1;stroke:none"
       d="m 772.48753,633.70272 c 17.16297,35.93495 55.77966,47.19817 107.8049,9.65417 l 1.07266,-10.19052 c -38.41458,26.26118 -82.10084,36.58739 -100.29607,-4.29074 z"
       id="path3835"
       inkscape:connector-curvature="0"
       sodipodi:nodetypes="ccccc" />
    <path
       sodipodi:nodetypes="cssc"
       inkscape:connector-curvature="0"
       id="path3791"
       d="m 691.07099,617.81333 c -68.79683,150.79744 24.29648,302.18577 19.19934,316.05053 -8.49426,23.10538 -127.01097,18.46092 -138.82594,-1.47688 -9.58302,-16.17131 -48.73675,-175.74769 13.29185,-310.88146 z"
       style="fill:#41b5fa;fill-opacity:1;stroke:#20a0e0;stroke-width:9.49342537000000060;stroke-linecap:butt;stroke-linejoin:miter;stroke-miterlimit:4;stroke-opacity:1;stroke-dasharray:none" />
    <path
       style="fill:#6dc6fb;fill-opacity:1;stroke:none"
       d="m 1009.143,204.44587 25.1607,0.44433 1.5904,20.44433 -4.0679,18.18671 -18.7841,14.86554 -31.75468,2.1994 -30.92567,-5.7719 4.24931,35.04618 24.39803,14.26773 23.76551,0.3045 -24.95448,16.91266 -52.99277,17.2933 -55.11885,8.09164 -39.44214,0 28.0646,131.22104 -7.58503,77.36732 -24.27208,47.7857 -43.99319,35.64966 -51.57821,18.96257 -81.15984,-0.75849 -18.20407,-7.58504 -22.75512,78.88431 -2.2755,80.40134 12.89454,64.4728 35.64966,90.26184 -33.37413,17.44558 -71.29929,-1.51701 -38.68368,-12.89454 -17.44559,-66.74828 0.75854,-131.97955 28.8231,-111.49995 22.75511,-6.82654 -35.64966,-106.94893 0,-81.15984 28.06464,-62.95576 34.13263,-15.92859 63.71425,0.75854 42.47618,7.58501 -31.09864,-131.97955 9.86056,-169.904696 56.88772,-102.397929 172.54829,-18.534041 48.17613,41.2891311 33.37413,43.2346869 21.9966,49.302688 15.17009,53.85373 z"
       id="path3937"
       inkscape:connector-curvature="0"
       sodipodi:nodetypes="ccccccccccccccccccccccccccccccccccccccccccccccc" />
    <g
       id="g4498"
       clip-path="url(#clipPath4517)">
      <path
         transform="matrix(2.5737226,-0.85621527,0.85621527,2.5737226,-323.19207,-2.9766544)"
         d="m 455.73596,195.74323 c 0,17.89237 -6.09438,32.397 -13.61218,32.397 -7.5178,0 -13.61219,-14.50463 -13.61219,-32.397 0,-17.89238 6.09439,-32.39701 13.61219,-32.39701 7.5178,0 13.61218,14.50463 13.61218,32.39701 z"
         sodipodi:ry="32.397003"
         sodipodi:rx="13.612185"
         sodipodi:cy="195.74323"
         sodipodi:cx="442.12378"
         id="path3890"
         style="fill:#ffffff;stroke:none"
         sodipodi:type="arc" />
      <g
         id="g4489">
        <path
           transform="matrix(2.6369357,-0.63539169,0.63539169,2.6369357,-319.54933,-85.207623)"
           d="m 461.72533,178.59187 c 0,14.13347 -5.60683,25.59091 -12.52321,25.59091 -6.91638,0 -12.52321,-11.45744 -12.52321,-25.59091 0,-14.13347 5.60683,-25.59091 12.52321,-25.59091 6.91638,0 12.52321,11.45744 12.52321,25.59091 z"
           sodipodi:ry="25.59091"
           sodipodi:rx="12.523211"
           sodipodi:cy="178.59187"
           sodipodi:cx="449.20212"
           id="path4451"
           style="fill:url(#linearGradient4487);fill-opacity:1;stroke:none"
           sodipodi:type="arc" />
        <g
           id="g4441"
           clip-path="url(#clipPath4447)"
           transform="matrix(2.701624,-0.24162054,0.24162054,2.701624,-271.19122,-277.24306)">
          <path
             inkscape:connector-curvature="0"
             id="path3889"
             d="m 448.53753,192.81216 -4.04262,-0.77002 -0.57751,15.40043 6.73769,1.92505 z"
             style="fill:#8f4dd3;fill-opacity:1;stroke:none" />
          <path
             inkscape:connector-curvature="0"
             id="path3887"
             d="m 442.95487,190.88711 -1.54004,12.70535 4.42762,4.23512 -0.1925,-15.59293 z"
             style="fill:#62289e;fill-opacity:1;stroke:none" />
        </g>
        <path
           transform="matrix(2.6568902,-0.54597364,0.54597364,2.6568902,-312.82413,-140.11787)"
           d="m 459.57095,178.59187 c 0,12.94364 -4.64228,23.43653 -10.36883,23.43653 -5.72655,0 -10.36883,-10.49289 -10.36883,-23.43653 0,-12.94364 4.64228,-23.43653 10.36883,-23.43653 5.72655,0 10.36883,10.49289 10.36883,23.43653 z"
           sodipodi:ry="23.436531"
           sodipodi:rx="10.368832"
           sodipodi:cy="178.59187"
           sodipodi:cx="449.20212"
           id="path3900"
           style="fill:#000000;stroke:none;stroke-width:0.36867622000000000;stroke-miterlimit:4;stroke-dasharray:none"
           sodipodi:type="arc" />
        <path
           sodipodi:type="arc"
           style="fill:#ffffff;stroke:none"
           id="path3787"
           sodipodi:cx="446.1312"
           sodipodi:cy="196.95103"
           sodipodi:rx="4.1388655"
           sodipodi:ry="9.2461929"
           d="m 450.27006,196.95103 c 0,5.10654 -1.85303,9.2462 -4.13886,9.2462 -2.28584,0 -4.13887,-4.13966 -4.13887,-9.2462 0,-5.10653 1.85303,-9.24619 4.13887,-9.24619 2.28583,0 4.13886,4.13966 4.13886,9.24619 z"
           transform="matrix(2.6527705,-0.5656512,0.5656512,2.6527705,-337.9069,-190.44136)" />
        <path
           sodipodi:type="arc"
           style="fill:#ffffff;stroke:none"
           id="path3789"
           sodipodi:cx="451.52136"
           sodipodi:cy="210.81142"
           sodipodi:rx="1.828801"
           sodipodi:ry="3.368844"
           d="m 453.35016,210.81142 c 0,1.86056 -0.81878,3.36884 -1.8288,3.36884 -1.01002,0 -1.8288,-1.50828 -1.8288,-3.36884 0,-1.86056 0.81878,-3.36885 1.8288,-3.36885 1.01002,0 1.8288,1.50829 1.8288,3.36885 z"
           transform="matrix(2.6301529,-0.66290904,0.66290904,2.6301529,-350.61817,-143.1053)" />
      </g>
    </g>
    <path
       style="fill:#1c92cd;fill-opacity:1;stroke:none"
       d="m 823.15068,346.06897 c 20.38657,71.81955 81.32088,247.10962 -70.65691,299.03405 -97.0544,33.15943 -164.71964,2.30901 -184.00314,-110.38325 0.18658,124.19104 95.71404,153.40129 186.83393,121.50935 160.73632,-56.25771 99.10674,-240.39822 80.45141,-309.46976 z"
       id="path2995"
       inkscape:connector-curvature="0"
       sodipodi:nodetypes="cscscc" />
    <path
       style="fill:#1c92cd;fill-opacity:1;stroke:none"
       d="m 626.6866,648.78751 c -67.31778,161.51048 26.16726,301.55732 22.23334,312.25801 -6.60048,17.95405 -110.80407,21.87775 -131.9994,0.0403 -17.16813,-17.68825 -40.14139,-180.54903 12.21917,-302.09362 1.49411,-3.46827 14.97258,-3.4758 18.97714,-0.49621 l -3.57498,-11.9209 c 0,0 -19.21011,-2.4904 -21.72186,2.94987 -54.54515,118.14117 -39.95755,293.64766 -13.67675,319.92844 29.54679,29.54678 145.07482,19.25743 152.85766,-2.14537 5.40259,-14.85708 -94.22939,-144.42865 -24.67175,-313.76048 z"
       id="path2999"
       inkscape:connector-curvature="0"
       sodipodi:nodetypes="csssccssscc" />
    <path
       style="fill:#1c92cd;fill-opacity:1;stroke:none"
       d="m 547.88437,669.23181 c -4.72751,-46.13986 -82.25395,-151.37088 -14.94024,-267.96165 31.88928,-55.23385 153.22986,-15.35705 153.22986,-15.35705 l -2.71936,14.48052 c 0,0 -112.35483,-44.20844 -141.59447,6.43611 -73.11286,126.63518 25.50951,221.56715 6.02421,262.40207 z"
       id="path3001"
       inkscape:connector-curvature="0"
       sodipodi:nodetypes="csccsc" />
    <path
       style="fill:#1c92cd;fill-opacity:1;stroke:none"
       d="m 797.04739,343.2048 c 137.81134,8.94642 194.54206,-35.1437 194.54206,-35.1437 -26.93161,0.70924 -51.42933,-6.36822 -45.46639,-58.04136 11.28521,3.25823 32.74394,6.51201 44.39454,6.51201 41.3957,0 44.4711,-18.65349 38.7045,-45.23823 -2.0004,-9.22185 -37.31202,3.77475 -45.5099,-15.06938 19.7549,8.80345 52.5707,-3.43101 54.5752,8.83429 1.9244,11.77485 14.1525,59.71652 -47.51589,60.05569 -13.09896,0.072 -25.85895,-1.67099 -37.23692,-4.96315 -6.94,44.53814 39.52624,47.58862 63.34461,37.85067 -45.38166,49.77402 -161.011,64.36732 -219.83181,45.20316 z"
       id="path3007"
       inkscape:connector-curvature="0"
       sodipodi:nodetypes="cccsscssccc" />
    <path
       style="fill:#1c92cd;fill-opacity:1;stroke:none"
       d="m 990.56323,222.35495 c 3.27026,13.49321 14.32757,17.53046 19.99527,3.19349 0,0 -10.88058,8.96276 -19.99527,-3.19349 z"
       id="path3902"
       inkscape:connector-curvature="0"
       sodipodi:nodetypes="ccc" />
    <path
       style="fill:#f3a4d9;fill-opacity:1;stroke:#d91e9b;stroke-width:9.49342537000000060;stroke-linecap:butt;stroke-linejoin:miter;stroke-miterlimit:10;stroke-opacity:1;stroke-dasharray:none"
       d="m 630.02395,175.26896 c -57.84572,105.83221 -65.7254,334.0094 62.98221,405.0519 l -16.98026,-47.90203 92.94538,12.34262 C 658.75879,470.24072 630.60224,322.66965 644.53925,185.45861 z"
       id="path3904"
       inkscape:connector-curvature="0"
       sodipodi:nodetypes="cccccc" />
    <path
       sodipodi:type="arc"
       style="fill:#ffffff;stroke:none"
       id="path3120"
       sodipodi:cx="394.48114"
       sodipodi:cy="221.06189"
       sodipodi:rx="36.752903"
       sodipodi:ry="27.768858"
       d="m 431.23404,221.06189 c 0,15.33632 -16.45483,27.76886 -36.7529,27.76886 -20.29807,0 -36.7529,-12.43254 -36.7529,-27.76886 0,-15.33632 16.45483,-27.76886 36.7529,-27.76886 20.29807,0 36.7529,12.43254 36.7529,27.76886 z"
       transform="matrix(1.8179632,2.0129986,-2.0129986,1.8179632,569.56942,-998.5814)" />
    <g
       id="g4419"
       clip-path="url(#clipPath4431)"
       transform="matrix(2.7041127,0.21196198,-0.21196198,2.7041127,-167.04199,-477.63869)">
      <path
         sodipodi:type="arc"
         style="fill:url(#linearGradient4441);fill-opacity:1;stroke:none"
         id="path4409"
         sodipodi:cx="404.82642"
         sodipodi:cy="227.86798"
         sodipodi:rx="21.594358"
         sodipodi:ry="29.366409"
         d="m 426.42077,227.86798 c 0,16.21862 -9.66812,29.36641 -21.59435,29.36641 -11.92624,0 -21.59436,-13.14779 -21.59436,-29.36641 0,-16.21862 9.66812,-29.36641 21.59436,-29.36641 11.92623,0 21.59435,13.14779 21.59435,29.36641 z"
         transform="matrix(0.84980481,-0.52709751,0.52709751,0.84980481,-67.731539,227.81362)" />
      <g
         clip-path="url(#clipPath4405)"
         id="g4399">
        <path
           style="fill:#8f4dd3;fill-opacity:1;stroke:none"
           d="m 394.0585,219.57041 -5.19764,18.28801 14.82291,4.04261 -2.69507,-20.98308 z"
           id="path3795"
           inkscape:connector-curvature="0" />
        <path
           style="fill:#62289e;fill-opacity:1;stroke:none"
           d="m 382.12317,230.1582 9.04775,-12.32034 5.19765,2.50257 -4.04261,18.48052 z"
           id="path3793"
           inkscape:connector-curvature="0" />
      </g>
      <path
         transform="matrix(0.88708029,-0.46161517,0.46161517,0.88708029,-50.977241,200.52694)"
         d="m 414.4332,210.98888 c 0,12.6939 -7.95774,22.98435 -17.77411,22.98435 -9.81637,0 -17.77411,-10.29045 -17.77411,-22.98435 0,-12.69391 7.95774,-22.98436 17.77411,-22.98436 9.81637,0 17.77411,10.29045 17.77411,22.98436 z"
         sodipodi:ry="22.984352"
         sodipodi:rx="17.774107"
         sodipodi:cy="210.98888"
         sodipodi:cx="396.65909"
         id="path3894"
         style="fill:#000000;stroke:none"
         sodipodi:type="arc" />
      <path
         transform="matrix(0.97175907,-0.23597523,0.23597523,0.97175907,-55.581234,84.340491)"
         d="m 408.11141,218.12662 c 0,6.85749 -3.70607,12.41659 -8.27773,12.41659 -4.57167,0 -8.27773,-5.5591 -8.27773,-12.41659 0,-6.8575 3.70606,-12.4166 8.27773,-12.4166 4.57166,0 8.27773,5.5591 8.27773,12.4166 z"
         sodipodi:ry="12.416596"
         sodipodi:rx="8.2777309"
         sodipodi:cy="218.12662"
         sodipodi:cx="399.83368"
         id="path3783"
         style="fill:#ffffff;stroke:none"
         sodipodi:type="arc" />
      <path
         transform="matrix(0.96619636,-0.25780729,0.25780729,0.96619636,-61.457591,95.508998)"
         d="m 416.19663,232.08325 c 0,2.02004 -1.33591,3.6576 -2.98383,3.6576 -1.64793,0 -2.98383,-1.63756 -2.98383,-3.6576 0,-2.02004 1.3359,-3.6576 2.98383,-3.6576 1.64792,0 2.98383,1.63756 2.98383,3.6576 z"
         sodipodi:ry="3.6576021"
         sodipodi:rx="2.9838333"
         sodipodi:cy="232.08325"
         sodipodi:cx="413.2128"
         id="path3785"
         style="fill:#ffffff;stroke:none"
         sodipodi:type="arc" />
    </g>
    <path
       style="fill:#000000;stroke:none"
       d="M 924.21416,192.74043 C 909.99748,131.21881 826.58269,85.798804 781.55239,112.30849 c -37.80017,-48.916298 -37.61646,-49.07948 -6.74234,4.76386 -6.03815,5.07122 -11.10823,11.78864 -14.85931,20.33441 -57.75487,-29.3867 -57.90666,-29.60257 -4.03586,7.64053 -3.63288,7.00964 -5.39011,14.21941 -6.66067,22.28647 -64.45649,-4.77804 -64.43187,-4.84291 6.00112,7.55756 11.44076,-106.415284 137.56965,-65.89322 168.95883,17.84911 z"
       id="path4435"
       inkscape:connector-curvature="0"
       sodipodi:nodetypes="cccccccc" />
    <path
       style="fill:#000000;stroke:none"
       d="M 983.7122,196.22414 C 933.50815,144.60018 926.08292,41.002788 960.77064,40.58098 l -3.57219,-4.210034 C 925.32257,40.526027 921.24902,139.15077 983.7122,196.22414 z"
       id="path4477"
       inkscape:connector-curvature="0"
       sodipodi:nodetypes="cccc" />
    <path
       style="fill:none;stroke:#1c92cd;stroke-width:5.42481469999999980;stroke-linecap:butt;stroke-linejoin:miter;stroke-miterlimit:4;stroke-opacity:1;stroke-dasharray:none"
       d="M 1008.2291,205.64443 C 1012.0629,103.8871 945.99778,-22.757798 865.19257,-24.846405 813.01648,-26.195014 677.97165,-6.6495693 658.38661,113.74553 635.99835,251.37291 669.6186,365.42327 669.6186,365.42327"
       id="path3011"
       inkscape:connector-curvature="0"
       sodipodi:nodetypes="cssc" />
    <path
       style="fill:#961370;fill-opacity:1;stroke:#d91e9b;stroke-width:9.49342537000000060;stroke-linecap:butt;stroke-linejoin:miter;stroke-miterlimit:10;stroke-opacity:1;stroke-dasharray:none"
       d="M 791.37066,475.08179 716.14313,405.47648 764.4515,381.33926 C 696.82171,368.40616 648.11109,276.99687 651.31188,181.53478 l -13.29186,-2.34196 c -41.50659,254.60007 31.84487,318.95145 153.35064,295.88897 z"
       id="path3906"
       inkscape:connector-curvature="0"
       sodipodi:nodetypes="cccccc" />
    <path
       style="fill:#000000;stroke:none;stroke-width:0.10000000000000001;stroke-miterlimit:4;stroke-dasharray:none"
       d="m 965.85274,56.545363 3.67429,4.892044 c 36.39197,-29.969686 36.38627,-29.969632 -3.67429,-4.892044 z"
       id="path4479"
       inkscape:connector-curvature="0"
       sodipodi:nodetypes="ccc" />
    <path
       sodipodi:nodetypes="ccc"
       inkscape:connector-curvature="0"
       id="path4517"
       d="m 959.78968,50.599525 5.15303,3.298314 c 23.61426,-40.803556 23.60898,-40.801547 -5.15303,-3.298314 z"
       style="fill:#000000;stroke:none;stroke-width:0.10000000000000001;stroke-miterlimit:4;stroke-dasharray:none" />
    <path
       style="fill:#000000;stroke:none;stroke-width:0.10000000000000001;stroke-miterlimit:4;stroke-dasharray:none"
       d="m 950.86643,46.207985 5.96986,1.339307 c 8.25277,-46.4160967 8.24849,-46.4123801 -5.96986,-1.339307 z"
       id="path4523"
       inkscape:connector-curvature="0"
       sodipodi:nodetypes="ccc" />
    <path
       style="fill:#961370;fill-opacity:1;stroke:#d91e9b;stroke-width:9.49342537000000060;stroke-linecap:butt;stroke-linejoin:miter;stroke-miterlimit:20;stroke-opacity:1;stroke-dasharray:none"
       d="M 918.8048,-30.597225 861.94525,90.506281 785.88638,53.584478 790.07619,115.01106 C 727.89029,30.124922 692.5616,30.247305 665.62168,67.715115 L 641.15292,43.246382 C 667.63135,-25.282913 812.11738,-69.349251 918.8048,-30.597225 z"
       id="path3914"
       inkscape:connector-curvature="0"
       sodipodi:nodetypes="ccccccc" />
    <path
       style="fill:#f3a4d9;fill-opacity:1;stroke:#d91e9b;stroke-width:9.49342537000000060;stroke-linecap:butt;stroke-linejoin:miter;stroke-miterlimit:20;stroke-opacity:1;stroke-dasharray:none"
       d="m 650.01418,49.153896 c 6.25429,-97.013774 253.48338,-61.241163 343.54922,-18.179963 l -4.10955,-74.662292 70.40825,34.3653311 C 1015.182,-158.70354 649.34892,-122.29666 629.33799,31.431407 z"
       id="path3118"
       inkscape:connector-curvature="0"
       sodipodi:nodetypes="cccccc" />
    <g
       id="g4527"
       clip-path="url(#clipPath3854)"
       transform="matrix(2.7124072,0,0,2.7124072,-263.15506,-398.33824)">
      <path
         sodipodi:nodetypes="cscc"
         inkscape:connector-curvature="0"
         id="path3013"
         d="m 396.4521,146.44191 c 0,0 24.56731,-49.177486 32.72591,-45.43126 8.85155,4.06441 -10.01028,62.75675 -10.01028,62.75675 z"
         style="fill:#6dc6fb;fill-opacity:1;stroke:#1c92cd;stroke-width:3.5;stroke-linecap:butt;stroke-linejoin:miter;stroke-miterlimit:4;stroke-opacity:1;stroke-dasharray:none" />
      <path
         sodipodi:nodetypes="cccccc"
         inkscape:connector-curvature="0"
         id="path4525"
         d="m 419.84465,108.15356 c 0.35355,11.66727 4.06586,14.31892 10.25305,12.72793 l -3.18199,15.02602 c 0,0 -14.49568,6.18718 -14.49568,-17.14734 l -8.13173,13.6118 c -0.89079,15.89118 6.37075,23.9631 17.91176,21.92031"
         style="fill:none;stroke:#1c92cd;stroke-width:1px;stroke-linecap:butt;stroke-linejoin:miter;stroke-opacity:1" />
    </g>
    <path
       style="fill:#6dc6fb;fill-opacity:1;stroke:none"
       d="M 662.18973,214.23866 691.57784,55.722658 c 0,0 -42.81654,-68.924192 -94.50968,-75.190016 -50.59813,82.329181 4.35556,200.619348 65.12157,233.706018 z"
       id="path3824"
       inkscape:connector-curvature="0"
       sodipodi:nodetypes="cccc" />
    <path
       style="fill:#1c92cd;fill-opacity:1;stroke:none"
       d="M 668.62741,218.28243 C 587.50373,197.69648 538.08581,48.243168 595.20103,-24.894613 c 0,0 68.54784,8.577092 101.43445,89.276523 -31.25751,-50.752995 -79.91843,-75.202471 -96.95654,-78.10561 -35.79902,47.390543 -27.67412,169.17758 68.94847,232.00613 z"
       id="path3003"
       inkscape:connector-curvature="0"
       sodipodi:nodetypes="ccccc" />
    <path
       style="fill:#1c92cd;fill-opacity:1;stroke:none"
       d="M 611.62579,48.173432 C 610.47652,115.02811 658.41601,153.91183 658.41601,153.91183 620.04288,103.76072 611.62579,48.173432 611.62579,48.173432 z"
       id="path3005"
       inkscape:connector-curvature="0"
       sodipodi:nodetypes="ccc" />
    <path
       style="fill:#6dc6fb;fill-opacity:1;stroke:none"
       d="m 654.29363,646.33903 c -31.64458,58.70671 -46.49267,271.1458 -3.79252,353.46247 19.88609,19.5547 144.87409,20.4796 153.97614,-1.51699 9.10203,-21.9966 -66.7483,-54.61223 -77.36732,-352.70398 z"
       id="path3831"
       inkscape:connector-curvature="0"
       sodipodi:nodetypes="ccsc" />
    <path
       style="fill:#1c92cd;fill-opacity:1;stroke:none"
       d="m 663.8492,627.35278 c -55.4895,121.6658 -29.38116,345.73451 -10.47856,365.42539 20.40842,21.25953 137.89453,21.02423 143.1161,1.53708 6.71152,-25.04771 -73.39929,-80.24073 -72.28645,-361.25563 0,0 9.73614,16.49812 9.73614,23.13993 0,236.15102 81.32757,316.93769 75.85033,342.08496 -7.0598,32.41299 -142.97397,26.17219 -163.07817,6.06799 -24.68502,-24.68501 -52.86098,-272.98302 17.14061,-376.99972 z"
       id="path2997"
       inkscape:connector-curvature="0"
       sodipodi:nodetypes="csscsssc" />
    <g
       transform="matrix(0.06051988,0.00491542,-0.01188961,0.14638779,519.94075,400.73016)"
       id="g4285">
      <path
         transform="translate(0,28.362168)"
         d="m 576,512 c 0,35.34622 -28.65378,64 -64,64 -35.34622,0 -64,-28.65378 -64,-64 0,-35.34622 28.65378,-64 64,-64 35.34622,0 64,28.65378 64,64 z"
         sodipodi:ry="64"
         sodipodi:rx="64"
         sodipodi:cy="512"
         sodipodi:cx="512"
         id="path3761"
         style="color:#000000;fill:none;stroke:#000000;stroke-width:8;stroke-linecap:round;stroke-linejoin:round;stroke-miterlimit:4;stroke-opacity:1;stroke-dasharray:none;marker:none;visibility:visible;display:inline;overflow:visible;enable-background:accumulate"
         sodipodi:type="arc" />
      <path
         style="fill:none;stroke:#000000;stroke-width:8;stroke-linecap:round;stroke-linejoin:round;stroke-miterlimit:4;stroke-opacity:1;stroke-dasharray:none"
         d="m 512,476.36217 0,-320"
         id="path3011-1"
         inkscape:connector-curvature="0" />
      <path
         style="fill:none;stroke:#000000;stroke-width:8;stroke-linecap:round;stroke-linejoin:round;stroke-miterlimit:4;stroke-opacity:1;stroke-dasharray:none"
         d="m 567.42563,508.36217 277.12813,-160"
         id="path3781"
         inkscape:connector-curvature="0" />
      <path
         style="fill:none;stroke:#000000;stroke-width:8;stroke-linecap:round;stroke-linejoin:round;stroke-miterlimit:4;stroke-opacity:1;stroke-dasharray:none"
         d="m 567.42563,572.36217 277.12813,160"
         id="path3783-7"
         inkscape:connector-curvature="0" />
      <path
         style="fill:none;stroke:#000000;stroke-width:8;stroke-linecap:round;stroke-linejoin:round;stroke-miterlimit:4;stroke-opacity:1;stroke-dasharray:none"
         d="m 512,604.36217 0,320"
         id="path3785-4"
         inkscape:connector-curvature="0" />
      <path
         style="fill:none;stroke:#000000;stroke-width:8;stroke-linecap:round;stroke-linejoin:round;stroke-miterlimit:4;stroke-opacity:1;stroke-dasharray:none"
         d="m 456.57437,572.36217 -277.12813,160"
         id="path3787-0"
         inkscape:connector-curvature="0" />
      <path
         style="fill:none;stroke:#000000;stroke-width:8;stroke-linecap:round;stroke-linejoin:round;stroke-miterlimit:4;stroke-opacity:1;stroke-dasharray:none"
         d="m 456.57437,508.36217 -277.12813,-160"
         id="path3789-9"
         inkscape:connector-curvature="0" />
    </g>
  </g>
</svg>
