<svg xmlns="http://www.w3.org/2000/svg" xmlns:inkscape="http://www.inkscape.org/namespaces/inkscape" xmlns:sodipodi="http://sodipodi.sourceforge.net/DTD/sodipodi-0.dtd" xmlns:xlink="http://www.w3.org/1999/xlink" height="600" viewBox="0 0 900 600" width="900">
  <defs>
    <linearGradient id="linearGradient4676">
      <stop offset="0" stop-color="#30217c" />
      <stop offset="1" stop-color="#9284d8" />
    </linearGradient>
    <linearGradient id="linearGradient5996">
      <stop offset="0" stop-color="#63dfb7" stop-opacity=".25" />
      <stop offset="0.36156914" stop-color="#63dfb7" stop-opacity=".75" />
      <stop offset="0.62980443" stop-color="#63dfb7" stop-opacity=".75" />
      <stop offset="1" stop-color="#63dfb7" stop-opacity=".25" />
    </linearGradient>
    <filter color-interpolation-filters="sRGB" height="1.0470998" id="filter6210" width="1.0541975" x="-0.027098766" y="-0.023549899">
      <feGaussianBlur stdDeviation="1.1902022" />
    </filter>
    <linearGradient gradientUnits="userSpaceOnUse" id="linearGradient4671" x1="510.20844" x2="511.47089" y1="910.22559" y2="959.19354" xlink:href="#linearGradient4676" />
    <inkscape:path-effect effect="powerstroke" end_linecap_type="zerowidth" id="path-effect9989" interpolator_type="CubicBezierSmooth" offset_points="0.175,14 | 1.6,14" start_linecap_type="zerowidth" />
    <clipPath id="clipPath11023">
      <use xlink:href="#path7839-6-3" />
    </clipPath>
    <clipPath id="clipPath10842">
      <use xlink:href="#ellipse7641-5-6" />
    </clipPath>
    <linearGradient id="linearGradient10826">
      <stop offset="0" stop-color="#230f38" />
      <stop offset="1" stop-color="#5c2594" />
    </linearGradient>
    <inkscape:path-effect effect="powerstroke" end_linecap_type="zerowidth" id="path-effect9999" interpolator_type="CubicBezierSmooth" offset_points="0.175,14 | 1.6,14" start_linecap_type="zerowidth" />
    <clipPath id="clipPath11039">
      <use xlink:href="#ellipse9615-1" />
    </clipPath>
    <clipPath id="clipPath11007">
      <use xlink:href="#ellipse10939" />
    </clipPath>
    <clipPath id="clipPath12318">
      <path d="m 1074.3216,186.98923 c 93.2293,-124.401071 294.88,18.79291 453.5787,5.61775 -88.4364,-582.26992 -418.3646,-580.80928 -453.5787,-5.61775 z" />
    </clipPath>
    <inkscape:path-effect effect="powerstroke" id="path-effect12636" offset_points="2.5,13.274074" />
    <inkscape:path-effect effect="powerstroke" end_linecap_type="zerowidth" id="path-effect12352" interpolator_type="CubicBezierSmooth" offset_points="1.6,14" />
    <linearGradient gradientTransform="matrix(6.8988459,0,0,6.8988459,-5577.7533,-2528.9086)" gradientUnits="userSpaceOnUse" id="linearGradient7161" x1="960.64777" x2="958.57532" y1="467.06796" y2="496.82239" xlink:href="#linearGradient10826" />
    <linearGradient gradientTransform="matrix(6.8988459,0,0,6.8988459,-8245.6759,-2939.0264)" gradientUnits="userSpaceOnUse" id="linearGradient7163" x1="961.22986" x2="959.08508" y1="466.6362" y2="497.33759" xlink:href="#linearGradient10826" />
    <clipPath id="clipPath7286">
      <path d="m 485.04492,124.97266 c -93.05047,-0.25779 -135.42111,124.07209 -43.53125,171.00195 -9.7287,-7.66653 -17.16466,-19.23707 -20.93164,-32.95899 -5.30738,-19.37592 -2.2558,-40.19043 8.38477,-57.11914 l 2.20703,1.39258 c -10.25577,16.29521 -13.19701,36.36937 -8.08203,55.03906 3.80758,13.85794 11.82424,25.76555 21.97851,33.03516 -17.187,-18.85309 -10.19592,-49.27977 16.47071,-61.2832 17.6068,-7.91884 31.82912,-40.51178 18.80468,-60.76758 -11.63071,-18.09249 -8.67859,-37.6229 11.6875,-48.08984 -2.35948,-0.16152 -4.68939,-0.24363 -6.98828,-0.25 z m -50.5625,55.27929 8.08594,7.48828 10.25586,-4.04296 -4.61133,10.00976 7.00195,8.50586 -10.94336,-1.29297 -5.91992,9.29297 -2.14453,-10.81445 -10.67773,-2.75782 9.625,-5.39062 z m -137.7168,25.76172 c -36.61087,90.99943 71.94298,175.49835 146.7754,100.82227 -10.29667,6.87925 -23.59694,10.37232 -37.80664,9.71484 -20.0677,-0.93988 -38.92038,-10.27591 -51.73243,-25.62695 l 2.00782,-1.66797 c 12.32845,14.78931 30.50915,23.78875 49.8457,24.69336 14.36025,0.66129 28.16805,-3.28469 38.2207,-10.69922 -23.24378,10.52917 -50.02716,-5.52073 -53.20312,-34.5957 -2.09047,-19.19212 -28.69325,-42.79166 -51.98243,-36.66407 -20.80106,5.47058 -38.46381,-3.3728 -42.125,-25.97656 z m 241.13672,7.47656 c -39.58349,-0.15297 -78.35398,24.81158 -86.69922,77.20313 4.28368,-11.62527 12.99171,-22.27674 24.88086,-30.10156 16.78754,-11.03511 37.52579,-14.5643 56.91407,-9.67578 l -0.64258,2.53125 c -18.66688,-4.71832 -38.66648,-1.31357 -54.8418,9.32031 -12.00218,7.90299 -20.84848,19.20663 -24.625,31.10937 12.62019,-22.16944 43.71545,-24.92288 63.3711,-3.27148 12.97206,14.298 48.36387,17.75378 63.60351,-0.89258 13.61289,-16.65235 33.09954,-19.88093 49.34766,-3.74609 -11.89396,-47.40752 -51.99916,-72.32465 -91.3086,-72.47657 z m 2.83789,31.29688 8.09961,7.48828 10.25391,-4.03711 -4.625,10.00391 7.01367,8.5039 -10.94336,-1.29101 -5.92578,9.28711 -2.15234,-10.80664 -10.66797,-2.75977 9.62109,-5.38086 z m -200.47656,16.58789 8.09375,7.47852 10.25196,-4.03125 -4.61133,10.00781 7.00976,8.50195 -10.94726,-1.30273 -5.92383,9.30273 -2.15039,-10.81836 -10.66992,-2.75976 9.62109,-5.37696 z m 136.95703,35.48242 c -5.75066,-0.0293 -11.75153,0.42885 -17.98632,1.41016 12.37639,0.48429 25.19235,5.47483 36.30468,14.36133 15.68265,12.55586 25.44703,31.18868 26.78906,51.13867 l -2.60546,0.17187 c -1.28099,-19.21129 -10.69867,-37.17975 -25.81055,-49.27734 -11.22806,-8.975 -24.71696,-13.89763 -37.20703,-13.80859 24.99146,5.14575 37.22492,33.87184 22.70508,59.25976 -9.58962,16.75549 -1.93915,51.48509 20.5039,60.2168 20.04395,7.80077 29.13475,25.33657 18.81055,45.77539 C 596.87267,417.1135 567.80136,297.319 477.2207,296.85742 Z m -25.95898,9.78906 c 2.82478,25.35585 -20.7156,45.86385 -49.3457,39.9004 -18.89878,-3.94255 -49.56257,14.06456 -50.93164,38.10742 -1.22506,21.47349 -15.09384,35.54007 -37.72266,32.03711 75.23516,62.94185 189.1495,-14.19621 141.23828,-108.44727 3.36441,11.92084 2.57849,25.65345 -2.43945,38.96875 -7.09512,18.79505 -21.79857,33.84001 -40.35743,41.28125 l -0.96679,-2.42578 c 17.87518,-7.15491 32.05496,-21.66478 38.89062,-39.77539 5.06529,-13.44988 5.57737,-27.79649 1.63477,-39.64649 z m 60.9375,59.14649 8.08984,7.48828 10.26172,-4.04492 -4.61914,10.01758 7.00781,8.5039 -10.94336,-1.30664 -5.91992,9.29883 -2.15429,-10.80664 -10.66211,-2.76563 9.61132,-5.38671 z m -123.89649,10.25391 8.09375,7.47851 10.25196,-4.04101 -4.6211,10.00976 7.01563,8.50977 -10.95313,-1.29688 -5.92382,9.29297 -2.13868,-10.8125 -10.67382,-2.75781 9.61523,-5.38672 z" />
    </clipPath>
  </defs>
  <rect fill="#de2910" height="600" width="900" />
  <use opacity=".15" xlink:href="#g12646" />
  <g clip-path="url(#clipPath7286)">
    <g id="g12646" transform="translate(-242.01822 1.6113664)scale(.5072699)">
      <path d="m 1202.1828,886.99051 c -1.0336,109.39558 -10.1967,227.64729 -24.8799,335.48169 -13.7396,100.9045 350.125,87.6739 337.8107,10.094 -16.8233,-105.9871 -19.141,-227.9565 -19.141,-341.51418 0,-45.29826 -293.2968,-56.23873 -293.7898,-4.06151 z" fill="#6dc6fb" stroke="#1c92cd" stroke-width="28" />
      <g>
        <path d="m 1663.6948,535.34243 c 9.0905,218.00714 -129.6614,442.53976 -318.7701,535.84347 53.1823,16.2239 108.3874,18.1331 164.1438,4.8221 -90.3716,85.9594 -117.2671,202.4086 -61.4264,315.5053 9.9886,-75.8937 41.998,-136.286 94.544,-174.8447 -24.1761,113.4517 13.0274,244.1451 113.8706,318.5986 -84.225,-330.5047 156.7129,-582.7584 69.4673,-1108.71281 z" fill="#f3a4d9" />
        <path d="m 1663.6948,535.34243 c 9.0905,218.00714 -129.6614,442.53976 -318.7701,535.84347 53.1823,16.2239 108.3874,18.1331 164.1438,4.8221 -90.3716,85.9594 -117.2671,202.4086 -61.4264,315.5053 -30.4058,-166.1721 103.2709,-229.9819 157.7276,-339.8061 97.3365,-196.3011 115.2456,-405.48041 91.7625,-575.19772 z" fill="#961370" />
        <path d="m 1663.6948,535.34243 c 9.0905,218.00714 -129.6614,442.53976 -318.7701,535.84347 53.1823,16.2239 108.3874,18.1331 164.1438,4.8221 -90.3716,85.9594 -117.2671,202.4086 -61.4264,315.5053 9.9886,-75.8937 41.998,-136.286 94.544,-174.8447 -24.1761,113.4517 13.0274,244.1451 113.8706,318.5986 -84.225,-330.5047 156.7129,-582.7584 69.4673,-1108.71281 z" style="stroke-miterlimit:20;fill:none;stroke:#d91e9b;stroke-width:28" />
      </g>
      <ellipse cx="1357.0543" cy="565.84619" fill="#6dc6fb" rx="346.92523" ry="404.94089" stroke="#1c92cd" stroke-width="27.99999809" />
      <g>
        <path d="m 1033.3104,572.65168 c -188.41979,-223.83266 -14.0267,-467.89439 17.9556,-467.85822 29.8872,0.0336 103.0725,129.57874 96.2816,252.60898 z" fill="#6dc6fb" />
        <path fill="#1c92cd" inkscape:original-d="m 1033.3104,572.65168 c -188.41979,-223.83266 -14.0267,-467.89439 17.9556,-467.85822 29.8872,0.0336 103.0725,129.57874 96.2816,252.60898" inkscape:path-effect="#path-effect9989" />
        <path d="m 1044.7405,215.35514 c -39.407,66.37421 -45.77168,154.32136 -8.4621,231.00801 -20.6675,-77.63678 -15.4153,-160.22126 8.4621,-231.00801 z" fill="#1c92cd" />
      </g>
      <g transform="translate(-2.6038047)">
        <g clip-path="url(#clipPath11023)">
          <ellipse cx="1044.0171" cy="796.51996" fill="#fff" id="path7839-6-3" rx="111.54511" ry="188.41747" transform="rotate(-9.2556659)" />
          <g clip-path="url(#clipPath10842)" transform="translate(2)">
            <ellipse cx="1078.5789" cy="802.18738" fill="url(#linearGradient7161)" id="ellipse7641-5-6" rx="98.26313" ry="147.67946" transform="rotate(-9.0796272)" />
            <path d="m 1071.3617,693.3296 137.5822,-64.45984 -75.3188,136.27127 z" fill="#8f4dd3" />
            <path d="m 1070.5076,652.99702 138.4363,-24.12726 -118.7452,88.90404 z" fill="#62289e" />
            <ellipse cx="1105.0654" cy="786.65924" rx="79.843994" ry="116.39193" transform="rotate(-8.271178)" />
            <ellipse cx="1271.9814" cy="141.98466" fill="#fff" rx="36.892323" ry="57.697342" transform="rotate(19.934528)" />
            <ellipse cx="1340.1968" cy="13.421233" fill="#fff" rx="13.304666" ry="19.450739" transform="rotate(27.422048)" />
          </g>
        </g>
        <path d="m 1048.6435,527.05918 c -76.1665,-31.0543 -80.7494,-22.1388 -5.4807,13.422 z m 213.1307,198.8046 c 80.4872,-234.5979 -164.3545,-445.4562 -227.5841,-177.6197 -69.6532,-12.4459 -71.2325,-0.1145 10.898,17.2345 44.9526,-243.0471 255.8764,-101.1012 216.6861,160.3852 z m -202.2568,-220.0623 c -68.6375,-45.3275 -74.8729,-37.4783 -7.9956,12.0936 z" />
      </g>
      <path d="m 1322.4037,793.73519 c -12.8245,-4.18092 -18.2053,-12.12132 -17.0904,-24.94724 -13.9876,13.19182 -3.9369,32.52199 17.0904,24.94724 z m 80.9932,1.99867 c 13.092,-4.98355 17.9366,-13.19159 16.5542,-25.21476 15.0581,11.319 3.937,32.25459 -16.5542,25.21476 z m -105.4853,-58.50001 c 37.7683,-32.14371 92.6071,-32.31705 129.1999,3.30699 -43.4957,-19.40173 -86.4204,-20.4689 -129.1999,-3.30699 z m -48.2887,109.58773 c 65.3797,62.49802 162.2682,63.54371 222.3823,0.0915 -50.5381,83.84364 -168.4866,82.09472 -222.3823,-0.0915 z" fill="#1c92cd" />
      <g>
        <path d="m 1682.9274,572.65168 c 181.1284,-235.49879 11.4863,-465.37044 -19.4139,-466.82709 -30.9345,-1.45826 -105.9891,127.08933 -102.1148,248.66133 z" fill="#6dc6fb" />
        <path d="m 1667.8982,218.56453 c 39.2828,67.56796 43.6769,152.4727 5.4133,233.63754 20.9277,-79.4941 17.579,-165.38673 -5.4133,-233.63754 z" fill="#1c92cd" />
        <path fill="#1c92cd" inkscape:original-d="m 1682.9274,572.65168 c 181.1284,-235.49879 11.4863,-465.37044 -19.4139,-466.82709 -30.9345,-1.45826 -105.9891,127.08933 -102.1148,248.66133" inkscape:path-effect="#path-effect9999" />
      </g>
      <g transform="translate(4.0180183)">
        <g clip-path="url(#clipPath11039)">
          <ellipse cx="1632.9146" cy="374.96893" fill="#fff" id="ellipse9615-1" rx="111.54511" ry="188.41747" transform="rotate(8.6585897)" />
          <g clip-path="url(#clipPath11007)">
            <ellipse cx="-1589.3438" cy="392.06961" fill="url(#linearGradient7163)" id="ellipse10939" rx="99.306923" ry="147.91818" transform="rotate(-171.56638)scale(1-1)" />
            <path d="m 1635.7457,690.9688 -139.3003,-60.90455 77.3505,132.41342 z" fill="#8f4dd3" />
            <path d="m 1637.145,650.12916 -140.6996,-20.06491 118.74,85.55958 z" fill="#62289e" />
            <ellipse cx="1574.0529" cy="403.42575" rx="79.843994" ry="115.87851" transform="rotate(8.0311008)" />
            <ellipse cx="1632.8038" cy="-46.166183" fill="#fff" rx="37.668705" ry="56.113674" transform="rotate(21.917442)" />
            <ellipse cx="1674.8456" cy="-193.20045" fill="#fff" rx="12.527606" ry="18.259325" transform="rotate(28.758125)" />
          </g>
        </g>
        <path d="m 1666.7921,524.21346 c 75.8387,-31.8463 80.5141,-22.97903 5.6202,13.3642 z m -211.0478,201.01481 c -82.9277,-233.74638 159.7039,-447.14464 225.721,-179.98161 69.5199,-13.17105 71.2276,-0.85685 -10.7179,17.34706 -47.4827,-242.56541 -256.9161,-98.42924 -215.0031,162.63455 z M 1655.697,503.07024 c 68.1615,-46.04024 74.4784,-38.2565 8.1213,12.00964 z" />
      </g>
      <g>
        <path d="m 1594.8346,299.41545 c -61.3078,16.44549 -82.3828,82.55299 -63.3176,157.09178 -75.1923,-21.58845 -116.3891,-81.76687 -106.442,-155.50979 -69.1109,34.41696 -91.088,112.97354 -72.3235,193.45921 -80.3926,-24.26947 -120.0794,-98.75232 -111.2395,-180.8202 -72.3701,39.99374 -93.8075,133.51528 -60.2533,212.43463 -81.6538,-24.94291 -131.2836,-96.13177 -132.8176,-184.67485 -57.0747,52.3262 -78.44087,133.0134 -71.17412,222.64237 C 842.00926,383.78738 873.06517,176.88963 1043.3778,83.177234 c 191.7525,-105.509447 410.728,32.214426 603.8267,84.554896 z" fill="#f3a4d9" />
        <path d="m 1151.5054,205.34635 c 98.3277,-131.204252 311.0062,19.82065 478.3837,5.92497 l -35.0545,88.14413 c -61.3078,16.44549 -82.3828,82.55299 -63.3176,157.09178 -75.1923,-21.58845 -116.3891,-81.76687 -106.442,-155.50979 -69.1109,34.41696 -91.088,112.97354 -72.3235,193.45921 -80.3926,-24.26947 -120.0794,-98.75232 -111.2395,-180.8202 -72.3701,39.99374 -93.8075,133.51528 -60.2533,212.43463 -92.8249,-82.42015 -92.2719,-237.30271 -29.7533,-320.72473 z" fill="#961370" />
        <path d="m 1594.8346,299.41545 c -61.3078,16.44549 -82.3828,82.55299 -63.3176,157.09178 -75.1923,-21.58845 -116.3891,-81.76687 -106.442,-155.50979 -69.1109,34.41696 -91.088,112.97354 -72.3235,193.45921 -80.3926,-24.26947 -120.0794,-98.75232 -111.2395,-180.8202 -72.3701,39.99374 -93.8075,133.51528 -60.2533,212.43463 -81.6538,-24.94291 -131.2836,-96.13177 -132.8176,-184.67485 -57.0747,52.3262 -78.44087,133.0134 -71.17412,222.64237 C 842.00926,383.78738 873.06517,176.88963 1043.3778,83.177234 c 191.7525,-105.509447 410.728,32.214426 603.8267,84.554896 z" style="stroke-width:28;fill:none;stroke:#d91e9b;stroke-miterlimit:20" />
        <g clip-path="url(#clipPath12318)" transform="translate(18.431798 8.1311493)scale(1.0546875)">
          <path d="m 1202.8679,287.68299 c 68.1196,-582.24584 75.3677,-582.94547 143.8482,-0.34557 z" fill="#6dc6fb" stroke="#1c92cd" stroke-width="26.5481472" />
          <path d="m 1238.5367,4.1486974 c 24.0222,-15.3223254 45.9372,-33.4852134 65.1767,-53.4697454 m -81.9185,173.881698 c 36.0596,-14.53581 69.2277,-35.100024 97.7043,-59.363923 M 1210.148,230.57019 c 45.3015,-8.50806 88.2815,-26.13703 125.2508,-49.66018" fill="none" stroke="#1c92cd" stroke-width="13.2740736" />
          <path d="m 1223.6914,113.63675 c 34.9309,7.11758 68.8479,7.36059 102.2333,0.72038 -2.7417,-22.017765 -5.4011,-42.988034 -7.9314,-62.242598 -28.3153,4.80814 -57.035,4.693208 -86.4519,-0.35 -2.5061,19.150024 -5.1362,39.986341 -7.85,61.872218 z" fill="#ebebeb" />
          <path d="m 1246.4131,119.89006 -9.0022,-67.36864 6.2314,0.608198 32.5291,68.558142 z" fill="#fff" />
          <path fill="#d7d7d7" inkscape:original-d="m 1231.5414,51.764532 c -2.5061,19.150024 -5.1362,39.986341 -7.85,61.872218 34.9309,7.11758 68.8479,7.36059 102.2333,0.72038 -2.7417,-22.017765 -5.4011,-42.988034 -7.9314,-62.242598 -28.3153,4.80814 -57.035,4.693208 -86.4519,-0.35 -2.5061,19.150024 -5.1362,39.986341 -7.85,61.872218" inkscape:path-effect="#path-effect12636" />
        </g>
        <path d="m 1735.7832,202.77153 c -25.4213,-59.31095 -59.9222,-96.36487 -72.2697,-96.94694 -30.9345,-1.45827 -105.9891,127.08933 -102.1148,248.66133 124.4015,-12.45288 37.4324,-207.4286 174.3845,-151.71439 z" fill="#6dc6fb" />
        <path fill="#1c92cd" inkscape:original-d="m 1735.7832,202.77153 c -25.4213,-59.31095 -59.9222,-96.36487 -72.2697,-96.94694 -30.9345,-1.45827 -105.9891,127.08933 -102.1148,248.66133" inkscape:path-effect="#path-effect12352" />
      </g>
    </g>
  </g>
  <text style="text-align:center;fill:#fff;font-family:Tantalum;font-size:56.30454254px;text-anchor:middle;line-height:100%" x="450.00189" y="65.405708" sodipodi:linespacing="100%" xml:space="preserve"><tspan x="450.00189" y="65.405708" sodipodi:role="line">FIVE STARS AND NO CRESCENT MOON</tspan></text>
  <text style="text-align:center;fill:#fff;font-family:Tantalum;font-size:56.30454254px;text-anchor:middle;line-height:100%" x="450.00189" y="574.84314" sodipodi:linespacing="100%" xml:space="preserve"><tspan x="450.00189" y="574.84314" sodipodi:role="line">PARCLY TAXEL IN HONG KONG 15 – 19 MARCH</tspan></text>
</svg>