<?xml version="1.0" encoding="UTF-8" standalone="no"?>
<!-- Created with Inkscape (http://www.inkscape.org/) -->

<svg
   xmlns:dc="http://purl.org/dc/elements/1.1/"
   xmlns:cc="http://creativecommons.org/ns#"
   xmlns:rdf="http://www.w3.org/1999/02/22-rdf-syntax-ns#"
   xmlns:svg="http://www.w3.org/2000/svg"
   xmlns="http://www.w3.org/2000/svg"
   xmlns:xlink="http://www.w3.org/1999/xlink"
   xmlns:sodipodi="http://sodipodi.sourceforge.net/DTD/sodipodi-0.dtd"
   xmlns:inkscape="http://www.inkscape.org/namespaces/inkscape"
   width="1792"
   height="1024"
   id="svg2"
   version="1.1"
   inkscape:version="0.48.3.1 r9886"
   sodipodi:docname="RuBisPONE.svg"
   inkscape:export-filename="/home/parclytaxel/Pictures/RuBisPONE.png"
   inkscape:export-xdpi="562.5"
   inkscape:export-ydpi="562.5">
  <defs
     id="defs4">
    <inkscape:path-effect
       effect="ruler"
       id="path-effect4424"
       is_visible="true"
       unit="px"
       mark_distance="1.5"
       mark_length="20"
       minor_mark_length="7.5"
       major_mark_steps="10"
       shift="0"
       offset="1"
       mark_dir="left"
       border_marks="none" />
    <inkscape:path-effect
       effect="skeletal"
       id="path-effect3049"
       is_visible="true"
       pattern="m 1.1673894,726.90577 0,14 478.0000406,0 c 20.79795,0 57.39546,-2.21578 81.99996,-7 -25.288,-5.46768 -61.20201,-7 -81.99996,-7 z"
       copytype="single_stretched"
       prop_scale="1"
       scale_y_rel="false"
       spacing="0"
       normal_offset="0"
       tang_offset="0"
       prop_units="false"
       vertical_pattern="false"
       fuse_tolerance="0"
       pattern-nodetypes="ccscsc" />
    <inkscape:path-effect
       effect="skeletal"
       id="path-effect5023"
       is_visible="true"
       pattern="m -712.47981,907.61108 0,14 960.00004,0 c 20.79795,0 57.39543,-2.21578 82,-7 -25.28803,-5.46768 -61.20205,-7 -82,-7 z"
       copytype="single_stretched"
       prop_scale="1"
       scale_y_rel="false"
       spacing="0"
       normal_offset="0"
       tang_offset="0"
       prop_units="false"
       vertical_pattern="false"
       fuse_tolerance="0"
       pattern-nodetypes="ccscsc" />
    <inkscape:path-effect
       effect="skeletal"
       id="path-effect5001"
       is_visible="true"
       pattern="m -846.88997,618.59763 c -31.60333,0 -103.64466,1.34315 -139,7 35.35534,5.65686 107.39667,7 139,7 l 1410,0 c -17.76997,-9.56844 -37.41239,-14 -60,-14 z"
       copytype="single_stretched"
       prop_scale="1"
       scale_y_rel="false"
       spacing="0"
       normal_offset="0"
       tang_offset="0"
       prop_units="false"
       vertical_pattern="false"
       fuse_tolerance="0"
       pattern-nodetypes="scscss" />
    <inkscape:path-effect
       effect="skeletal"
       id="path-effect4509"
       is_visible="true"
       pattern="m 189.26106,983.95685 c -31.60333,0 -103.644663,1.34315 -139.000003,7 35.35534,5.65686 107.396673,7 139.000003,7 l 734,0 c 23.11806,0 92.95834,-2.05025 117.00004,-7 -24.0417,-4.94975 -93.88198,-7 -117.00004,-7 z"
       copytype="single_stretched"
       prop_scale="1"
       scale_y_rel="false"
       spacing="0"
       normal_offset="0"
       tang_offset="0"
       prop_units="false"
       vertical_pattern="false"
       fuse_tolerance="0"
       pattern-nodetypes="scsscss" />
    <inkscape:path-effect
       effect="skeletal"
       id="path-effect3804"
       is_visible="true"
       pattern="m 277.47875,172.11984 c -31.60333,0 -103.64466,1.34315 -139,7 35.35534,5.65686 107.39667,7 139,7 l 490,0 c 23.11806,0 92.95837,-2.05025 117,-7 -24.04163,-4.94975 -93.88194,-7 -117,-7 z"
       copytype="single_stretched"
       prop_scale="1"
       scale_y_rel="false"
       spacing="0"
       normal_offset="0"
       tang_offset="0"
       prop_units="false"
       vertical_pattern="false"
       fuse_tolerance="0"
       pattern-nodetypes="scsscss" />
    <linearGradient
       inkscape:collect="always"
       id="linearGradient6622">
      <stop
         style="stop-color:#230f38;stop-opacity:1"
         offset="0"
         id="stop6624" />
      <stop
         style="stop-color:#5c2594;stop-opacity:1"
         offset="1"
         id="stop6626" />
    </linearGradient>
    <clipPath
       clipPathUnits="userSpaceOnUse"
       id="clipPath4349">
      <path
         transform="matrix(1.0627795,-0.16870759,0.16870759,1.0627795,-111.52909,73.153562)"
         d="m 710.48098,355.60727 a 72.80825,91.120476 0 1 1 -145.6165,0 72.80825,91.120476 0 1 1 145.6165,0 z"
         sodipodi:ry="91.120476"
         sodipodi:rx="72.80825"
         sodipodi:cy="355.60727"
         sodipodi:cx="637.67273"
         id="path4351"
         style="fill:none;stroke:#000000;stroke-width:2;stroke-linecap:round;stroke-linejoin:round;stroke-miterlimit:4;stroke-opacity:1;stroke-dasharray:none;stroke-dashoffset:0"
         sodipodi:type="arc" />
    </clipPath>
    <clipPath
       clipPathUnits="userSpaceOnUse"
       id="clipPath4569">
      <path
         transform="matrix(0.92673379,-0.37571863,0.37571863,0.92673379,-157.69148,223.21001)"
         d="m 741.6497,383.06909 a 90.944252,117.81188 0 1 1 -181.88851,0 90.944252,117.81188 0 1 1 181.88851,0 z"
         sodipodi:ry="117.81188"
         sodipodi:rx="90.944252"
         sodipodi:cy="383.06909"
         sodipodi:cx="650.70544"
         id="path4571"
         style="fill:none;stroke:#000000;stroke-width:2;stroke-linecap:round;stroke-linejoin:round;stroke-miterlimit:4;stroke-opacity:1;stroke-dasharray:none;stroke-dashoffset:0"
         sodipodi:type="arc" />
    </clipPath>
    <clipPath
       clipPathUnits="userSpaceOnUse"
       id="clipPath4971">
      <path
         style="fill:none;stroke:#000000"
         d="m 472.95451,296.79827 224.5167,22.21245 5.80941,134.98341 -207.77192,31.43917 z"
         id="path4973"
         inkscape:connector-curvature="0"
         sodipodi:nodetypes="ccccc" />
    </clipPath>
    <clipPath
       clipPathUnits="userSpaceOnUse"
       id="clipPath3866">
      <path
         style="font-size:medium;font-style:normal;font-variant:normal;font-weight:normal;font-stretch:normal;text-indent:0;text-align:start;text-decoration:none;line-height:normal;letter-spacing:normal;word-spacing:normal;text-transform:none;direction:ltr;block-progression:tb;writing-mode:lr-tb;text-anchor:start;baseline-shift:baseline;color:#000000;fill:none;stroke:#000000;stroke-width:1;stroke-miterlimit:4;stroke-dasharray:none;marker:none;visibility:visible;display:inline;overflow:visible;enable-background:accumulate;font-family:Sans;-inkscape-font-specification:Sans"
         d="m 241.15625,698.84375 c 0.62452,-27.80829 24.69019,-50.57072 57.8125,-42.1875 L 297,541 -15,525 44,922 464,882 397.5,622.5 z"
         id="path3868"
         inkscape:connector-curvature="0" />
    </clipPath>
    <clipPath
       clipPathUnits="userSpaceOnUse"
       id="clipPath3874">
      <path
         style="fill:none;stroke:#ffff00"
         d="m 291.27846,659.83563 c -26.24368,-18.09178 -54.2939,-33.70691 -83.85734,-45.89665 L 133,848.5 212,877 z"
         id="path3876"
         inkscape:connector-curvature="0"
         sodipodi:nodetypes="ccccc" />
    </clipPath>
    <clipPath
       clipPathUnits="userSpaceOnUse"
       id="clipPath4608">
      <path
         style="fill:none;stroke:#000000;stroke-width:1"
         d="M 640.33507,80.583533 C 699.39011,99.20208 725.83305,149.79089 725.16633,201.15845 933.69661,-115.9297 813.55659,-172.36682 640.33507,80.583533 z"
         id="path4610"
         inkscape:connector-curvature="0"
         sodipodi:nodetypes="ccc" />
    </clipPath>
    <linearGradient
       inkscape:collect="always"
       xlink:href="#linearGradient6622"
       id="linearGradient5823"
       gradientUnits="userSpaceOnUse"
       x1="602.83734"
       y1="297.37958"
       x2="609.02472"
       y2="423.5773" />
    <clipPath
       clipPathUnits="userSpaceOnUse"
       id="clipPath3856">
      <path
         sodipodi:nodetypes="ccccc"
         inkscape:connector-curvature="0"
         id="path3858"
         d="m 896,704 -64,448 1088,0 0,-448 z"
         style="fill:#adc8cd;fill-opacity:1;fill-rule:nonzero;stroke:none" />
    </clipPath>
    <clipPath
       clipPathUnits="userSpaceOnUse"
       id="clipPath7232">
      <path
         sodipodi:nodetypes="ssssssccs"
         inkscape:connector-curvature="0"
         d="m 1189.1183,905.94042 -63.0178,181.06968 c -6.1257,17.601 0,17.9798 17.9799,17.9798 l 143.8392,0 c 17.9799,0 24.1055,-0.379 17.9799,-17.9798 l -63.0178,-181.06968 c -4.5793,-13.15766 -5.477,-16.86537 -5.477,-59.67469 l -42.8094,0 c 0,42.80932 -0.8977,46.51703 -5.477,59.67469 z"
         style="fill:none;stroke:#cccccc;stroke-width:2;stroke-linecap:butt;stroke-linejoin:miter;stroke-miterlimit:4;stroke-opacity:1;stroke-dasharray:none;stroke-dashoffset:0"
         id="path7234" />
    </clipPath>
    <clipPath
       clipPathUnits="userSpaceOnUse"
       id="clipPath7263">
      <path
         sodipodi:nodetypes="cccc"
         inkscape:connector-curvature="0"
         id="path7265"
         d="M 530.71799,1076.1189 C 626.71894,852.92446 678.70072,828.06306 1459.3966,815.92878 l 0,260.19012 z"
         style="fill:#538189;fill-opacity:1;stroke:none" />
    </clipPath>
    <clipPath
       clipPathUnits="userSpaceOnUse"
       id="clipPath7302">
      <rect
         y="831.82312"
         x="1185.4141"
         height="20"
         width="61.17157"
         id="rect7304"
         style="fill:#30326a;fill-opacity:1;stroke:none" />
    </clipPath>
    <clipPath
       clipPathUnits="userSpaceOnUse"
       id="clipPath3114">
      <path
         sodipodi:nodetypes="csccscc"
         inkscape:connector-curvature="0"
         id="path3116"
         d="m 1297.0377,-473.45629 0,934.45629 c 0,23.89567 5.8423,66 5.8423,88 l 4.3154,0 c 0,-22 5.8423,-64.10433 5.8423,-88 l 0,-934.45629 z"
         style="opacity:0.1;fill:#ffffff;stroke:none" />
    </clipPath>
    <clipPath
       clipPathUnits="userSpaceOnUse"
       id="clipPath4014">
      <path
         sodipodi:nodetypes="csssssssscc"
         inkscape:connector-curvature="0"
         id="path4016"
         d="m 1219.2858,412.04673 0,49.34869 c 0,1.55484 -0.4325,2.60621 -1.0696,4.32449 l -65.3975,176.38213 c -6.0993,16.45036 1.215,29.07482 15.8827,29.07482 l 149.4744,0 c 14.6677,0 21.982,-12.62446 15.8827,-29.07482 L 1268.661,465.71991 c -0.6371,-1.71828 -1.0696,-2.76965 -1.0696,-4.32449 l 0,-49.34869 z"
         style="opacity:0.1;fill:#ffffff;stroke:none" />
    </clipPath>
    <clipPath
       clipPathUnits="userSpaceOnUse"
       id="clipPath4032">
      <path
         id="path4034"
         style="opacity:0.1;fill:#ffffff;stroke:none"
         d="m 1218.2162,465.71991 -65.3975,176.38213 46.2315,33.73075 L 1233.5,461 z"
         inkscape:connector-curvature="0"
         sodipodi:nodetypes="ccccc" />
    </clipPath>
    <clipPath
       clipPathUnits="userSpaceOnUse"
       id="clipPath3900">
      <rect
         style="fill:none;stroke:#10071b;stroke-width:12;stroke-miterlimit:4;stroke-opacity:1;stroke-dasharray:none"
         id="rect3902"
         width="603.96674"
         height="362.7446"
         x="160.40332"
         y="283.46957" />
    </clipPath>
  </defs>
  <sodipodi:namedview
     id="base"
     pagecolor="#ffffff"
     bordercolor="#666666"
     borderopacity="1.0"
     inkscape:pageopacity="0.0"
     inkscape:pageshadow="2"
     inkscape:zoom="0.51618304"
     inkscape:cx="896"
     inkscape:cy="512"
     inkscape:document-units="px"
     inkscape:current-layer="layer2"
     showgrid="true"
     inkscape:window-width="1364"
     inkscape:window-height="698"
     inkscape:window-x="0"
     inkscape:window-y="0"
     inkscape:window-maximized="1"
     showguides="false">
    <inkscape:grid
       type="xygrid"
       id="grid3789"
       empspacing="8"
       visible="true"
       enabled="false"
       snapvisiblegridlinesonly="true"
       spacingx="32px"
       spacingy="32px" />
  </sodipodi:namedview>
  <metadata
     id="metadata7">
    <rdf:RDF>
      <cc:Work
         rdf:about="">
        <dc:format>image/svg+xml</dc:format>
        <dc:type
           rdf:resource="http://purl.org/dc/dcmitype/StillImage" />
        <dc:title></dc:title>
      </cc:Work>
    </rdf:RDF>
  </metadata>
  <g
     inkscape:groupmode="layer"
     id="layer2"
     inkscape:label="Drawing"
     style="display:inline">
    <rect
       style="opacity:1;fill:#65aeda;stroke:none;stroke-width:1;stroke-linecap:round;stroke-linejoin:round;stroke-miterlimit:4;stroke-opacity:1;stroke-dasharray:none;stroke-dashoffset:0;fill-opacity:1"
       id="rect4122"
       width="1792"
       height="1024"
       x="0"
       y="0" />
    <g
       id="g3904">
      <rect
         y="-127.06744"
         x="74.554543"
         height="1599.2715"
         width="775.66431"
         id="rect5761"
         style="fill:#2a0f47;fill-opacity:1;fill-rule:nonzero;stroke:#10071b;stroke-width:40;stroke-miterlimit:4;stroke-opacity:1;stroke-dasharray:none" />
      <rect
         y="283.46957"
         x="160.40332"
         height="362.7446"
         width="603.96674"
         id="rect5763"
         style="fill:#f7fadd;fill-opacity:1;fill-rule:nonzero;stroke:none;stroke-opacity:1;stroke-width:12;stroke-miterlimit:4;stroke-dasharray:none" />
      <path
         clip-path="url(#clipPath3900)"
         d="m 337.28884,694.81888 395.82459,-458.42897 47.83699,0 -298.8122,458.42897 z M 127.21353,520.92661 489.1845,236.38991 l 80.76592,0 -442.73689,436.42897 z"
         style="opacity:0.5;fill:#ffffff;fill-opacity:1;fill-rule:nonzero;stroke:none"
         id="path3895"
         inkscape:connector-curvature="0"
         sodipodi:nodetypes="cccccccccc" />
      <rect
         style="fill:none;fill-opacity:1;fill-rule:nonzero;stroke:#10071b;stroke-opacity:1;stroke-width:12;stroke-miterlimit:4;stroke-dasharray:none"
         id="rect3886"
         width="603.96674"
         height="362.7446"
         x="160.40332"
         y="283.46957" />
    </g>
    <g
       id="g5768"
       transform="translate(268.06931,44.381182)">
      <path
         sodipodi:nodetypes="csscc"
         inkscape:connector-curvature="0"
         id="path3890"
         d="M 355.66532,631.25584 C 247.9698,569.79035 146.77825,568.60201 127.76709,607.49139 103.26955,657.60374 209.95762,784.61237 315.48041,833.4355 429.37265,886.13102 517.61655,715.50366 398.29364,652.18828 z"
         style="fill:#11a2f9;fill-opacity:1;stroke:#1c92cd;stroke-width:14;stroke-miterlimit:4;stroke-opacity:1;stroke-dasharray:none"
         clip-path="none" />
      <path
         style="fill:#11a2f9;fill-opacity:1;stroke:#1c92cd;stroke-width:14;stroke-linecap:butt;stroke-linejoin:miter;stroke-miterlimit:4;stroke-opacity:1;stroke-dasharray:none;stroke-dashoffset:0"
         d="M 69.857864,946.95836 C -46.974246,1137.0486 -63.71337,1447.5407 -49.12994,1455.9605 c 50.225191,28.9975 162.76508,28.624 212.34315,0 15.69252,-9.0601 -125.714176,-193.5862 44.1647,-468.18331 54.2724,-87.72747 108.11401,-120.37732 108.55102,-215.67669 z"
         id="path3081"
         inkscape:connector-curvature="0"
         sodipodi:nodetypes="csssc" />
      <path
         style="fill:#11a2f9;fill-opacity:1;stroke:#1c92cd;stroke-width:14;stroke-linecap:butt;stroke-linejoin:miter;stroke-miterlimit:4;stroke-opacity:1;stroke-dasharray:none;stroke-dashoffset:0"
         d="m 412.70773,825.46593 c -64.34672,321.02657 -18.00086,622.23227 -3.41422,630.65387 48.87287,28.2167 152.61027,28.7894 202.47518,0 11.61096,-6.7036 -120.4508,-214.5319 -114.79394,-613.34015 z"
         id="path2997"
         inkscape:connector-curvature="0"
         sodipodi:nodetypes="csscc" />
      <g
         id="g7865"
         style="display:inline"
         transform="matrix(-3.2758851,0.04074554,0.04074554,3.2758851,4018.7587,-949.13299)">
        <path
           inkscape:label="Stroke"
           style="fill:#f3a4d9;fill-opacity:1;stroke:none"
           d="m 1209.401,488.27572 c 33.4072,-17.79147 64.2769,15.50855 40.2487,105.18288 -24.0281,89.6743 46.5585,128.11288 109.6299,120.19105 -19.7698,-5.08376 -38.6016,-17.92884 -47.9424,-34.51746 22.8424,12.52298 50.3438,14.05767 72.636,7.47004 -60.3602,-16.07779 -76.9084,-51.90701 -62.5427,-104.7606 1.0952,22.36952 10.9453,41.28457 28.3167,56.86591 -18.3941,-68.04566 20.4402,-112.77906 -13.981,-157.99432 -34.4211,-45.21526 -104.499,-43.698 -136.0854,-0.26277 z"
           id="path7863"
           inkscape:connector-curvature="0"
           sodipodi:nodetypes="czccccczcc" />
        <path
           inkscape:label="Stroke"
           style="fill:#961370;fill-opacity:1;stroke:none"
           d="m 1209.401,488.27572 c 33.4072,-17.79147 64.2769,15.50855 40.2487,105.18288 -24.0281,89.6743 46.5585,128.11288 109.6299,120.19105 -19.7698,-5.08376 -38.6016,-17.92884 -47.9424,-34.51746 22.8424,12.52298 50.3438,14.05767 72.636,7.47004 -63.6508,0.33952 -111.5675,-45.92379 -92.6349,-112.11476 30.1947,-105.5648 -57.2728,-124.79152 -86.6631,-90.60163 z"
           id="path7861"
           inkscape:connector-curvature="0"
           sodipodi:nodetypes="czcccscc" />
        <path
           sodipodi:nodetypes="czccccczcc"
           inkscape:connector-curvature="0"
           id="path9492"
           d="m 1209.401,488.27572 c 33.4072,-17.79147 64.2769,15.50855 40.2487,105.18288 -24.0281,89.6743 46.5585,128.11288 109.6299,120.19105 -19.7698,-5.08376 -38.6016,-17.92884 -47.9424,-34.51746 22.8424,12.52298 50.3438,14.05767 72.636,7.47004 -60.3602,-16.07779 -76.9084,-51.90701 -62.5427,-104.7606 1.0952,22.36952 10.9453,41.28457 28.3167,56.86591 -18.3941,-68.04566 20.4402,-112.77906 -13.981,-157.99432 -34.4211,-45.21526 -104.499,-43.698 -136.0854,-0.26277 z"
           style="fill:none;stroke:#d91e9b;stroke-width:4.27332401;stroke-miterlimit:20;stroke-opacity:1;stroke-dasharray:none"
           inkscape:label="Stroke" />
      </g>
      <path
         style="fill:#6dc6fb;fill-opacity:1;stroke:none"
         d="m 549.81701,567.53428 c 118.95435,28.42906 240.58903,-30.25638 261.94147,-127.59698 1.63178,-7.43889 -69.36716,-14.54905 -65,-28 C 846.27754,105.41616 445.42242,-10.458542 355,231 303.41451,368.75077 341.21575,507.31981 335.62034,654.25996 137.91674,548.65685 -61.129917,675.4264 41.171574,973.95837 c 5.311398,15.4995 -47.7830674,4.99271 -55.31371,18.4142 -102.689974,183.01913 -109.571234,500.58233 -94.987804,509.00213 50.225191,28.9975 162.76508,28.624 212.34315,0 15.69252,-9.0601 -125.672529,-193.5862 20.1647,-468.1833 31.23878,-58.81953 65.43653,-91.27552 86.65726,-137.96783 254.61284,192.88633 444.524,17.30868 339.78184,-327.68929 z"
         id="path3971"
         inkscape:connector-curvature="0"
         sodipodi:nodetypes="cssscssssscc" />
      <path
         inkscape:original-d="m 459,531 c 144.61259,93.26346 326.43638,28.93336 352.75848,-91.0627 1.63178,-7.43889 -69.36716,-14.54905 -65,-28 C 846.27754,105.41616 445.42242,-10.458541 355,231 297.34576,384.95639 351.3471,539.93492 332.49353,706.60335"
         inkscape:path-effect="#path-effect5001"
         sodipodi:nodetypes="csssc"
         inkscape:connector-curvature="0"
         id="path3034"
         d="m 599.32964,568.35894 c -7.25538,-0.24356 -16.55561,-0.80589 -26.97947,-2.07667 0,0 0,0 0,0 -9.21674,-1.12303 -19.30911,-2.81951 -29.63241,-5.14576 -10.32329,-2.32626 -20.8731,-5.28282 -31.04881,-8.65935 -10.1757,-3.37653 -19.97433,-7.16911 -28.8984,-10.92833 C 473.84649,537.78962 465.79498,534.0702 459,531 c 5.59979,4.92343 12.78376,10.31924 21.14333,15.58191 8.35958,5.26268 17.89515,10.38257 28.03386,14.89112 10.1387,4.50855 20.87598,8.40007 31.50857,11.46001 10.63259,3.05993 21.15449,5.28862 30.81488,6.76754 0,0 10e-6,0 10e-6,0 10.91596,1.67061 20.71378,2.39939 28.3593,2.65584 27.90612,0.93605 55.96698,-2.39351 82.83212,-10.19367 32.69233,-9.46551 63.78499,-25.73485 88.95264,-49.13821 11.73211,-10.92659 22.07825,-23.44397 30.34547,-37.31707 10e-6,-10e-6 10e-6,-2e-5 2e-5,-3e-5 8.14801,-13.68304 14.17446,-28.65647 17.60571,-44.27029 0.32075,-1.69506 0.20491,-3.25326 -0.33227,-4.63791 -0.61602,-1.43513 -1.25746,-2.43618 -1.87616,-3.0085 -1.5864,-1.54973 -2.93419,-2.44882 -3.87914,-2.83863 -3.18177,-1.61988 -6.19307,-2.58498 -8.80557,-3.33687 -10e-6,0 -2e-5,-10e-6 -3e-5,-10e-6 -8.06182,-2.43031 -16.04519,-4.22267 -23.72024,-6.20118 -4.10835,-1.06193 -8.14982,-2.14635 -12.09016,-3.35888 -2e-5,-10e-6 -4e-5,-10e-6 -7e-5,-2e-5 -3.45421,-1.07109 -6.74164,-2.16361 -9.7472,-3.51087 -1e-5,-1e-5 -2e-5,-1e-5 -3e-5,-2e-5 -2.28406,-1.13598 -4.10156,-1.89305 -4.87029,-2.83601 -0.15496,-0.28312 -0.18578,-0.1602 0.11311,0.34931 0.22365,0.7216 0.23424,1.34483 0.0285,2.04137 11.2935,-34.6839 17.59832,-71.40035 15.78147,-108.19704 -1.52833,-30.60877 -8.9706,-61.0425 -22.68538,-88.62526 -10e-6,-2e-5 -2e-5,-4e-5 -3e-5,-7e-5 -12.57796,-25.23973 -30.2696,-47.81864 -51.54995,-66.24758 -20.74822,-17.96242 -44.75823,-32.01086 -70.40034,-41.60815 -25.38533,-9.508136 -52.39146,-14.695456 -79.52677,-15.101083 -26.86288,-0.407633 -53.87739,3.955024 -79.14204,13.428633 -25.7413,9.66432 -49.43714,24.7406 -68.95664,44.16928 -1e-5,2e-5 -3e-5,3e-5 -5e-5,5e-5 -21.6592,21.61428 -37.86731,48.1918 -48.49205,76.62739 -14.14741,37.82627 -22.17461,77.6621 -25.60701,117.67999 -3.38354,39.4512 -2.60048,78.96784 -0.63235,118.15868 10e-6,2e-5 10e-6,5e-5 10e-6,7e-5 1.99876,40.01544 5.1729,79.80287 6.65605,119.50507 1.51718,40.81126 1.24662,81.63335 -3.32339,121.92762 11.62497,-17.59176 17.52926,-38.74695 17.99623,-63.11748 0.37951,-19.80637 0.0602,-39.60391 -0.68263,-59.33356 -1.50239,-40.09555 -4.67907,-79.94128 -6.66369,-119.68001 0,-3e-5 0,-5e-5 0,-8e-5 -1.93284,-38.91351 -2.7273,-77.79697 0.59815,-116.25916 0,-3e-5 0,-5e-5 10e-6,-8e-5 3.36837,-38.96125 11.11639,-77.56083 24.76946,-113.97126 10.03941,-26.7447 25.17035,-51.65228 45.26054,-71.61757 10e-6,-1e-5 10e-6,-1e-5 2e-5,-2e-5 18.0534,-17.99137 40.09666,-32.00539 63.99888,-40.9825 23.49393,-8.83552 48.79877,-12.90083 74.01302,-12.5366 25.48618,0.3743 50.92492,5.26576 74.82458,14.2135 24.12899,9.04062 46.72022,22.24617 66.14399,39.07952 19.9033,17.24312 36.47297,38.37501 48.18408,61.90647 10e-6,2e-5 2e-5,4e-5 3e-5,7e-5 12.81159,25.68086 19.77039,54.26894 21.235,83.08831 1.78452,34.71247 -4.29812,69.7531 -15.11496,103.16959 -0.71951,2.27897 -0.69229,4.64957 0.085,6.94012 0.92483,2.28356 2.08293,3.93388 3.26875,4.97038 3.11424,2.87873 6.30969,4.57419 9.00416,5.65117 2e-5,1e-5 5e-5,2e-5 7e-5,3e-5 3.8216,1.68743 7.63364,2.97635 11.32101,4.10006 3e-5,10e-6 5e-5,10e-6 7e-5,2e-5 4.25965,1.30754 8.5055,2.44972 12.70332,3.53215 2e-5,10e-6 5e-5,10e-6 7e-5,2e-5 7.96686,2.05968 15.76591,3.8004 23.16727,6.04627 2.55745,0.81153 4.75061,1.44174 6.35117,2.3322 2e-5,10e-6 3e-5,2e-5 5e-5,3e-5 0.49805,0.36764 0.58942,0.30406 0.10989,-0.0494 -0.24018,-0.16322 -0.54701,-0.70388 -0.96863,-1.61664 -0.37239,-0.94181 -0.44121,-2.01112 -0.2217,-3.24464 -3.08268,14.08163 -8.56102,27.66826 -15.96137,40.10992 -1e-5,2e-5 -2e-5,4e-5 -3e-5,6e-5 -7.51032,12.63666 -17.02845,24.12727 -27.86141,34.23675 -23.24153,21.72565 -52.45462,36.92726 -83.31396,45.93501 -25.3708,7.38382 -51.9725,10.52874 -78.45464,9.63975 z"
         style="fill:#1c92cd;fill-opacity:1;stroke:none" />
      <path
         inkscape:original-d="M 335,654.17157 C 137.91674,548.65685 -61.129917,675.4264 41.171574,973.95837 c 5.311398,15.4995 -47.7830674,4.99271 -55.31371,18.4142 -102.689974,183.01913 -109.571234,500.58233 -94.987804,509.00213 50.225191,28.9975 162.76508,28.624 212.34315,0 15.69252,-9.0601 -125.672545,-193.5862 20.1647,-468.1833 48.38619,-91.10642 103.87137,-118.96311 109.96523,-234.06147"
         inkscape:path-effect="#path-effect5023"
         sodipodi:nodetypes="csssssc"
         inkscape:connector-curvature="0"
         id="path3040"
         d="m 331.69605,660.34278 6.6079,-12.34242 c -23.67139,-12.68281 -48.82233,-22.83625 -75.00607,-29.41619 -23.4199,-5.88863 -47.70632,-8.8518 -72.00654,-7.93589 -22.23328,0.83756 -44.45353,5.03516 -65.36443,13.09232 -20.09106,7.75247 -38.802468,19.12588 -54.810395,33.61937 -16.613756,15.07066 -30.138236,33.3243 -40.151699,53.25912 -11.294458,22.51102 -18.22912,46.92199 -21.6874221,71.61521 -9.12391136,65.66238 3.9895481,132.20755 25.2722021,193.9933 -0.01852,0.17549 0.03554,0.0209 0.01478,-0.53912 0.103624,-0.57981 0.268057,-1.00218 0.555304,-1.35804 1e-5,0 2e-5,0 3.1e-5,-10e-6 0.590737,-0.20088 -0.133355,-0.20662 -1.442396,0.49536 -1.1e-5,10e-6 -2.3e-5,10e-6 -3.4e-5,2e-5 -1.831745,0.62318 -4.059192,0.94413 -6.56522,1.2866 -1.5e-5,0 -3e-5,0 -4.5e-5,0 -2.97934,0.37976 -6.08247,0.61441 -9.290768,0.85086 -6.543039,0.45989 -13.5077361,0.81799 -20.7182433,2.17539 -1.79e-5,0 -3.58e-5,0 -5.37e-5,0 -2.9365202,0.52383 -6.1688015,1.37407 -9.492812,2.90252 -2.707021,1.08152 -5.563328,3.31454 -7.856983,6.90611 -13.517964,24.10431 -24.820678,49.32211 -34.599546,75.00551 -6e-6,0 -1.2e-5,0 -1.8e-5,0 -10.255493,26.9252 -18.864214,54.4172 -26.27372,82.1725 -14.498164,54.307 -24.582743,109.6883 -31.440873,165.3669 -2.98631,24.2289 -5.34332,48.5447 -6.9836,72.918 -1.33315,19.7948 -2.21829,39.6623 -2.33654,59.5767 -0.0459,7.7156 0.0272,15.4595 0.30648,23.2236 0.21315,5.973 0.544,12.0126 1.16361,18.0944 0.39146,4.0102 0.92377,8.2881 2.03529,12.7134 0.31221,1.332 0.8123,2.9287 1.63866,4.7155 0.28059,0.6305 0.73862,1.4073 1.4016,2.303 5e-5,0 10e-5,10e-5 1.4e-4,2e-4 0.44083,0.691 1.33635,1.5096 2.70541,2.3999 15.566688,8.9097 32.690385,13.8309 49.552167,17.0663 19.940036,3.8914 40.209218,5.5105 60.3701359,5.4796 20.1226061,-0.015 40.3479951,-1.674 60.2425361,-5.5866 3.3e-5,0 6.7e-5,0 1e-4,0 16.72398,-3.233 33.720504,-8.1131 49.178231,-16.9593 2.30529,-1.5616 3.70861,-3.3938 4.19848,-5.3114 2e-5,0 5e-5,-1e-4 7e-5,-2e-4 0.56526,-2.1559 0.67011,-3.8435 0.49371,-4.9867 -0.34309,-3.7471 -1.26653,-6.8519 -2.13949,-9.3671 -2e-5,0 -3e-5,-10e-5 -4e-5,-10e-5 -1.33987,-4.1446 -2.84945,-8.1045 -4.32689,-11.945 -1.9765,-5.1484 -3.9812,-10.2435 -5.927258,-15.3186 -5.188348,-13.5342 -10.049018,-27.1472 -14.285565,-40.9078 -5.466735,-17.751 -9.968275,-35.7874 -13.352595,-54.0185 -8.786766,-47.3038 -9.909925,-96.028 -3.526641,-143.7364 5e-6,-10e-5 9e-6,-10e-5 1.3e-5,-10e-5 8.634067,-64.7426 30.961079,-127.4166 61.713056,-185.3702 2e-5,0 3e-5,0 5e-5,-10e-5 10.65553,-20.0802 23.09146,-39.29676 36.28326,-58.08072 4.4097,-6.27325 8.91403,-12.52899 13.40878,-18.83662 6.14664,-8.62577 13.35963,-19.00503 20.54595,-30.87619 4.91677,-8.1175 9.72128,-16.96322 14.02134,-26.33201 4.30006,-9.36878 8.08948,-19.26072 11.04081,-29.39683 3.71691,-12.82646 6.10452,-25.88452 7.40167,-38.42899 1.29716,-12.54446 1.51936,-24.56801 1.08121,-35.39341 -1.72533,10.92554 -3.83439,22.72214 -6.67874,34.73156 -2.84435,12.00942 -6.43539,24.2235 -10.98563,35.99654 -3.62669,9.42001 -7.89789,18.55014 -12.52509,27.22306 -4.6272,8.67291 -9.6048,16.88897 -14.58713,24.50525 -7.31954,11.1853 -14.57549,21.22798 -20.71737,29.84386 -4.47011,6.27069 -8.99173,12.55249 -13.46066,18.91479 -13.40804,19.07139 -26.14715,38.78211 -37.19282,59.56311 -1e-5,0 -3e-5,0 -4e-5,0 -31.442609,59.1528 -54.273593,123.3967 -63.224977,190.0802 -5e-6,0 -9e-6,0 -1.4e-5,10e-5 -6.578735,49.1642 -5.418367,99.3594 3.638266,148.149 3.490158,18.7905 8.120038,37.3487 13.737616,55.5838 4.361098,14.1524 9.324372,28.0626 14.593375,41.7991 1.975213,5.1508 3.980526,10.2475 5.92911,15.3235 6e-6,0 1.2e-5,0 1.8e-5,10e-5 1.466857,3.829 2.891482,7.5481 4.072045,11.2227 5e-6,0 1e-5,0 1.4e-5,0 0.753026,2.5291 1.463445,4.5368 1.500409,6.0759 -1e-6,0 -2e-6,0 -4e-6,0 -0.06193,0.4487 0.03859,0.3939 0.1224,-0.2403 2e-6,0 4e-6,0 5e-6,0 0.138913,-0.8084 0.851508,-1.6098 2.14928,-2.5897 -13.376482,7.8013 -28.94182,12.1442 -44.884668,15.3478 -3.2e-5,0 -6.4e-5,0 -9.6e-5,0 -18.85334,3.7221 -38.181944,5.2925 -57.5521811,5.3225 -19.4068189,0.014 -38.7751049,-1.5179 -57.6674479,-5.2194 -16.064518,-3.2029 -31.750409,-7.5857 -45.23874,-15.4509 0.84011,0.585 1.30318,0.9535 1.37035,1.1613 1e-5,0 1e-5,0 1e-5,0 0.15762,0.2421 0.21102,0.2925 0.1327,0.1787 -0.21901,-0.3808 -0.40176,-1.1084 -0.68666,-2.1078 -0.84768,-3.2241 -1.25828,-6.8189 -1.67015,-10.6641 -0.57907,-5.6396 -0.88873,-11.3726 -1.10007,-17.1745 -0.27149,-7.5152 -0.34161,-15.0635 -0.29763,-22.6369 0.11384,-19.5531 0.98853,-39.1347 2.30519,-58.7191 1.6214,-24.099 3.9539,-48.1573 6.910062,-72.1455 6.800144,-55.1446 16.761778,-109.8928 31.072039,-163.4673 7.31136,-27.3712 15.772309,-54.4057 25.830404,-80.8003 1.2e-5,0 2.3e-5,0 3.5e-5,-10e-5 9.598844,-25.1798 20.61045,-49.7754 33.726221,-73.13905 -0.2317931,-0.0832 0.5576773,-0.38476 1.6564753,-1.11179 1.5997474,-0.81134 3.7100678,-1.29379 6.12693231,-1.79914 2.946e-5,-1e-5 5.893e-5,-1e-5 8.84e-5,-2e-5 5.89916409,-1.1629 12.32232999,-1.44945 19.09365199,-1.96072 3.24187,-0.23404 6.590582,-0.49314 10.027512,-0.92423 3.5e-5,0 7e-5,-10e-6 1.06e-4,-10e-6 2.788918,-0.32668 5.865453,-0.83664 9.11248,-1.85366 4.1e-5,-10e-6 8.1e-5,-2e-5 1.21e-4,-3e-5 2.27841,-0.45662 5.240865,-2.01249 8.157506,-5.18019 5.1e-5,-6e-5 1.02e-4,-1.1e-4 1.54e-4,-1.7e-4 1.226734,-1.55426 2.019012,-3.42205 2.314826,-5.51246 0.202913,-2.31806 -0.06585,-4.26528 -0.658872,-5.76629 C 27.124235,911.05239 14.217188,846.67084 23.140587,784.1867 c 3.317259,-23.41725 9.8001,-46.38256 20.331957,-67.27819 1.4e-5,-3e-5 2.9e-5,-6e-5 4.3e-5,-9e-5 9.303507,-18.48139 21.792057,-35.37314 37.043909,-49.17347 14.66821,-13.2998 31.926974,-23.77801 50.452444,-30.93381 3e-5,-1e-5 6e-5,-2e-5 9e-5,-3e-5 19.30024,-7.46671 40.018,-11.35454 60.85695,-12.16304 22.79734,-0.88397 45.76973,1.94226 68.06444,7.5251 24.932,6.24686 49.01613,15.98812 71.80563,28.17961 z"
         style="fill:#1c92cd;fill-opacity:1;stroke:none" />
      <path
         sodipodi:nodetypes="ccc"
         inkscape:connector-curvature="0"
         id="path4493"
         d="m 757.1609,451.29085 c 4,9.5 12,11.5 21,5 -6,17.5 -25.5,13.5 -21,-5 z"
         style="fill:#1c92cd;fill-opacity:1;fill-rule:nonzero;stroke:none" />
      <path
         sodipodi:nodetypes="cccc"
         inkscape:connector-curvature="0"
         id="path4495"
         d="m 672.76269,513.51074 c 30.57506,-20.6515 70.36885,-18.74817 103.30278,-0.36614 l -10.29103,9.92813 c -24.5265,-16.84161 -53.6789,-18.61641 -93.01175,-9.56199 z"
         style="fill:#1c92cd;fill-opacity:1;fill-rule:nonzero;stroke:none" />
      <g
         transform="matrix(1.0292882,0,0,1.0292882,-38.387242,7.4768132)"
         id="g4975">
        <path
           inkscape:connector-curvature="0"
           id="path4953"
           style="fill:#000000;stroke:none"
           d="m 503.5536,332.01512 2.18222,11.7972 c -90.18698,15.31566 -92.71431,4.51318 -2.18222,-11.7972 z m -2.38181,-18.20505 0.47195,11.9881 c -91.45041,2.25505 -92.40622,-8.79784 -0.47195,-11.9881 z" />
        <g
           id="g4958"
           clip-path="url(#clipPath4971)">
          <path
             transform="matrix(0.92673379,-0.37571863,0.37571863,0.92673379,-157.69148,223.21001)"
             d="m 741.6497,383.06909 c 0,65.06571 -40.71713,117.81188 -90.94426,117.81188 -50.22712,0 -90.94425,-52.74617 -90.94425,-117.81188 0,-65.0657 40.71713,-117.81188 90.94425,-117.81188 50.22713,0 90.94426,52.74618 90.94426,117.81188 z"
             sodipodi:ry="117.81188"
             sodipodi:rx="90.944252"
             sodipodi:cy="383.06909"
             sodipodi:cx="650.70544"
             id="path3083"
             style="fill:#ffffff;stroke:none"
             sodipodi:type="arc" />
          <g
             clip-path="url(#clipPath4569)"
             id="g4560">
            <path
               sodipodi:type="arc"
               style="fill:url(#linearGradient5823);fill-opacity:1;stroke:none"
               id="path3853"
               sodipodi:cx="637.67273"
               sodipodi:cy="355.60727"
               sodipodi:rx="72.80825"
               sodipodi:ry="91.120476"
               d="m 710.48098,355.60727 c 0,50.32445 -32.59736,91.12048 -72.80825,91.12048 -40.21089,0 -72.80825,-40.79603 -72.80825,-91.12048 0,-50.32445 32.59736,-91.12048 72.80825,-91.12048 40.21089,0 72.80825,40.79603 72.80825,91.12048 z"
               transform="matrix(1.0627795,-0.16870759,0.16870759,1.0627795,-111.52909,73.153562)" />
            <g
               id="g4343"
               clip-path="url(#clipPath4349)">
              <path
                 sodipodi:nodetypes="ccccc"
                 inkscape:connector-curvature="0"
                 id="path3863"
                 d="m 550.29879,390.1032 29.62134,69.77472 37.52037,-71.74948 -11.19028,-19.08931 z"
                 style="fill:#8f4dd3;fill-opacity:1;stroke:none" />
              <path
                 sodipodi:nodetypes="ccccc"
                 inkscape:connector-curvature="0"
                 id="path3861"
                 d="m 533.18423,376.27991 81.62326,-21.06408 1.97476,14.48155 -69.77473,50.68542 z"
                 style="fill:#62289e;fill-opacity:1;stroke:none" />
            </g>
            <path
               transform="matrix(1.0627795,-0.16870759,0.16870759,1.0627795,-98.223705,74.357128)"
               d="m 694.96634,355.60727 c 0,42.15291 -25.65122,76.3246 -57.29361,76.3246 -31.64239,0 -57.29361,-34.17169 -57.29361,-76.3246 0,-42.15291 25.65122,-76.3246 57.29361,-76.3246 31.64239,0 57.29361,34.17169 57.29361,76.3246 z"
               sodipodi:ry="76.3246"
               sodipodi:rx="57.293613"
               sodipodi:cy="355.60727"
               sodipodi:cx="637.67273"
               id="path3855"
               style="fill:#000000;stroke:none"
               sodipodi:type="arc" />
            <path
               sodipodi:type="arc"
               style="fill:#ffffff;stroke:none"
               id="path3857"
               sodipodi:cx="595.7182"
               sodipodi:cy="325.59448"
               sodipodi:rx="29.621346"
               sodipodi:ry="38.178623"
               d="m 625.33955,325.59448 c 0,21.08547 -13.26193,38.17863 -29.62135,38.17863 -16.35942,0 -29.62134,-17.09316 -29.62134,-38.17863 0,-21.08547 13.26192,-38.17862 29.62134,-38.17862 16.35942,0 29.62135,17.09315 29.62135,38.17862 z"
               transform="matrix(0.92376154,-0.38296816,0.38296816,0.92376154,-77.300929,234.53286)" />
            <path
               transform="matrix(0.88684331,-0.46207027,0.46207027,0.88684331,-38.935141,334.48743)"
               d="m 605.07521,325.59448 c 0,7.06874 -4.18927,12.79909 -9.35701,12.79909 -5.16773,0 -9.35701,-5.73035 -9.35701,-12.79909 0,-7.06874 4.18928,-12.79909 9.35701,-12.79909 5.16774,0 9.35701,5.73035 9.35701,12.79909 z"
               sodipodi:ry="12.79909"
               sodipodi:rx="9.3570118"
               sodipodi:cy="325.59448"
               sodipodi:cx="595.7182"
               id="path3859"
               style="fill:#ffffff;stroke:none"
               sodipodi:type="arc" />
          </g>
        </g>
        <path
           sodipodi:nodetypes="scccs"
           inkscape:connector-curvature="0"
           style="fill:#000000;stroke:none"
           d="m 433.3319,295.50923 c 0.87106,-4.85271 53.48384,-3.54462 262.72842,16.55197 2.06984,-11.06505 1.84824,-24.97659 -1.28024,-38.55913 10.6345,14.48547 16.31282,35.47298 14.63418,53.58142 C 485.16563,306.68463 432.46084,300.36194 433.3319,295.50923 z"
           id="path4946" />
      </g>
      <path
         sodipodi:nodetypes="cc"
         inkscape:connector-curvature="0"
         id="path3036"
         d="M 549.69093,567.10797 C 654.55917,912.53225 464.64801,1088.1099 209.30085,895.12131"
         style="fill:none;stroke:#1c92cd;stroke-width:14;stroke-linecap:butt;stroke-linejoin:miter;stroke-miterlimit:4;stroke-opacity:1;stroke-dasharray:none;stroke-dashoffset:0" />
      <g
         id="g4519">
        <path
           sodipodi:nodetypes="csscc"
           inkscape:connector-curvature="0"
           id="path4517"
           d="m 368.8671,863.6497 c -88.38835,313.9556 -39.21406,629.3034 -24.62742,637.725 48.87287,28.2167 152.61027,28.7894 202.47518,0 11.61096,-6.7036 -114.79394,-204.6324 -93.58074,-620.41128 z"
           style="fill:#6dc6fb;fill-opacity:1;stroke:none" />
        <path
           style="fill:#1c92cd;fill-opacity:1;stroke:none"
           d="m 335.55583,1069.1491 c 1.41085,-11.7301 3.33354,-27.2054 5.75314,-44.6106 2.4196,-17.4052 5.34719,-36.73777 8.58592,-56.20739 3.23873,-19.46963 6.79238,-39.07443 10.16823,-57.08596 3.37585,-18.01153 6.56725,-34.432 8.80398,-47.59545 -4.95932,12.39695 -10.38019,28.29224 -15.57105,45.97116 -5.19087,17.67892 -10.14373,37.14012 -14.43843,56.57289 -4.2947,19.43277 -7.93452,38.83325 -10.80307,56.33695 -2.86854,17.5036 -4.97709,33.1072 -6.40054,44.9467 -1.05578,8.7813 -2.03455,17.5709 -2.93833,26.3667 -6.94434,67.5497 -9.52407,135.5444 -7.77559,203.4236 0.70404,27.3508 2.12001,54.6988 4.40051,81.9902 1.78655,21.3914 4.08443,42.7842 7.23928,64.0949 0,0 10e-6,0 10e-6,0 1.1971,8.0866 2.52453,16.1798 4.06577,24.2583 1.17401,6.1611 2.47538,12.3614 4.0572,18.5548 0,0 0,0 1e-5,0 1.0311,4.0872 2.22219,8.3749 3.9394,12.7085 1e-5,0 2e-5,0 2e-5,10e-5 0.50567,1.3147 1.18562,2.8241 2.15061,4.4542 0.32974,0.5706 0.80884,1.2539 1.46011,2.0255 0.41178,0.5661 1.2335,1.2777 2.48667,2.0827 14.8758,8.5234 31.18135,13.4793 47.33338,16.7469 18.80859,3.859 37.95987,5.5399 57.0191,5.5682 19.11784,0.043 38.33644,-1.5775 57.21498,-5.4038 16.36336,-3.2713 32.86422,-8.2903 47.90772,-16.9113 1.37811,-0.8596 2.38022,-1.8704 2.99744,-3.001 0.65657,-1.253 1.01066,-2.2774 1.09101,-3.0459 0.26235,-2.0717 0.18836,-3.5982 -0.0338,-4.54 0,0 -10e-6,-10e-5 -10e-6,-10e-5 -0.24829,-1.6105 -0.59083,-3.0338 -0.9429,-4.279 0,0 -10e-6,-10e-5 -10e-6,-10e-5 -0.47666,-1.7279 -1.00185,-3.3752 -1.53286,-4.9524 -1.4786,-4.4007 -3.08983,-8.6634 -4.67638,-12.8412 -2.18506,-5.7595 -4.39551,-11.481 -6.5664,-17.1892 -6.06096,-15.9379 -11.88242,-31.9439 -17.30147,-48.0629 -7.40996,-22.0385 -14.12852,-44.3117 -20.16582,-66.77 -16.83717,-62.6221 -28.41967,-126.6555 -35.68805,-191.1717 -3.56743,-31.6647 -6.09539,-63.4427 -7.67019,-95.2782 -0.42701,-8.6321 -1.12234,-21.6239 -1.79892,-36.8334 -0.67658,-15.2095 -1.32386,-32.63739 -1.8417,-50.12877 -0.51784,-17.49138 -0.9081,-35.04549 -1.31966,-50.49754 -0.41156,-15.45206 -0.85522,-28.80235 -1.63102,-37.88207 -1.69586,8.95362 -3.36454,22.23504 -4.73078,37.68553 -1.36624,15.45049 -2.41882,33.0692 -3.03235,50.66486 -0.61352,17.59567 -0.78596,35.16629 -0.64437,50.51149 0.14159,15.3452 0.58644,28.464 1.0175,37.1717 1.58976,32.1146 4.14079,64.1842 7.73943,96.1531 7.33265,65.1381 19.04583,129.8608 36.08009,193.2394 6.11076,22.7321 12.91265,45.281 20.41583,67.5973 5.49277,16.335 11.3757,32.5126 17.48586,48.5778 2.18837,5.7541 4.39747,11.472 6.56232,17.1784 0,10e-5 10e-6,10e-5 2e-5,10e-5 1.58097,4.1715 3.13118,8.2634 4.49331,12.3289 0.48601,1.4537 0.93552,2.8528 1.30583,4.2077 0.27166,1.0251 0.49732,1.8924 0.59224,2.6111 0.004,0.5915 0.0976,0.6346 0.0932,0.09 -0.009,-0.2563 0.19833,-0.7724 0.59374,-1.5756 0.40196,-0.7601 1.10198,-1.447 2.1089,-2.0923 -13.1064,7.6313 -28.20263,12.1184 -43.6938,15.3157 -17.80609,3.6231 -36.08726,5.1505 -54.40271,5.1238 -18.25983,-0.042 -36.48027,-1.6268 -54.22658,-5.2815 -15.30445,-3.1982 -30.21624,-7.6244 -43.15209,-15.158 0.70785,0.4901 1.07163,0.7547 1.06982,0.846 0.0804,0.1161 0.0712,0.076 -0.0502,-0.097 -0.34846,-0.5328 -0.68446,-1.3534 -1.11878,-2.3881 -1e-5,0 -1e-5,0 -2e-5,0 -1.35413,-3.343 -2.35678,-7.0533 -3.3741,-10.9765 -1e-5,0 -1e-5,0 -2e-5,0 -1.48429,-5.7966 -2.7229,-11.7156 -3.86892,-17.7108 -10e-6,0 -10e-6,0 -10e-6,-10e-5 -1.49664,-7.8392 -2.79168,-15.7412 -3.96862,-23.6847 0,0 -10e-6,0 -10e-6,0 -3.10244,-20.9402 -5.36619,-42.038 -7.13687,-63.2099 -2.25662,-26.9967 -3.65793,-54.0762 -4.35651,-81.1847 -1.73273,-67.2843 0.82409,-134.6816 7.70683,-201.6314 0.89661,-8.7169 1.86712,-17.4265 2.91355,-26.1267 z"
           id="path3038"
           inkscape:connector-curvature="0"
           sodipodi:nodetypes="cssc"
           inkscape:path-effect="#path-effect4509"
           inkscape:original-d="m 368.8671,863.6497 c -88.38835,313.9556 -39.21406,629.3034 -24.62742,637.725 48.87287,28.2167 152.61027,28.7894 202.47518,0 11.61096,-6.7036 -114.79394,-204.6324 -93.58074,-620.41128" />
      </g>
      <g
         transform="matrix(0.24284616,0.08905841,-0.08905841,0.24284616,49.630625,625.02425)"
         id="g3018">
        <path
           inkscape:connector-curvature="0"
           d="m 428.86157,620.36218 c 55.42564,96.00002 166.27687,192.00001 332.55375,160.00001 l 83.13843,-112 c -221.7025,96 -332.55373,0 -387.97938,-64.00001 z m 193.98968,-48 c 55.42563,-96.00002 83.13844,-240 -27.71281,-368 l -138.56406,-16 c 193.98969,144 166.27687,287.99999 138.56406,368.00001 z m -138.56406,-144 c -110.85127,0 -249.41532,48 -304.84095,208 l 55.42563,128 c 27.71281,-240 166.27687,-288 249.41533,-304.00001 z"
           style="fill:#5a318e;fill-opacity:1;stroke:none"
           id="path3014" />
        <path
           inkscape:connector-curvature="0"
           d="m 401.14875,508.3622 c -55.42563,96.00001 -83.13844,239.99998 27.71281,367.99999 l 138.56406,15.99999 c -193.98969,-144 -166.27687,-287.99997 -138.56406,-368 z m 138.56406,143.99998 c 110.85127,0 249.41532,-47.99999 304.84095,-207.99999 l -55.42563,-128 c -27.71281,240 -166.27687,287.99999 -249.41533,304 z m 55.42563,-192 c -55.42564,-96.00002 -166.27688,-192 -332.55376,-160 l -83.13843,112 c 221.7025,-96 332.55374,-1e-5 387.97939,64 z"
           style="fill:#54a2e1;fill-opacity:1;stroke:none"
           id="path3016" />
        <path
           d="m 623.99998,650.56408 -176,27.71279 L 336,539.71279 l 64.00002,-166.27687 176,-27.71279 L 688,484.28721 z"
           inkscape:randomized="0"
           inkscape:rounded="0"
           inkscape:flatsided="true"
           sodipodi:arg2="1.4146197"
           sodipodi:arg1="0.8910208"
           sodipodi:r2="55.425625"
           sodipodi:r1="178.16846"
           sodipodi:cy="512"
           sodipodi:cx="512"
           sodipodi:sides="6"
           id="path4120"
           style="fill:none;stroke:#576ab7;stroke-width:16;stroke-linejoin:round;stroke-miterlimit:4;stroke-opacity:1;stroke-dasharray:none"
           sodipodi:type="star"
           transform="matrix(0.86602541,0.5,-0.5,0.86602541,324.59501,-159.04283)" />
      </g>
      <g
         id="g3882">
        <path
           sodipodi:nodetypes="csscc"
           inkscape:connector-curvature="0"
           id="path3878"
           d="M 268.37495,653.20125 C 163.05064,587.7557 61.974086,582.7882 41.523495,620.94027 15.171124,670.10254 117.04033,801.00785 220.66568,853.7387 332.51,910.65186 427.06607,743.43995 310.19159,675.71146 z"
           style="fill:#6dc6fb;fill-opacity:1;stroke:none"
           clip-path="none" />
        <path
           inkscape:label="Feather strokes"
           style="fill:none;stroke:#1c92cd;stroke-width:8;stroke-linecap:butt;stroke-linejoin:miter;stroke-miterlimit:4;stroke-opacity:1;stroke-dasharray:none;display:inline"
           d="M 240.58571,677.48085 75.044616,599.14404 M 39.790544,624.23003 193.45093,718.42049 M 189.38464,780.8959 44.578874,674.61933"
           id="path5259"
           inkscape:connector-curvature="0"
           sodipodi:nodetypes="cccccc" />
        <path
           clip-path="url(#clipPath3866)"
           style="fill:#1c92cd;fill-opacity:1;stroke:none"
           d="m 283.33434,671.36347 7.94412,-11.52784 c -26.24368,-18.09178 -54.2939,-33.70691 -83.85734,-45.89665 -24.22585,-10.00247 -49.60653,-17.79602 -75.81256,-21.66817 0,0 -1e-5,0 -2e-5,0 -19.44763,-2.94197 -39.943654,-3.82869 -59.926831,0.94659 -6e-6,0 -1.3e-5,0 -1.9e-5,0 -7.443117,1.77122 -14.933413,4.58807 -21.789664,9.00917 -5.831254,3.7479 -10.989739,8.92816 -14.538084,15.40664 -2.07091,3.89971 -3.435112,8.02947 -4.184066,12.17626 -0.823769,4.55431 -1.011345,9.08676 -0.754364,13.47423 1e-6,1e-5 2e-6,3e-5 3e-6,4e-5 0.630568,10.50906 3.335961,20.49961 6.850613,29.80269 4.310677,11.52355 9.867618,22.41153 16.010088,32.77676 7.110649,12.0172 15.065214,23.45807 23.537492,34.4179 18.929676,24.49449 40.480882,46.88164 63.865702,67.05063 23.44753,20.25015 48.96581,38.45753 76.8116,52.64569 1e-5,0 2e-5,1e-5 3e-5,1e-5 13.40013,6.84855 28.21932,11.31449 43.52951,12.21862 10e-6,0 3e-5,0 4e-5,10e-6 13.50856,0.76416 27.12745,-1.36253 39.75981,-6.20369 1e-5,0 2e-5,-10e-6 3e-5,-10e-6 12.20794,-4.6955 23.36617,-11.78539 32.91112,-20.55593 9.58457,-8.80071 17.58734,-19.23688 23.68344,-30.67724 4.64838,-8.711 8.19539,-18.02057 10.47801,-27.65307 0.68343,-2.88404 1.28184,-5.98552 1.74029,-9.27332 0.80157,-5.74367 1.15539,-12.05668 0.81062,-18.6794 -0.34478,-6.62273 -1.39089,-13.55273 -3.29866,-20.45427 -1.81397,-6.52849 -4.40187,-12.97548 -7.68197,-19.06479 -3.2801,-6.08932 -7.25033,-11.81799 -11.72032,-16.95591 -5.56387,-6.37968 -11.81798,-11.8223 -18.24382,-16.30085 -6.42585,-4.47856 -13.01501,-7.99683 -19.26755,-10.66611 5.47301,4.25112 11.07336,9.04052 16.36371,14.38913 5.29034,5.34861 10.26398,11.25702 14.50145,17.66825 3.45901,5.21906 6.43213,10.77216 8.81363,16.46976 2.38149,5.6976 4.16989,11.53715 5.33217,17.31158 1.24363,6.12618 1.80209,12.19699 1.84198,17.97449 0.0399,5.7775 -0.43713,11.25959 -1.21862,16.26119 -0.44675,2.8572 -0.99263,5.56181 -1.59255,8.09185 -1.99916,8.43103 -5.12416,16.62108 -9.21198,24.29451 -5.37488,10.07305 -12.41475,19.26629 -20.79476,26.94843 -8.33551,7.63514 -18.00977,13.80639 -28.45922,17.79999 -10.76229,4.13068 -22.44541,5.95546 -33.95249,5.29796 -13.07138,-0.70884 -26.03894,-4.67479 -37.97459,-10.71862 -1e-5,-1e-5 -2e-5,-1e-5 -3e-5,-2e-5 C 197.22835,833.97673 172.64201,816.39507 149.82453,796.7314 127.10115,777.12187 106.19439,755.41495 87.892176,731.72144 79.711271,721.12761 72.080726,710.1645 65.326743,698.73685 59.495065,688.85401 54.293691,678.71059 50.383352,668.19374 c -3.144825,-8.55087 -5.563142,-17.16933 -5.989384,-25.68643 -10e-7,-10e-6 -10e-7,-2e-5 -2e-6,-4e-5 -0.181664,-3.50972 -0.06406,-6.93829 0.544451,-10.16259 2e-6,-1e-5 4e-6,-2e-5 6e-6,-3e-5 0.549714,-2.90616 1.437433,-5.67627 2.754611,-8.0973 5e-6,-10e-6 9e-6,-2e-5 1.4e-5,-2e-5 2.091293,-4.04267 5.687861,-7.52 9.852334,-10.29787 5.042772,-3.34724 11.086497,-5.53765 17.449948,-7.12986 1.2e-5,0 2.3e-5,0 3.5e-5,-1e-5 17.322839,-4.31285 36.035225,-3.3432 54.575935,-0.6978 2e-5,0 3e-5,0 4e-5,0 24.79691,3.62943 49.0785,11.12061 72.51532,20.76105 28.55268,11.76128 55.733,26.9044 81.24768,44.48063 z"
           id="path14309"
           inkscape:connector-curvature="0"
           sodipodi:nodetypes="cssc"
           inkscape:path-effect="#path-effect3049"
           inkscape:original-d="M 287.3064,665.59955 C 175.43242,588.50434 63.197485,580.50586 41.523495,620.94027 15.171123,670.10254 117.04033,801.00785 220.66568,853.7387 332.51,910.65186 427.06607,743.43995 310.19159,675.71146" />
        <path
           clip-path="url(#clipPath3874)"
           sodipodi:nodetypes="cccc"
           inkscape:connector-curvature="0"
           id="path14311"
           d="m 202.44618,843.71503 c -29.63861,-26.95183 -24.8534,-60.88792 -2.43509,-75.16533 -26.25159,-34.58694 -7.09765,-76.43209 34.1572,-69.87826 0.7171,-31.9307 29.53414,-58.15464 66.51041,-48.79599"
           style="fill:none;stroke:#1c92cd;stroke-width:14;stroke-linecap:butt;stroke-linejoin:miter;stroke-miterlimit:4;stroke-opacity:1;stroke-dasharray:none;stroke-dashoffset:0" />
      </g>
      <g
         id="g4612">
        <path
           sodipodi:nodetypes="cccccccccc"
           inkscape:connector-curvature="0"
           id="path4604"
           d="m 412.25801,176.20812 c 42.87723,-8.59278 65.7876,28.69951 61.64825,87.68569 42.28034,-19.06846 62.97372,-53.70102 57.56783,-92.20138 37.97,16.09094 54.36395,50.6637 50.32904,93.5864 42.8382,-23.47067 58.0467,-58.22992 55.7368,-95.8053 39.32008,20.71579 58.44777,57.66311 57.81224,100.76316 40.31371,-23.61642 54.35257,-58.31456 50.06869,-99.67021 38.83403,24.63891 57.20122,58.90885 56.78668,105.97009 C 930.42431,142.09661 776.85621,-131.59784 358.4,84.410811 z"
           style="fill:#961370;fill-opacity:1;stroke:none" />
        <path
           sodipodi:nodetypes="cccccc"
           inkscape:connector-curvature="0"
           id="path4324"
           d="m 695.35217,270.23669 c 40.31371,-23.61642 54.35257,-58.31456 50.06869,-99.67021 38.83403,24.63891 57.20122,58.90885 56.78668,105.97009 C 930.42431,142.09661 776.85621,-131.59784 358.4,84.410811 l 22.26686,37.952349 C 687.9605,-30.229657 761.28991,164.42095 695.35217,270.23669 z"
           style="fill:#f3a4d9;fill-opacity:1;stroke:none" />
        <path
           style="fill:none;stroke:#d91e9b;stroke-width:14;stroke-miterlimit:20;stroke-opacity:1;stroke-dasharray:none"
           d="m 412.25801,176.20812 c 42.87723,-8.59278 65.7876,28.69951 61.64825,87.68569 42.28034,-19.06846 62.97372,-53.70102 57.56783,-92.20138 37.97,16.09094 54.36395,50.6637 50.32904,93.5864 42.8382,-23.47067 58.0467,-58.22992 55.7368,-95.8053 39.32008,20.71579 58.44777,57.66311 57.81224,100.76316 40.31371,-23.61642 54.35257,-58.31456 50.06869,-99.67021 38.83403,24.63891 57.20122,58.90885 56.78668,105.97009 C 930.42431,142.09661 776.85621,-131.59784 358.4,84.410811 z"
           id="path3973"
           inkscape:connector-curvature="0"
           sodipodi:nodetypes="cccccccccc" />
        <g
           id="g3963"
           transform="matrix(0.99923081,0.03921477,-0.03921477,0.99923081,0.72311185,-29.828558)"
           clip-path="url(#clipPath4608)">
          <path
             sodipodi:nodetypes="ccc"
             inkscape:connector-curvature="0"
             id="path3954"
             d="m 631.32503,139.53074 75.4386,50.81118 C 848.54889,-87.56416 814.5656,-108.49 631.32503,139.53074 z"
             style="fill:#6dc6fb;fill-opacity:1;fill-rule:nonzero;stroke:#1c92cd;stroke-width:14;stroke-linecap:butt;stroke-linejoin:miter;stroke-miterlimit:4;stroke-opacity:1;stroke-dasharray:none;stroke-dashoffset:0" />
          <path
             d="M 720.5,22.5 C 743.5,28 767,25 787,12.5 M 682.5,70 c 28.5,10 56,8 85.5,-8.5 m -117.5,52 c 27,14 62,14.5 95,-1"
             style="fill:none;stroke:#1c92cd;stroke-width:7;stroke-linecap:butt;stroke-linejoin:miter;stroke-miterlimit:4;stroke-opacity:1;stroke-dasharray:none;stroke-dashoffset:0"
             id="path3960"
             inkscape:connector-curvature="0" />
        </g>
      </g>
      <g
         transform="matrix(-3.1945759,-0.62460067,-0.62460067,3.1945759,3789.7326,-650.99459)"
         id="g6747"
         style="display:inline">
        <path
           sodipodi:nodetypes="cccccccc"
           inkscape:connector-curvature="0"
           id="path6745"
           d="m 990.13473,465.60736 c -3.50292,42.98693 -23.33253,90.74639 -59.7253,108.0176 10.22395,2.80273 19.3053,1.99012 28.36305,-0.96666 -15.14614,14.88496 -18.89492,38.46556 -6.17364,58.58839 0.51749,-15.15914 7.30452,-27.89294 18.16695,-35.06596 -4.9855,21.60672 1.10501,49.4469 23.03696,64.80102 -17.88048,-65.15407 22.47485,-121.21813 7.15965,-196.78893 z"
           style="fill:#f3a4d9;fill-opacity:1;stroke:none" />
        <path
           sodipodi:nodetypes="cccccc"
           inkscape:connector-curvature="0"
           id="path6743"
           d="m 990.13473,465.60736 c -3.50292,42.98693 -23.33253,90.74639 -59.7253,108.0176 10.22395,2.80273 19.3053,1.99012 28.36305,-0.96666 -15.14614,14.88496 -18.89492,38.46556 -6.17364,58.58839 -13.33966,-51.08618 47.71276,-39.94871 43.00502,-166.38163 z"
           style="fill:#961370;fill-opacity:1;stroke:none" />
        <path
           style="fill:none;stroke:#d91e9b;stroke-width:4.30099058;stroke-linecap:butt;stroke-linejoin:miter;stroke-miterlimit:20;stroke-opacity:1;stroke-dasharray:none"
           d="m 990.13473,465.60736 c -3.50292,42.98693 -23.33253,90.74639 -59.7253,108.0176 10.22395,2.80273 19.3053,1.99012 28.36305,-0.96666 -15.14614,14.88496 -18.89492,38.46556 -6.17364,58.58839 0.51749,-15.15914 7.30452,-27.89294 18.16695,-35.06596 -4.9855,21.60672 1.10501,49.4469 23.03696,64.80102 -17.88048,-65.15407 22.47485,-121.21813 7.15965,-196.78893 z"
           id="path4011-2"
           inkscape:connector-curvature="0"
           sodipodi:nodetypes="cccccccc" />
      </g>
      <g
         id="g4488">
        <path
           sodipodi:nodetypes="csc"
           inkscape:connector-curvature="0"
           id="path4486"
           d="M 365.49344,391.79408 C 191.69495,238.26399 303.85453,40.694689 324.37661,37.99334 c 20.58205,-2.709242 102.76303,73.17528 112.02592,169.67"
           style="fill:#6dc6fb;fill-opacity:1;stroke:none" />
        <path
           style="fill:#1c92cd;fill-opacity:1;stroke:none"
           d="m 289.48155,306.15707 c 1.95786,3.93515 4.4652,8.63868 7.50536,13.76441 3.04017,5.12574 6.6154,10.6719 10.64798,16.30178 4.06937,5.67841 8.5958,11.43818 13.41343,16.98952 4.81764,5.55135 9.92505,10.89397 15.08676,15.79636 5.16171,4.90239 10.37559,9.3651 15.36388,13.2132 4.98829,3.84811 9.74884,7.08299 13.99448,9.57174 -5.98703,-7.81236 -14.40936,-17.71039 -22.94051,-28.62513 -4.26558,-5.45736 -8.56332,-11.16243 -12.66455,-16.92491 -4.10124,-5.76249 -8.00495,-11.58246 -11.55167,-17.22216 -3.51516,-5.58664 -6.68145,-10.99538 -9.41902,-15.94329 -2.73757,-4.94792 -5.04847,-9.43371 -6.90278,-13.15882 -4.84343,-9.72995 -9.0442,-19.76727 -12.52332,-30.04394 -6.27687,-18.52149 -10.23221,-37.84107 -11.81815,-57.35045 -1.44244,-17.72344 -0.94163,-35.62138 1.33398,-53.29791 2.02933,-15.75191 5.45893,-31.32877 10.2137,-46.48885 3.9732,-12.65497 8.82807,-25.000728 14.73872,-36.775776 2.37537,-4.73182 4.90613,-9.349305 7.65299,-13.794157 0,-5e-6 1e-5,-10e-6 1e-5,-1.6e-5 2.21093,-3.571216 4.51088,-6.996848 7.01059,-10.165162 1.8486,-2.309824 3.60387,-4.392083 5.47735,-5.962057 0.64854,-0.531218 1.15032,-0.940346 1.54274,-1.139234 0.35509,-0.101064 0.23739,-0.148681 -0.35337,0.03126 0.20722,-0.114881 0.88594,0.06634 1.94853,0.252652 1e-5,1e-6 1e-5,2e-6 2e-5,3e-6 1.3738,0.320768 2.86317,0.94098 4.48661,1.689342 4.53647,2.116048 8.88969,5.138736 13.27541,8.470462 0,4e-6 10e-6,7e-6 10e-6,1.1e-5 12.75095,9.750944 23.92748,21.745726 34.14313,34.623214 7.8025,9.868144 14.89892,20.294723 21.17807,31.180433 2.74937,4.76639 7.15164,12.42416 11.70729,21.55958 0,1e-5 10e-6,1e-5 10e-6,1e-5 2.6612,5.34292 5.37542,11.19166 7.91587,17.20428 2.54045,6.01263 4.90434,12.18831 6.98508,18.1391 2.08073,5.95079 3.8787,11.67583 5.42729,16.75516 1.54859,5.07932 2.85318,9.51296 4.04506,12.85562 0.53423,-3.50836 0.76754,-8.19214 0.56559,-13.62352 -0.20194,-5.43138 -0.84508,-11.60779 -1.961,-18.06766 -1.11593,-6.45988 -2.70546,-13.20011 -4.64756,-19.76913 -1.94211,-6.56902 -4.23394,-12.96459 -6.61869,-18.7868 0,0 0,0 0,0 -4.06748,-9.94489 -8.39053,-18.23036 -11.29154,-23.26103 C 405.82385,102.6659 398.34522,91.675921 390.12465,81.284552 379.46653,67.769313 367.47,54.966602 353.5215,44.237549 c 0,-4e-6 -1e-5,-9e-6 -1e-5,-1.3e-5 -4.7451,-3.672125 -9.94238,-7.210189 -15.8076,-10.01659 -2.10833,-1.017643 -4.46984,-1.948948 -7.10302,-2.622621 -10e-6,-3e-6 -10e-6,-5e-6 -2e-5,-7e-6 -1.90833,-0.551002 -4.32013,-0.829713 -7.14778,-0.545111 -2.13921,0.38376 -3.71102,0.996789 -4.71515,1.664981 -1.50675,0.875954 -2.74583,1.802208 -3.75464,2.69061 -2.9253,2.54047 -5.3118,5.280717 -7.37108,7.936024 -2.92211,3.720335 -5.52548,7.580082 -7.92088,11.467508 -2.99739,4.856346 -5.72891,9.833499 -8.25526,14.873163 -6.28192,12.530607 -11.41831,25.572176 -15.58325,38.863197 -4.99963,15.93887 -8.60486,32.31601 -10.74061,48.8897 -2.39955,18.60786 -2.92329,37.48011 -1.40277,56.22083 0,0 0,1e-5 0,2e-5 1.67647,20.64002 5.86327,41.07915 12.51254,60.7091 3.69281,10.89125 8.13566,21.51016 13.24958,31.78873 z"
           id="path3030"
           inkscape:connector-curvature="0"
           sodipodi:nodetypes="csc"
           inkscape:path-effect="#path-effect3804"
           inkscape:original-d="M 365.49344,391.79408 C 191.69495,238.26399 303.85453,40.694689 324.37661,37.99334 c 20.58205,-2.709242 102.76303,73.17528 112.02592,169.67" />
        <path
           style="fill:#1c92cd;fill-opacity:1;stroke:none"
           d="m 351.90234,294.99905 c -33.01898,-40.25463 -43.9302,-110.02397 -22.00888,-163.38721 -5.88493,51.34575 1.18675,118.98522 22.00888,163.38721 z"
           id="path4353"
           inkscape:connector-curvature="0"
           sodipodi:nodetypes="ccc" />
      </g>
    </g>
    <g
       id="g7267">
      <path
         sodipodi:nodetypes="ccccc"
         inkscape:connector-curvature="0"
         id="path3838"
         d="m 896,704 -64,448 1088,0 0,-448 z"
         style="fill:#adc8cd;fill-opacity:1;fill-rule:nonzero;stroke:none" />
      <path
         sodipodi:nodetypes="cccc"
         inkscape:connector-curvature="0"
         id="path3850"
         d="M 896,1012 C 991.93081,787.59877 1339.7678,747.92193 1824,748.12541 L 1824,1012 z"
         style="fill:#538189;fill-opacity:1;stroke:none" />
      <path
         clip-path="url(#clipPath3856)"
         sodipodi:nodetypes="ccccc"
         inkscape:connector-curvature="0"
         id="path3852"
         d="m 800,816 c 400.5016,-71.74919 756.8086,-93.56108 1152,-89.68649 L 1952,672 800,672 z"
         style="fill:#95b8be;fill-opacity:1;stroke:none" />
      <g
         clip-path="url(#clipPath7263)"
         transform="matrix(0.9992693,0,0,0.9992693,365.66981,-63.332582)"
         id="g7236">
        <rect
           style="opacity:0.6;fill:#e80c9d;fill-opacity:1;fill-rule:nonzero;stroke:none"
           id="rect7224"
           width="192"
           height="216.5"
           x="1120"
           y="908.5"
           clip-path="url(#clipPath7232)" />
        <path
           sodipodi:nodetypes="ssssssccs"
           inkscape:connector-curvature="0"
           d="m 1189.1183,905.94042 -63.0178,181.06968 c -6.1257,17.601 0,17.9798 17.9799,17.9798 l 143.8392,0 c 17.9799,0 24.1055,-0.379 17.9799,-17.9798 l -63.0178,-181.06968 c -4.5793,-13.15766 -5.477,-16.86537 -5.477,-59.67469 l -42.8094,0 c 0,42.80932 -0.8977,46.51703 -5.477,59.67469 z"
           style="opacity:0.1;fill:#ffffff;stroke:none"
           id="path7226" />
        <rect
           style="fill:#30326a;fill-opacity:1;stroke:none;stroke-width:2;stroke-miterlimit:4;stroke-opacity:1;stroke-dasharray:none"
           id="rect5549"
           width="61.17157"
           height="20"
           x="1185.4141"
           y="831.82312" />
        <path
           style="fill:none;stroke:#1e1f42;stroke-width:1.00073123;stroke-linecap:butt;stroke-linejoin:miter;stroke-miterlimit:4;stroke-opacity:1;stroke-dasharray:none;stroke-dashoffset:0"
           d="m 1230.7148,856.53309 0,-29.39752 m -29.4296,0 0,29.39752"
           id="path7228"
           inkscape:connector-curvature="0"
           sodipodi:nodetypes="cccc"
           clip-path="url(#clipPath7302)" />
        <path
           sodipodi:nodetypes="ccc"
           inkscape:connector-curvature="0"
           id="path7249"
           d="m 1288.3118,1069.0257 c -23.039,-45.5674 -42.2032,-109.22852 -49.855,-150.69914 z"
           style="opacity:0.15;fill:#ffffff;stroke:none" />
        <text
           transform="matrix(0.21418079,-0.98168803,0.97694297,0.19117857,0,0)"
           sodipodi:linespacing="125%"
           id="text7257"
           y="1385.541"
           x="-823.67688"
           style="font-size:20px;font-style:normal;font-variant:normal;font-weight:300;font-stretch:normal;line-height:125%;letter-spacing:0px;word-spacing:0px;opacity:0.8;fill:#ffffff;fill-opacity:1;stroke:none;font-family:League Script Thin;-inkscape-font-specification:League Script Thin"
           xml:space="preserve"><tspan
             y="1385.541"
             x="-823.67688"
             id="tspan7259"
             sodipodi:role="line">Crystalaplex</tspan></text>
      </g>
    </g>
    <g
       id="g4102">
      <path
         d="m 1316.3528,-35.70724 c 0,0 -3.5618,3.45582 -11.3151,3.45582 -7.7535,0 -11.3151,-3.45582 -11.3151,-3.45582 l 0,19.9972 c 0,0 3.5616,-3.45582 11.3151,-3.45582 7.7533,0 11.3151,3.45582 11.3151,3.45582 z M 1293.7226,100.29 c 0,0 3.5618,-3.45582 11.3151,-3.45582 7.7535,0 11.3151,3.45582 11.3151,3.45582 l 0,-19.9972 c 0,0 -3.5616,3.45582 -11.3151,3.45582 -7.7533,0 -11.3151,-3.45582 -11.3151,-3.45582 z"
         style="fill:#7f5bd4;fill-opacity:1;fill-rule:nonzero;stroke:none"
         id="path3909"
         inkscape:connector-curvature="0" />
      <g
         id="g3118"
         transform="translate(0,-164)">
        <path
           sodipodi:nodetypes="csccscc"
           inkscape:connector-curvature="0"
           id="path4124"
           d="m 1297.0377,209.48209 0,251.51791 c 0,23.89567 5.8423,66 5.8423,88 l 4.3154,0 c 0,-22 5.8423,-64.10433 5.8423,-88 l 0,-251.51791 z"
           style="opacity:0.6;fill:#62ede3;fill-opacity:1;stroke:none" />
        <path
           style="opacity:0.1;fill:#ffffff;stroke:none"
           d="m 1297.0377,-473.45629 0,934.45629 c 0,23.89567 5.8423,66 5.8423,88 l 4.3154,0 c 0,-22 5.8423,-64.10433 5.8423,-88 l 0,-934.45629 z"
           id="path7281"
           inkscape:connector-curvature="0"
           sodipodi:nodetypes="csccscc" />
        <path
           style="opacity:0.8;fill:none;stroke:#ffffff;stroke-width:0.34999999;stroke-linecap:butt;stroke-linejoin:miter;stroke-miterlimit:4;stroke-opacity:1;stroke-dasharray:none;stroke-dashoffset:0"
           d="m 1295.2685,-402 0,752 m 0,-751 20,0 m -20,1.5 7.5,0 m -7.5,1.5 7.5,0 m -7.5,1.5 7.5,0 m -7.5,1.5 7.5,0 m -7.5,1.5 7.5,0 m -7.5,1.5 7.5,0 m -7.5,1.5 7.5,0 m -7.5,1.5 7.5,0 m -7.5,1.5 7.5,0 m -7.5,1.5 20,0 m -20,1.5 7.5,0 m -7.5,1.5 7.5,0 m -7.5,1.5 7.5,0 m -7.5,1.5 7.5,0 m -7.5,1.5 7.5,0 m -7.5,1.5 7.5,0 m -7.5,1.5 7.5,0 m -7.5,1.5 7.5,0 m -7.5,1.5 7.5,0 m -7.5,1.5 20,0 m -20,1.5 7.5,0 m -7.5,1.5 7.5,0 m -7.5,1.5 7.5,0 m -7.5,1.5 7.5,0 m -7.5,1.5 7.5,0 m -7.5,1.5 7.5,0 m -7.5,1.5 7.5,0 m -7.5,1.5 7.5,0 m -7.5,1.5 7.5,0 m -7.5,1.5 20,0 m -20,1.5 7.5,0 m -7.5,1.5 7.5,0 m -7.5,1.5 7.5,0 m -7.5,1.5 7.5,0 m -7.5,1.5 7.5,0 m -7.5,1.5 7.5,0 m -7.5,1.5 7.5,0 m -7.5,1.5 7.5,0 m -7.5,1.5 7.5,0 m -7.5,1.5 20,0 m -20,1.5 7.5,0 m -7.5,1.5 7.5,0 m -7.5,1.5 7.5,0 m -7.5,1.5 7.5,0 m -7.5,1.5 7.5,0 m -7.5,1.5 7.5,0 m -7.5,1.5 7.5,0 m -7.5,1.5 7.5,0 m -7.5,1.5 7.5,0 m -7.5,1.5 20,0 m -20,1.5 7.5,0 m -7.5,1.5 7.5,0 m -7.5,1.5 7.5,0 m -7.5,1.5 7.5,0 m -7.5,1.5 7.5,0 m -7.5,1.5 7.5,0 m -7.5,1.5 7.5,0 m -7.5,1.5 7.5,0 m -7.5,1.5 7.5,0 m -7.5,1.5 20,0 m -20,1.5 7.5,0 m -7.5,1.5 7.5,0 m -7.5,1.5 7.5,0 m -7.5,1.5 7.5,0 m -7.5,1.5 7.5,0 m -7.5,1.5 7.5,0 m -7.5,1.5 7.5,0 m -7.5,1.5 7.5,0 m -7.5,1.5 7.5,0 m -7.5,1.5 20,0 m -20,1.5 7.5,0 m -7.5,1.5 7.5,0 m -7.5,1.5 7.5,0 m -7.5,1.5 7.5,0 m -7.5,1.5 7.5,0 m -7.5,1.5 7.5,0 m -7.5,1.5 7.5,0 m -7.5,1.5 7.5,0 m -7.5,1.5 7.5,0 m -7.5,1.5 20,0 m -20,1.5 7.5,0 m -7.5,1.5 7.5,0 m -7.5,1.5 7.5,0 m -7.5,1.5 7.5,0 m -7.5,1.5 7.5,0 m -7.5,1.5 7.5,0 m -7.5,1.5 7.5,0 m -7.5,1.5 7.5,0 m -7.5,1.5 7.5,0 m -7.5,1.5 20,0 m -20,1.5 7.5,0 m -7.5,1.5 7.5,0 m -7.5,1.5 7.5,0 m -7.5,1.5 7.5,0 m -7.5,1.5 7.5,0 m -7.5,1.5 7.5,0 m -7.5,1.5 7.5,0 m -7.5,1.5 7.5,0 m -7.5,1.5 7.5,0 m -7.5,1.5 20,0 m -20,1.5 7.5,0 m -7.5,1.5 7.5,0 m -7.5,1.5 7.5,0 m -7.5,1.5 7.5,0 m -7.5,1.5 7.5,0 m -7.5,1.5 7.5,0 m -7.5,1.5 7.5,0 m -7.5,1.5 7.5,0 m -7.5,1.5 7.5,0 m -7.5,1.5 20,0 m -20,1.5 7.5,0 m -7.5,1.5 7.5,0 m -7.5,1.5 7.5,0 m -7.5,1.5 7.5,0 m -7.5,1.5 7.5,0 m -7.5,1.5 7.5,0 m -7.5,1.5 7.5,0 m -7.5,1.5 7.5,0 m -7.5,1.5 7.5,0 m -7.5,1.5 20,0 m -20,1.5 7.5,0 m -7.5,1.5 7.5,0 m -7.5,1.5 7.5,0 m -7.5,1.5 7.5,0 m -7.5,1.5 7.5,0 m -7.5,1.5 7.5,0 m -7.5,1.5 7.5,0 m -7.5,1.5 7.5,0 m -7.5,1.5 7.5,0 m -7.5,1.5 20,0 m -20,1.5 7.5,0 m -7.5,1.5 7.5,0 m -7.5,1.5 7.5,0 m -7.5,1.5 7.5,0 m -7.5,1.5 7.5,0 m -7.5,1.5 7.5,0 m -7.5,1.5 7.5,0 m -7.5,1.5 7.5,0 m -7.5,1.5 7.5,0 m -7.5,1.5 20,0 m -20,1.5 7.5,0 m -7.5,1.5 7.5,0 m -7.5,1.5 7.5,0 m -7.5,1.5 7.5,0 m -7.5,1.5 7.5,0 m -7.5,1.5 7.5,0 m -7.5,1.5 7.5,0 m -7.5,1.5 7.5,0 m -7.5,1.5 7.5,0 m -7.5,1.5 20,0 m -20,1.5 7.5,0 m -7.5,1.5 7.5,0 m -7.5,1.5 7.5,0 m -7.5,1.5 7.5,0 m -7.5,1.5 7.5,0 m -7.5,1.5 7.5,0 m -7.5,1.5 7.5,0 m -7.5,1.5 7.5,0 m -7.5,1.5 7.5,0 m -7.5,1.5 20,0 m -20,1.5 7.5,0 m -7.5,1.5 7.5,0 m -7.5,1.5 7.5,0 m -7.5,1.5 7.5,0 m -7.5,1.5 7.5,0 m -7.5,1.5 7.5,0 m -7.5,1.5 7.5,0 m -7.5,1.5 7.5,0 m -7.5,1.5 7.5,0 m -7.5,1.5 20,0 m -20,1.5 7.5,0 m -7.5,1.5 7.5,0 m -7.5,1.5 7.5,0 m -7.5,1.5 7.5,0 m -7.5,1.5 7.5,0 m -7.5,1.5 7.5,0 m -7.5,1.5 7.5,0 m -7.5,1.5 7.5,0 m -7.5,1.5 7.5,0 m -7.5,1.5 20,0 m -20,1.5 7.5,0 m -7.5,1.5 7.5,0 m -7.5,1.5 7.5,0 m -7.5,1.5 7.5,0 m -7.5,1.5 7.5,0 m -7.5,1.5 7.5,0 m -7.5,1.5 7.5,0 m -7.5,1.5 7.5,0 m -7.5,1.5 7.5,0 m -7.5,1.5 20,0 m -20,1.5 7.5,0 m -7.5,1.5 7.5,0 m -7.5,1.5 7.5,0 m -7.5,1.5 7.5,0 m -7.5,1.5 7.5,0 m -7.5,1.5 7.5,0 m -7.5,1.5 7.5,0 m -7.5,1.5 7.5,0 m -7.5,1.5 7.5,0 m -7.5,1.5 20,0 m -20,1.5 7.5,0 m -7.5,1.5 7.5,0 m -7.5,1.5 7.5,0 m -7.5,1.5 7.5,0 m -7.5,1.5 7.5,0 m -7.5,1.5 7.5,0 m -7.5,1.5 7.5,0 m -7.5,1.5 7.5,0 m -7.5,1.5 7.5,0 m -7.5,1.5 20,0 m -20,1.5 7.5,0 m -7.5,1.5 7.5,0 m -7.5,1.5 7.5,0 m -7.5,1.5 7.5,0 m -7.5,1.5 7.5,0 m -7.5,1.5 7.5,0 m -7.5,1.5 7.5,0 m -7.5,1.5 7.5,0 m -7.5,1.5 7.5,0 m -7.5,1.5 20,0 m -20,1.5 7.5,0 m -7.5,1.5 7.5,0 m -7.5,1.5 7.5,0 m -7.5,1.5 7.5,0 m -7.5,1.5 7.5,0 m -7.5,1.5 7.5,0 m -7.5,1.5 7.5,0 m -7.5,1.5 7.5,0 m -7.5,1.5 7.5,0 m -7.5,1.5 20,0 m -20,1.5 7.5,0 m -7.5,1.5 7.5,0 m -7.5,1.5 7.5,0 m -7.5,1.5 7.5,0 m -7.5,1.5 7.5,0 m -7.5,1.5 7.5,0 m -7.5,1.5 7.5,0 m -7.5,1.5 7.5,0 m -7.5,1.5 7.5,0 m -7.5,1.5 20,0 m -20,1.5 7.5,0 m -7.5,1.5 7.5,0 m -7.5,1.5 7.5,0 m -7.5,1.5 7.5,0 m -7.5,1.5 7.5,0 m -7.5,1.5 7.5,0 m -7.5,1.5 7.5,0 m -7.5,1.5 7.5,0 m -7.5,1.5 7.5,0 m -7.5,1.5 20,0 m -20,1.5 7.5,0 m -7.5,1.5 7.5,0 m -7.5,1.5 7.5,0 m -7.5,1.5 7.5,0 m -7.5,1.5 7.5,0 m -7.5,1.5 7.5,0 m -7.5,1.5 7.5,0 m -7.5,1.5 7.5,0 m -7.5,1.5 7.5,0 m -7.5,1.5 20,0 m -20,1.5 7.5,0 m -7.5,1.5 7.5,0 m -7.5,1.5 7.5,0 m -7.5,1.5 7.5,0 m -7.5,1.5 7.5,0 m -7.5,1.5 7.5,0 m -7.5,1.5 7.5,0 m -7.5,1.5 7.5,0 m -7.5,1.5 7.5,0 m -7.5,1.5 20,0 m -20,1.5 7.5,0 m -7.5,1.5 7.5,0 m -7.5,1.5 7.5,0 m -7.5,1.5 7.5,0 m -7.5,1.5 7.5,0 m -7.5,1.5 7.5,0 m -7.5,1.5 7.5,0 m -7.5,1.5 7.5,0 m -7.5,1.5 7.5,0 m -7.5,1.5 20,0 m -20,1.5 7.5,0 m -7.5,1.5 7.5,0 m -7.5,1.5 7.5,0 m -7.5,1.5 7.5,0 m -7.5,1.5 7.5,0 m -7.5,1.5 7.5,0 m -7.5,1.5 7.5,0 m -7.5,1.5 7.5,0 m -7.5,1.5 7.5,0 m -7.5,1.5 20,0 m -20,1.5 7.5,0 m -7.5,1.5 7.5,0 m -7.5,1.5 7.5,0 m -7.5,1.5 7.5,0 m -7.5,1.5 7.5,0 m -7.5,1.5 7.5,0 m -7.5,1.5 7.5,0 m -7.5,1.5 7.5,0 m -7.5,1.5 7.5,0 m -7.5,1.5 20,0 m -20,1.5 7.5,0 m -7.5,1.5 7.5,0 m -7.5,1.5 7.5,0 m -7.5,1.5 7.5,0 m -7.5,1.5 7.5,0 m -7.5,1.5 7.5,0 m -7.5,1.5 7.5,0 m -7.5,1.5 7.5,0 m -7.5,1.5 7.5,0 m -7.5,1.5 20,0 m -20,1.5 7.5,0 m -7.5,1.5 7.5,0 m -7.5,1.5 7.5,0 m -7.5,1.5 7.5,0 m -7.5,1.5 7.5,0 m -7.5,1.5 7.5,0 m -7.5,1.5 7.5,0 m -7.5,1.5 7.5,0 m -7.5,1.5 7.5,0 m -7.5,1.5 20,0 m -20,1.5 7.5,0 m -7.5,1.5 7.5,0 m -7.5,1.5 7.5,0 m -7.5,1.5 7.5,0 m -7.5,1.5 7.5,0 m -7.5,1.5 7.5,0 m -7.5,1.5 7.5,0 m -7.5,1.5 7.5,0 m -7.5,1.5 7.5,0 m -7.5,1.5 20,0 m -20,1.5 7.5,0 m -7.5,1.5 7.5,0 m -7.5,1.5 7.5,0 m -7.5,1.5 7.5,0 m -7.5,1.5 7.5,0 m -7.5,1.5 7.5,0 m -7.5,1.5 7.5,0 m -7.5,1.5 7.5,0 m -7.5,1.5 7.5,0 m -7.5,1.5 20,0 m -20,1.5 7.5,0 m -7.5,1.5 7.5,0 m -7.5,1.5 7.5,0 m -7.5,1.5 7.5,0 m -7.5,1.5 7.5,0 m -7.5,1.5 7.5,0 m -7.5,1.5 7.5,0 m -7.5,1.5 7.5,0 m -7.5,1.5 7.5,0 m -7.5,1.5 20,0 m -20,1.5 7.5,0 m -7.5,1.5 7.5,0 m -7.5,1.5 7.5,0 m -7.5,1.5 7.5,0 m -7.5,1.5 7.5,0 m -7.5,1.5 7.5,0 m -7.5,1.5 7.5,0 m -7.5,1.5 7.5,0 m -7.5,1.5 7.5,0 m -7.5,1.5 20,0 m -20,1.5 7.5,0 m -7.5,1.5 7.5,0 m -7.5,1.5 7.5,0 m -7.5,1.5 7.5,0 m -7.5,1.5 7.5,0 m -7.5,1.5 7.5,0 m -7.5,1.5 7.5,0 m -7.5,1.5 7.5,0 m -7.5,1.5 7.5,0 m -7.5,1.5 20,0 m -20,1.5 7.5,0 m -7.5,1.5 7.5,0 m -7.5,1.5 7.5,0 m -7.5,1.5 7.5,0 m -7.5,1.5 7.5,0 m -7.5,1.5 7.5,0 m -7.5,1.5 7.5,0 m -7.5,1.5 7.5,0 m -7.5,1.5 7.5,0 m -7.5,1.5 20,0 m -20,1.5 7.5,0 m -7.5,1.5 7.5,0 m -7.5,1.5 7.5,0 m -7.5,1.5 7.5,0 m -7.5,1.5 7.5,0 m -7.5,1.5 7.5,0 m -7.5,1.5 7.5,0 m -7.5,1.5 7.5,0 m -7.5,1.5 7.5,0 m -7.5,1.5 20,0 m -20,1.5 7.5,0 m -7.5,1.5 7.5,0 m -7.5,1.5 7.5,0 m -7.5,1.5 7.5,0 m -7.5,1.5 7.5,0 m -7.5,1.5 7.5,0 m -7.5,1.5 7.5,0 m -7.5,1.5 7.5,0 m -7.5,1.5 7.5,0 m -7.5,1.5 20,0 m -20,1.5 7.5,0 m -7.5,1.5 7.5,0 m -7.5,1.5 7.5,0 m -7.5,1.5 7.5,0 m -7.5,1.5 7.5,0 m -7.5,1.5 7.5,0 m -7.5,1.5 7.5,0 m -7.5,1.5 7.5,0 m -7.5,1.5 7.5,0 m -7.5,1.5 20,0 m -20,1.5 7.5,0 m -7.5,1.5 7.5,0 m -7.5,1.5 7.5,0 m -7.5,1.5 7.5,0 m -7.5,1.5 7.5,0 m -7.5,1.5 7.5,0 m -7.5,1.5 7.5,0 m -7.5,1.5 7.5,0 m -7.5,1.5 7.5,0 m -7.5,1.5 20,0 m -20,1.5 7.5,0 m -7.5,1.5 7.5,0 m -7.5,1.5 7.5,0 m -7.5,1.5 7.5,0 m -7.5,1.5 7.5,0 m -7.5,1.5 7.5,0 m -7.5,1.5 7.5,0 m -7.5,1.5 7.5,0 m -7.5,1.5 7.5,0 m -7.5,1.5 20,0 m -20,1.5 7.5,0 m -7.5,1.5 7.5,0 m -7.5,1.5 7.5,0 m -7.5,1.5 7.5,0 m -7.5,1.5 7.5,0 m -7.5,1.5 7.5,0 m -7.5,1.5 7.5,0 m -7.5,1.5 7.5,0 m -7.5,1.5 7.5,0 m -7.5,1.5 20,0 m -20,1.5 7.5,0 m -7.5,1.5 7.5,0 m -7.5,1.5 7.5,0 m -7.5,1.5 7.5,0 m -7.5,1.5 7.5,0 m -7.5,1.5 7.5,0 m -7.5,1.5 7.5,0 m -7.5,1.5 7.5,0 m -7.5,1.5 7.5,0 m -7.5,1.5 20,0 m -20,1.5 7.5,0 m -7.5,1.5 7.5,0 m -7.5,1.5 7.5,0 m -7.5,1.5 7.5,0 m -7.5,1.5 7.5,0 m -7.5,1.5 7.5,0 m -7.5,1.5 7.5,0 m -7.5,1.5 7.5,0 m -7.5,1.5 7.5,0 m -7.5,1.5 20,0 m -20,1.5 7.5,0 m -7.5,1.5 7.5,0 m -7.5,1.5 7.5,0 m -7.5,1.5 7.5,0 m -7.5,1.5 7.5,0 m -7.5,1.5 7.5,0 m -7.5,1.5 7.5,0 m -7.5,1.5 7.5,0 m -7.5,1.5 7.5,0 m -7.5,1.5 20,0 m -20,1.5 7.5,0 m -7.5,1.5 7.5,0 m -7.5,1.5 7.5,0 m -7.5,1.5 7.5,0 m -7.5,1.5 7.5,0 m -7.5,1.5 7.5,0 m -7.5,1.5 7.5,0 m -7.5,1.5 7.5,0 m -7.5,1.5 7.5,0 m -7.5,1.5 20,0 m -20,1.5 7.5,0 m -7.5,1.5 7.5,0 m -7.5,1.5 7.5,0 m -7.5,1.5 7.5,0 m -7.5,1.5 7.5,0 m -7.5,1.5 7.5,0 m -7.5,1.5 7.5,0 m -7.5,1.5 7.5,0 m -7.5,1.5 7.5,0 m -7.5,1.5 20,0 m -20,1.5 7.5,0 m -7.5,1.5 7.5,0 m -7.5,1.5 7.5,0 m -7.5,1.5 7.5,0 m -7.5,1.5 7.5,0 m -7.5,1.5 7.5,0 m -7.5,1.5 7.5,0 m -7.5,1.5 7.5,0 m -7.5,1.5 7.5,0 m -7.5,1.5 20,0"
           id="path4422"
           inkscape:connector-curvature="0"
           inkscape:path-effect="#path-effect4424"
           inkscape:original-d="m 1295.2685,-402 0,752"
           sodipodi:nodetypes="cc"
           clip-path="url(#clipPath3114)" />
        <path
           sodipodi:type="arc"
           style="fill:#d6e3e6;fill-opacity:1;fill-rule:nonzero;stroke:none"
           id="path3098"
           sodipodi:cx="1305.3673"
           sodipodi:cy="422.39999"
           sodipodi:rx="17.221819"
           sodipodi:ry="17.221819"
           d="m 1322.5891,422.39999 c 0,9.51135 -7.7104,17.22182 -17.2218,17.22182 -9.5113,0 -17.2218,-7.71047 -17.2218,-17.22182 0,-9.51134 7.7105,-17.22182 17.2218,-17.22182 9.5114,0 17.2218,7.71048 17.2218,17.22182 z"
           transform="matrix(0.99526816,0,0,0.99526816,5.7802986,2.6732353)" />
        <path
           id="path3109"
           style="fill:#7f5bd4;fill-opacity:1;fill-rule:nonzero;stroke:none"
           d="m 1279.6009,461.06397 -7.0099,-5.76555 31.6256,-32.84416 26.1242,-37.36901 7.0099,5.76555 -31.6256,32.84416 z"
           inkscape:connector-curvature="0"
           sodipodi:nodetypes="ccccccc" />
        <path
           transform="matrix(0.35504988,0,0,0.35504988,841.50031,273.10143)"
           d="m 1322.5891,422.39999 c 0,9.51135 -7.7104,17.22182 -17.2218,17.22182 -9.5113,0 -17.2218,-7.71047 -17.2218,-17.22182 0,-9.51134 7.7105,-17.22182 17.2218,-17.22182 9.5114,0 17.2218,7.71048 17.2218,17.22182 z"
           sodipodi:ry="17.221819"
           sodipodi:rx="17.221819"
           sodipodi:cy="422.39999"
           sodipodi:cx="1305.3673"
           id="path3103"
           style="fill:#6038c2;fill-opacity:1;fill-rule:nonzero;stroke:none"
           sodipodi:type="arc" />
      </g>
      <path
         d="m 1293.7226,104.29 c 0,0 3.5618,-3.45582 11.3151,-3.45582 7.7535,0 11.3151,3.45582 11.3151,3.45582 l 0,-19.9972 c 0,0 -3.5616,3.45582 -11.3151,3.45582 -7.7533,0 -11.3151,-3.45582 -11.3151,-3.45582 z m 22.6302,-143.99724 c 0,0 -3.5618,3.45582 -11.3151,3.45582 -7.7535,0 -11.3151,-3.45582 -11.3151,-3.45582 l 0,19.9972 c 0,0 3.5616,-3.45582 11.3151,-3.45582 7.7533,0 11.3151,3.45582 11.3151,3.45582 z"
         style="fill:#7f5bd4;fill-opacity:1;fill-rule:nonzero;stroke:none"
         id="path3917"
         inkscape:connector-curvature="0" />
      <path
         style="fill:none;stroke:#c4d7db;stroke-width:4;stroke-linecap:butt;stroke-linejoin:round;stroke-miterlimit:4;stroke-opacity:1;stroke-dasharray:none;stroke-dashoffset:0"
         d="m 1319.7633,-32.79942 c 42,0 42,130.18162 0,130.18162"
         id="path5373"
         inkscape:connector-curvature="0"
         sodipodi:nodetypes="cc" />
      <path
         sodipodi:nodetypes="cc"
         inkscape:connector-curvature="0"
         id="path5379"
         d="m 1362.2051,-265.93452 0,953.40087"
         style="fill:none;stroke:#afb7bb;stroke-width:15;stroke-linecap:round;stroke-miterlimit:4;stroke-opacity:1;stroke-dasharray:none" />
      <rect
         y="-57.724579"
         x="1316.3528"
         height="180.03195"
         width="7.5"
         id="rect3925"
         style="fill:#d6e3e6;fill-opacity:1;stroke:none" />
      <rect
         ry="7.3720069"
         rx="8.1978855"
         y="18.468086"
         x="1338.4054"
         height="27.646591"
         width="41.969673"
         id="rect5371"
         style="fill:#9aa5a9;fill-opacity:1;stroke:none" />
      <path
         style="fill:#302a43;fill-opacity:1;fill-rule:nonzero;stroke:none"
         d="m 1070.8582,704 14.8945,-31.33818 342.3346,0 L 1442.9818,704 z"
         id="path5377"
         inkscape:connector-curvature="0"
         sodipodi:nodetypes="ccccc" />
      <g
         transform="translate(53.033441,1.48496)"
         id="g4054">
        <rect
           style="opacity:0.6;fill:#1628c5;fill-opacity:1;fill-rule:nonzero;stroke:none"
           id="rect4010"
           width="210.54626"
           height="105.69092"
           x="1138.3561"
           y="588.7973"
           clip-path="url(#clipPath4014)" />
        <path
           style="opacity:0.1;fill:#ffffff;stroke:none"
           d="m 1219.2858,412.04673 0,49.34869 c 0,1.55484 -0.4325,2.60621 -1.0696,4.32449 l -65.3975,176.38213 c -6.0993,16.45036 1.215,29.07482 15.8827,29.07482 l 149.4744,0 c 14.6677,0 21.982,-12.62446 15.8827,-29.07482 L 1268.661,465.71991 c -0.6371,-1.71828 -1.0696,-2.76965 -1.0696,-4.32449 l 0,-49.34869 z"
           id="path3108"
           inkscape:connector-curvature="0"
           sodipodi:nodetypes="csssssssscc" />
        <path
           id="path4026"
           style="opacity:0.8;fill:none;stroke:#ffffff;stroke-width:1;stroke-miterlimit:4;stroke-dasharray:none"
           d="m 1250.1488,475.79023 -56,0 m 42.1339,54.76155 -56,0 m 43.3503,51.31608 -56.25,0 m 45.8169,44.34951 -60.25,0"
           inkscape:connector-curvature="0"
           sodipodi:nodetypes="cccccccc"
           clip-path="url(#clipPath4032)" />
        <path
           sodipodi:nodetypes="ccc"
           inkscape:connector-curvature="0"
           id="path7249-0"
           d="m 1325.1973,646.87729 c -29.8875,-52.05322 -55.9265,-124.6894 -67.2948,-177.99441 z"
           style="opacity:0.15;fill:#ffffff;stroke:none;display:inline" />
      </g>
    </g>
    <g
       id="g3913">
      <rect
         transform="matrix(0.98516729,-0.17159664,0.17159664,0.98516729,0,0)"
         y="592.64435"
         x="1326.4851"
         height="42.786346"
         width="353.48157"
         id="rect3899"
         style="fill:#f7f7f7;fill-opacity:1;fill-rule:nonzero;stroke:none" />
      <text
         transform="matrix(0.98516729,-0.17159664,0.17159664,0.98516729,0,0)"
         sodipodi:linespacing="125%"
         id="text3901"
         y="619.20837"
         x="1503.1136"
         style="font-size:20px;font-style:normal;font-variant:normal;font-weight:normal;font-stretch:normal;text-align:center;line-height:125%;letter-spacing:0px;word-spacing:0px;text-anchor:middle;fill:#000000;fill-opacity:1;stroke:none;font-family:Liberation Mono;-inkscape-font-specification:Liberation Mono"
         xml:space="preserve"><tspan
           y="619.20837"
           x="1503.1136"
           id="tspan3903"
           sodipodi:role="line">10.1371/journal.pone.0057010</tspan></text>
      <rect
         transform="matrix(0.99215631,-0.1250034,0.1250034,0.99215631,0,0)"
         y="505.66794"
         x="1473.551"
         height="29.129646"
         width="104.40188"
         id="rect3893"
         style="opacity:0.15;fill:#ffffff;fill-opacity:1;fill-rule:nonzero;stroke:none" />
    </g>
    <g
       id="g3952"
       transform="matrix(0.35201456,0,0,0.35201456,757.8654,671.68018)">
      <path
         sodipodi:nodetypes="ccccc"
         inkscape:connector-curvature="0"
         id="path4028"
         d="m 214.21359,953.34553 5.12334,29.4363 25.28145,-15.9321 -15.93204,25.28153 29.43624,5.1233"
         style="fill:none;stroke:#6dc6fb;stroke-width:1.54367542;stroke-linecap:round;stroke-linejoin:round;stroke-miterlimit:4;stroke-opacity:1;stroke-dasharray:none;display:inline" />
      <text
         sodipodi:linespacing="125%"
         id="text3948"
         y="989.53162"
         x="236.985"
         style="font-size:10px;font-style:normal;font-variant:normal;font-weight:normal;font-stretch:normal;line-height:125%;letter-spacing:0px;word-spacing:0px;fill:#ffffff;fill-opacity:1;stroke:none;font-family:Junction;-inkscape-font-specification:Junction"
         xml:space="preserve"><tspan
           y="989.53162"
           x="236.985"
           id="tspan3950"
           sodipodi:role="line">2013</tspan></text>
    </g>
  </g>
</svg>
