<?xml version="1.0" encoding="UTF-8" standalone="no"?>
<!-- Created with Inkscape (http://www.inkscape.org/) -->

<svg
   xmlns:dc="http://purl.org/dc/elements/1.1/"
   xmlns:cc="http://creativecommons.org/ns#"
   xmlns:rdf="http://www.w3.org/1999/02/22-rdf-syntax-ns#"
   xmlns:svg="http://www.w3.org/2000/svg"
   xmlns="http://www.w3.org/2000/svg"
   xmlns:xlink="http://www.w3.org/1999/xlink"
   xmlns:sodipodi="http://sodipodi.sourceforge.net/DTD/sodipodi-0.dtd"
   xmlns:inkscape="http://www.inkscape.org/namespaces/inkscape"
   id="svg2985"
   version="1.1"
   inkscape:version="0.48.4 r9939"
   width="645"
   height="645"
   sodipodi:docname="Taxel Approved.svg"
   inkscape:export-filename="C:\Users\tan jierui\Pictures\Tumblr Avatar.png"
   inkscape:export-xdpi="142.88373"
   inkscape:export-ydpi="142.88373">
  <sodipodi:namedview
     pagecolor="#ffffff"
     bordercolor="#666666"
     borderopacity="1"
     objecttolerance="10"
     gridtolerance="10"
     guidetolerance="10"
     inkscape:pageopacity="0"
     inkscape:pageshadow="2"
     inkscape:window-width="1366"
     inkscape:window-height="706"
     id="namedview2987"
     showgrid="true"
     fit-margin-top="0"
     fit-margin-left="0"
     fit-margin-right="0"
     fit-margin-bottom="0"
     inkscape:zoom="0.80465116"
     inkscape:cx="322.5"
     inkscape:cy="322.5"
     inkscape:window-x="-8"
     inkscape:window-y="-8"
     inkscape:window-maximized="1"
     inkscape:current-layer="layer2"
     showguides="false"
     inkscape:guide-bbox="true">
    <inkscape:grid
       type="xygrid"
       id="grid5296"
       empspacing="7"
       visible="true"
       enabled="false"
       snapvisiblegridlinesonly="true"
       spacingx="20px"
       spacingy="20px"
       originx="322.5px"
       originy="322.5px" />
  </sodipodi:namedview>
  <metadata
     id="metadata2991">
    <rdf:RDF>
      <cc:Work
         rdf:about="">
        <dc:format>image/svg+xml</dc:format>
        <dc:type
           rdf:resource="http://purl.org/dc/dcmitype/StillImage" />
        <dc:title></dc:title>
      </cc:Work>
    </rdf:RDF>
  </metadata>
  <defs
     id="defs2989">
    <clipPath
       clipPathUnits="userSpaceOnUse"
       id="clipPath4104">
      <path
         style="fill:none;stroke:#ff00ff;stroke-width:0.1;stroke-linecap:butt;stroke-linejoin:miter;stroke-miterlimit:4;stroke-opacity:1;stroke-dasharray:none"
         d="m 387.96465,88.342476 a 24.754715,18.313112 0 1 1 -49.50943,0 24.754715,18.313112 0 1 1 49.50943,0 z"
         id="path4106"
         inkscape:connector-curvature="0"
         sodipodi:cx="363.20993"
         sodipodi:cy="88.342476"
         sodipodi:rx="24.754715"
         sodipodi:ry="18.313112"
         sodipodi:type="arc"
         transform="matrix(0.41602231,0.90935442,-0.90935442,0.41602231,292.56611,-278.82151)" />
    </clipPath>
    <linearGradient
       inkscape:collect="always"
       id="linearGradient6622">
      <stop
         style="stop-color:#230f38;stop-opacity:1"
         offset="0"
         id="stop6624" />
      <stop
         style="stop-color:#5c2594;stop-opacity:1"
         offset="1"
         id="stop6626" />
    </linearGradient>
    <clipPath
       clipPathUnits="userSpaceOnUse"
       id="clipPath4081">
      <path
         transform="matrix(0.13236423,0.99120114,-0.99120114,0.13236423,403.26338,-292.24918)"
         sodipodi:type="arc"
         sodipodi:ry="14.420638"
         sodipodi:rx="18.95001"
         sodipodi:cy="84.056953"
         sodipodi:cx="370.53561"
         inkscape:connector-curvature="0"
         id="path4083"
         d="m 389.48562,84.056953 a 18.95001,14.420638 0 1 1 -37.90002,0 18.95001,14.420638 0 1 1 37.90002,0 z"
         style="fill:none;stroke:#000000;stroke-width:0.1;stroke-linecap:butt;stroke-linejoin:miter;stroke-miterlimit:4;stroke-opacity:1;stroke-dasharray:none" />
    </clipPath>
    <clipPath
       clipPathUnits="userSpaceOnUse"
       id="clipPath4156">
      <path
         transform="matrix(0.12698894,0.99190413,-0.99190413,0.12698894,837.95704,-283.73824)"
         sodipodi:type="arc"
         sodipodi:ry="41.120907"
         sodipodi:rx="62.490059"
         sodipodi:cy="334.16898"
         sodipodi:cx="580.1684"
         inkscape:connector-curvature="0"
         id="path4158"
         d="m 642.65845,334.16898 a 62.490059,41.120907 0 1 1 -124.98011,0 62.490059,41.120907 0 1 1 124.98011,0 z"
         style="fill:none;stroke:#000000;stroke-width:0.1;stroke-linecap:round;stroke-linejoin:round;stroke-miterlimit:4;stroke-dasharray:none" />
    </clipPath>
    <clipPath
       clipPathUnits="userSpaceOnUse"
       id="clipPath4175">
      <path
         transform="matrix(0.05102502,0.99869738,-0.99869738,0.05102502,993.46895,-404.04022)"
         sodipodi:type="arc"
         sodipodi:ry="40.82415"
         sodipodi:rx="70.695496"
         sodipodi:cy="319.59909"
         sodipodi:cx="708.99103"
         inkscape:connector-curvature="0"
         id="path4177"
         d="m 779.68652,319.59909 a 70.695496,40.82415 0 1 1 -141.39099,0 70.695496,40.82415 0 1 1 141.39099,0 z"
         style="fill:none;stroke:#ffffff;stroke-width:0.1;stroke-linecap:round;stroke-linejoin:round;stroke-miterlimit:4;stroke-dasharray:none" />
    </clipPath>
    <clipPath
       clipPathUnits="userSpaceOnUse"
       id="clipPath4207">
      <path
         style="fill:none;stroke:#ffff00;stroke-width:0.1;stroke-linecap:round;stroke-linejoin:round;stroke-miterlimit:4;stroke-dasharray:none"
         d="m 651.77824,336.35303 a 82.882919,44.503223 0 1 1 -165.76583,0 82.882919,44.503223 0 1 1 165.76583,0 z"
         id="path4209"
         inkscape:connector-curvature="0"
         sodipodi:cx="568.89532"
         sodipodi:cy="336.35303"
         sodipodi:rx="82.882919"
         sodipodi:ry="44.503223"
         sodipodi:type="arc"
         transform="matrix(0.20961153,0.97778473,-0.97778473,0.20961153,779.03535,-291.16693)" />
    </clipPath>
    <linearGradient
       inkscape:collect="always"
       xlink:href="#linearGradient6622"
       id="linearGradient4248"
       gradientUnits="userSpaceOnUse"
       x1="537.57452"
       y1="355.84995"
       x2="631.35345"
       y2="349.67422" />
    <clipPath
       clipPathUnits="userSpaceOnUse"
       id="clipPath4282">
      <path
         transform="matrix(0.02226687,0.99975201,0.99975201,-0.02226687,380.25473,-244.17911)"
         sodipodi:type="arc"
         sodipodi:ry="44.503223"
         sodipodi:rx="82.882919"
         sodipodi:cy="336.35303"
         sodipodi:cx="568.89532"
         inkscape:connector-curvature="0"
         id="path4284"
         d="m 651.77824,336.35303 a 82.882919,44.503223 0 1 1 -165.76583,0 82.882919,44.503223 0 1 1 165.76583,0 z"
         style="fill:none;stroke:#ffffff;stroke-width:0.1;stroke-linecap:round;stroke-linejoin:round;stroke-miterlimit:4;stroke-dasharray:none" />
    </clipPath>
    <clipPath
       clipPathUnits="userSpaceOnUse"
       id="clipPath4156-0">
      <path
         transform="matrix(0.12698894,0.99190413,-0.99190413,0.12698894,837.95704,-283.73824)"
         sodipodi:type="arc"
         sodipodi:ry="41.120907"
         sodipodi:rx="62.490059"
         sodipodi:cy="334.16898"
         sodipodi:cx="580.1684"
         inkscape:connector-curvature="0"
         id="path4158-4"
         d="m 642.65845,334.16898 a 62.490059,41.120907 0 1 1 -124.98011,0 62.490059,41.120907 0 1 1 124.98011,0 z"
         style="fill:none;stroke:#000000;stroke-width:0.1;stroke-linecap:round;stroke-linejoin:round;stroke-miterlimit:4;stroke-dasharray:none" />
    </clipPath>
    <clipPath
       clipPathUnits="userSpaceOnUse"
       id="clipPath4440">
      <path
         transform="matrix(0.06583981,0.99783021,0.99783021,-0.06583981,337.98295,-229.76176)"
         sodipodi:type="arc"
         sodipodi:ry="41.120907"
         sodipodi:rx="62.490059"
         sodipodi:cy="334.16898"
         sodipodi:cx="580.1684"
         inkscape:connector-curvature="0"
         id="path4442"
         d="m 642.65845,334.16898 a 62.490059,41.120907 0 1 1 -124.98011,0 62.490059,41.120907 0 1 1 124.98011,0 z"
         style="fill:none;stroke:#ffffff" />
    </clipPath>
    <clipPath
       clipPathUnits="userSpaceOnUse"
       id="clipPath4468">
      <path
         style="fill:#ffffff;stroke:none"
         d="m 651.77824,336.35303 a 82.882919,44.503223 0 1 1 -165.76583,0 82.882919,44.503223 0 1 1 165.76583,0 z"
         id="path4470"
         inkscape:connector-curvature="0"
         sodipodi:cx="568.89532"
         sodipodi:cy="336.35303"
         sodipodi:rx="82.882919"
         sodipodi:ry="44.503223"
         sodipodi:type="arc"
         transform="matrix(0.02226687,0.99975201,0.99975201,-0.02226687,380.25473,-244.17911)" />
    </clipPath>
    <clipPath
       clipPathUnits="userSpaceOnUse"
       id="clipPath4756">
      <path
         style="fill:none;stroke:#000000"
         d="m 591.2745,213.08202 c 18.33835,-11.51141 43.04238,-19.38289 74.52104,-20.91751 C 633.56309,16.411073 563.12087,23.227621 591.2745,213.08202 z"
         id="path4758"
         inkscape:connector-curvature="0"
         sodipodi:nodetypes="ccc" />
    </clipPath>
    <linearGradient
       inkscape:collect="always"
       id="linearGradient6622-14">
      <stop
         style="stop-color:#230f38;stop-opacity:1"
         offset="0"
         id="stop6624-9" />
      <stop
         style="stop-color:#5c2594;stop-opacity:1"
         offset="1"
         id="stop6626-8" />
    </linearGradient>
    <clipPath
       clipPathUnits="userSpaceOnUse"
       id="clipPath4845">
      <path
         style="fill:#ffffff;stroke:none"
         d="m 651.77824,336.35303 a 82.882919,44.503223 0 1 1 -165.76583,0 82.882919,44.503223 0 1 1 165.76583,0 z"
         id="path4847"
         inkscape:connector-curvature="0"
         sodipodi:cx="568.89532"
         sodipodi:cy="336.35303"
         sodipodi:rx="82.882919"
         sodipodi:ry="44.503223"
         sodipodi:type="arc"
         transform="matrix(0.13218936,0.99122443,-0.99122443,0.13218936,819.34538,-276.63344)" />
    </clipPath>
    <clipPath
       clipPathUnits="userSpaceOnUse"
       id="clipPath4860">
      <path
         transform="matrix(0.10879883,0.99406378,-0.99406378,0.10879883,846.30941,-282.51683)"
         sodipodi:type="arc"
         sodipodi:ry="41.120907"
         sodipodi:rx="62.490059"
         sodipodi:cy="334.16898"
         sodipodi:cx="580.1684"
         inkscape:connector-curvature="0"
         id="path4862"
         d="m 642.65845,334.16898 a 62.490059,41.120907 0 1 1 -124.98011,0 62.490059,41.120907 0 1 1 124.98011,0 z"
         style="fill:url(#linearGradient4864);fill-opacity:1;stroke:none" />
    </clipPath>
    <linearGradient
       inkscape:collect="always"
       xlink:href="#linearGradient6622-14"
       id="linearGradient4864"
       gradientUnits="userSpaceOnUse"
       x1="537.57452"
       y1="355.84995"
       x2="631.35345"
       y2="349.67422" />
    <linearGradient
       inkscape:collect="always"
       xlink:href="#linearGradient6622-14"
       id="linearGradient4866"
       gradientUnits="userSpaceOnUse"
       x1="537.57452"
       y1="355.84995"
       x2="631.35345"
       y2="349.67422" />
    <clipPath
       clipPathUnits="userSpaceOnUse"
       id="clipPath4879">
      <path
         sodipodi:nodetypes="cc"
         inkscape:connector-curvature="0"
         id="path4881"
         d="m 728.412,220.849 c -10.4421,-27.53934 -7.94567,-57.69268 -0.007,-76.26911 l -78.38263,-15.18392 -22.19239,-81.610735 -46.53244,5.011186 0.71588,73.020139 -123.13199,31.49888 -14.31767,199.73154 291.36465,-54.40716 z"
         style="fill:none;stroke:#000000" />
    </clipPath>
    <clipPath
       clipPathUnits="userSpaceOnUse"
       id="clipPath5306">
      <path
         d="m 655.848,584.76749 -259.80761,-150.00002 2e-5,-300 259.80763,-149.999983 259.80761,150.000023 -2e-5,300 z"
         inkscape:randomized="0"
         inkscape:rounded="0"
         inkscape:flatsided="true"
         sodipodi:arg2="2.0943952"
         sodipodi:arg1="1.5707964"
         sodipodi:r2="242.48711"
         sodipodi:r1="300"
         sodipodi:cy="284.76749"
         sodipodi:cx="655.84802"
         sodipodi:sides="6"
         id="path5308"
         style="fill:none;stroke:#000000;stroke-width:40;stroke-linejoin:round;stroke-miterlimit:4;stroke-dasharray:none"
         sodipodi:type="star" />
    </clipPath>
    <linearGradient
       inkscape:collect="always"
       xlink:href="#linearGradient6622-14"
       id="linearGradient5648"
       gradientUnits="userSpaceOnUse"
       x1="537.57452"
       y1="355.84995"
       x2="631.35345"
       y2="349.67422" />
    <linearGradient
       inkscape:collect="always"
       xlink:href="#linearGradient6622"
       id="linearGradient5650"
       gradientUnits="userSpaceOnUse"
       x1="537.57452"
       y1="355.84995"
       x2="631.35345"
       y2="349.67422" />
  </defs>
  <g
     inkscape:groupmode="layer"
     id="layer2"
     inkscape:label="Drawing"
     style="display:inline"
     transform="translate(-413.73308,37.732513)">
    <g
       id="g5582"
       transform="translate(80.38525,0)">
      <path
         sodipodi:type="star"
         style="fill:#391062;fill-opacity:1;stroke:none"
         id="path5568"
         sodipodi:sides="6"
         sodipodi:cx="655.84802"
         sodipodi:cy="284.76749"
         sodipodi:r1="300"
         sodipodi:r2="242.48711"
         sodipodi:arg1="1.5707968"
         sodipodi:arg2="2.0943956"
         inkscape:flatsided="true"
         inkscape:rounded="0"
         inkscape:randomized="0"
         d="m 655.84788,584.76749 -259.80755,-150.00013 1.4e-4,-300 259.80769,-149.999873 259.80755,150.000123 -1.4e-4,300 z" />
      <g
         clip-path="url(#clipPath5306)"
         id="g5233">
        <path
           id="path5225"
           style="fill:#6dc6fb;fill-opacity:1;stroke:#1c92cd;stroke-width:9.5;stroke-linecap:butt;stroke-linejoin:miter;stroke-miterlimit:20;stroke-opacity:1;stroke-dasharray:none"
           d="M 633.89298,223.69335 C 426.28672,238.01102 407.6337,95.35028 358.136,95.35028 c -16.16341,0 -43.4073,50.53121 18.55336,126.49195 -108.32812,-43.95309 -98.15313,16.66883 13.75442,121.83689 -109.28967,1.60547 -43.30915,64.49786 50.96802,72.59716 -50.72237,28.5932 -37.0101,52.3998 48.00274,62.76957 -43.50393,22.12045 -12.52616,42.99155 56.22487,58.71992 -92.62084,28.34755 -0.54218,56.69509 87.11834,52.64544 l 57.12203,3.44839 c 86.7189,1.04091 178.6519,-28.51716 98.47278,-59.53156 56.36832,-19.41259 81.78579,-38.31754 42.93647,-61.43962 73.97288,-13.16159 87.02578,-42.91793 41.54188,-64.91348 91.47086,-15.58406 134.74109,-80.84559 42.81096,-75.93434 94.27643,-125.78537 66.84361,-161.65372 11.407,-127.55685 46.45905,-78.02204 27.98773,-128.481684 11.82431,-128.481684 -48.39604,0 -45.00445,156.126494 -270.31485,134.877194 z"
           inkscape:connector-curvature="0"
           sodipodi:nodetypes="csccccccccccccscc" />
        <path
           style="fill:none;stroke:#1c92cd;stroke-width:9.5;stroke-linecap:butt;stroke-linejoin:miter;stroke-miterlimit:20;stroke-opacity:1;stroke-dasharray:none"
           d="m 776.5203,250.24065 c 55.68269,-68.84404 125.82528,-62.48089 23.2855,70.86887 54.45785,-0.13171 70.86885,54.67026 -13.16137,87.06747 32.3972,36.44684 16.1986,67.83163 -42.52132,55.68267 l -132.62602,44.54615 c -30.37237,8.0993 -55.68268,-4.04965 -38.47167,-40.49649 -63.78198,11.13653 -53.65786,-31.38479 -30.37237,-52.64545 -77.95577,-21.26066 -102.25366,-75.93093 -22.27308,-85.04263 z"
           id="path5229"
           inkscape:connector-curvature="0"
           sodipodi:nodetypes="ccccccccc" />
        <path
           style="fill:#6dc6fb;fill-opacity:1;stroke:#1c92cd;stroke-width:9;stroke-linecap:butt;stroke-linejoin:miter;stroke-miterlimit:20;stroke-opacity:1;stroke-dasharray:none"
           d="m 606.10569,462.50958 -8.36008,142.12134 145.46537,-4.18004 -19.22819,-155.49746 z"
           id="path4942"
           inkscape:connector-curvature="0"
           sodipodi:nodetypes="ccccc" />
        <g
           transform="matrix(-3.1785074,0,0,3.1785074,1760.1298,81.391561)"
           style="display:inline"
           id="g4340">
          <path
             style="fill:#961370;fill-opacity:1;stroke:none"
             d="m 322.75,66 c -4.25,27.25 12.11542,63.33047 32.61916,71.37543 -5.6919,2.84923 -13.37886,2.58411 -20.74677,-0.50163 10.4893,12.88967 11.89619,29.00579 2.10352,41.57784 0.94597,-8.24695 -1.67354,-19.4546 -7.85266,-24.57112 0.89685,13.82628 -6.18099,31.23998 -19.50887,39.19991 15.12122,-37.96968 -8.73939,-69.29214 4.37882,-129.172541 z"
             id="path4338"
             inkscape:connector-curvature="0"
             sodipodi:nodetypes="cccccccc" />
          <path
             style="fill:#f3a4d9;fill-opacity:1;stroke:none"
             d="m 336.28033,168.37071 c -1.08266,-5.73551 -3.55217,-11.29819 -7.40708,-14.49019 0.89685,13.82628 -6.18099,31.23998 -19.50887,39.19991 15.10932,-37.93979 -8.70185,-69.24282 4.34791,-129.031182 l 4.87264,1.139851 c -14.92834,70.018731 23.46604,70.347621 17.6954,103.181611 z"
             id="path4237"
             inkscape:connector-curvature="0"
             sodipodi:nodetypes="cccccc" />
          <path
             sodipodi:nodetypes="cccccccc"
             inkscape:connector-curvature="0"
             id="path4011"
             d="m 322.75,66 c -4.25,27.25 12.11542,63.33047 32.61916,71.37543 -5.6919,2.84923 -13.37886,2.58411 -20.74677,-0.50163 10.4893,12.88967 11.89619,29.00579 2.10352,41.57784 0.94597,-8.24695 -1.67354,-19.4546 -7.85266,-24.57112 0.89685,13.82628 -6.18099,31.23998 -19.50887,39.19991 15.12585,-37.9813 -8.75401,-69.31132 4.39088,-129.227561 z"
             style="fill:none;stroke:#d91e9b;stroke-width:2.98882437;stroke-linecap:butt;stroke-linejoin:miter;stroke-miterlimit:20;stroke-opacity:1;stroke-dasharray:none" />
        </g>
        <g
           id="g4891">
          <path
             sodipodi:nodetypes="sssss"
             inkscape:connector-curvature="0"
             id="path4721"
             d="m 769.64792,337.36017 c 0,89.89328 -61.57097,162.76619 -137.52261,162.76619 -75.95165,0 -137.52262,-72.87291 -137.52262,-162.76619 0,-108.01657 65.21646,-162.76619 137.52262,-162.76619 53.37044,0 137.52261,36.93884 137.52261,162.76619 z"
             style="fill:#6dc6fb;fill-opacity:1;stroke:#1c92cd;stroke-width:9.5;stroke-linecap:butt;stroke-linejoin:miter;stroke-miterlimit:4;stroke-opacity:1"
             transform="matrix(-0.98935695,0.14550891,-0.14550891,-0.98935695,1318.0658,566.97993)" />
          <path
             inkscape:connector-curvature="0"
             id="path4198"
             d="m 637.49441,383.17673 c 11.45414,-9.66443 26.84564,-12.34899 38.29977,-4.83221 -12.34899,-0.71589 -29.5302,1.43177 -38.29977,4.83221 z"
             style="fill:#1c92cd;fill-opacity:1;stroke:none" />
          <path
             inkscape:connector-curvature="0"
             id="path4200"
             d="m 637.85235,400.17897 c -0.89485,7.33781 4.47427,11.81208 9.66443,11.45414 -9.30649,5.19016 -16.82327,-0.89486 -9.66443,-11.45414 z"
             style="fill:#1c92cd;fill-opacity:1;stroke:none" />
          <path
             sodipodi:nodetypes="ccc"
             inkscape:connector-curvature="0"
             id="path4202"
             d="m 678.47875,394.80984 c 1.78971,6.44296 -1.61074,10.91723 -6.80089,13.42282 14.1387,1.25279 12.52796,-7.51678 6.80089,-13.42282 z"
             style="fill:#1c92cd;fill-opacity:1;stroke:none" />
          <g
             transform="matrix(0.99986052,-0.01670139,0.01670139,0.99986052,1.9284212,12.671597)"
             id="g4716">
            <path
               sodipodi:nodetypes="ccc"
               inkscape:connector-curvature="0"
               id="path4595"
               d="m 681.34652,426.69947 c 3.69186,50.69854 -58.77432,55.41412 -67.21035,8.00264 16.93075,4.63512 52.71434,2.95934 67.21035,-8.00264 z"
               style="fill:#a8005b;fill-opacity:1;stroke:none" />
            <path
               style="fill:#f47735;fill-opacity:1;stroke:none"
               d="m 631.23913,462.59416 c 9.87102,-7.8462 26.57583,-8.3524 37.45926,-1.77172 -8.3524,8.6055 -28.60066,9.87101 -37.45926,1.77172 z"
               id="path4474"
               inkscape:connector-curvature="0"
               sodipodi:nodetypes="ccc" />
            <path
               style="fill:none;stroke:#1c92cd;stroke-width:5;stroke-linecap:butt;stroke-linejoin:miter;stroke-miterlimit:4;stroke-opacity:1;stroke-dasharray:none"
               d="m 681.34652,426.69947 c 3.69186,50.69854 -58.77432,55.41412 -67.21035,8.00264 16.93075,4.63512 52.71434,2.95934 67.21035,-8.00264 z"
               id="path3019"
               inkscape:connector-curvature="0"
               sodipodi:nodetypes="ccc" />
          </g>
          <g
             id="g4409">
            <path
               sodipodi:nodetypes="ccsc"
               inkscape:connector-curvature="0"
               id="path4220"
               d="m 728.412,220.849 39.03328,96.80639 C 844.2229,247.64578 770.29492,125.6406 745.59284,132.25951 732.31449,135.81744 719.10551,177.53803 728.412,220.849 z"
               style="fill:#6dc6fb;fill-opacity:1;stroke:none" />
            <path
               style="fill:#1c92cd;fill-opacity:1;stroke:none"
               d="m 728.412,220.849 c -15.86171,-41.83269 -1.86896,-89.69695 15.70565,-93.85378 35.68997,-8.44156 105.44457,137.03339 23.32763,190.66017 67.47113,-75.37874 -0.46602,-187.09308 -21.4945,-181.45852 -10.85111,2.90755 -21.05679,49.34925 -17.53878,84.65213 z"
               id="path4204"
               inkscape:connector-curvature="0"
               sodipodi:nodetypes="cscsc" />
            <path
               style="fill:#1c92cd;fill-opacity:1;stroke:none"
               d="m 755.7854,173.12027 c 12.05259,21.29137 20.27465,65.2831 16.18589,90.80139 9.65761,-25.75821 1.07163,-70.98811 -16.18589,-90.80139 z"
               id="path4206"
               inkscape:connector-curvature="0"
               sodipodi:nodetypes="ccc" />
          </g>
          <g
             transform="matrix(0.99970848,-0.02414482,0.02414482,0.99970848,-16.894004,17.936773)"
             id="g4286">
            <path
               style="fill:#ffffff;stroke:none"
               d="m 651.77824,336.35303 c 0,24.57845 -37.10794,44.50322 -82.88292,44.50322 -45.77497,0 -82.88291,-19.92477 -82.88291,-44.50322 0,-24.57845 37.10794,-44.50323 82.88291,-44.50323 45.77498,0 82.88292,19.92478 82.88292,44.50323 z"
               id="path4196"
               inkscape:connector-curvature="0"
               sodipodi:cx="568.89532"
               sodipodi:cy="336.35303"
               sodipodi:rx="82.882919"
               sodipodi:ry="44.503223"
               sodipodi:type="arc"
               transform="matrix(0.02226687,0.99975201,0.99975201,-0.02226687,380.25473,-244.17911)" />
            <g
               id="g4160-2"
               clip-path="url(#clipPath4845)"
               transform="matrix(-0.98803527,0.15422806,0.15422806,0.98803527,1232.4615,-97.221558)"
               style="display:inline">
              <path
                 transform="matrix(0.10879883,0.99406378,-0.99406378,0.10879883,846.30941,-282.51683)"
                 sodipodi:type="arc"
                 sodipodi:ry="41.120907"
                 sodipodi:rx="62.490059"
                 sodipodi:cy="334.16898"
                 sodipodi:cx="580.1684"
                 inkscape:connector-curvature="0"
                 id="path3944-9"
                 d="m 642.65845,334.16898 c 0,22.71045 -27.97775,41.1209 -62.49005,41.1209 -34.51231,0 -62.49006,-18.41045 -62.49006,-41.1209 0,-22.71045 27.97775,-41.12091 62.49006,-41.12091 34.5123,0 62.49005,18.41046 62.49005,41.12091 z"
                 style="fill:url(#linearGradient5648);fill-opacity:1;stroke:none" />
              <g
                 clip-path="url(#clipPath4860)"
                 id="g4152-9">
                <path
                   sodipodi:nodetypes="ccccc"
                   inkscape:connector-curvature="0"
                   id="path3982-8"
                   d="m 541.80728,363.86777 11.71873,24.0513 16.6474,-21.32948 -13.69942,-8.32369 z"
                   style="fill:#8f4dd3;fill-opacity:1;stroke:none" />
                <path
                   inkscape:connector-curvature="0"
                   id="path3980-38"
                   d="m 534.27746,352.71676 27.22543,0.52023 2.94798,8.15029 -24.27746,10.92486 z"
                   style="fill:#62289e;fill-opacity:1;stroke:none" />
              </g>
              <path
                 style="fill:#000000;stroke:none"
                 d="m 628.87006,336.61536 c 0,17.7332 -22.02372,32.1088 -49.19135,32.1088 -27.16763,0 -49.19134,-14.3756 -49.19134,-32.1088 0,-17.73321 22.02371,-32.10881 49.19134,-32.10881 27.16763,0 49.19135,14.3756 49.19135,32.10881 z"
                 id="path3910-69"
                 inkscape:connector-curvature="0"
                 sodipodi:cx="579.67871"
                 sodipodi:cy="336.61536"
                 sodipodi:rx="49.191345"
                 sodipodi:ry="32.108803"
                 sodipodi:type="arc"
                 transform="matrix(0.06592142,0.99782482,-0.99782482,0.06592142,878.76328,-264.21342)" />
              <path
                 transform="matrix(-0.36859582,0.92958975,0.92958975,0.36859582,499.86315,-357.1964)"
                 sodipodi:type="arc"
                 sodipodi:ry="16.431776"
                 sodipodi:rx="26.914322"
                 sodipodi:cy="302.62918"
                 sodipodi:cx="591.71234"
                 inkscape:connector-curvature="0"
                 id="path3018-8"
                 d="m 618.62666,302.62918 c 0,9.07502 -12.04995,16.43178 -26.91432,16.43178 -14.86437,0 -26.91432,-7.35676 -26.91432,-16.43178 0,-9.07502 12.04995,-16.43178 26.91432,-16.43178 14.86437,0 26.91432,7.35676 26.91432,16.43178 z"
                 style="fill:#ffffff;stroke:none" />
              <path
                 sodipodi:type="arc"
                 style="fill:#ffffff;stroke:none"
                 id="path3804-6"
                 sodipodi:cx="576.2428"
                 sodipodi:cy="335.80923"
                 sodipodi:rx="5.0003104"
                 sodipodi:ry="7.7202635"
                 d="m 581.24311,335.80923 c 0,4.26379 -2.23872,7.72027 -5.00031,7.72027 -2.7616,0 -5.00031,-3.45648 -5.00031,-7.72027 0,-4.26378 2.23871,-7.72026 5.00031,-7.72026 2.76159,0 5.00031,3.45648 5.00031,7.72026 z"
                 transform="matrix(-0.87968299,-0.47556057,-0.47556057,0.87968299,1245.3189,307.16426)" />
            </g>
            <path
               transform="matrix(0.02226687,0.99975201,0.99975201,-0.02226687,380.25473,-244.17911)"
               style="fill:#000000;stroke:none"
               d="m 540.07199,375.88513 c -8.36346,37.25687 -11.81964,36.27746 -7.02741,2.85523 -115.30931,-36.94962 -5.51149,-121.89843 92.28433,-74.98139 -117.30002,-35.75063 -192.46089,42.27861 -85.25692,72.12616 z"
               id="path4225"
               inkscape:connector-curvature="0"
               sodipodi:nodetypes="cccc" />
            <path
               style="fill:#000000;stroke:none;display:inline"
               d="m 763.68915,266.91247 2.47276,6.28467 c 36.06215,-14.71899 35.18262,-18.0425 -2.47276,-6.28467 z"
               id="path4201-8"
               inkscape:connector-curvature="0"
               sodipodi:nodetypes="ccc" />
            <path
               sodipodi:nodetypes="ccc"
               inkscape:connector-curvature="0"
               id="path4250"
               d="m 756.59133,253.03573 3.30621,5.88902 c 33.71964,-19.49655 32.39533,-22.66916 -3.30621,-5.88902 z"
               style="fill:#000000;stroke:none;display:inline" />
          </g>
          <g
             id="g4414">
            <path
               style="fill:#6dc6fb;fill-opacity:1;stroke:none"
               d="M 535.538,241.329 518.65865,348.73222 C 427.52275,299.6293 473.98419,162.5204 501.4659,162.5204 c 13.02361,0 33.79982,46.36425 34.0721,78.8086 z"
               id="path4218"
               inkscape:connector-curvature="0"
               sodipodi:nodetypes="ccsc" />
            <path
               sodipodi:nodetypes="cscsc"
               inkscape:connector-curvature="0"
               id="path4208"
               d="m 535.538,241.329 c 4.82043,-36.53292 -14.79004,-83.50366 -34.21744,-83.89463 -36.66728,-0.73791 -76.73462,157.59436 17.33809,191.29785 C 436.4713,293.90223 478.99538,166.8157 501.4659,166.8157 c 11.2339,0 29.14658,49.94367 34.0721,74.5133 z"
               style="fill:#1c92cd;fill-opacity:1;stroke:none" />
            <path
               sodipodi:nodetypes="ccc"
               inkscape:connector-curvature="0"
               id="path4210"
               d="m 505.67654,300.91264 c -9.80726,-22.41438 -13.47787,-67.01709 -6.79558,-91.98205 -12.24641,24.63292 -8.34067,70.50457 6.79558,91.98205 z"
               style="fill:#1c92cd;fill-opacity:1;stroke:none" />
          </g>
          <g
             transform="translate(-2.531031,0.5062062)"
             id="g4266">
            <path
               transform="matrix(0.20961153,0.97778473,-0.97778473,0.20961153,779.57226,-289.19825)"
               sodipodi:type="arc"
               sodipodi:ry="44.503223"
               sodipodi:rx="82.882919"
               sodipodi:cy="336.35303"
               sodipodi:cx="568.89532"
               inkscape:connector-curvature="0"
               id="path4154"
               d="m 651.77824,336.35303 c 0,24.57845 -37.10794,44.50322 -82.88292,44.50322 -45.77497,0 -82.88291,-19.92477 -82.88291,-44.50322 0,-24.57845 37.10794,-44.50323 82.88291,-44.50323 45.77498,0 82.88292,19.92478 82.88292,44.50323 z"
               style="fill:#ffffff;stroke:none" />
            <g
               id="g4160"
               clip-path="url(#clipPath4207)"
               transform="translate(0.53691275,1.9686801)">
              <path
                 transform="matrix(0.13863089,0.99034411,-0.99034411,0.13863089,830.68144,-286.72355)"
                 sodipodi:type="arc"
                 sodipodi:ry="41.120907"
                 sodipodi:rx="62.490059"
                 sodipodi:cy="334.16898"
                 sodipodi:cx="580.1684"
                 inkscape:connector-curvature="0"
                 id="path3944"
                 d="m 642.65845,334.16898 c 0,22.71045 -27.97775,41.1209 -62.49005,41.1209 -34.51231,0 -62.49006,-18.41045 -62.49006,-41.1209 0,-22.71045 27.97775,-41.12091 62.49006,-41.12091 34.5123,0 62.49005,18.41046 62.49005,41.12091 z"
                 style="fill:url(#linearGradient5650);fill-opacity:1;stroke:none" />
              <g
                 clip-path="url(#clipPath4156)"
                 id="g4152"
                 transform="matrix(0.99993101,-0.0117458,0.0117458,0.99993101,-3.8850593,6.8375948)">
                <path
                   inkscape:connector-curvature="0"
                   id="path3982"
                   d="m 543.12139,362.60116 10.40462,25.31791 16.6474,-21.32948 -13.69942,-8.32369 z"
                   style="fill:#8f4dd3;fill-opacity:1;stroke:none" />
                <path
                   inkscape:connector-curvature="0"
                   id="path3980"
                   d="m 534.27746,352.71676 27.22543,0.52023 2.94798,8.15029 -24.27746,10.92486 z"
                   style="fill:#62289e;fill-opacity:1;stroke:none" />
              </g>
              <path
                 style="fill:#000000;stroke:none"
                 d="m 628.87006,336.61536 c 0,17.7332 -22.02372,32.1088 -49.19135,32.1088 -27.16763,0 -49.19134,-14.3756 -49.19134,-32.1088 0,-17.73321 22.02371,-32.10881 49.19134,-32.10881 27.16763,0 49.19135,14.3756 49.19135,32.10881 z"
                 id="path3910"
                 inkscape:connector-curvature="0"
                 sodipodi:cx="579.67871"
                 sodipodi:cy="336.61536"
                 sodipodi:rx="49.191345"
                 sodipodi:ry="32.108803"
                 sodipodi:type="arc"
                 transform="matrix(0.21827656,0.97588696,-0.97588696,0.21827656,783.8233,-302.58044)" />
              <path
                 transform="matrix(0.51118515,0.85947061,-0.85947061,0.51118515,549.14284,-360.59177)"
                 sodipodi:type="arc"
                 sodipodi:ry="15.991481"
                 sodipodi:rx="27.156523"
                 sodipodi:cy="302.62918"
                 sodipodi:cx="591.71234"
                 inkscape:connector-curvature="0"
                 id="path3018"
                 d="m 618.86886,302.62918 c 0,8.83185 -12.15839,15.99148 -27.15652,15.99148 -14.99813,0 -27.15652,-7.15963 -27.15652,-15.99148 0,-8.83185 12.15839,-15.99148 27.15652,-15.99148 14.99813,0 27.15652,7.15963 27.15652,15.99148 z"
                 style="fill:#ffffff;stroke:none" />
              <path
                 sodipodi:type="arc"
                 style="fill:#ffffff;stroke:none"
                 id="path3804"
                 sodipodi:cx="576.2428"
                 sodipodi:cy="335.80923"
                 sodipodi:rx="5.7578435"
                 sodipodi:ry="8.6792192"
                 d="m 582.00064,335.80923 c 0,4.79341 -2.57787,8.67922 -5.75784,8.67922 -3.17997,0 -5.75785,-3.88581 -5.75785,-8.67922 0,-4.7934 2.57788,-8.67921 5.75785,-8.67921 3.17997,0 5.75784,3.88581 5.75784,8.67921 z"
                 transform="matrix(0.74473981,-0.66735495,0.66735495,0.74473981,-74.276847,464.35047)" />
            </g>
            <path
               style="fill:#000000;stroke:none"
               d="m 525.52899,310.02276 c -40.74393,-4.04051 -40.47147,-8.07483 -3.76667,-6.52141 18.8972,-118.16131 122.40477,-4.48118 91.04853,85.38888 14.84712,-111.88136 -73.60193,-179.54635 -87.28186,-78.86747 z"
               id="path4197"
               inkscape:connector-curvature="0"
               sodipodi:nodetypes="cccc" />
            <path
               style="fill:#000000;stroke:none"
               d="m 526.63839,288.76893 -1.62492,6.55525 c -37.68445,-9.8494 -37.24955,-13.25969 1.62492,-6.55525 z"
               id="path4201"
               inkscape:connector-curvature="0"
               sodipodi:nodetypes="ccc" />
            <path
               sodipodi:nodetypes="ccc"
               inkscape:connector-curvature="0"
               id="path4203"
               d="m 531.87481,274.79782 -2.69075,6.19447 c -35.52608,-15.96951 -34.531,-19.26027 2.69075,-6.19447 z"
               style="fill:#000000;stroke:none" />
          </g>
          <g
             clip-path="url(#clipPath4879)"
             id="g4760">
            <path
               sodipodi:nodetypes="cccccccccc"
               inkscape:connector-curvature="0"
               id="path4853"
               d="m 735.92841,203.13199 c -20.76062,-0.71588 -41.63983,38.39479 -24.89392,85.64792 -25.53218,-7.4293 -50.57154,-34.48902 -54.41015,-59.06139 -20.88103,14.13486 -23.74761,43.68377 -17.36525,68.67131 -26.79868,-6.77304 -43.8849,-39.27616 -44.38779,-62.64081 -22.0692,11.69425 -37.73094,51.21182 -27.38762,72.25073 -28.86302,-9.99233 -42.79794,-43.73894 -41.52425,-64.07257 -21.04364,12.30386 -33.62075,52.32026 -28.8194,75.11425 C 431.89658,265.15 458.16554,74.988814 741.65548,163.75839 z"
               style="fill:#f3a4d9;fill-opacity:1;stroke:none" />
            <path
               sodipodi:nodetypes="cccccccc"
               inkscape:connector-curvature="0"
               id="path4750"
               d="m 735.92841,203.13199 c -20.76062,-0.71588 -41.63983,38.39479 -24.89392,85.64792 -25.53218,-7.4293 -50.57154,-34.48902 -54.41015,-59.06139 -20.88103,14.13486 -23.74761,43.68377 -17.36525,68.67131 -26.79868,-6.77304 -43.8849,-39.27616 -44.38779,-62.64081 -22.0692,11.69425 -37.73094,51.21182 -27.38762,72.25073 -50.74039,-52.69878 -4.10085,-166.54797 172.04876,-129.64544 z"
               style="fill:#961370;fill-opacity:1;stroke:none" />
            <path
               style="fill:none;stroke:#d91e9b;stroke-width:9.5;stroke-miterlimit:20;stroke-opacity:1;stroke-dasharray:none"
               d="m 735.92841,203.13199 c -20.76062,-0.71588 -41.63983,38.39479 -24.89392,85.64792 -25.53218,-7.4293 -50.57154,-34.48902 -54.41015,-59.06139 -20.88103,14.13486 -23.74761,43.68377 -17.36525,68.67131 -26.79868,-6.77304 -43.8849,-39.27616 -44.38779,-62.64081 -22.0692,11.69425 -37.73094,51.21182 -27.38762,72.25073 -28.86302,-9.99233 -42.79794,-43.73894 -41.52425,-64.07257 -21.04364,12.30386 -33.62075,52.32026 -28.8194,75.11425 C 431.89658,265.15 458.16554,74.988814 741.65548,163.75839 z"
               id="path4724"
               inkscape:connector-curvature="0"
               sodipodi:nodetypes="cccccccccc" />
            <g
               id="g4419"
               transform="translate(-2.147651,-20.760632)"
               clip-path="url(#clipPath4756)">
              <path
                 sodipodi:nodetypes="ccc"
                 inkscape:connector-curvature="0"
                 id="path4214"
                 d="m 604.56376,263.26622 64.07158,-12.52797 C 614.87165,21.875353 590.33962,30.785151 604.56376,263.26622 z"
                 style="fill:#6dc6fb;fill-opacity:1;stroke:#1c92cd;stroke-width:9.5;stroke-linecap:butt;stroke-linejoin:miter;stroke-miterlimit:4;stroke-opacity:1;stroke-dasharray:none" />
              <path
                 sodipodi:nodetypes="cccccc"
                 inkscape:connector-curvature="0"
                 id="path4216"
                 d="m 599.91051,137.98658 c 13.6018,6.80089 27.56153,-6.08501 32.93066,-19.32886 l 12.52796,37.22595 c -10.02237,29.70917 -26.48771,46.89038 -44.38479,24.34005 l 2.14766,54.40716 c 16.46532,17.89709 45.10066,8.5906 57.98657,-24.698"
                 style="fill:none;stroke:#1c92cd;stroke-width:4;stroke-linecap:butt;stroke-linejoin:miter;stroke-miterlimit:4;stroke-opacity:1;stroke-dasharray:none" />
            </g>
          </g>
        </g>
      </g>
      <path
         d="m 655.84788,584.76749 -259.80755,-150.00013 1.4e-4,-300 259.80769,-149.999873 259.80755,150.000123 -1.4e-4,300 z"
         inkscape:randomized="0"
         inkscape:rounded="0"
         inkscape:flatsided="true"
         sodipodi:arg2="2.0943956"
         sodipodi:arg1="1.5707968"
         sodipodi:r2="242.48711"
         sodipodi:r1="300"
         sodipodi:cy="284.76749"
         sodipodi:cx="655.84802"
         sodipodi:sides="6"
         id="path5298"
         style="fill:none;stroke:#230f38;stroke-width:45;stroke-linejoin:round;stroke-miterlimit:4;stroke-opacity:1;stroke-dasharray:none"
         sodipodi:type="star" />
    </g>
  </g>
</svg>
