<?xml version="1.0" encoding="UTF-8" standalone="no"?>
<!-- Created with Inkscape (http://www.inkscape.org/) -->

<svg xmlns:dc="http://purl.org/dc/elements/1.1/" xmlns:cc="http://creativecommons.org/ns#" xmlns:rdf="http://www.w3.org/1999/02/22-rdf-syntax-ns#" xmlns:svg="http://www.w3.org/2000/svg" xmlns="http://www.w3.org/2000/svg" xmlns:xlink="http://www.w3.org/1999/xlink" xmlns:sodipodi="http://sodipodi.sourceforge.net/DTD/sodipodi-0.dtd" xmlns:inkscape="http://www.inkscape.org/namespaces/inkscape" width="1920" height="1080" id="svg3206" version="1.1" inkscape:version="0.48.5 r" sodipodi:docname="Critter Swarm Wallpaper.svg" inkscape:export-filename="/home/parclytaxel/Pictures/Critter Swarm Wallpaper.png" inkscape:export-xdpi="90" inkscape:export-ydpi="90">
  <defs id="defs3208">
    <linearGradient inkscape:collect="always" id="linearGradient3865">
      <stop style="stop-color:#035350;stop-opacity:1;" offset="0" id="stop3867" />
      <stop style="stop-color:#00ada8;stop-opacity:1" offset="1" id="stop3869" />
    </linearGradient>
    <inkscape:path-effect effect="skeletal" id="path-effect12206" is_visible="true" pattern="M 41.542039,0 C 27.461909,0 14.391279,0.96447 -0.45796063,4.5 14.391279,7.68198 27.461909,9 41.542039,9 L 204.54204,9 c 14.08013,0 27.85786,-1.31802 42,-4.5 -14.14214,-3.53553 -27.91987,-4.5 -42,-4.5 z" copytype="single_stretched" prop_scale="1" scale_y_rel="false" spacing="0" normal_offset="0" tang_offset="0" prop_units="false" vertical_pattern="false" fuse_tolerance="0" />
    <clipPath clipPathUnits="userSpaceOnUse" id="clipPath14332">
      <use x="0" y="0" xlink:href="#path13187" id="use14334" width="1" height="1" />
    </clipPath>
    <clipPath clipPathUnits="userSpaceOnUse" id="clipPath14266">
      <use x="0" y="0" xlink:href="#path14206" id="use14268" width="1024" height="3072" />
    </clipPath>
    <clipPath clipPathUnits="userSpaceOnUse" id="clipPath15448">
      <use x="0" y="0" xlink:href="#path14216" id="use15450" width="1024" height="3072" />
    </clipPath>
    <filter color-interpolation-filters="sRGB" inkscape:collect="always" id="filter15504">
      <feGaussianBlur inkscape:collect="always" stdDeviation="0.58783752" id="feGaussianBlur15506" />
    </filter>
    <linearGradient inkscape:collect="always" xlink:href="#linearGradient3865" id="linearGradient3509" gradientUnits="userSpaceOnUse" x1="865.72107" y1="622.91296" x2="865.93042" y2="663.60699" />
    <linearGradient inkscape:collect="always" xlink:href="#linearGradient3865" id="linearGradient3515" gradientUnits="userSpaceOnUse" x1="878.25201" y1="623.88513" x2="876.84985" y2="662.92279" />
    <linearGradient inkscape:collect="always" xlink:href="#linearGradient3865" id="linearGradient4532" gradientUnits="userSpaceOnUse" x1="523.95514" y1="2574.0383" x2="522.21173" y2="2603.5488" />
  </defs>
  <sodipodi:namedview id="base" pagecolor="#ffffff" bordercolor="#666666" borderopacity="1.0" inkscape:pageopacity="0.0" inkscape:pageshadow="2" inkscape:zoom="0.5" inkscape:cx="960" inkscape:cy="540" inkscape:document-units="px" inkscape:current-layer="layer1" showgrid="true" inkscape:snap-page="false" inkscape:window-width="1364" inkscape:window-height="698" inkscape:window-x="0" inkscape:window-y="0" inkscape:window-maximized="1" />
  <metadata id="metadata3211">
    <rdf:RDF>
      <cc:Work rdf:about="">
        <dc:format>image/svg+xml</dc:format>
        <dc:type rdf:resource="http://purl.org/dc/dcmitype/StillImage" />
        <dc:title></dc:title>
      </cc:Work>
    </rdf:RDF>
  </metadata>
  <g inkscape:label="Layer 1" inkscape:groupmode="layer" id="layer1" transform="translate(0,27.637817)">
    <path transform="matrix(16.001127,0.49205193,-0.49205193,16.001127,-7032.5569,-3182.291)" d="m 616.47471,258.59042 a 110.00916,119.16837 0 1 1 -220.01833,0 110.00916,119.16837 0 1 1 220.01833,0 z" sodipodi:ry="119.16837" sodipodi:rx="110.00916" sodipodi:cy="258.59042" sodipodi:cx="506.46555" id="path6329" style="fill:#fdf6af;fill-opacity:1;stroke:#ead463;stroke-width:9;stroke-miterlimit:4;stroke-opacity:1;stroke-dasharray:none" sodipodi:type="arc" />
    <g id="g12226" transform="matrix(16.008691,0,0,16.008691,-7198.2223,-25017.526)">
      <path style="fill:#fdf6af;fill-opacity:1;stroke:none" d="m 563.53914,1551.8201 c 81.53863,-23.1302 117.31463,74.7099 112.46653,83.5486 -4.76445,8.6866 -44.06518,13.8446 -75.7848,-13.6501 z" id="path12224" inkscape:connector-curvature="0" sodipodi:nodetypes="cscc" />
      <path sodipodi:nodetypes="csc" inkscape:connector-curvature="0" id="path8909" d="m 605.25141,1545.7236 c -4.34882,-0.9784 -8.70581,-1.4845 -13.04214,-1.4972 -4.94952,-0.01 -9.83797,0.6134 -14.63356,1.8714 -4.79559,1.258 -9.49944,3.1572 -14.03657,5.7223 5.17466,-0.3177 10.03567,-0.3908 14.69557,-0.2726 4.65991,0.1182 9.12107,0.4275 13.52183,0.9711 3.84987,0.4699 7.66477,1.1177 11.51959,1.9849 3.82713,0.861 7.58182,2.0425 11.20664,3.5325 13.31442,5.4202 24.86709,15.0558 34.20028,26.4177 0,0 0,0 0,0 7.98392,9.7723 14.46679,20.7889 19.07251,32.5232 1.58807,4.0774 2.96355,8.1228 3.73602,12.1715 0,0 10e-6,0 10e-6,0 0.24775,1.3447 0.44593,2.5574 0.44616,3.6301 -0.004,0.3737 -0.005,0.6394 -0.0386,0.7863 0,0 0,0 0,0 -0.0653,0.129 0.008,0.023 0.16106,-0.3602 0.032,0.2482 -0.68053,0.6157 -1.62637,1.3013 0,0 0,0 0,0 -1.3813,0.8237 -3.09026,1.3942 -4.96348,1.9091 0,0 0,0 -10e-6,0 -5.31932,1.4278 -11.09204,1.6112 -16.91772,1.2088 -3.70386,-0.2712 -7.39202,-0.8394 -11.02575,-1.6782 -3.79193,-0.8753 -7.52693,-1.9228 -11.23434,-3.1172 -4.34924,-1.4013 -8.65912,-3.02 -12.98785,-4.8615 -4.32873,-1.8414 -8.67694,-3.9053 -13.0838,-6.2483 2.86375,4.1233 6.32236,7.8042 10.2088,10.9651 3.88645,3.161 8.2004,5.8036 12.80136,7.8942 3.912,1.7783 8.02977,3.1606 12.27379,4.138 4.06697,0.9366 8.20837,1.5732 12.38549,1.8835 6.48941,0.5064 13.24592,0.2325 19.86908,-1.4804 2.33695,-0.5924 4.78193,-1.4656 7.17154,-2.8172 1.6843,-0.8316 3.52807,-2.355 5.02022,-4.769 0.51801,-1.0493 0.77541,-1.9056 0.83173,-2.5261 0.13366,-0.8869 0.17222,-1.6723 0.15411,-2.3457 -0.0386,-1.9033 -0.29134,-3.6475 -0.60974,-5.2247 0,0 0,0 0,0 -0.94846,-4.833 -2.47657,-9.4038 -4.19393,-13.7477 -4.95461,-12.6229 -11.90715,-24.4418 -20.48152,-34.9302 0,0 0,0 0,0 -10.02788,-12.3282 -22.76337,-22.8403 -37.74875,-29.0472 -4.0977,-1.6829 -8.33405,-3.0162 -12.65164,-3.9876 z" style="fill:#ead463;fill-opacity:1;stroke:none" inkscape:path-effect="#path-effect12206" inkscape:original-d="m 563.53914,1551.8201 c 81.53863,-23.1302 117.31463,74.7099 112.46653,83.5486 -4.76445,8.6866 -44.06518,13.8446 -75.7848,-13.6501" />
    </g>
    <g id="g12913" transform="matrix(16.008691,0,0,16.008691,-7198.2223,-25017.526)">
      <path sodipodi:nodetypes="cccccc" inkscape:connector-curvature="0" id="path12887" d="m 430.5612,1551.0337 c 23.20852,-19.6435 64.36217,-17.0899 82.67493,17.4406 80.13628,-36.5644 105.57285,104.515 76.751,189.3382 l 40.50229,15.0052 C 792.89291,1463.9153 480.63927,1343.7293 376.72628,1585.1159 z" style="fill:#f3b9d8;fill-opacity:1;stroke:#eb81b4;stroke-width:9;stroke-linecap:butt;stroke-linejoin:miter;stroke-miterlimit:4;stroke-opacity:1;stroke-dasharray:none" />
      <path inkscape:connector-curvature="0" id="path5391" style="fill:none;stroke:#eb81b4;stroke-width:4.5;stroke-linecap:butt;stroke-linejoin:miter;stroke-miterlimit:4;stroke-opacity:1;stroke-dasharray:none" d="m 513.16661,1568.2255 c 15.71172,-74.3215 48.59149,-93.8453 108.11024,-84.9753" sodipodi:nodetypes="cc" />
    </g>
    <g id="g15508" transform="matrix(16.008691,0,0,16.008691,-7198.2223,-25017.526)">
      <path style="fill:white;stroke:none" d="m 475.26965,1596.7199 c 20.45787,-23.0192 51.28413,-23.0599 70.03394,1.2813 -21.24352,22.6474 -49.02956,22.4736 -70.03394,-1.2813 z" id="path13187" inkscape:connector-curvature="0" sodipodi:nodetypes="ccc" />
      <g id="g14323" clip-path="url(#clipPath14332)">
        <g clip-path="url(#clipPath14266)" id="g14258">
          <path sodipodi:type="arc" style="fill:url(#linearGradient4532);fill-opacity:1;stroke:none" id="path14206" sodipodi:cx="512.53241" sodipodi:cy="2587.3364" sodipodi:rx="20.268213" sodipodi:ry="21.988758" d="m 532.80062,2587.3364 c 0,12.1441 -9.07439,21.9888 -20.26821,21.9888 -11.19383,0 -20.26821,-9.8447 -20.26821,-21.9888 0,-12.144 9.07438,-21.9887 20.26821,-21.9887 11.19382,0 20.26821,9.8447 20.26821,21.9887 z" transform="matrix(0.87123532,0.00573941,-0.00573941,0.87123532,79.487501,-663.74439)" />
          <path sodipodi:nodetypes="cccc" inkscape:connector-curvature="0" id="path14246" d="m 511.89906,1594.9924 24.19518,10.6408 -6.71385,14.1877 z" style="fill:#9ed8d5;fill-opacity:1;stroke:none" />
          <path style="fill:#68c8c6;fill-opacity:1;stroke:none" d="m 511.89906,1594.9924 27.99547,5.067 -5.06705,9.8808 z" id="path14244" inkscape:connector-curvature="0" sodipodi:nodetypes="cccc" />
          <path transform="matrix(0.69940105,0.01636572,-0.01636572,0.69940105,195.30529,-224.72434)" d="m 531.78226,2587.3364 c 0,11.8564 -8.61845,21.4679 -19.24985,21.4679 -10.6314,0 -19.24986,-9.6115 -19.24986,-21.4679 0,-11.8563 8.61846,-21.4678 19.24986,-21.4678 10.6314,0 19.24985,9.6115 19.24985,21.4678 z" sodipodi:ry="21.467863" sodipodi:rx="19.249855" sodipodi:cy="2587.3364" sodipodi:cx="512.53241" id="path14216" style="fill:black;stroke:none" sodipodi:type="arc" />
          <g id="g15438" clip-path="url(#clipPath15448)">
            <use height="3072" width="1024" id="use14469" xlink:href="#path14449" y="0" x="0" style="filter:url(#filter15504)" />
            <path style="opacity:0.7;fill:none;stroke:#f3b9d8;stroke-width:0.50315356;stroke-miterlimit:4;stroke-opacity:1;stroke-dasharray:none" d="m 519.85381,1602.1002 c 2.95175,-3.2543 -0.20026,-8.0373 -3.61127,-9.2358 3.54574,-0.3613 6.85925,-7.2935 3.6883,-8.9241 -3.52669,-1.8137 -7.12877,5.142 -8.58588,7.9528 -1.45711,-2.8108 -5.05919,-9.7665 -8.58588,-7.9528 -3.17095,1.6306 0.14256,8.5628 3.6883,8.9241 -3.41101,1.1985 -6.56302,5.9815 -3.61127,9.2358 2.84404,3.1331 6.89043,-1.82 8.50885,-4.204 1.61842,2.384 5.66481,7.3371 8.50885,4.204 z" id="path14449" inkscape:connector-curvature="0" sodipodi:nodetypes="scccccscs" />
          </g>
          <path sodipodi:type="arc" style="fill:white;stroke:none" id="path14218" sodipodi:cx="506.38864" sodipodi:cy="2583.7893" sodipodi:rx="5.5240703" sodipodi:ry="8.4496059" d="m 511.91271,2583.7893 c 0,4.6666 -2.47321,8.4496 -5.52407,8.4496 -3.05086,0 -5.52407,-3.783 -5.52407,-8.4496 0,-4.6666 2.47321,-8.4496 5.52407,-8.4496 3.05086,0 5.52407,3.783 5.52407,8.4496 z" transform="matrix(0.92386314,0.42053952,-0.42053952,0.92386314,1122.7467,-1014.4924)" />
          <path transform="matrix(0.3217799,0.18330116,-0.18330116,0.3217799,820.18078,670.42509)" d="m 511.91271,2583.7893 c 0,4.2219 -2.47321,7.6444 -5.52407,7.6444 -3.05086,0 -5.52407,-3.4225 -5.52407,-7.6444 0,-4.2219 2.47321,-7.6444 5.52407,-7.6444 3.05086,0 5.52407,3.4225 5.52407,7.6444 z" sodipodi:ry="7.6444182" sodipodi:rx="5.5240703" sodipodi:cy="2583.7893" sodipodi:cx="506.38864" id="path14232" style="fill:white;stroke:none" sodipodi:type="arc" />
        </g>
      </g>
      <path id="path14365" style="fill:black;stroke:none;display:inline" d="m 547.14495,1598.1787 -3.73081,-3.1571 c 5.7356,0.7636 9.83235,0.1116 15.55799,-2.035 -4.02103,3.0163 -7.16051,4.5119 -11.82718,5.1921 z m -5.08055,-4.5326 -3.4134,-3.0537 c 5.06095,0.5563 9.28806,-0.3749 14.42821,-2.6238 -3.52982,3.3445 -6.72768,5.084 -11.01481,5.6775 z m -81.08843,-1.8458 c 5.59998,2.4554 9.82899,3.4299 15.59773,2.9803 l -3.89756,2.949 c -4.62259,-0.9341 -7.84976,-2.6979 -11.70017,-5.9293 z m 6.15308,-4.5993 c 5.00977,2.5261 9.27408,3.602 14.35788,3.3226 l -3.57499,2.8628 c -4.24835,-0.8266 -7.44084,-2.6533 -10.78289,-6.1854 z m -8.1241,10.0859 c 5.81528,2.16 10.29415,1.3706 14.3166,-2.8072 23.14178,-24.0356 53.67685,-23.2087 73.84177,1.3298 3.69339,4.4944 7.96267,5.6353 14.04668,3.117 -5.16717,5.3347 -10.85592,4.2961 -15.90641,-0.9253 -21.4345,-22.1598 -46.50059,-22.2196 -70.03394,-1.2813 -5.75508,5.1205 -11.5454,5.633 -16.2647,0.567 z" inkscape:connector-curvature="0" sodipodi:nodetypes="cccccccccccccccccsscssc" />
    </g>
    <text xml:space="preserve" style="font-size:100px;font-style:normal;font-variant:normal;font-weight:500;font-stretch:normal;text-align:center;line-height:125%;letter-spacing:0px;word-spacing:0px;writing-mode:lr-tb;text-anchor:middle;fill:black;fill-opacity:1;stroke:none;font-family:League Script Thin;-inkscape-font-specification:League Script Thin" x="960" y="952.36218" id="text3739" sodipodi:linespacing="125%"><tspan sodipodi:role="line" id="tspan3741" x="960" y="952.36218">Critter Swarm</tspan></text>
  </g>
</svg>
