<?xml version="1.0" encoding="UTF-8" standalone="no"?>
<!-- Created with Inkscape (http://www.inkscape.org/) -->

<svg
   xmlns:dc="http://purl.org/dc/elements/1.1/"
   xmlns:cc="http://creativecommons.org/ns#"
   xmlns:rdf="http://www.w3.org/1999/02/22-rdf-syntax-ns#"
   xmlns:svg="http://www.w3.org/2000/svg"
   xmlns="http://www.w3.org/2000/svg"
   xmlns:xlink="http://www.w3.org/1999/xlink"
   xmlns:sodipodi="http://sodipodi.sourceforge.net/DTD/sodipodi-0.dtd"
   xmlns:inkscape="http://www.inkscape.org/namespaces/inkscape"
   id="svg2"
   version="1.1"
   inkscape:version="0.48.3.1 r9886"
   width="1247"
   height="1675"
   sodipodi:docname="Twilight Unbottling Herself.svg"
   enable-background="new"
   inkscape:export-filename="/home/parclytaxel/Pictures/TwiTwee/Auxiliary/Twilight Unbottling Herself.png"
   inkscape:export-xdpi="502.2962"
   inkscape:export-ydpi="502.2962">
  <metadata
     id="metadata8">
    <rdf:RDF>
      <cc:Work
         rdf:about="">
        <dc:format>image/svg+xml</dc:format>
        <dc:type
           rdf:resource="http://purl.org/dc/dcmitype/StillImage" />
        <dc:title></dc:title>
      </cc:Work>
    </rdf:RDF>
  </metadata>
  <defs
     id="defs6">
    <linearGradient
       inkscape:collect="always"
       id="linearGradient4489">
      <stop
         style="stop-color:#e6458b;stop-opacity:0.251"
         offset="0"
         id="stop4491" />
      <stop
         id="stop4505"
         offset="0.50279713"
         style="stop-color:#e6458b;stop-opacity:0.749" />
      <stop
         style="stop-color:#e6458b;stop-opacity:0.251"
         offset="1"
         id="stop4493" />
    </linearGradient>
    <inkscape:path-effect
       effect="skeletal"
       id="path-effect5769"
       is_visible="true"
       pattern="m 665.39543,656.52349 0,11 570.99997,0 c 17.4301,0 36.9179,-1.06409 52,-5.5 -15.0821,-3.54873 -34.5699,-5.5 -52,-5.5 z"
       copytype="single_stretched"
       prop_scale="1"
       scale_y_rel="false"
       spacing="0"
       normal_offset="0"
       tang_offset="0"
       prop_units="false"
       vertical_pattern="false"
       fuse_tolerance="0"
       pattern-nodetypes="ccscsc" />
    <inkscape:path-effect
       effect="skeletal"
       id="path-effect5737"
       is_visible="true"
       pattern="m 678.72782,523.4444 0,11 131.00002,0 c 17.43002,0 36.9179,-1.06409 52,-5.5 -15.0821,-3.54873 -34.56998,-5.5 -52,-5.5 z"
       copytype="single_stretched"
       prop_scale="1"
       scale_y_rel="false"
       spacing="0"
       normal_offset="0"
       tang_offset="0"
       prop_units="false"
       vertical_pattern="false"
       fuse_tolerance="0"
       pattern-nodetypes="ccscsc" />
    <inkscape:path-effect
       effect="skeletal"
       id="path-effect5641"
       is_visible="true"
       pattern="m 916,584 c -17.43002,0 -34.69995,1.50768 -52,5.5 17.30005,3.99232 34.56998,5.5 52,5.5 l 330,0 0,-11 z"
       copytype="single_stretched"
       prop_scale="1"
       scale_y_rel="false"
       spacing="0"
       normal_offset="0"
       tang_offset="0"
       prop_units="false"
       vertical_pattern="false"
       fuse_tolerance="0"
       pattern-nodetypes="scsccs" />
    <inkscape:path-effect
       effect="skeletal"
       id="path-effect5484"
       is_visible="true"
       pattern="m 789,596 c -22.43002,0 -50.44995,1.75768 -77,5.5 26.55005,3.74232 55.31998,5.5 77,5.5 l 101.0001,0 -9.5,-11 z"
       copytype="single_stretched"
       prop_scale="1"
       scale_y_rel="false"
       spacing="0"
       normal_offset="0"
       tang_offset="0"
       prop_units="false"
       vertical_pattern="false"
       fuse_tolerance="0"
       pattern-nodetypes="scsccs" />
    <inkscape:path-effect
       effect="skeletal"
       id="path-effect5452"
       is_visible="true"
       pattern="m 943.91291,673.16566 c -22.43002,0 -50.44995,1.75768 -77,5.5 26.55005,3.74232 55.31998,5.5 77,5.5 l 335.00009,0 c 17.43,0 36.9179,-1.06409 52,-5.5 -15.0821,-3.54873 -34.57,-5.5 -52,-5.5 z"
       copytype="single_stretched"
       prop_scale="1"
       scale_y_rel="false"
       spacing="0"
       normal_offset="0"
       tang_offset="0"
       prop_units="false"
       vertical_pattern="false"
       fuse_tolerance="0"
       pattern-nodetypes="scsscss" />
    <inkscape:path-effect
       effect="skeletal"
       id="path-effect5413"
       is_visible="true"
       pattern="m 571.5,436.5 c -17.43002,0 -34.69995,1.50768 -52,5.5 17.30005,3.99232 34.56998,5.5 52,5.5 l 261.00002,0 c 28.18002,0 64.6679,-2.06409 87,-5.5 -22.8321,-3.29873 -59.06998,-5.5 -87,-5.5 z"
       copytype="single_stretched"
       prop_scale="1"
       scale_y_rel="false"
       spacing="0"
       normal_offset="0"
       tang_offset="0"
       prop_units="false"
       vertical_pattern="false"
       fuse_tolerance="0"
       pattern-nodetypes="scsscss" />
    <linearGradient
       inkscape:collect="always"
       id="linearGradient4094">
      <stop
         style="stop-color:#210045;stop-opacity:1"
         offset="0"
         id="stop4096" />
      <stop
         style="stop-color:#64128d;stop-opacity:1"
         offset="1"
         id="stop4098" />
    </linearGradient>
    <inkscape:path-effect
       effect="skeletal"
       id="path-effect4032"
       is_visible="true"
       pattern="m 665.8298,235.76624 c -17.43002,0 -34.69995,1.50768 -52,5.5 17.30005,3.99232 34.56998,5.5 52,5.5 l 150.00002,0 c 17.43002,0 36.9179,-1.06409 52,-5.5 -15.0821,-3.54873 -34.56998,-5.5 -52,-5.5 z"
       copytype="single_stretched"
       prop_scale="1"
       scale_y_rel="false"
       spacing="0"
       normal_offset="0"
       tang_offset="0"
       prop_units="false"
       vertical_pattern="false"
       fuse_tolerance="0"
       pattern-nodetypes="scsscss" />
    <clipPath
       clipPathUnits="userSpaceOnUse"
       id="clipPath4104">
      <use
         x="0"
         y="0"
         xlink:href="#path4078"
         id="use4106"
         width="1"
         height="1" />
    </clipPath>
    <clipPath
       clipPathUnits="userSpaceOnUse"
       id="clipPath4119">
      <use
         x="0"
         y="0"
         xlink:href="#path2987"
         id="use4121"
         width="1"
         height="1" />
    </clipPath>
    <clipPath
       clipPathUnits="userSpaceOnUse"
       id="clipPath5322">
      <use
         x="0"
         y="0"
         xlink:href="#path3776-0"
         id="use5324"
         transform="matrix(0.78591205,-0.03862783,0.07266921,0.87656494,4.7261665,86.852641)"
         width="1"
         height="1" />
    </clipPath>
    <clipPath
       clipPathUnits="userSpaceOnUse"
       id="clipPath5329">
      <use
         x="0"
         y="0"
         xlink:href="#path4062"
         id="use5331"
         transform="matrix(2.681483,0.71776446,-0.9594808,1.247651,-1278.4125,-450.20709)"
         width="1"
         height="1" />
    </clipPath>
    <clipPath
       clipPathUnits="userSpaceOnUse"
       id="clipPath5668">
      <path
         style="font-size:medium;font-style:normal;font-variant:normal;font-weight:normal;font-stretch:normal;text-indent:0;text-align:start;text-decoration:none;line-height:normal;letter-spacing:normal;word-spacing:normal;text-transform:none;direction:ltr;block-progression:tb;writing-mode:lr-tb;text-anchor:start;baseline-shift:baseline;color:#000000;fill:none;stroke:#00ff00;stroke-width:1;stroke-miterlimit:4;stroke-dasharray:none;marker:none;visibility:visible;display:inline;overflow:visible;enable-background:accumulate;font-family:Sans;-inkscape-font-specification:Sans"
         d="m 1082.3125,551.5625 c 7.8679,18.00746 13.3042,31.73523 16.4063,41.46875 1.551,4.86676 2.4961,8.72646 2.9062,11.53125 l -42.379,-39.54337 28.1075,-27.40039 L 1028.5,494 l -98,56.5 197.5,207.5 78,-69.5 z"
         id="path5670"
         inkscape:connector-curvature="0" />
    </clipPath>
    <clipPath
       clipPathUnits="userSpaceOnUse"
       id="clipPath5672">
      <path
         style="fill:none;stroke:#00ff00;stroke-width:1;stroke-miterlimit:4;stroke-dasharray:none"
         d="m 1131.3836,620.84536 c -15.6898,-23.01738 -32.7166,-44.9985 -50.0777,-66.58156 l -139.43967,13.05342 103.59117,127.98633 z"
         id="path5674"
         inkscape:connector-curvature="0"
         sodipodi:nodetypes="ccccc" />
    </clipPath>
    <clipPath
       clipPathUnits="userSpaceOnUse"
       id="clipPath5800">
      <path
         sodipodi:nodetypes="ccc"
         inkscape:connector-curvature="0"
         id="path5802"
         d="M 689.80121,278.36495 C 687.54317,212.62707 705.46439,157.49703 742.84698,102.88606 558.01372,-49.085088 529.31882,22.741103 689.80121,278.36495 z"
         style="fill:none;stroke:#ffff00;stroke-width:3;stroke-linecap:butt;stroke-linejoin:miter;stroke-miterlimit:20;stroke-opacity:1;stroke-dasharray:none" />
    </clipPath>
    <linearGradient
       inkscape:collect="always"
       xlink:href="#linearGradient4094"
       id="linearGradient4174"
       gradientUnits="userSpaceOnUse"
       x1="833.13623"
       y1="278.08615"
       x2="837.32031"
       y2="376.41168" />
    <linearGradient
       inkscape:collect="always"
       xlink:href="#linearGradient4094"
       id="linearGradient4176"
       gradientUnits="userSpaceOnUse"
       x1="296.98068"
       y1="447.67685"
       x2="289.91989"
       y2="560.39917" />
    <clipPath
       clipPathUnits="userSpaceOnUse"
       id="clipPath4485">
      <path
         style="fill:none;stroke:#000000;stroke-width:1.60000002;stroke-linecap:butt;stroke-linejoin:miter;stroke-miterlimit:30;stroke-opacity:1;stroke-dasharray:none"
         d="m 641.09294,1651.4787 c 47.33557,-11.9669 -8.77701,-52.1361 15.296,-109.1541 24.07302,-57.018 -54.20608,-14.8205 -68.62298,-90.232 -14.4169,-75.4115 -141.83662,21.0899 -87.49599,63.2316 54.34063,42.1417 0.32335,53.7858 44.30249,80.861 43.97915,27.0752 49.18491,67.2604 96.52048,55.2935 z"
         id="path4487"
         inkscape:connector-curvature="0"
         sodipodi:nodetypes="zzzzzz" />
    </clipPath>
    <linearGradient
       inkscape:collect="always"
       xlink:href="#linearGradient4489"
       id="linearGradient4495"
       x1="509.42041"
       y1="1439.0724"
       x2="654.89471"
       y2="1651.5841"
       gradientUnits="userSpaceOnUse" />
    <filter
       inkscape:collect="always"
       id="filter4667"
       x="-0.11127682"
       width="1.2225536"
       y="-0.08441144"
       height="1.1688229">
      <feGaussianBlur
         inkscape:collect="always"
         stdDeviation="8.0719159"
         id="feGaussianBlur4669" />
    </filter>
    <linearGradient
       inkscape:collect="always"
       xlink:href="#linearGradient4489"
       id="linearGradient4727"
       x1="986.90955"
       y1="933.46466"
       x2="1041.228"
       y2="1164.7966"
       gradientUnits="userSpaceOnUse" />
    <clipPath
       clipPathUnits="userSpaceOnUse"
       id="clipPath4729">
      <path
         style="fill:none;stroke:#000000"
         d="m 1035.0147,951.19896 c 19.2459,24.99668 -8.1435,26.2217 11.7165,63.97364 19.86,37.7519 -28.1611,35.3071 16.2543,87.0954 44.4154,51.7882 -80.98907,83.4666 -70.16823,19.0431 10.82083,-64.4235 -32.08197,-35.678 -25.12629,-80.3856 6.95569,-44.70765 -19.26606,-32.4068 -9.09485,-66.7856 10.17121,-34.37876 57.17267,-47.93762 76.41857,-22.94094 z"
         id="path4731"
         inkscape:connector-curvature="0"
         sodipodi:nodetypes="zzzzzzz" />
    </clipPath>
    <filter
       inkscape:collect="always"
       id="filter5101"
       x="-0.13836748"
       width="1.276735"
       y="-0.073495897"
       height="1.1469918">
      <feGaussianBlur
         inkscape:collect="always"
         stdDeviation="6.7063312"
         id="feGaussianBlur5103" />
    </filter>
  </defs>
  <sodipodi:namedview
     pagecolor="#ffffff"
     bordercolor="#666666"
     borderopacity="1"
     objecttolerance="10"
     gridtolerance="10"
     guidetolerance="10"
     inkscape:pageopacity="0"
     inkscape:pageshadow="2"
     inkscape:window-width="1364"
     inkscape:window-height="698"
     id="namedview4"
     showgrid="true"
     fit-margin-top="0"
     fit-margin-left="0"
     fit-margin-right="0"
     fit-margin-bottom="0"
     showguides="true"
     inkscape:zoom="0.31880597"
     inkscape:cx="623.5"
     inkscape:cy="837.5"
     inkscape:window-x="0"
     inkscape:window-y="0"
     inkscape:window-maximized="1"
     inkscape:current-layer="layer2"
     inkscape:object-paths="false"
     inkscape:object-nodes="false"
     inkscape:guide-bbox="true">
    <inkscape:grid
       type="xygrid"
       id="grid4017"
       empspacing="5"
       visible="true"
       enabled="false"
       snapvisiblegridlinesonly="true"
       spacingx="11px"
       spacingy="11px" />
  </sodipodi:namedview>
  <g
     inkscape:groupmode="layer"
     id="layer2"
     inkscape:label="Drawing"
     style="display:inline">
    <path
       sodipodi:nodetypes="csscc"
       inkscape:connector-curvature="0"
       id="path3404"
       d="m 332.66068,1146.0277 c -44.76847,111.7295 -74.12833,211.0037 -98.03478,332.7648 -6.7066,34.1583 -138.337706,-22.8728 -121.9986,-66.7022 43.76607,-117.4017 100.65658,-198.9016 194.09225,-289.8616 z"
       style="fill:#ae80c4;stroke:#9964ac;stroke-width:11;stroke-miterlimit:4;stroke-opacity:1;stroke-dasharray:none;fill-opacity:1" />
    <path
       style="fill:#ae80c4;fill-opacity:1;stroke:#9964ac;stroke-width:11;stroke-miterlimit:4;stroke-opacity:1;stroke-dasharray:none"
       d="m 175.0183,1130.5431 c 65.6188,50.0067 122.5907,-25.0641 52.7107,-76.8852 C 110.5022,966.72679 82.0898,975.13876 73.6779,984.44006 c -9.2428,10.21721 -4.209,35.82804 82.3423,120.79614 z"
       id="path5702"
       inkscape:connector-curvature="0"
       sodipodi:nodetypes="csscc"
       inkscape:transform-center-x="-6.5235476"
       inkscape:transform-center-y="64.260898" />
    <path
       id="path4395"
       style="fill:#d4a4e8;fill-opacity:1;stroke:none"
       d="m 1046.7725,1288.3595 c 23.8433,80.9565 81.1973,213.1274 45.0305,221.9552 -34.9958,8.542 -41.149,-63.3693 -45.0305,-221.9552 z m -82.00631,168.396 c 35.09538,-77.5413 34.19066,-125.5996 51.49821,-169.1098 26.7018,291.5412 -79.2766,230.4846 -51.49821,169.1098 z m 75.18361,-283.9669 c 5.5344,-88.3781 -14.5611,-150.181 -47.24659,-197.02408 C 921.37559,873.54155 968.04417,839.84145 1095.7042,793.4024 1324.4734,710.18269 1182.5515,250.43219 947.46307,485.5206 871.97818,561.00549 824.75608,520.7797 823.3867,348.5337 818.87259,-219.2697 141.0854,118.0894 345.44734,410.2628 465.71576,582.2089 30.997,454.4038 75.2738,898.89567 c 14.4645,145.20813 73.5523,193.28843 121.4535,296.65833 57.602,124.3041 63.64371,254.9428 110.8504,302.1495 144.99963,144.9998 365.18738,-40.3442 226.5023,-234.3976 L 383,1206 C 318,1086 349.00001,1010 304,856 239.0527,633.7359 652.28566,666.6541 491.55319,375.6535 386.59271,185.6262 706.67948,72.8907 696.66667,366.1526 687.0126,648.9077 898.41899,651.30961 969.49661,566.2195 1142.4077,359.22011 1212.2909,688.77191 1071.3446,737.14705 901.89093,795.30637 876.40112,879.25818 961.36559,995.17091 c 49.16701,67.07609 60.93931,109.20629 63.96841,177.61769 5.0801,114.7303 -11.014,59.9752 -33.89481,176.8311 -15.52588,79.293 -74.81597,124.8122 -35.16078,164.4674 23.90448,23.9045 56.32469,15.4831 78.08449,-22.436 25.3858,61.5424 94.8788,47.6704 83.4115,-8.4877 -11.4545,-56.0952 -24.4841,-96.7475 -47.7057,-150.605 -20.0582,-46.5206 -34.1986,-94.6211 -30.1189,-159.7698 z"
       inkscape:connector-curvature="0"
       sodipodi:nodetypes="cscscssssssssssccssssssssscsss" />
    <path
       sodipodi:nodetypes="cssc"
       inkscape:connector-curvature="0"
       id="path4060"
       d="m 538.55471,1260.1079 -8.94942,6.396 c 15.32463,21.4723 27.77694,45.036 35.23681,70.1081 6.28819,21.112 9.02994,43.3061 7.26291,65.135 0,0 0,10e-5 0,10e-5 -1.58285,19.6876 -6.80492,39.0998 -15.4568,56.8215 0,0 -10e-6,10e-5 -10e-6,10e-5 -8.22603,16.8596 -19.53657,32.2322 -33.20389,45.0728 -13.38204,12.5719 -29.03785,22.7478 -45.99793,29.6951 -17.03565,6.9808 -35.42897,10.6994 -53.80584,10.7028 0,0 -10e-6,0 -2e-5,0 -19.4466,0.018 -38.90867,-4.1744 -56.84073,-11.8712 -20.64578,-8.8423 -39.28249,-22.3303 -55.333,-38.3538 -5.88106,-5.8507 -10.76967,-12.8473 -15.07615,-20.2924 -4.99846,-8.6687 -9.11135,-17.942 -12.82275,-27.459 -9.04715,-23.2158 -15.59906,-47.524 -22.20741,-71.9568 0,-10e-5 -10e-6,-10e-5 -10e-6,-10e-5 -7.84119,-29.0361 -15.46948,-58.239 -24.39508,-87.1611 -9.82369,-31.84 -21.17919,-63.3305 -35.24785,-93.7035 0,0 -1e-5,0 -2e-5,0 -11.17258,-24.0979 -24.04881,-47.2629 -37.39748,-70.0124 -1e-5,0 -2e-5,0 -3e-5,0 -12.29058,-20.9577 -24.85502,-41.6022 -35.98594,-62.8666 -11.50896,-21.985 -21.42309,-44.7801 -28.926831,-68.32065 -0.181741,-0.57016 -0.362825,-1.14189 -0.543214,-1.71515 -2.37046,-7.52005 -4.629167,-15.30018 -6.762823,-23.16782 -2.133656,-7.86765 -4.142891,-15.82263 -6.054452,-23.68481 -3.823122,-15.72435 -7.240934,-31.07816 -10.77295,-44.5784 -0.366313,13.88856 0.369644,29.80558 2.525103,46.14378 1.07773,8.1691 2.505554,16.44068 4.276944,24.60595 1.77139,8.16527 3.886848,16.22366 6.295028,23.97127 0.184074,0.59119 0.369859,1.18046 0.557301,1.76772 7.739098,24.24661 17.898054,47.62871 29.661324,70.08141 11.35757,21.6768 24.00748,42.4753 36.24237,63.3288 0,0 1e-5,0 1e-5,0 13.25671,22.6076 25.96883,45.4591 36.90516,69.0718 1e-5,0 1e-5,10e-5 2e-5,10e-5 13.807,29.7822 24.98579,60.8125 34.71771,92.323 8.83481,28.6128 16.42683,57.6902 24.28623,86.7849 6.59088,24.4368 13.26555,49.1187 22.57568,73.0777 3.82314,9.8454 8.17513,19.6179 13.54007,28.9567 4.60542,8.0404 10.07926,15.8008 16.83186,22.5838 16.86378,16.8908 36.64617,31.155 58.77005,40.6827 19.25288,8.2745 40.16364,12.7644 61.18681,12.7641 2e-5,0 3e-5,0 5e-5,0 19.85274,-0.014 39.63503,-4.0063 57.97278,-11.5246 18.24078,-7.4811 35.01682,-18.3776 49.35862,-31.857 14.64898,-13.7674 26.74395,-30.2042 35.55719,-48.2654 10e-6,0 2e-5,0 3e-5,0 9.26541,-18.9985 14.84706,-39.725 16.53556,-60.7646 0,0 0,0 0,0 1.86001,-23.3267 -1.02303,-46.8627 -7.68677,-69.1608 -7.91082,-26.4449 -20.89359,-51.0923 -36.82822,-73.3591 z"
       style="fill:#a66ebe;fill-opacity:1;stroke:none"
       inkscape:path-effect="#path-effect5769"
       inkscape:original-d="M 534.08,1263.3059 C 672.76508,1457.3593 452.57733,1642.7033 307.5777,1497.7035 260.37101,1450.4968 254.3293,1319.8581 196.7273,1195.554 148.8261,1092.1841 89.7383,1044.1038 75.2738,898.89567" />
    <g
       id="g5343"
       transform="matrix(-1,0,0,-1,1247,1675)">
      <path
         d="m 699.03427,379.10361 c -8.81123,1.50018 -13.48467,4.07066 -17.76137,8.55311 1.70883,-6.63782 6.79393,-10.38678 16.66225,-13.11526 z m 2.6358,6.13021 c -7.46925,3.16771 -11.32281,6.62035 -14.48025,11.68055 0.31942,-6.66218 4.20578,-11.35883 12.52137,-15.91502 z m 4.06396,5.11547 c -5.8488,4.46735 -8.65586,8.59539 -10.54371,13.9852 -1.14546,-6.5539 1.49173,-12.00892 8.32589,-18.21249 z"
         style="fill:#000000;fill-opacity:1;fill-rule:evenodd;stroke:none"
         id="path4076"
         inkscape:connector-curvature="0" />
      <path
         clip-path="none"
         transform="matrix(1.1114515,-0.3804844,0.3804844,1.1114515,-183.28317,243.85613)"
         d="m 710.50137,323.8215 c 0,34.82328 -10.26841,63.05312 -22.93515,63.05312 -12.66673,0 -22.93515,-28.22984 -22.93515,-63.05312 0,-34.82327 10.26842,-63.05312 22.93515,-63.05312 12.66674,0 22.93515,28.22985 22.93515,63.05312 z"
         sodipodi:ry="63.05312"
         sodipodi:rx="22.935148"
         sodipodi:cy="323.8215"
         sodipodi:cx="687.56622"
         id="path4062"
         style="fill:#ffffff;stroke:none"
         sodipodi:type="arc" />
      <g
         id="g4028-9"
         clip-path="url(#clipPath5329)"
         style="display:inline"
         transform="matrix(0.30926573,-0.17791831,0.23783457,0.66468173,502.444,71.791429)">
        <path
           sodipodi:type="arc"
           style="fill:url(#linearGradient4176);fill-opacity:1;stroke:none"
           id="path3776-0"
           sodipodi:cx="315.01608"
           sodipodi:cy="507.10495"
           sodipodi:rx="53.769962"
           sodipodi:ry="75.892403"
           d="m 368.78605,507.10495 c 0,41.91422 -24.07364,75.8924 -53.76997,75.8924 -29.69633,0 -53.76996,-33.97818 -53.76996,-75.8924 0,-41.91422 24.07363,-75.8924 53.76996,-75.8924 29.69633,0 53.76997,33.97818 53.76997,75.8924 z"
           transform="matrix(1.2715761,-0.04367684,0.00610661,1.13672,-99.205603,-70.75235)" />
        <g
           transform="matrix(1.2672434,0.05584397,-0.10505734,1.1361872,3.1353042,-98.944787)"
           clip-path="url(#clipPath5322)"
           id="g3822-5">
          <path
             style="fill:#ccaed7;fill-opacity:1;stroke:none"
             d="m 227.57107,537.85876 11.57538,33.21446 24.10355,-24.01256 -10.17893,-15.7019 z"
             id="path3780-7"
             inkscape:connector-curvature="0"
             sodipodi:nodetypes="ccccc" />
          <path
             style="fill:#8c4fab;fill-opacity:1;stroke:none"
             d="m 213.82843,526.93718 36.25,0.71967 4.28033,11.48224 -32.96967,11.12868 z"
             id="path3778-0"
             inkscape:connector-curvature="0"
             sodipodi:nodetypes="ccccc" />
        </g>
        <path
           transform="matrix(1.3903457,-0.001492,-0.04506772,1.2444487,-103.4247,-138.97222)"
           d="m 356.60916,507.10495 c 0,31.12595 -18.62185,56.35852 -41.59308,56.35852 -22.97122,0 -41.59308,-25.23257 -41.59308,-56.35852 0,-31.12595 18.62186,-56.35852 41.59308,-56.35852 22.97123,0 41.59308,25.23257 41.59308,56.35852 z"
           sodipodi:ry="56.358521"
           sodipodi:rx="41.593079"
           sodipodi:cy="507.10495"
           sodipodi:cx="315.01608"
           id="path3774-1"
           style="fill:#000000;stroke:none"
           sodipodi:type="arc" />
        <path
           transform="matrix(-0.94586071,-0.54749301,-0.92853343,0.90429471,1055.8241,165.08178)"
           d="m 337.32761,507.10495 c 0,17.9717 -9.98921,32.54065 -22.31153,32.54065 -12.32232,0 -22.31153,-14.56895 -22.31153,-32.54065 0,-17.9717 9.98921,-32.54065 22.31153,-32.54065 12.32232,0 22.31153,14.56895 22.31153,32.54065 z"
           sodipodi:ry="32.540646"
           sodipodi:rx="22.311531"
           sodipodi:cy="507.10495"
           sodipodi:cx="315.01608"
           id="path3770-3"
           style="fill:#ffffff;stroke:none"
           sodipodi:type="arc" />
        <path
           transform="matrix(-0.80460334,-0.66556415,-1.1642467,0.8337173,1131.613,278.11935)"
           sodipodi:type="arc"
           style="fill:#ffffff;stroke:none"
           id="path3772-3"
           sodipodi:cx="315.01608"
           sodipodi:cy="507.10495"
           sodipodi:rx="7.4211206"
           sodipodi:ry="9.4629078"
           d="m 322.4372,507.10495 c 0,5.22622 -3.32255,9.46291 -7.42112,9.46291 -4.09857,0 -7.42112,-4.23669 -7.42112,-9.46291 0,-5.22622 3.32255,-9.46291 7.42112,-9.46291 4.09857,0 7.42112,4.23669 7.42112,9.46291 z" />
      </g>
      <path
         d="m 669.59141,310.43854 c -14.01651,0.89001 -20.54476,-2.05192 -25.33358,-12.66788 5.90195,6.58872 12.34147,9.03646 20.9563,8.12881 4.58995,-95.88751 80.91269,0.15775 73.66671,84.40977 -6.01283,-90.19553 -69.30335,-165.81474 -69.28943,-79.8707 z m -1.79986,-8.2452 c -10.64451,-0.30888 -17.77421,-5.03625 -20.71834,-14.64107 4.56435,6.65 11.56943,9.97927 21.22176,10.02648 z m 0.72783,-7.79263 c -9.51969,-2.28289 -14.74536,-6.64679 -16.90313,-15.98528 4.21013,6.54878 9.31569,9.89752 17.63999,11.39602 z"
         style="fill:#000000;stroke:none"
         id="path4068"
         inkscape:connector-curvature="0" />
    </g>
    <g
       id="g5423"
       transform="matrix(-1,0,0,-1,1247,1675)">
      <path
         style="fill:#d4a4e8;fill-opacity:1;stroke:none"
         d="m 738.88084,390.30924 c -18.32906,25.43533 -57.01224,24.93864 -49.46416,44.24416 28.19302,72.10855 187.41298,81.76341 252.33491,-40.99064 z"
         id="path5421"
         inkscape:connector-curvature="0"
         sodipodi:nodetypes="cscc" />
      <path
         d="m 720.56443,470.20782 11.23311,6.15367 c 32.77743,-9.71398 45.96118,-23.10266 46.03582,-47.59773 -8.2086,22.35947 -21.46453,32.96751 -57.26893,41.44406 z m -6.42398,-35.90691 c 6.66132,3.49333 11.26553,1.34348 11.99744,-6.18919 4.95003,11.37368 -5.69012,16.76038 -11.99744,6.18919 z"
         style="fill:#a66ebe;fill-opacity:1;fill-rule:evenodd;stroke:none"
         id="path4136"
         inkscape:connector-curvature="0" />
      <path
         inkscape:original-d="m 738.88084,390.30924 c -18.32906,25.43533 -57.01224,24.93864 -49.46416,44.24416 28.19302,72.10855 187.41298,81.76341 252.33491,-40.99064"
         inkscape:path-effect="#path-effect5413"
         sodipodi:nodetypes="csc"
         inkscape:connector-curvature="0"
         id="path3975"
         d="m 701.34413,422.54989 c 1.74786,-0.99139 3.60064,-1.95319 5.5094,-2.96658 0,0 0,0 0,0 5.93029,-3.12462 12.0675,-6.52688 17.63755,-10.9574 3.09098,-2.45061 5.96088,-5.23603 8.42418,-8.31187 2.46331,-3.07585 4.52027,-6.44264 5.96558,-10.0048 -2.92183,2.49815 -5.96389,4.60382 -9.08872,6.48164 -3.12483,1.87782 -6.33238,3.52722 -9.56711,5.05937 -5.85035,2.75994 -11.97557,5.1242 -18.18887,8.02644 0,0 0,0 0,0 -2.0051,0.92906 -4.06138,1.94002 -6.12076,3.10987 -0.62319,0.354 -1.24755,0.72028 -1.87171,1.10099 -2.20496,1.3104 -4.53117,2.98162 -6.68732,5.23918 -1.90115,1.95051 -3.41028,4.57883 -4.1294,7.76272 -0.57936,3.55586 -0.0669,6.81021 1.06733,9.4667 0,0 0,0 0,10e-6 3.88978,9.88706 10.04745,18.68988 17.57798,25.93211 0,10e-6 0,10e-6 10e-6,10e-6 8.05229,7.74081 17.48047,13.79361 27.44363,18.34291 22.81942,10.40801 48.27244,13.70512 72.91246,11.78449 0,0 0,0 1e-5,0 28.11674,-2.14416 55.63183,-11.16605 79.57558,-26.05015 3.37547,-2.10237 6.67231,-4.32091 9.88684,-6.64816 5.57689,-4.03756 11.23374,-8.81703 16.57617,-14.1303 5.34244,-5.31327 10.36761,-11.15761 14.80368,-17.19077 4.43607,-6.03316 8.28273,-12.25054 11.41501,-18.23271 3.13228,-5.98218 5.55297,-11.72464 7.26594,-16.80083 -3.25665,4.3937 -7.00571,9.34855 -11.20278,14.48168 -4.19706,5.13312 -8.84339,10.44184 -13.80036,15.59892 -4.95698,5.15708 -10.22377,10.15987 -15.56542,14.77808 -5.34166,4.61821 -10.75648,8.85072 -15.93326,12.5942 -3.01061,2.17706 -6.09645,4.24894 -9.2538,6.20819 -22.42253,13.94304 -48.28001,22.42274 -74.60274,24.4236 -23.1232,1.71606 -46.76959,-1.25795 -67.49254,-10.81523 -9.01051,-4.15061 -17.42122,-9.50929 -24.39121,-16.26055 -1e-5,0 -1e-5,0 -1e-5,-10e-6 -6.48193,-6.27564 -11.7704,-13.77475 -14.97039,-22.021 0,0 0,0 0,0 -0.45309,-1.40332 -0.78301,-2.61364 -0.51965,-3.33462 0,0 0,0 0,0 0.036,-0.64823 0.63244,-1.48818 1.39139,-2.3976 1.03424,-1.1725 2.59155,-2.21467 4.38064,-3.35201 0.50573,-0.31173 1.02374,-0.61651 1.55267,-0.91652 z"
         style="fill:#a66ebe;fill-opacity:1;stroke:none" />
    </g>
    <g
       id="g4123"
       transform="matrix(-1,0,0,-1,1247,1675)">
      <path
         sodipodi:nodetypes="cccccccccccc"
         inkscape:connector-curvature="0"
         d="m 864.79541,358.83919 c 7.09686,3.97107 10.8135,8.04702 13.72215,13.64704 0.22708,-7.34814 -3.51147,-12.90213 -11.95785,-18.61807 z m 4.35705,-8.46717 c 8.91488,2.36178 13.80703,5.62632 18.17474,10.81179 -1.43237,-7.44513 -6.56162,-12.10413 -16.65233,-15.89192 z m 2.34714,-9.07232 c 10.46774,0.77962 16.21615,3.26814 21.71213,8.03604 -2.73207,-7.57184 -9.09205,-11.39284 -20.93163,-13.49157 z"
         style="fill:#000000;fill-opacity:1;fill-rule:evenodd;stroke:none"
         id="path3953" />
      <path
         sodipodi:nodetypes="csc"
         inkscape:connector-curvature="0"
         id="path2987"
         d="m 790.3665,397.90117 c -58.99762,-175.21848 64.41586,-194.61338 80.96686,-124.31064 20.0452,85.14441 -12.2102,128.30297 -80.96686,124.31064 z"
         style="fill:#ffffff;stroke:none" />
      <g
         clip-path="url(#clipPath4119)"
         id="g4108">
        <path
           sodipodi:type="arc"
           style="fill:url(#linearGradient4174);fill-opacity:1;stroke:none"
           id="path4078"
           sodipodi:cx="815.32043"
           sodipodi:cy="328.92279"
           sodipodi:rx="47.034561"
           sodipodi:ry="64.986099"
           d="m 862.355,328.92279 c 0,35.89083 -21.05809,64.9861 -47.03457,64.9861 -25.97647,0 -47.03456,-29.09527 -47.03456,-64.9861 0,-35.89083 21.05809,-64.9861 47.03456,-64.9861 25.97648,0 47.03457,29.09527 47.03457,64.9861 z"
           transform="matrix(1.0028138,0.08893211,-0.08893211,1.0028138,21.488999,-75.112435)" />
        <g
           id="g4090"
           clip-path="url(#clipPath4104)">
          <path
             style="fill:#ccaed7;fill-opacity:1;stroke:none"
             d="m 831.39382,341.63561 32.60592,14.07237 -17.79497,30.50497 -19.14272,-36.55482 z"
             id="path4088"
             inkscape:connector-curvature="0"
             sodipodi:nodetypes="ccccc" />
          <path
             sodipodi:nodetypes="ccccc"
             inkscape:connector-curvature="0"
             id="path4086"
             d="m 832.51152,337.7908 37.03986,10.42439 -7.54105,23.06674 -31.9424,-27.28854 z"
             style="fill:#8c4fab;fill-opacity:1;stroke:none" />
        </g>
        <path
           transform="matrix(0.84911163,0.05125189,-0.05125189,0.84911163,128.21075,6.8515113)"
           d="m 863.22828,328.92279 c 0,35.89083 -21.44908,64.9861 -47.90785,64.9861 -26.45877,0 -47.90784,-29.09527 -47.90784,-64.9861 0,-35.89083 21.44907,-64.9861 47.90784,-64.9861 26.45877,0 47.90785,29.09527 47.90785,64.9861 z"
           sodipodi:ry="64.986099"
           sodipodi:rx="47.907841"
           sodipodi:cy="328.92279"
           sodipodi:cx="815.32043"
           id="path4080"
           style="fill:#000000;stroke:none"
           sodipodi:type="arc" />
        <path
           sodipodi:type="arc"
           style="fill:#ffffff;stroke:none"
           id="path4082"
           sodipodi:cx="825.7265"
           sodipodi:cy="307.7287"
           sodipodi:rx="19.869633"
           sodipodi:ry="33.931999"
           d="m 845.59613,307.7287 c 0,18.74012 -8.89593,33.932 -19.86963,33.932 -10.97369,0 -19.86963,-15.19188 -19.86963,-33.932 0,-18.74013 8.89594,-33.932 19.86963,-33.932 10.9737,0 19.86963,15.19187 19.86963,33.932 z"
           transform="matrix(0.78974668,0.13874216,-0.13874216,0.78974668,213.60121,-52.356037)" />
        <path
           transform="matrix(0.23873581,0.06415146,-0.06415146,0.23873581,652.53315,212.03998)"
           d="m 843.66969,307.7287 c 0,16.97684 -8.03344,30.73929 -17.94319,30.73929 -9.90975,0 -17.94319,-13.76245 -17.94319,-30.73929 0,-16.97685 8.03344,-30.7393 17.94319,-30.7393 9.90975,0 17.94319,13.76245 17.94319,30.7393 z"
           sodipodi:ry="30.739296"
           sodipodi:rx="17.943192"
           sodipodi:cy="307.7287"
           sodipodi:cx="825.7265"
           id="path4084"
           style="fill:#ffffff;stroke:none"
           sodipodi:type="arc" />
      </g>
      <path
         inkscape:connector-curvature="0"
         d="m 861.89929,251.65062 c 12.94745,-11.15091 17.76113,-20.88072 14.72337,-35.36965 -2.18987,12.47351 -7.08755,21.09485 -19.78112,30.65347 z m 7.37387,9.32735 c 16.11701,-9.5049 22.29554,-18.26961 21.49358,-33.76472 -4.19065,12.28467 -10.56708,20.13232 -25.33741,27.79214 z m -78.90666,136.9232 c -47.90785,-168.56461 56.43122,-188.8467 80.96686,-124.31064 24.12225,-8.79009 31.46971,-17.46859 32.57498,-35.03497 -6.31698,14.3329 -15.29648,21.29794 -29.09589,25.57327 -34.90737,-70.70702 -148.79279,-22.57929 -84.44595,133.77234 z"
         style="fill:#000000;stroke:none"
         id="path3789" />
    </g>
    <path
       style="fill:#a66ebe;fill-opacity:1;stroke:none"
       d="m 378.16389,1208.6196 9.67222,-5.2392 c -14.14344,-26.1187 -25.43215,-53.7808 -32.95413,-82.4342 -6.66787,-25.3311 -10.44086,-51.4858 -13.41656,-77.812 0,0 0,0 0,0 -3.18195,-28.2492 -5.7246,-56.72267 -9.83465,-85.14085 0,-10e-6 0,-10e-6 0,-10e-6 -0.12894,-0.89094 -0.25939,-1.78167 -0.39135,-2.67219 -2.53695,-17.12047 -6.08203,-35.13681 -10.6833,-52.27604 C 315.95485,885.90587 310.30041,869.65365 304,856 c 2.46834,14.77341 5.41293,31.54667 8.25971,48.86568 2.84678,17.31901 5.59586,35.18352 8.09845,52.06807 0.13017,0.87825 0.25886,1.75672 0.38607,2.63541 0,10e-6 0,10e-6 0,2e-5 4.05935,28.01968 6.58723,56.37842 9.79035,84.79662 0,0 10e-6,0 10e-6,0 2.9831,26.5583 6.85339,53.2342 13.70843,79.3755 7.77697,29.5791 19.38793,58.056 33.92087,84.8783 z"
       id="path5356"
       inkscape:connector-curvature="0"
       sodipodi:nodetypes="cc"
       inkscape:path-effect="#path-effect5737"
       inkscape:original-d="M 383,1206 C 318,1086 349,1010 304,856" />
    <g
       id="g5804"
       transform="matrix(-1,0,0,-1,1247,1675)">
      <path
         style="fill:#273771;fill-opacity:1;stroke:none"
         d="m 874.39583,153.19125 c -20.78066,26.26989 -17.53296,54.75627 6.38441,75.53694 -86.65145,14.50726 -147.74774,30.97078 -226.16535,63.90617 -10.19429,-30.19077 -14.98264,-57.2587 -17.72725,-89.40992 -13.31944,37.18109 -11.26604,67.54088 -0.92088,102.06573 -18.82022,14.11517 -23.79869,12.31714 -26.93539,20.1589 -54.02375,-109.234 -22.75992,-195.63092 44.13227,-220.54036 62.20216,-23.162955 105.02548,23.27156 227.0858,-16.482772 z"
         id="path5796"
         inkscape:connector-curvature="0"
         sodipodi:nodetypes="ccccccscc" />
      <path
         sodipodi:nodetypes="ccccc"
         inkscape:connector-curvature="0"
         id="path5789"
         d="m 751.45646,104.29541 26.45466,1.47679 c -10.88288,45.59132 -11.42864,98.18416 3.52824,143.85001 l -71.76005,20.91852 c -0.3085,-57.16126 11.27986,-104.58957 41.77715,-166.24532 z"
         style="fill:#e6458b;fill-opacity:1;stroke:none" />
      <path
         sodipodi:nodetypes="ccccc"
         inkscape:connector-curvature="0"
         id="path5785"
         d="m 689.80121,278.36495 c -2.25804,-65.73788 15.66318,-120.86792 53.04577,-175.47889 l 20.59323,2.6146 c -24.22683,49.3291 -36.07084,95.39971 -32.26925,159.16311 z"
         style="fill:#622e86;fill-opacity:1;stroke:none" />
      <path
         sodipodi:nodetypes="ccccccscc"
         inkscape:connector-curvature="0"
         id="path5783"
         d="m 874.39583,153.19125 c -20.78066,26.26989 -17.53296,54.75627 6.38441,75.53694 -86.65145,14.50726 -147.74774,30.97078 -226.16535,63.90617 -10.19429,-30.19077 -14.98264,-57.2587 -17.72725,-89.40992 -13.31944,37.18109 -11.26604,67.54088 -0.92088,102.06573 -10.36465,6.68452 -17.64918,12.06091 -26.93539,20.1589 -54.02375,-109.234 -22.75992,-195.63092 44.13227,-220.54036 62.20216,-23.162955 105.02548,23.27156 227.0858,-16.482772 z"
         style="fill:none;stroke:#132042;stroke-width:11;stroke-linecap:butt;stroke-linejoin:miter;stroke-miterlimit:20;stroke-opacity:1;stroke-dasharray:none" />
      <path
         sodipodi:nodetypes="cccc"
         inkscape:connector-curvature="0"
         d="m 831.52522,101.15261 c -2.85472,43.74034 0.50749,88.66973 12.07271,134.73323 M 804.24617,104.68735 c 0.0905,45.06974 8.86797,89.82465 26.97857,132.85671"
         style="fill:none;stroke:#132042;stroke-width:6;stroke-linecap:butt;stroke-linejoin:miter;stroke-miterlimit:20;stroke-opacity:1;stroke-dasharray:none"
         id="path5793" />
      <g
         clip-path="url(#clipPath5800)"
         id="g5384">
        <path
           style="fill:#d4a4e8;fill-opacity:1;stroke:#a66ebe;stroke-width:11;stroke-linecap:butt;stroke-linejoin:miter;stroke-miterlimit:4;stroke-opacity:1;stroke-dasharray:none"
           d="M 714,249 C 589,5 583,8 761,209 z"
           id="path5358"
           inkscape:connector-curvature="0"
           sodipodi:nodetypes="ccc" />
        <path
           id="path5370"
           style="fill:none;stroke:#a66ebe;stroke-width:6;stroke-linecap:butt;stroke-linejoin:miter;stroke-miterlimit:4;stroke-opacity:1;stroke-dasharray:none"
           d="m 659.00104,93.553357 c -2.12706,10.007483 -5.31231,19.684033 -9.51136,29.029013 m 47.22002,13.40494 c -4.56831,14.51075 -11.37205,28.02044 -20.26722,40.54427 m 59.39393,3.53938 c -7.70245,17.79299 -18.79875,33.52367 -32.99969,47.26024"
           inkscape:connector-curvature="0"
           sodipodi:nodetypes="cccccc" />
      </g>
    </g>
    <g
       id="g4053"
       transform="matrix(-1,0,0,-1,1247,1675)">
      <path
         style="fill:#d4a4e8;fill-opacity:1;stroke:none"
         d="m 870.72411,188.54993 c -11.29199,-81.55323 17.3654,-143.789408 23.63873,-143.789408 8.15532,0 110.87856,96.237408 65.71063,227.977228 z"
         id="path4040"
         inkscape:connector-curvature="0"
         sodipodi:nodetypes="cscc" />
      <path
         inkscape:original-d="m 870.72411,188.54993 c -11.29199,-81.55323 17.3654,-143.789408 23.63873,-143.789408 8.15532,0 110.87856,96.237408 65.71063,227.977228"
         inkscape:path-effect="#path-effect4032"
         sodipodi:nodetypes="csc"
         inkscape:connector-curvature="0"
         id="path3977"
         d="m 866.24812,105.58284 c -2.32558,13.90057 -3.146,27.9817 -2.41024,41.92394 0.73576,13.94224 3.02986,27.74585 6.88623,41.04315 0.0982,-13.84486 0.601,-27.46061 1.61142,-40.95809 1.01042,-13.49749 2.53026,-26.87767 4.75753,-40.19491 1.12273,-6.71296 2.51871,-13.377213 4.19436,-19.970996 2.59803,-10.173188 5.7083,-20.106823 10.11116,-29.298017 1.32025,-2.719228 2.59065,-5.230386 4.12272,-7.285822 0.49216,-0.623135 0.79964,-1.059741 1.00981,-1.197353 0.0703,-0.02904 -0.0467,0.02781 -0.33868,0.205233 0,3e-6 -10e-6,5e-6 -10e-6,7e-6 -0.18826,0.189884 -0.79418,0.308702 -1.82958,0.41054 -10e-6,-1e-6 -10e-6,-2e-6 -2e-5,-2e-6 -1.04834,-0.148097 -1.42865,-0.159644 -1.1412,-0.168425 0.15161,0.05229 0.41996,0.21991 0.82221,0.456471 0,0 0,10e-7 0,2e-6 1.22999,0.749531 2.48327,1.743283 3.83619,2.846786 4.39625,3.61637 8.47859,7.778556 12.47234,12.160004 12.62707,13.884755 23.28223,29.596132 31.98135,46.326912 0,10e-6 0,10e-6 10e-6,10e-6 11.4078,21.97608 19.20079,45.85815 22.21609,70.33116 0.40602,3.26958 0.72345,6.54961 0.9539,9.83608 0.46872,6.68444 0.65243,13.58782 0.5595,20.54642 -0.0929,6.95859 -0.46197,13.97168 -1.03872,20.88615 -0.57675,6.91447 -1.36049,13.72983 -2.23227,20.3129 -0.87178,6.58306 -1.83091,12.93387 -2.71875,18.94276 2.7761,-5.36149 5.38565,-11.32525 7.66116,-17.72866 2.2755,-6.40341 4.21541,-13.24578 5.69839,-20.32287 1.48297,-7.07709 2.50795,-14.3877 3.01976,-21.70051 0.5118,-7.31282 0.51004,-14.62641 0.0169,-21.70272 -0.24247,-3.47912 -0.57626,-6.95356 -1.00297,-10.41929 -3.21042,-25.88155 -11.38859,-51.00408 -23.37165,-74.05256 0,0 0,0 0,-10e-6 -9.0861,-17.50359 -20.28169,-33.990792 -33.60262,-48.654385 -4.17637,-4.607433 -8.63848,-9.131632 -13.61164,-13.246044 -1.48726,-1.239962 -3.14269,-2.52222 -5.04262,-3.712306 0,-3e-6 -10e-6,-5e-6 -10e-6,-8e-6 -0.59271,-0.380013 -1.34221,-0.798564 -2.26565,-1.209254 -0.37264,-0.293047 -1.44262,-0.580512 -3.20966,-0.728611 -1.49046,0.101838 -2.5388,0.377396 -3.13318,0.772585 -10e-6,6e-6 -2e-5,1.2e-5 -3e-5,1.8e-5 -0.85286,0.460973 -1.47602,0.899494 -1.88175,1.280881 -1.21348,1.089941 -2.08553,2.138074 -2.70351,3.031932 -2.17186,3.005943 -3.79246,6.103339 -5.17336,9.044533 -4.81984,10.135455 -8.17489,20.746125 -10.84547,31.329124 -1.74814,6.894579 -3.20515,13.856247 -4.37742,20.863245 z"
         style="fill:#a66ebe;fill-opacity:1;stroke:none" />
      <path
         sodipodi:nodetypes="ccc"
         inkscape:connector-curvature="0"
         id="path3983"
         d="m 907.48119,105.41642 c 17.79463,37.82972 24.6111,73.81993 26.35999,116.18567 5.49152,-44.79885 -1.63198,-81.41966 -26.35999,-116.18567 z"
         style="fill:#a66ebe;fill-opacity:1;stroke:none" />
    </g>
    <g
       id="g5683"
       transform="matrix(-1,0,0,-1,1247,1675)">
      <path
         style="fill:#d4a4e8;fill-opacity:1;stroke:none"
         d="m 1072.4383,544.04336 c -58.6898,-57.98275 -124.78858,9.19152 -62.104,69.5183 105.1552,101.19992 134.4097,96.48799 143.9421,88.33809 10.471,-8.95232 8.7527,-34.9964 -66.2295,-130.32912 z"
         id="path5666"
         inkscape:connector-curvature="0"
         sodipodi:nodetypes="csscc" />
      <path
         clip-path="url(#clipPath5668)"
         inkscape:original-d="m 1072.4383,544.04336 c -58.6898,-57.98275 -124.78858,9.19152 -62.104,69.5183 105.1552,101.19992 134.4097,96.48801 143.9421,88.33809 10.9615,-9.37172 8.565,-37.47414 -77.2565,-144.18913"
         inkscape:path-effect="#path-effect5641"
         sodipodi:nodetypes="cssc"
         inkscape:connector-curvature="0"
         id="path5510"
         d="m 1010.4858,530.69606 c 5.6715,-2.53379 12.0244,-3.79365 18.3313,-3.68324 7.4534,0.061 14.8722,1.94228 22.1977,4.98066 7.3254,3.03838 14.563,7.23361 21.4235,12.04988 -4.8991,-6.80164 -11.0326,-13.07715 -18.2709,-17.8945 -7.2384,-4.81735 -15.5771,-8.17944 -24.665,-9.24034 -7.9346,-0.85552 -16.164,0.44209 -23.5273,3.78834 -5.2379,2.38041 -10.05765,5.7212 -14.11586,9.97706 -9.73268,10.5746 -13.7303,25.22873 -11.97862,39.09067 2.52505,18.95799 13.46871,35.29693 26.63978,47.75996 0,0 10e-5,10e-6 10e-5,10e-6 21.0322,20.24865 42.701,40.04714 65.9635,58.03166 13.4277,10.40776 27.5503,20.50363 43.2885,28.13355 0,1e-5 0,1e-5 0,1e-5 7.8406,3.92376 16.8213,7.43775 26.7852,7.57663 2.9111,0.0232 5.9802,-0.4199 9.0223,-1.51495 2.2681,-0.83866 4.3937,-2.0744 6.2705,-3.67131 2.0633,-1.76549 3.711,-3.97766 4.8161,-6.49399 1.302,-3.12748 1.7895,-6.2762 1.7315,-9.18649 0,-10e-6 0,-2e-5 0,-3e-5 -0.2017,-9.88159 -3.7559,-18.68698 -7.464,-26.39874 -7.1285,-15.37469 -16.2314,-29.50963 -25.5505,-43.15554 -15.6898,-23.01738 -32.7166,-44.9985 -50.0777,-66.58156 l -8.572,6.89364 c 17.2732,21.48308 34.1273,43.23119 49.5598,65.88252 9.1884,13.512 17.993,27.12074 24.6558,41.57697 3.362,7.58114 6.5778,14.86363 6.4487,21.83003 0,0 0,10e-6 0,10e-6 -0.038,1.84558 -0.2202,3.51469 -0.8169,4.74766 -0.4028,0.94666 -1.0715,1.83574 -1.879,2.52472 -0.8427,0.72823 -1.8605,1.31304 -2.9472,1.71852 -1.4895,0.58556 -3.2879,0.79982 -5.21,0.82854 -7.0904,0.15846 -14.4725,-2.99078 -21.9897,-6.48238 0,-10e-6 0,-10e-6 -10e-5,-10e-6 -14.6217,-7.02904 -28.0965,-16.72427 -41.3451,-26.93167 -22.7902,-17.60455 -44.1584,-37.14368 -65.0621,-57.25359 0,-10e-6 0,-10e-6 0,-2e-5 -11.8084,-11.57692 -21.65518,-25.72016 -23.34924,-41.17285 -1.28478,-10.90317 1.74788,-22.60272 9.08372,-30.22694 2.91992,-3.18436 6.56872,-5.70043 10.60322,-7.50289 z"
         style="fill:#a66ebe;fill-opacity:1;stroke:none" />
      <path
         clip-path="url(#clipPath5672)"
         sodipodi:nodetypes="cccc"
         inkscape:connector-curvature="0"
         id="path5615"
         d="m 1009,612.5 c 71.6629,64.1264 79.793,56.90739 41,-10.5 45.3137,45.91852 54.5606,36.86828 21.6464,-14.64645 37.6257,39.22614 44.9706,35.22361 13.4143,-37"
         style="fill:none;stroke:#a66ebe;stroke-width:6;stroke-linecap:butt;stroke-linejoin:miter;stroke-miterlimit:20;stroke-opacity:1;stroke-dasharray:none" />
      <path
         sodipodi:nodetypes="cccccc"
         inkscape:connector-curvature="0"
         d="m 1101.0259,611.98627 57.4472,81.96373 m -68.5894,-63.34671 64.2254,71.5391 m -84.4282,-61.15433 74.832,64.50788"
         style="fill:none;stroke:#a66ebe;stroke-width:3;stroke-linecap:butt;stroke-linejoin:miter;stroke-miterlimit:4;stroke-opacity:1;stroke-dasharray:none"
         id="path5680" />
    </g>
    <g
       id="g4689">
      <path
         d="m 554.15625,1405.25 c -28.45442,1.765 -54.07435,19.7499 -71.03125,42.8125 -8.47845,11.5313 -14.84438,24.9229 -15.25,40.0625 -0.40562,15.1396 6.94936,31.485 20.75,42.1875 12.04485,9.3409 16.37917,15.7668 17.90625,19.25 1.52708,3.4832 1.4,4.8649 0.875,9.8437 -0.525,4.9789 -2.46253,14.0696 1.40625,25 3.86878,10.9305 12.78888,19.9702 25.78125,27.9688 18.7027,11.5141 29.21287,26.0943 43.96875,39.9375 14.75588,13.8432 38.46092,24.8248 67.1875,17.5625 15.14782,-3.8295 28.84023,-13.8245 32.625,-27.375 3.78477,-13.5505 0.073,-23.9694 -2.59375,-33.7188 -5.33355,-19.4987 -11.26281,-36.9323 -1.90625,-59.0937 3.56307,-8.4393 5.78743,-15.9634 6.03125,-23.9375 0.24382,-7.9741 -2.3472,-16.7005 -7.21875,-22.8125 -9.7431,-12.2239 -21.31869,-13.9761 -30.28125,-16.9063 -8.96256,-2.9301 -16.48449,-5.7838 -22.21875,-10.5937 -5.73426,-4.8099 -10.80241,-11.4881 -13.75,-26.9063 -2.65225,-13.8733 -9.02667,-25.9156 -18.9375,-33.6562 -9.91083,-7.7406 -22.20534,-10.316 -33.34375,-9.625 z m 86.93669,246.2287 c 47.33557,-11.9669 -8.77701,-52.1361 15.296,-109.1541 24.07302,-57.018 -54.20608,-14.8205 -68.62298,-90.232 -14.4169,-75.4115 -141.83662,21.0899 -87.49599,63.2316 54.34063,42.1417 0.32335,53.7858 44.30249,80.861 43.97915,27.0752 49.18491,67.2604 96.52048,55.2935 z"
         style="fill:url(#linearGradient4495);fill-opacity:1;fill-rule:evenodd;stroke:none"
         id="path4481"
         inkscape:connector-curvature="0" />
      <path
         clip-path="url(#clipPath4485)"
         style="fill:#e6458b;fill-opacity:0.25098039;stroke:#e6458b;stroke-width:35;stroke-linecap:butt;stroke-linejoin:miter;stroke-miterlimit:4;stroke-opacity:1;stroke-dasharray:none;filter:url(#filter4667)"
         d="m 641.09294,1651.4787 c 47.33557,-11.9669 -8.77701,-52.1361 15.296,-109.1541 24.07302,-57.018 -54.20608,-14.8205 -68.62298,-90.232 -14.4169,-75.4115 -141.83662,21.0899 -87.49599,63.2316 54.34063,42.1417 0.32335,53.7858 44.30249,80.861 43.97915,27.0752 49.18491,67.2604 96.52048,55.2935 z"
         id="path4475"
         inkscape:connector-curvature="0"
         sodipodi:nodetypes="zzzzzz" />
      <path
         transform="matrix(0.8660254,0.49999997,-0.49999997,0.8660254,797.38803,-19.952925)"
         d="m 607.7364,1507.1863 0.29491,-26.7273 -26.17272,-5.424 26.72722,0.295 5.424,-26.1728 -0.29491,26.7273 26.17272,5.424 -26.72722,-0.295 z"
         inkscape:randomized="0"
         inkscape:rounded="0"
         inkscape:flatsided="false"
         sodipodi:arg2="2.4638844"
         sodipodi:arg1="1.6784862"
         sodipodi:r2="3.6479466"
         sodipodi:r1="29.183573"
         sodipodi:cy="1478.1718"
         sodipodi:cx="610.87311"
         sodipodi:sides="4"
         id="path4671"
         style="fill:#ffffff;fill-opacity:1;fill-rule:evenodd;stroke:none"
         sodipodi:type="star" />
      <use
         height="1675"
         width="1247"
         transform="matrix(0.39945607,-0.39945608,0.39945608,0.39945607,-228.58208,1123.5086)"
         id="use4675"
         xlink:href="#path4671"
         y="0"
         x="0" />
      <use
         x="0"
         y="0"
         xlink:href="#path4671"
         id="use4677"
         transform="matrix(0.26733425,-0.07163198,0.07163198,0.26733425,373.71028,1178.3733)"
         width="1247"
         height="1675" />
      <use
         height="1675"
         width="1247"
         transform="matrix(0.34392925,-0.2425271,0.2425271,0.34392925,51.167011,1252.1542)"
         id="use4679"
         xlink:href="#path4671"
         y="0"
         x="0" />
      <use
         x="0"
         y="0"
         xlink:href="#path4671"
         id="use4681"
         transform="matrix(0.07170215,-0.41468726,0.41468726,0.07170215,-114.26601,1598.6891)"
         width="1247"
         height="1675" />
      <use
         x="0"
         y="0"
         xlink:href="#path4671"
         id="use4683"
         transform="matrix(0.49000057,-0.13129526,0.13129526,0.49000057,146.52095,888.13214)"
         width="1247"
         height="1675" />
      <use
         height="1675"
         width="1247"
         transform="matrix(0.35866973,-0.09610526,0.09610526,0.35866973,214.63487,1015.0417)"
         id="use4685"
         xlink:href="#path4671"
         y="0"
         x="0" />
      <use
         x="0"
         y="0"
         xlink:href="#path4671"
         id="use4687"
         transform="matrix(0.29166044,-0.22981378,0.22981378,0.29166044,-40.344764,1166.2684)"
         width="1247"
         height="1675" />
    </g>
    <path
       style="opacity:0.4;fill:#e6458b;fill-opacity:1;stroke:none"
       d="m 1182.0011,1635.2257 -137.0746,-403.2432 0,-71.025 -24.1691,0 0,71.025 -137.07453,403.2432 z"
       id="path5301"
       inkscape:connector-curvature="0"
       sodipodi:nodetypes="ccccccc" />
    <g
       id="g4469"
       transform="matrix(0.97720647,-0.21229116,0.21229116,0.97720647,-241.35794,124.14535)">
      <path
         sodipodi:nodetypes="cccsscssc"
         inkscape:connector-curvature="0"
         id="path4429"
         d="m 1036.1875,1138.125 -3.3437,22.8125 -3.3438,-22.8125 c -2.7368,6.9355 -6.1562,14.4754 -6.1562,21.0938 l 0,18.5 c 0,9.6017 3.0913,26.0361 9.5,38.5 6.4086,-12.4639 9.5,-28.8982 9.5,-38.5 l 0,-18.5 c 0,-6.6184 -3.4195,-14.1583 -6.1563,-21.0938 z"
         style="fill:#0e1b4b;fill-opacity:1;stroke:none" />
      <path
         style="opacity:0.8;fill:#f384b6;fill-opacity:1;stroke:#ee549a;stroke-width:1.60000002;stroke-linecap:butt;stroke-linejoin:miter;stroke-miterlimit:20;stroke-opacity:1;stroke-dasharray:none"
         d="m 1053.2676,1133.3515 -12.0547,-14.3329 12.5083,-14.3328 -16.5818,7.1664 -4.2973,-29.2496 -4.2974,29.2496 -16.5818,-7.1664 12.5083,14.3328 -12.0547,14.3329 16.1282,-7.1664 4.2973,29.2496 4.2974,-29.2496 z"
         id="use4419"
         inkscape:connector-curvature="0"
         sodipodi:nodetypes="ccccccccccccc" />
    </g>
    <g
       id="g5137">
      <path
         d="m 1004.1875,919.4375 c -27.43952,1.26294 -54.87159,19.09217 -63.8125,49.3125 -3.0856,10.42934 -4.02985,19.60066 -2.28125,27.9375 1.7486,8.3368 5.85353,14.1423 7.90625,17.3125 2.05272,3.1702 2.65115,4.0753 3.28125,6.7812 0.6301,2.706 1.10546,7.7344 -0.375,17.25 -2.14747,13.8029 -0.56493,26.1438 5.1875,35.3438 5.75243,9.2 12.93933,13.0827 16.125,15.5 3.18567,2.4173 3.31878,2.344 4.25,5.0938 0.93122,2.7497 1.99748,9.8765 -0.40625,24.1874 -3.65628,21.7682 6.52421,42.6122 22.1875,51.2813 15.6633,8.6691 33.1368,8.4632 49.0312,4.3437 15.8945,-4.1194 31.3391,-12.4377 40.4063,-28.125 9.0672,-15.6872 6.3535,-38.7223 -8.25,-55.75 -10.0512,-11.7196 -13.6438,-19.1887 -14.5937,-22.7187 -0.95,-3.53 -0.7021,-3.6038 0.5937,-7.0625 1.2958,-3.4587 4.9968,-9.6369 6.6875,-19.4688 1.6907,-9.8318 -0.2001,-22.1587 -6.5938,-34.3124 -8.2143,-15.61466 -6.2384,-15.99983 -4.4374,-23.50005 0.9004,-3.75011 2.8541,-10.11526 1.9687,-18.4375 -0.8854,-8.32224 -4.8129,-16.77669 -11,-24.8125 -11.3926,-14.79679 -29.4175,-20.91372 -45.875,-20.15625 z m 30.8272,31.76146 c 19.2459,24.99668 -8.1435,26.2217 11.7165,63.97364 19.86,37.7519 -28.1611,35.3071 16.2543,87.0954 44.4154,51.7882 -80.98907,83.4666 -70.16823,19.0431 10.82083,-64.4235 -32.08197,-35.678 -25.12629,-80.3856 6.95569,-44.70765 -19.26606,-32.4068 -9.09485,-66.7856 10.17121,-34.37876 57.17267,-47.93762 76.41857,-22.94094 z"
         style="fill:url(#linearGradient4727);fill-opacity:1;stroke:none"
         id="path4717"
         inkscape:connector-curvature="0" />
      <path
         clip-path="url(#clipPath4729)"
         style="fill:#e6458b;fill-opacity:0.25098039;stroke:#e6458b;stroke-width:30;stroke-miterlimit:4;stroke-opacity:1;stroke-dasharray:none;filter:url(#filter5101)"
         d="m 1035.0147,951.19896 c 19.2459,24.99668 -8.1435,26.2217 11.7165,63.97364 19.86,37.7519 -28.1611,35.3071 16.2543,87.0954 44.4154,51.7882 -80.98907,83.4666 -70.16823,19.0431 10.82083,-64.4235 -32.08197,-35.678 -25.12629,-80.3856 6.95569,-44.70765 -19.26606,-32.4068 -9.09485,-66.7856 10.17121,-34.37876 57.17267,-47.93762 76.41857,-22.94094 z"
         id="path4711"
         inkscape:connector-curvature="0"
         sodipodi:nodetypes="zzzzzzz" />
      <use
         height="1675"
         width="1247"
         transform="matrix(-0.2425271,-0.34392925,0.34392925,-0.2425271,602.93812,1617.2765)"
         id="use4681-9"
         xlink:href="#path4671"
         y="0"
         x="0"
         style="display:inline" />
      <use
         style="display:inline"
         x="0"
         y="0"
         xlink:href="#path4671"
         id="use5123"
         transform="matrix(0.26635411,-0.57618363,0.57618363,0.26635411,-56.01219,1055.8654)"
         width="1247"
         height="1675" />
      <use
         height="1675"
         width="1247"
         transform="matrix(-0.02534575,-0.27903299,0.27903299,-0.02534575,610.53723,1288.0292)"
         id="use5125"
         xlink:href="#path4671"
         y="0"
         x="0"
         style="display:inline" />
      <use
         style="display:inline"
         x="0"
         y="0"
         xlink:href="#path4671"
         id="use5127"
         transform="matrix(0.37109496,-0.26168334,0.26168334,0.37109496,404.85706,547.16454)"
         width="1247"
         height="1675" />
      <use
         height="1675"
         width="1247"
         transform="matrix(0.04908615,-0.33208992,0.33208992,0.04908615,458.7539,1236.6591)"
         id="use5129"
         xlink:href="#path4671"
         y="0"
         x="0"
         style="display:inline" />
      <use
         style="display:inline"
         x="0"
         y="0"
         xlink:href="#path4671"
         id="use5131"
         transform="matrix(-0.21545611,-0.58211655,0.58211655,-0.21545611,264.68239,1819.6803)"
         width="1247"
         height="1675" />
      <use
         height="1675"
         width="1247"
         transform="matrix(-0.22382548,-0.1774687,0.1774687,-0.22382548,876.12189,1414.1201)"
         id="use5133"
         xlink:href="#path4671"
         y="0"
         x="0"
         style="display:inline" />
      <use
         style="display:inline"
         x="0"
         y="0"
         xlink:href="#path4671"
         id="use5135"
         transform="matrix(0.21188127,-0.30791194,0.30791194,0.21188127,355.99241,839.58467)"
         width="1247"
         height="1675" />
    </g>
    <g
       id="g5502"
       transform="matrix(-1,0,0,-1,1247,1675)">
      <path
         style="fill:#d4a4e8;stroke:none;fill-opacity:1"
         d="m 942.5,546.5 c 29.43428,120.03668 -11.54958,125.59275 -61.43285,93.02371 6.03302,35.90475 14.6497,68.12803 27.08329,99.54903 16.75651,42.3455 -104.78445,110.22668 -110.06915,83.09197 C 763.76846,645.98279 795.78414,537.45521 835,529.1367 c 23.81276,-5.05119 45.80857,6.64875 65.75742,31.8087 5.05921,-6.30786 8.89425,-12.97788 11.99258,-21.08557 z"
         id="path3408"
         inkscape:connector-curvature="0"
         sodipodi:nodetypes="ccsssccc" />
      <path
         inkscape:original-d="m 876,605 c 6.13488,50.41767 15.87101,92.93288 32.15044,134.07274 16.75652,42.3455 -104.78445,110.22668 -110.06915,83.09197 C 763.76846,645.98279 795.78414,537.4552 835,529.1367 c 30.04685,-6.37357 57.20088,13.92283 81,54.27751"
         inkscape:path-effect="#path-effect5452"
         sodipodi:nodetypes="csssc"
         inkscape:connector-curvature="0"
         id="path5360"
         d="m 906.40549,718.43826 c -2.747,-8.03181 -5.52965,-16.61401 -8.25785,-25.61196 -2.72819,-8.99796 -5.40207,-18.41168 -7.97429,-28.08525 C 885.02891,645.39391 880.318,624.99517 876,605 c 0.30154,10.2236 0.95564,20.66673 1.98126,31.07473 1.02563,10.408 2.42388,20.78009 4.16738,30.86123 1.7435,10.08114 3.83279,19.87055 6.18162,29.12466 2.34884,9.25412 4.9569,17.97241 7.67733,25.93253 2.19255,6.41549 4.53209,12.78565 7.0287,19.10331 0.77677,1.94148 1.17144,4.08651 1.19776,6.24246 0.0395,2.26902 -0.37338,4.64266 -1.06004,7.01653 0,0 0,10e-6 0,2e-5 -1.59613,5.60557 -4.91399,10.91716 -8.77415,16.03403 0,0 -10e-6,10e-6 -10e-6,2e-5 -4.59409,6.01049 -10.06142,11.46578 -15.93009,16.5892 -6.29724,5.48464 -13.0458,10.49201 -20.09184,15.08753 -6.798,4.42914 -13.83578,8.45345 -21.1072,11.93792 -10e-6,0 -10e-6,10e-6 -10e-6,10e-6 -6.2023,2.96037 -12.45934,5.55856 -18.84025,7.2702 -2.5187,0.67292 -4.97947,1.21058 -7.37628,1.45805 -1.91872,0.1748 -3.64939,0.25517 -5.09947,-0.0298 0,0 -10e-6,0 -10e-6,0 -1.06001,-0.27438 -1.86375,-0.44902 -2.05556,-0.75462 -0.15036,-0.0315 -0.3134,-0.43235 -0.41928,-0.83469 -7.59266,-39.01001 -12.76172,-78.48447 -14.12375,-118.08093 -1.02333,-30.00343 -0.0182,-60.0591 5.03198,-89.39986 0,-10e-6 0,-2e-5 0,-2e-5 3.52209,-20.17278 8.46462,-40.0951 18.26026,-57.26694 0,-10e-6 10e-6,-10e-6 10e-6,-2e-5 3.33651,-5.82289 7.10581,-11.23307 11.77919,-15.38864 3.59343,-3.14547 7.58223,-5.67102 11.71372,-6.4599 6.46608,-1.36868 13.23391,-1.37535 19.61558,0.0978 0.71028,0.15962 1.41748,0.33778 2.1213,0.53358 5.78826,1.61025 11.53887,4.41834 16.97787,7.93578 8.19112,5.27137 15.55422,12.01508 22.32865,19.1348 6.77443,7.11972 12.98393,14.5762 18.81533,21.19521 -3.25675,-8.13741 -7.5813,-17.02258 -13.36464,-25.57497 -2.89167,-4.27619 -6.14768,-8.4619 -9.79178,-12.39949 -3.6441,-3.93758 -7.67726,-7.62562 -12.08524,-10.91563 -5.97646,-4.4379 -12.77584,-7.9449 -19.91705,-9.95577 -0.86834,-0.24451 -1.74414,-0.46999 -2.62711,-0.67552 -8.02014,-1.82748 -16.36792,-1.83366 -24.35545,-0.13642 -6.57273,1.48171 -12.25435,4.86943 -16.79219,9.04641 -5.8467,5.31808 -10.35322,11.64666 -13.99084,18.14383 0,10e-6 -10e-6,2e-5 -10e-6,2e-5 -10.66008,18.96399 -16.02552,40.07222 -19.52901,60.82469 0,1e-5 0,2e-5 0,2e-5 -5.19375,30.33189 -6.24959,61.13444 -5.18402,91.6405 1.39605,40.2978 6.63055,80.34671 14.32006,119.80424 0.49408,2.67822 1.90501,5.19178 4.16294,7.17275 2.41478,1.87256 4.94347,2.84638 7.23041,3.15213 2.91368,0.4714 5.65935,0.42423 8.14449,0.12942 3.16771,-0.3459 6.19636,-0.98989 9.07991,-1.77704 7.28113,-1.98082 14.16667,-4.81237 20.72574,-7.97027 10e-6,-10e-6 2e-5,-10e-6 2e-5,-10e-6 7.74796,-3.71639 15.20283,-7.9753 22.35849,-12.64174 7.4235,-4.83632 14.57729,-10.14983 21.30753,-16.00592 6.26913,-5.44282 12.23869,-11.43256 17.43678,-18.19254 0,-10e-6 1e-5,-2e-5 2e-5,-2e-5 4.41328,-5.67296 8.33782,-12.17676 10.59417,-19.61068 10e-6,-1e-5 10e-6,-2e-5 10e-6,-3e-5 0.96785,-3.22615 1.5308,-6.67643 1.51024,-10.24642 -0.0313,-3.44939 -0.68306,-6.90584 -1.96888,-10.17673 -2.43615,-6.14796 -4.71916,-12.35394 -6.8591,-18.61076 z"
         style="fill:#a66ebe;fill-opacity:1;stroke:none" />
      <path
         inkscape:original-d="m 942.5,546.5 c 30.3373,123.7193 -14.13055,125.82591 -65.96245,89.95223"
         inkscape:path-effect="#path-effect5484"
         sodipodi:nodetypes="cc"
         inkscape:connector-curvature="0"
         id="path5362"
         d="m 957.44803,623.33388 c 0.15601,-1.75108 0.2532,-3.52572 0.29933,-5.31137 0.16011,-5.59669 -0.0751,-11.44452 -0.70954,-17.41337 -0.63442,-5.96885 -1.66716,-12.05816 -3.04116,-18.15434 C 951.24865,570.26242 947.12141,558.06785 942.5,546.5 c 1.25136,12.3656 2.79704,25.1577 3.72096,37.30612 0.46196,6.07422 0.77188,11.99196 0.87701,17.64975 0.10512,5.65778 0.004,11.05604 -0.28213,16.10939 -0.0986,1.64682 -0.21248,3.24644 -0.34981,4.7912 -0.45461,5.11376 -1.3103,10.03802 -3.00045,14.53415 -1.58697,4.10349 -3.69292,7.86023 -6.65512,10.20829 -1e-5,0 -1e-5,0 -1e-5,0 -2.45414,2.11063 -5.8087,3.3786 -9.27366,3.81635 0,0 -10e-6,0 -10e-6,0 -4.12619,0.54388 -8.61046,-0.14542 -13.1494,-1.3019 -12.24093,-3.17071 -23.63117,-10.0877 -34.71976,-17.68358 0.48737,4.77827 1.06631,9.60862 1.87658,14.47646 9.18692,5.80938 19.11151,10.88538 30.02232,13.83928 5.36323,1.4707 11.22011,2.25704 17.26722,1.59301 0,0 0,0 0,0 5.37025,-0.61129 10.64034,-2.70396 15.02026,-6.29045 0,0 0,-1e-5 0,-1e-5 4.8239,-4.14274 8.02328,-9.45017 9.93543,-14.86035 2.07018,-5.72777 3.14526,-11.59192 3.6586,-17.35383 z"
         style="fill:#a66ebe;fill-opacity:1;stroke:none" />
      <path
         sodipodi:nodetypes="cccc"
         inkscape:connector-curvature="0"
         id="path5492"
         d="M 897.86872,558.06066 903.25,564.125 c 4.86136,-7.51301 8.0052,-15.89645 9.5,-24.26517 -4.00368,7.1705 -8.93153,13.28661 -14.88128,18.20083 z"
         style="fill:#a66ebe;fill-opacity:1;fill-rule:evenodd;stroke:none" />
    </g>
  </g>
</svg>
