<svg xmlns="http://www.w3.org/2000/svg" xmlns:xlink="http://www.w3.org/1999/xlink" viewBox="-36 -19 100 86">
  <g id="F">
    <path d="m-2.2 10.4c-3.9 2.1-12-3.1-18.6 6.5-3.4-7.2 1-15.5 10.2-16.2-1.2-5.7-5.5-7.2-11.7-6 4.9-7.6 13.4-8.6 19.7-3.2 2.5-6.6 8.7-10 16.6-9.4-3.9 4.6-4.6 9-2.6 14.1C19.1-5 23.9-.9 23.9 8.4 19 7 13.4 7.8 8.8 7.9 12.9 12.3 12.6 18.2 10.3 22.6 7.5 18.9-1 18.9-2.2 10.4Z" fill="#fff"/>
    <path d="m-2.3 10c-5.8 1.6-11.5-2.2-18.1 5.3-2.6-10.8 7-16.2 15.7-13.7-9.8-5.4-23.7 5.3-16 17.2 5.7-11.2 13.1-6 18.5-7.9zM-4.4 3.6c-4.2-1-8.7 0-11.4 2.7 3.2-1.6 7.4-2.7 11.4-2.7zm-5.1-3c-.9-5.1-5-7.7-11.1-6.7 4.4-7 13.8-6.2 17.6-1l.8-2.5c-6.8-5.6-17.9-3.4-22 5.8 7.1-2.4 11.6-.9 12.6 4.6zm21.8-4.5c-2.2-5.6-1.1-10.2 3.2-14.5-8.9-2.3-21 5.1-18.7 15.5-.1-10.9 9.7-15.1 16-14.5-3.5 4.1-4.2 7.8-2.3 13.8zM9.1 8.4C14.6 8.5 20.2 7.5 24.7 9.5 25.3-3.9 17.5-6.8 7.7-2.9 17.4-5.2 22.3-1.6 23.1 7.4 18.7 6.4 13.2 7.3 8 7.2ZM2.6 3.7C9.6 7.5 13 14.3 10 20.9 6.4 18.1-1.8 17.6-2.5 5.4-4.8 21.5 7.3 17.8 10.4 24.5 15.5 14.7 12.5 7.2 2.6 3.7ZM2.4 6.2c4 1.7 6.1 5.6 5.5 10.7C7.3 12.1 5.3 8.6 2.4 6.2Z" fill="#c3dbe3"/>
    <path d="m-1.3 2.3c-.7-5.4-4.1-8.1-9.1-9.4 4.1.2 7.3 1.4 9.2 4.8.8-5.4 2.5-8.9 6.6-11.5C2.4-10.3 1-7.4.2-2 4.3-8.5 8.3-10.6 17-10.6 9.4-9.3 4.2-7 1-.4 5.7-2.4 10.8-1.9 14.8 1 8.8-1.2 3.2-.8-1.3 2.3Z" fill="#f9d540"/>
    <circle cx="5.5" cy="-10" r=".6" fill="#f49937" id="A"/>
    <use xlink:href="#A" transform="rotate(18 13.8 13.3)scale(2.7 1)"/>
    <use xlink:href="#A" transform="translate(2.4-4.5)"/>
    <use xlink:href="#A" transform="translate(10.7-3.7)"/>
    <use xlink:href="#A" transform="translate(11.4 2.4)"/>
    <use xlink:href="#A" transform="translate(8.2 2.5)"/>
    <use xlink:href="#A" transform="translate(2.4 12.5)"/>
    <use xlink:href="#A" transform="translate(6.8 12.7)"/>
  </g>
  <use xlink:href="#F" transform="matrix(.41-.86 1.2.36-15 42.1)"/>
  <use xlink:href="#F" transform="matrix(.9-.44.63.81 35.4 27.2)"/>
</svg>
