<?xml version="1.0" encoding="UTF-8" standalone="no"?>
<!-- Created with Inkscape (http://www.inkscape.org/) -->

<svg
   xmlns:dc="http://purl.org/dc/elements/1.1/"
   xmlns:cc="http://creativecommons.org/ns#"
   xmlns:rdf="http://www.w3.org/1999/02/22-rdf-syntax-ns#"
   xmlns:svg="http://www.w3.org/2000/svg"
   xmlns="http://www.w3.org/2000/svg"
   xmlns:xlink="http://www.w3.org/1999/xlink"
   xmlns:sodipodi="http://sodipodi.sourceforge.net/DTD/sodipodi-0.dtd"
   xmlns:inkscape="http://www.inkscape.org/namespaces/inkscape"
   id="svg2985"
   version="1.1"
   inkscape:version="0.48.2 r9819"
   width="1920"
   height="1080"
   sodipodi:docname="Charmonium Chromium Rarity.svg"
   inkscape:export-filename="C:\Users\tan jierui\Pictures\Charmonium Chromium Rarity.png"
   inkscape:export-xdpi="1094.5289"
   inkscape:export-ydpi="1094.5289">
  <metadata
     id="metadata2991">
    <rdf:RDF>
      <cc:Work
         rdf:about="">
        <dc:format>image/svg+xml</dc:format>
        <dc:type
           rdf:resource="http://purl.org/dc/dcmitype/StillImage" />
        <dc:title />
      </cc:Work>
    </rdf:RDF>
  </metadata>
  <defs
     id="defs2989">
    <linearGradient
       inkscape:collect="always"
       id="linearGradient4492">
      <stop
         style="stop-color:#83509f;stop-opacity:1"
         offset="0"
         id="stop4494" />
      <stop
         style="stop-color:#4b2568;stop-opacity:1"
         offset="1"
         id="stop4496" />
    </linearGradient>
    <linearGradient
       inkscape:collect="always"
       id="linearGradient4428">
      <stop
         style="stop-color:#83509f;stop-opacity:1"
         offset="0"
         id="stop4430" />
      <stop
         style="stop-color:#4b2568;stop-opacity:1"
         offset="1"
         id="stop4432" />
    </linearGradient>
    <linearGradient
       inkscape:collect="always"
       id="linearGradient4406">
      <stop
         style="stop-color:#4b2568;stop-opacity:1"
         offset="0"
         id="stop4408" />
      <stop
         style="stop-color:#83509f;stop-opacity:1"
         offset="1"
         id="stop4410" />
    </linearGradient>
    <linearGradient
       inkscape:collect="always"
       id="linearGradient4365">
      <stop
         style="stop-color:#83509f;stop-opacity:1"
         offset="0"
         id="stop4367" />
      <stop
         style="stop-color:#4b2568;stop-opacity:1"
         offset="1"
         id="stop4369" />
    </linearGradient>
    <linearGradient
       inkscape:collect="always"
       id="linearGradient4347">
      <stop
         style="stop-color:#4b2568;stop-opacity:1"
         offset="0"
         id="stop4349" />
      <stop
         style="stop-color:#83509f;stop-opacity:1"
         offset="1"
         id="stop4351" />
    </linearGradient>
    <linearGradient
       inkscape:collect="always"
       id="linearGradient3949">
      <stop
         style="stop-color:#214871;stop-opacity:1"
         offset="0"
         id="stop3951" />
      <stop
         id="stop3957"
         offset="0.28099868"
         style="stop-color:#2c6097;stop-opacity:1" />
      <stop
         style="stop-color:#3978bb;stop-opacity:1"
         offset="1"
         id="stop3953" />
    </linearGradient>
    <linearGradient
       inkscape:collect="always"
       id="linearGradient3850">
      <stop
         style="stop-color:#214871;stop-opacity:1"
         offset="0"
         id="stop3852" />
      <stop
         id="stop3858"
         offset="0.23635586"
         style="stop-color:#2c6097;stop-opacity:1" />
      <stop
         style="stop-color:#3978bb;stop-opacity:1"
         offset="1"
         id="stop3854" />
    </linearGradient>
    <clipPath
       clipPathUnits="userSpaceOnUse"
       id="clipPath3846">
      <path
         sodipodi:type="arc"
         style="fill:none;stroke:#000080;stroke-width:0.1;stroke-linecap:round;stroke-linejoin:round;stroke-miterlimit:4;stroke-opacity:1;stroke-dasharray:none;stroke-dashoffset:0"
         id="path3848"
         sodipodi:cx="1058.2991"
         sodipodi:cy="714.49066"
         sodipodi:rx="32.895252"
         sodipodi:ry="72.90329"
         d="m 1091.1943,714.49066 a 32.895252,72.90329 0 1 1 -65.7905,0 32.895252,72.90329 0 1 1 65.7905,0 z"
         transform="matrix(0.98521647,0.17131407,-0.17131407,0.98521647,139.16157,-179.23169)" />
    </clipPath>
    <linearGradient
       inkscape:collect="always"
       xlink:href="#linearGradient3850"
       id="linearGradient3856"
       x1="1065.0745"
       y1="667.24579"
       x2="1063.9852"
       y2="771.00543"
       gradientUnits="userSpaceOnUse" />
    <clipPath
       clipPathUnits="userSpaceOnUse"
       id="clipPath3871">
      <path
         sodipodi:nodetypes="ccc"
         inkscape:connector-curvature="0"
         id="path3873"
         d="m 1024.7167,760.43399 c 94.1435,56.66922 119.5623,-63.68348 102.189,-116.33033 -62.6615,-13.79189 -101.1483,12.87797 -102.189,116.33033 z"
         style="fill:none;stroke:#008000;stroke-width:0.1;stroke-linecap:butt;stroke-linejoin:miter;stroke-miterlimit:4;stroke-opacity:1;stroke-dasharray:none" />
    </clipPath>
    <linearGradient
       inkscape:collect="always"
       xlink:href="#linearGradient3949"
       id="linearGradient3955"
       x1="970.86157"
       y1="645.05408"
       x2="976.55463"
       y2="724.35626"
       gradientUnits="userSpaceOnUse" />
    <clipPath
       clipPathUnits="userSpaceOnUse"
       id="clipPath3963">
      <path
         sodipodi:type="arc"
         style="fill:none;stroke:#000000;stroke-width:0.1;stroke-miterlimit:4;stroke-dasharray:none"
         id="path3965"
         sodipodi:cx="968.64789"
         sodipodi:cy="684.19696"
         sodipodi:rx="16.627422"
         sodipodi:ry="56.830387"
         d="m 985.27531,684.19696 a 16.627422,56.830387 0 1 1 -33.25484,0 16.627422,56.830387 0 1 1 33.25484,0 z"
         transform="matrix(0.98595459,0.16701355,-0.16701355,0.98595459,131.18585,-157.34947)" />
    </clipPath>
    <linearGradient
       inkscape:collect="always"
       xlink:href="#linearGradient3949"
       id="linearGradient3998"
       gradientUnits="userSpaceOnUse"
       x1="970.86157"
       y1="645.05408"
       x2="976.55463"
       y2="724.35626" />
    <clipPath
       clipPathUnits="userSpaceOnUse"
       id="clipPath4043">
      <path
         style="fill:#ffffff;stroke:none"
         d="m 976.109,727.891 c -5.18157,8.68673 -13.49291,12.10368 -19.52517,12.10368 -6.01209,-66.05069 17.96399,-116.96123 23.41461,-116.96123 14.06277,0 15.75045,65.56263 -3.88944,104.85755 z"
         id="path4045"
         inkscape:connector-curvature="0"
         sodipodi:nodetypes="ccsc" />
    </clipPath>
    <clipPath
       clipPathUnits="userSpaceOnUse"
       id="clipPath4580">
      <path
         sodipodi:nodetypes="ccccc"
         style="fill:#7ad2f9;fill-opacity:1;stroke:#000000;stroke-width:1px;stroke-linecap:butt;stroke-linejoin:miter;stroke-opacity:1"
         d="M 829.99081,29.859771 728.02829,281.25546 839.0275,491.35365 940.11097,246.89108 z"
         id="path4582"
         inkscape:connector-curvature="0" />
    </clipPath>
    <clipPath
       clipPathUnits="userSpaceOnUse"
       id="clipPath4262">
      <path
         sodipodi:nodetypes="ccccc"
         style="fill:#7ad2f9;fill-opacity:1;stroke:#000000;stroke-width:1px;stroke-linecap:butt;stroke-linejoin:miter;stroke-opacity:1"
         d="M 829.99081,29.859771 728.02829,281.25546 839.0275,491.35365 940.11097,246.89108 z"
         id="path4264"
         inkscape:connector-curvature="0" />
    </clipPath>
    <clipPath
       clipPathUnits="userSpaceOnUse"
       id="clipPath4266">
      <path
         sodipodi:nodetypes="ccccc"
         style="fill:#7ad2f9;fill-opacity:1;stroke:#000000;stroke-width:1px;stroke-linecap:butt;stroke-linejoin:miter;stroke-opacity:1"
         d="M 829.99081,29.859771 728.02829,281.25546 839.0275,491.35365 940.11097,246.89108 z"
         id="path4268"
         inkscape:connector-curvature="0" />
    </clipPath>
    <linearGradient
       inkscape:collect="always"
       xlink:href="#linearGradient4347"
       id="linearGradient4359"
       gradientUnits="userSpaceOnUse"
       x1="1180.0853"
       y1="849.54565"
       x2="1230.6604"
       y2="770.81464" />
    <linearGradient
       inkscape:collect="always"
       xlink:href="#linearGradient4365"
       id="linearGradient4371"
       x1="1230.7258"
       y1="818.97424"
       x2="1233.3845"
       y2="792.539"
       gradientUnits="userSpaceOnUse" />
    <linearGradient
       inkscape:collect="always"
       xlink:href="#linearGradient4406"
       id="linearGradient4412"
       x1="878.27185"
       y1="747.25726"
       x2="838.40369"
       y2="729.58698"
       gradientUnits="userSpaceOnUse" />
    <linearGradient
       inkscape:collect="always"
       xlink:href="#linearGradient4428"
       id="linearGradient4440"
       gradientUnits="userSpaceOnUse"
       x1="943.09271"
       y1="664.4679"
       x2="878.64398"
       y2="595.83972" />
    <linearGradient
       inkscape:collect="always"
       xlink:href="#linearGradient4492"
       id="linearGradient4498"
       x1="1554.8319"
       y1="526.68091"
       x2="1628.3297"
       y2="611.604"
       gradientUnits="userSpaceOnUse" />
    <linearGradient
       inkscape:collect="always"
       xlink:href="#linearGradient4406"
       id="linearGradient4875"
       gradientUnits="userSpaceOnUse"
       x1="878.27185"
       y1="747.25726"
       x2="838.40369"
       y2="729.58698" />
    <linearGradient
       inkscape:collect="always"
       xlink:href="#linearGradient4428"
       id="linearGradient4877"
       gradientUnits="userSpaceOnUse"
       x1="943.09271"
       y1="664.4679"
       x2="878.64398"
       y2="595.83972" />
    <linearGradient
       inkscape:collect="always"
       xlink:href="#linearGradient4492"
       id="linearGradient4879"
       gradientUnits="userSpaceOnUse"
       x1="1554.8319"
       y1="526.68091"
       x2="1628.3297"
       y2="611.604" />
    <linearGradient
       inkscape:collect="always"
       xlink:href="#linearGradient3850"
       id="linearGradient4881"
       gradientUnits="userSpaceOnUse"
       x1="1065.0745"
       y1="667.24579"
       x2="1063.9852"
       y2="771.00543" />
    <linearGradient
       inkscape:collect="always"
       xlink:href="#linearGradient3949"
       id="linearGradient4883"
       gradientUnits="userSpaceOnUse"
       x1="970.86157"
       y1="645.05408"
       x2="976.55463"
       y2="724.35626" />
    <linearGradient
       inkscape:collect="always"
       xlink:href="#linearGradient4347"
       id="linearGradient4885"
       gradientUnits="userSpaceOnUse"
       x1="1180.0853"
       y1="849.54565"
       x2="1230.6604"
       y2="770.81464" />
    <linearGradient
       inkscape:collect="always"
       xlink:href="#linearGradient4365"
       id="linearGradient4887"
       gradientUnits="userSpaceOnUse"
       x1="1230.7258"
       y1="818.97424"
       x2="1233.3845"
       y2="792.539" />
  </defs>
  <sodipodi:namedview
     pagecolor="#ffffff"
     bordercolor="#666666"
     borderopacity="1"
     objecttolerance="10"
     gridtolerance="10"
     guidetolerance="10"
     inkscape:pageopacity="0"
     inkscape:pageshadow="2"
     inkscape:window-width="1366"
     inkscape:window-height="706"
     id="namedview2987"
     showgrid="false"
     fit-margin-top="0"
     fit-margin-left="0"
     fit-margin-right="0"
     fit-margin-bottom="0"
     inkscape:zoom="0.49537037"
     inkscape:cx="960"
     inkscape:cy="378.50467"
     inkscape:window-x="-8"
     inkscape:window-y="-8"
     inkscape:window-maximized="1"
     inkscape:current-layer="layer2"
     showguides="true" />
  <g
     inkscape:groupmode="layer"
     id="layer2"
     inkscape:label="Drawing"
     style="display:inline">
    <path
       sodipodi:type="arc"
       style="fill:#a9b7bc;fill-opacity:1;fill-rule:evenodd;stroke:none"
       id="path4757"
       sodipodi:cx="1359.8242"
       sodipodi:cy="977.67035"
       sodipodi:rx="216.26373"
       sodipodi:ry="30.721394"
       d="m 1576.088,977.67035 a 216.26373,30.721394 0 1 1 -432.5275,0 216.26373,30.721394 0 1 1 432.5275,0 z"
       transform="translate(-5.2217116,-14.919176)" />
    <g
       id="g4467">
      <path
         sodipodi:nodetypes="csccc"
         inkscape:connector-curvature="0"
         id="path4461"
         d="m 1189.0583,579.08867 c -32.0762,-57.43884 -92.0713,-78.58039 -117.8615,-75.71482 -15.4741,1.71935 2.2379,91.00697 2.2379,91.00697 l 79.8176,38.0439 z"
         style="fill:#4b2568;fill-opacity:1;stroke:#49176d;stroke-width:6.5;stroke-linecap:butt;stroke-linejoin:miter;stroke-miterlimit:4;stroke-opacity:1;stroke-dasharray:none" />
      <path
         style="fill:#5e4fa2;fill-opacity:1;stroke:#49176d;stroke-width:6.5;stroke-linecap:butt;stroke-linejoin:miter;stroke-miterlimit:4;stroke-opacity:1;stroke-dasharray:none"
         d="m 1189.0583,579.08867 c -32.0762,-57.43884 -92.0713,-78.58039 -117.8615,-75.71482 10.2751,-1.14168 36.4833,43.20497 34.2454,106.23849 l 47.8101,22.81238 z"
         id="path4465"
         inkscape:connector-curvature="0"
         sodipodi:nodetypes="ccccc" />
      <path
         sodipodi:nodetypes="cccc"
         inkscape:connector-curvature="0"
         id="path4463"
         d="m 1124.9059,517.54706 c 4.4757,58.55777 -11.1894,96.97464 -11.1894,96.97464 l 3.3568,2.23788 c 0,0 22.0058,-60.79564 20.8869,-91.75293"
         style="fill:none;stroke:#49176d;stroke-width:2;stroke-linecap:butt;stroke-linejoin:miter;stroke-miterlimit:4;stroke-opacity:1;stroke-dasharray:none" />
    </g>
    <g
       id="g4450">
      <path
         style="fill:url(#linearGradient4875);fill-opacity:1;stroke:#49176d;stroke-width:6.5;stroke-linecap:butt;stroke-linejoin:miter;stroke-miterlimit:4;stroke-opacity:1;stroke-dasharray:none"
         d="m 893.85084,702.08664 c 16.05148,25.31423 0.20639,51.30827 -26.40541,51.30827 -49.89329,0 -52.23985,-42.12206 -28.74215,-48.93527 7.92868,-2.29894 37.65492,5.41282 55.14756,-2.373 z"
         id="path4404"
         inkscape:connector-curvature="0"
         sodipodi:nodetypes="cssc" />
      <path
         style="fill:#4b2568;fill-opacity:1;stroke:#49176d;stroke-width:6.5;stroke-linecap:butt;stroke-linejoin:miter;stroke-miterlimit:4;stroke-opacity:1;stroke-dasharray:none"
         d="m 880.32514,732.71557 c -7.41822,7.41822 -20.46768,4.69102 -32.07207,-9.55074 l 15.52723,-17.76588 c 21.26586,3.85689 21.70605,22.15541 16.54484,27.31662 z"
         id="path4400"
         inkscape:connector-curvature="0"
         sodipodi:nodetypes="sccs" />
      <path
         style="fill:#5e4fa2;fill-opacity:1;stroke:#49176d;stroke-width:6.5;stroke-linecap:butt;stroke-linejoin:miter;stroke-miterlimit:4;stroke-opacity:1;stroke-dasharray:none"
         d="m 838.70328,704.45964 c 7.92868,-2.29894 50.9845,18.89329 41.62186,28.25593 7.87817,-7.87817 20.00447,-16.39009 34.69677,-20.36848 l -22.58862,-31.74684 c -13.54561,20.38375 -39.43673,19.71502 -53.73001,23.85939 z"
         id="path4402"
         inkscape:connector-curvature="0"
         sodipodi:nodetypes="ccccc" />
      <g
         id="g4436">
        <path
           sodipodi:nodetypes="ssccs"
           inkscape:connector-curvature="0"
           id="path4416"
           d="m 846.03943,651.97024 c 2.91459,10.87739 15.29715,23.07857 22.19499,27.06104 50.64524,29.24006 34.27321,74.36363 -0.78899,74.36363 109.72016,0 36.76061,-146.82166 198.54097,-162.91966 C 881.63693,471.3673 838.68412,624.51987 846.03943,651.97024 z"
           style="fill:url(#linearGradient4877);fill-opacity:1;stroke:#49176d;stroke-width:6.5;stroke-linecap:butt;stroke-linejoin:miter;stroke-miterlimit:4;stroke-opacity:1;stroke-dasharray:none" />
        <path
           style="fill:none;stroke:#49176d;stroke-width:2;stroke-linecap:butt;stroke-linejoin:miter;stroke-miterlimit:4;stroke-opacity:1;stroke-dasharray:none"
           d="m 900.37228,747.30238 c 32.07622,-40.65476 8.9515,-101.45041 -44.75753,-142.10516 17.10765,-37.79981 44.59117,-49.63444 44.38455,-49.60626 0,0 -13.80024,87.27719 48.11434,120.09937 5.59469,-12.30832 11.56236,-24.61664 11.56236,-24.61664 0,0 -54.08201,-36.92496 -32.44921,-104.80722"
           id="path4418"
           inkscape:connector-curvature="0"
           sodipodi:nodetypes="cccccc" />
      </g>
      <g
         id="g4446">
        <path
           sodipodi:nodetypes="csccc"
           inkscape:connector-curvature="0"
           id="path4442"
           d="m 1104.7194,590.90043 c -3.7608,-32.74987 -32.4227,-84.76764 -44.9366,-89.03682 -138.7373,-47.33091 -231.01747,85.63882 -213.74337,150.10663 -5.9492,-22.20269 31.50424,-145.44089 193.95447,-34.28546 z"
           style="fill:#5e4fa2;fill-opacity:1;stroke:#49176d;stroke-width:6.5;stroke-linecap:butt;stroke-linejoin:miter;stroke-miterlimit:4;stroke-opacity:1;stroke-dasharray:none" />
        <path
           style="fill:none;stroke:#49176d;stroke-width:2;stroke-linecap:butt;stroke-linejoin:miter;stroke-miterlimit:4;stroke-opacity:1;stroke-dasharray:none"
           d="m 870.53392,560.43969 c 66.76332,-17.53003 120.4723,8.57853 183.13288,51.47116 l 17.1571,-7.0866 c 0,0 -80.19061,-84.66633 -177.16526,-69.00119 26.85452,-28.71942 76.57743,-45.69545 107.41806,-43.26562 28.2299,14.73815 80.1906,58.55777 93.6178,102.94232"
           id="path4444"
           inkscape:connector-curvature="0"
           sodipodi:nodetypes="cccccc" />
      </g>
    </g>
    <g
       id="g4540">
      <g
         id="g4534">
        <path
           sodipodi:nodetypes="ccc"
           inkscape:connector-curvature="0"
           id="path4528"
           d="m 1778.8987,742.80321 c -13.0226,-36.27813 -63.7619,-3.90935 -38.2266,14.23833 33.8364,24.04742 57.3861,39.13558 38.2266,-14.23833 z"
           style="fill:#4b2568;fill-opacity:1;stroke:#49176d;stroke-width:6.5;stroke-linecap:butt;stroke-linejoin:miter;stroke-miterlimit:4;stroke-opacity:1;stroke-dasharray:none" />
        <path
           sodipodi:nodetypes="ccccc"
           inkscape:connector-curvature="0"
           id="path4526"
           d="m 1740.6721,757.04154 c 10.2668,7.29658 22.7058,-13.97792 22.7058,-13.97792 0,0 11.3637,21.9107 23.9678,31.87361 l -15.3357,12.49929 c -11.3158,-15.69526 -16.5935,-19.91631 -31.3379,-30.39498 z"
           style="fill:#5e4fa2;fill-opacity:1;stroke:#49176d;stroke-width:6.5;stroke-linecap:butt;stroke-linejoin:miter;stroke-miterlimit:4;stroke-opacity:1;stroke-dasharray:none" />
        <path
           sodipodi:nodetypes="ccssc"
           inkscape:connector-curvature="0"
           id="path4530"
           d="m 1725.3583,772.27251 c 39.6053,22.38909 65.2898,3.26186 53.5404,-29.4693 6.2628,17.44693 15.3189,29.42426 27.1354,32.59048 7.8194,2.09523 -0.4035,47.10006 -20.7983,47.10006 -27.6092,0 -52.2999,-26.4479 -59.8775,-50.22124 z"
           style="fill:#5e4fa2;fill-opacity:1;stroke:#49176d;stroke-width:6.5;stroke-linecap:butt;stroke-linejoin:miter;stroke-miterlimit:4;stroke-opacity:1;stroke-dasharray:none" />
        <path
           style="fill:none;stroke:#49176d;stroke-width:2;stroke-linecap:butt;stroke-linejoin:miter;stroke-miterlimit:4;stroke-opacity:1;stroke-dasharray:none"
           d="m 1729.75,782.75 c 27.5,21.5 64.25,23.75 67.5,-11.25 l 2.25,1 c 0,0 3.75,48.5 -50.75,36"
           id="path4532"
           inkscape:connector-curvature="0"
           sodipodi:nodetypes="cccc" />
      </g>
      <g
         id="g4515">
        <path
           sodipodi:nodetypes="cccc"
           inkscape:connector-curvature="0"
           id="path4506"
           d="m 1665.2308,704.43956 -26.9011,20.57143 c -13.7143,40.08792 -21.6549,133.24603 18.4615,127.64836 51.4587,-19.84718 56.5825,-82.72175 8.4396,-148.21979 z"
           style="fill:#4b2568;fill-opacity:1;stroke:#49176d;stroke-width:6.5;stroke-linecap:butt;stroke-linejoin:miter;stroke-miterlimit:3.0999999;stroke-opacity:1;stroke-dasharray:none" />
        <path
           style="fill:#5e4fa2;fill-opacity:1;stroke:#49176d;stroke-width:6.5;stroke-linecap:butt;stroke-linejoin:miter;stroke-miterlimit:3.0999999;stroke-opacity:1;stroke-dasharray:none"
           d="m 1665.2308,704.43956 c 16.3516,12.13186 35.8681,13.18681 35.8681,13.18681 30.5934,28.48352 63.8242,96.52748 42.7253,138.1978 -24.7912,-7.91208 -64.3517,-6.32966 -87.033,-3.16482 29.5384,-23.73627 30.066,-99.69231 8.4396,-148.21979 z"
           id="path4504"
           inkscape:connector-curvature="0"
           sodipodi:nodetypes="ccccc" />
        <path
           style="fill:none;stroke:#49176d;stroke-width:2;stroke-linecap:butt;stroke-linejoin:miter;stroke-miterlimit:4;stroke-opacity:1;stroke-dasharray:none"
           d="m 1690.1125,851.05042 c 40.5204,-49.5029 -6.9477,-137.48933 -6.9477,-137.48933 l 2.0724,0.68196 c 0,0 66.393,78.15001 38.3511,137.48934"
           id="path4508"
           inkscape:connector-curvature="0"
           sodipodi:nodetypes="cccc" />
      </g>
      <g
         id="g4500">
        <path
           style="fill:url(#linearGradient4879);fill-opacity:1;stroke:#49176d;stroke-width:6.5;stroke-linecap:butt;stroke-linejoin:miter;stroke-miterlimit:4;stroke-opacity:1;stroke-dasharray:none"
           d="m 1547.412,470.46116 c -50.995,0 -119.2409,42.05695 -140.1873,126.86601 l 23.2808,16.91459 c 123.4287,-132.39561 173.0109,18.46154 140.9465,80.48315 132.3361,-39.85556 53.3396,-224.26375 -24.04,-224.26375 z"
           id="path4472"
           inkscape:connector-curvature="0"
           sodipodi:nodetypes="scccs" />
        <path
           style="fill:none;stroke:#49176d;stroke-width:2;stroke-linecap:butt;stroke-linejoin:miter;stroke-miterlimit:4;stroke-opacity:1;stroke-dasharray:none"
           d="m 1414.6813,603.69231 c 52.2198,-93.36264 162.9891,-196.74726 203.6044,63.2967 l -21.0989,16.87912 c 3.1648,-178.81319 -103.3846,-195.16483 -178.8132,-77.53847"
           id="path4482"
           inkscape:connector-curvature="0"
           sodipodi:nodetypes="cccc" />
      </g>
      <g
         id="g4478">
        <path
           sodipodi:nodetypes="cccc"
           inkscape:connector-curvature="0"
           id="path4474"
           d="m 1547.412,470.46116 c 64.7203,0 125.2552,185.46314 -8.552,227.73592 20.7808,26.80793 34.9321,85.12071 31.8203,126.28553 195.2206,-131.16738 77.7515,-354.02145 -23.2683,-354.02145 z"
           style="fill:#5e4fa2;fill-opacity:1;stroke:#49176d;stroke-width:6.5;stroke-linecap:butt;stroke-linejoin:miter;stroke-miterlimit:4;stroke-opacity:1;stroke-dasharray:none" />
        <path
           style="fill:none;stroke:#49176d;stroke-width:2;stroke-linecap:butt;stroke-linejoin:miter;stroke-miterlimit:4;stroke-opacity:1;stroke-dasharray:none"
           d="m 1557.6264,736.99934 c 69.2159,-36.30511 102.8946,-90.33943 101.4932,-173.61343 l 7.7917,24.08237 c -0.071,69.68241 -27.9213,158.2332 -97.9895,201.71336"
           id="path4476"
           inkscape:connector-curvature="0"
           sodipodi:nodetypes="cccc" />
      </g>
    </g>
    <path
       sodipodi:nodetypes="cssscc"
       inkscape:connector-curvature="0"
       id="path4081"
       d="m 1399.6667,737.10481 c 4.7891,-0.34068 18.949,0.81975 20.4998,3.36538 40.8563,67.06177 48.7289,193.50945 33.1038,209.13462 -10.474,10.47398 -81.1413,11.79809 -92.1716,0.76777 -11.451,-11.45099 62.5207,-66.67841 -6.7176,-199.91422 z"
       style="fill:#dee3e4;fill-opacity:1;stroke:#bec2c3;stroke-width:6.5;stroke-linecap:butt;stroke-linejoin:miter;stroke-miterlimit:4;stroke-opacity:1;stroke-dasharray:none" />
    <path
       style="fill:#dee3e4;fill-opacity:1;stroke:#bec2c3;stroke-width:6.5;stroke-linecap:butt;stroke-linejoin:miter;stroke-miterlimit:4;stroke-opacity:1;stroke-dasharray:none"
       d="m 1274.3437,844.7178 c -34.9469,19.0989 -78.5537,94.5554 -67.2525,105.8567 10.7689,10.7688 82.3687,9.2654 92.8532,-1.2191 5.0264,-5.0264 11.5166,-50.8116 40.2296,-72.1288 36.8102,-27.3288 17.4734,-59.3285 -14.2225,-93.05639 -46.325,12.19079 -56.8904,23.97519 -56.8904,23.97519 z"
       id="path4110"
       inkscape:connector-curvature="0"
       sodipodi:nodetypes="csssccc" />
    <g
       id="g4392">
      <path
         sodipodi:nodetypes="csccc"
         inkscape:connector-curvature="0"
         id="path4333"
         d="m 1203.3803,795.08888 c 49.7776,-28.67865 70.5944,-78.98695 35.5584,-147.38711 -12.1644,-23.74828 -25.5489,-24.44995 -25.5489,-24.44995 L 1176,697.31868 z"
         style="fill:#5e4fa2;fill-opacity:1;stroke:#49176d;stroke-width:6.5;stroke-linecap:butt;stroke-linejoin:miter;stroke-miterlimit:4;stroke-opacity:1;stroke-dasharray:none" />
      <path
         sodipodi:nodetypes="cccccc"
         inkscape:connector-curvature="0"
         id="path4390"
         d="m 1255.1209,729.23077 c -20.5714,-53.8022 -51.956,-87.03296 -51.956,-87.03296 l -6.8573,15.82417 c 0,0 27.6924,31.91209 41.9342,107.34066 l -15.2967,16.08791 c 0,0 -3.9561,-78.5934 -35.6044,-107.6044"
         style="fill:none;stroke:#49176d;stroke-width:2;stroke-linecap:butt;stroke-linejoin:miter;stroke-miterlimit:4;stroke-opacity:1;stroke-dasharray:none" />
    </g>
    <path
       id="path4559"
       style="fill:#ebeff1;fill-opacity:1;stroke:none"
       d="M 1162.2425,618.78969 C 1094.0541,540.16625 943.88786,558.76629 957.11192,739.76032 943,740.5 939.5,743.49432 939.5,749 c 0,10.01249 8.57671,81.08017 155.5,66.5 69.5593,-6.90283 118.2481,14.5 189.5,14.5 81.5138,0 117.2573,-55.5 117.2573,-55.5 59.6924,112.0226 -4.0263,188.81678 7.4247,200.26777 11.0303,11.03032 81.6976,9.70621 92.1716,-0.76777 15.6251,-15.62517 7.7525,-142.07285 -33.1038,-209.13462 -1.5508,-2.54563 -15.7107,-3.70606 -20.4998,-3.36538 5.6976,-31.31075 15.1681,-59.30553 15.1681,-88.45036 0,-30.13227 -19.1421,-86.11017 -70.2964,-86.11017 -89.6543,0 -43.4594,162.20562 -204.1823,115.87972 z"
       inkscape:connector-curvature="0"
       sodipodi:nodetypes="ccsscsssccssc" />
    <path
       style="font-size:medium;font-style:normal;font-variant:normal;font-weight:normal;font-stretch:normal;text-indent:0;text-align:start;text-decoration:none;line-height:normal;letter-spacing:normal;word-spacing:normal;text-transform:none;direction:ltr;block-progression:tb;writing-mode:lr-tb;text-anchor:start;baseline-shift:baseline;color:#000000;fill:#bec2c3;fill-opacity:1;stroke:none;stroke-width:0.1;marker:none;visibility:visible;display:inline;overflow:visible;enable-background:accumulate;font-family:Sans;-inkscape-font-specification:Sans"
       d="m 1394.7812,582.6875 c -96.6445,0 -44.89,163.27487 -204.9687,117.1973 l -1.8125,6.25 c 164.7063,47.12956 117.4704,-116.9473 206.7812,-116.9473 39.8128,0 65.0313,48.18721 65.0313,80.84375 0,54.12996 -20.245,89.06122 -10.0723,101.10937 4.4279,-41.88459 16.5723,-55.33477 16.5723,-101.10937 0,-39.2155 -29.5186,-87.34375 -71.5313,-87.34375 z"
       id="path4073"
       inkscape:connector-curvature="0"
       sodipodi:nodetypes="sccsscss" />
    <path
       style="fill:none;stroke:#bec2c3;stroke-width:6.5;stroke-linecap:butt;stroke-linejoin:miter;stroke-miterlimit:4;stroke-opacity:1;stroke-dasharray:none"
       d="M 957.11192,739.76032 C 943.88786,558.76629 1094.0541,540.16625 1162.2425,618.78969"
       id="path3943"
       inkscape:connector-curvature="0"
       sodipodi:nodetypes="cc" />
    <g
       id="g3932">
      <path
         style="fill:#ebeff1;fill-opacity:1;stroke:none"
         d="m 1149.25,620.5 c 10.7782,-34.41421 45.4707,-60.65381 54.75,-60.65381 21.14,0 45.886,113.16117 -25,159.65381 z"
         id="path3930"
         inkscape:connector-curvature="0"
         sodipodi:nodetypes="cscc" />
      <path
         sodipodi:nodetypes="cscsc"
         inkscape:connector-curvature="0"
         id="path3926"
         d="m 1149.25,620.5 c 1.7624,-26.31186 43.9707,-65.25 54.75,-65.25 23.2613,0 52.25,122 -25,164.25 72.2376,-62.90842 35.5,-156.82921 25,-156.82921 -10.5,0 -43.5,36.32921 -54.75,57.82921 z"
         style="fill:#bec2c3;fill-opacity:1;stroke:none" />
      <path
         sodipodi:nodetypes="ccc"
         inkscape:connector-curvature="0"
         id="path3928"
         d="m 1201.75,605.75 c 6.25,44.75 -22.5,71.25 -22.5,71.25 0,0 20.75,-34.75 22.5,-71.25 z"
         style="fill:#bec2c3;fill-opacity:1;stroke:none" />
    </g>
    <g
       id="g3875">
      <path
         style="fill:#bae3f6;fill-opacity:1;stroke:none"
         d="m 1024.7167,760.43399 c 1.0816,-63.21079 13.3473,-137.05271 102.189,-116.33033 -44.8153,-44.34698 -108.1461,-33.93143 -102.189,116.33033 z"
         id="path3838"
         inkscape:connector-curvature="0"
         sodipodi:nodetypes="ccc" />
      <path
         style="fill:#000000;stroke:#000000;stroke-width:0.1;stroke-linecap:butt;stroke-linejoin:miter;stroke-miterlimit:4;stroke-opacity:1;stroke-dasharray:none"
         d="m 1129.732,674.24766 -0.6291,11.47617 c 0,0 6.8904,-15.007 29.8107,-22.28549 -15.4856,-7.45651 -29.1816,10.80932 -29.1816,10.80932 z"
         id="path3828"
         inkscape:connector-curvature="0"
         sodipodi:nodetypes="cccc" />
      <path
         sodipodi:nodetypes="cccc"
         inkscape:connector-curvature="0"
         id="path3822"
         d="m 1114.9306,740.76552 -1.591,5.12653 c 0,0 18.0312,5.12652 32.527,16.97055 -9.3693,-19.09187 -30.936,-22.09708 -30.936,-22.09708 z"
         style="fill:#000000;stroke:#000000;stroke-width:0.1;stroke-linecap:butt;stroke-linejoin:miter;stroke-miterlimit:4;stroke-opacity:1;stroke-dasharray:none" />
      <path
         style="fill:#000000;stroke:#000000;stroke-width:0.1;stroke-linecap:butt;stroke-linejoin:miter;stroke-miterlimit:4;stroke-opacity:1;stroke-dasharray:none"
         d="m 1123.5373,716.44245 -0.332,5.46761 c 0,0 11.8556,-1.65833 33.1505,2.50588 -13.6463,-13.12517 -32.8185,-7.97349 -32.8185,-7.97349 z"
         id="path3824"
         inkscape:connector-curvature="0"
         sodipodi:nodetypes="cccc" />
      <path
         sodipodi:nodetypes="cccc"
         inkscape:connector-curvature="0"
         id="path3826"
         d="m 1128.6713,696.87508 -1.1594,8.11741 c 0,0 4.5923,-8.64304 34.2301,-12.91633 -19.0211,-9.93138 -33.0707,4.79892 -33.0707,4.79892 z"
         style="fill:#000000;stroke:#000000;stroke-width:0.1;stroke-linecap:butt;stroke-linejoin:miter;stroke-miterlimit:4;stroke-opacity:1;stroke-dasharray:none" />
      <path
         sodipodi:nodetypes="ccc"
         inkscape:connector-curvature="0"
         id="path3818"
         d="m 1024.7167,760.43399 c 94.1435,56.66922 119.5623,-63.68348 102.189,-116.33033 -62.6615,-13.79189 -101.1483,12.87797 -102.189,116.33033 z"
         style="fill:#ffffff;stroke:none" />
      <g
         clip-path="url(#clipPath3871)"
         id="g3860">
        <path
           transform="matrix(0.98521647,0.17131407,-0.17131407,0.98521647,139.16157,-179.23169)"
           d="m 1091.1943,714.49066 a 32.895252,72.90329 0 1 1 -65.7905,0 32.895252,72.90329 0 1 1 65.7905,0 z"
           sodipodi:ry="72.90329"
           sodipodi:rx="32.895252"
           sodipodi:cy="714.49066"
           sodipodi:cx="1058.2991"
           id="path3816"
           style="fill:url(#linearGradient4881);fill-opacity:1;stroke:none"
           sodipodi:type="arc" />
        <g
           id="g3840"
           clip-path="url(#clipPath3846)">
          <path
             style="fill:#699cd3;fill-opacity:1;stroke:none"
             d="m 1081.2617,761.04673 -19.6823,-26.74767 4.2897,-7.31775 26.243,3.78505 z"
             id="path3814"
             inkscape:connector-curvature="0"
             sodipodi:nodetypes="ccccc" />
          <path
             sodipodi:nodetypes="ccccc"
             inkscape:connector-curvature="0"
             id="path3812"
             d="m 1098.4206,718.65421 -37.8505,5.80373 2.5233,4.54206 30.7851,11.60748 z"
             style="fill:#5793d0;fill-opacity:1;stroke:none" />
        </g>
        <path
           sodipodi:type="arc"
           style="fill:#000000;stroke:none"
           id="path3810"
           sodipodi:cx="1058.2991"
           sodipodi:cy="714.49066"
           sodipodi:rx="22.008846"
           sodipodi:ry="51.770813"
           d="m 1080.3079,714.49066 a 22.008846,51.770813 0 1 1 -44.0177,0 22.008846,51.770813 0 1 1 44.0177,0 z"
           transform="matrix(0.97853861,0.20606354,-0.20606354,0.97853861,164.1393,-206.02327)" />
        <path
           sodipodi:type="arc"
           style="fill:#ffffff;stroke:none"
           id="path3038"
           sodipodi:cx="1071.4651"
           sodipodi:cy="696.55646"
           sodipodi:rx="11.243401"
           sodipodi:ry="28.548565"
           d="m 1082.7085,696.55646 a 11.243401,28.548565 0 1 1 -22.4868,0 11.243401,28.548565 0 1 1 22.4868,0 z"
           transform="matrix(0.99975241,0.02225114,-0.02225114,0.99975241,13.26645,-26.166861)" />
        <path
           transform="matrix(0.99519855,-0.09787658,0.09787658,0.99519855,-78.376865,144.08)"
           d="m 1076.0805,696.55646 a 4.6153774,8.3781271 0 1 1 -9.2308,0 4.6153774,8.3781271 0 1 1 9.2308,0 z"
           sodipodi:ry="8.3781271"
           sodipodi:rx="4.6153774"
           sodipodi:cy="696.55646"
           sodipodi:cx="1071.4651"
           id="path3808"
           style="fill:#ffffff;stroke:none"
           sodipodi:type="arc" />
      </g>
      <path
         style="fill:#000000;stroke:#000000;stroke-width:0.1;stroke-linecap:butt;stroke-linejoin:miter;stroke-miterlimit:4;stroke-opacity:1;stroke-dasharray:none"
         d="m 1024.7167,762.93399 c 8.1315,-101.60447 46.1505,-114.78318 72.5372,-114.78318 49.8035,0 58.8121,11.43435 72.4532,-11.47177 -23.2083,12.77167 -54.2349,-2.65241 -82.1694,-2.65241 -39.8902,0 -69.4514,58.62956 -62.821,128.90736 z"
         id="path3820"
         inkscape:connector-curvature="0"
         sodipodi:nodetypes="cscsc" />
      <path
         style="fill:#000000;stroke:#000000;stroke-width:0.1;stroke-linecap:butt;stroke-linejoin:miter;stroke-miterlimit:4;stroke-opacity:1;stroke-dasharray:none"
         d="m 1116.0694,639.57389 -9.2559,-0.95375 c 0,0 16.8016,-11.71783 22.4992,-31.58245 3.0753,22.21528 -13.2433,32.5362 -13.2433,32.5362 z"
         id="path3832"
         inkscape:connector-curvature="0"
         sodipodi:nodetypes="cccc" />
      <path
         sodipodi:nodetypes="cccc"
         inkscape:connector-curvature="0"
         id="path3834"
         d="m 1100.3363,637.62935 -8.9023,-0.77697 c 0,0 8.3163,-7.12164 10.6551,-34.2341 6.9644,15.14421 -1.7528,35.01107 -1.7528,35.01107 z"
         style="fill:#000000;stroke:#000000;stroke-width:0.1;stroke-linecap:butt;stroke-linejoin:miter;stroke-miterlimit:4;stroke-opacity:1;stroke-dasharray:none" />
      <path
         style="fill:#000000;stroke:#000000;stroke-width:0.1;stroke-linecap:butt;stroke-linejoin:miter;stroke-miterlimit:4;stroke-opacity:1;stroke-dasharray:none"
         d="m 1079.8302,638.51323 -8.7255,1.52113 c 0,0 8.4931,-14.01593 8.1802,-38.83029 8.2019,15.85131 0.5453,37.30916 0.5453,37.30916 z"
         id="path3836"
         inkscape:connector-curvature="0"
         sodipodi:nodetypes="cccc" />
      <path
         sodipodi:nodetypes="cccc"
         inkscape:connector-curvature="0"
         id="path3830"
         d="m 1134.1007,644.17008 -10.8469,-2.19119 c 0,0 17.6855,-8.18229 25.6812,-25.57204 1.661,17.44231 -14.8343,27.76323 -14.8343,27.76323 z"
         style="fill:#000000;stroke:#000000;stroke-width:0.1;stroke-linecap:butt;stroke-linejoin:miter;stroke-miterlimit:4;stroke-opacity:1;stroke-dasharray:none" />
    </g>
    <g
       id="g4047">
      <path
         style="fill:#bae3f6;fill-opacity:1;stroke:none"
         d="m 976.109,727.891 c 24.7378,-56.13649 13.15874,-105.29797 7.12648,-105.29797 32.39082,-16.70882 3.44192,93.6018 -7.12648,105.29797 z"
         id="path3959"
         inkscape:connector-curvature="0"
         sodipodi:nodetypes="ccc" />
      <path
         style="fill:#ffffff;stroke:none"
         d="m 976.109,727.891 c -5.18157,8.68673 -13.49291,12.10368 -19.52517,12.10368 -6.01209,-66.05069 17.96399,-116.96123 23.41461,-116.96123 14.06277,0 15.75045,65.56263 -3.88944,104.85755 z"
         id="path3939"
         inkscape:connector-curvature="0"
         sodipodi:nodetypes="ccsc" />
      <g
         clip-path="url(#clipPath4043)"
         id="g3967">
        <path
           transform="matrix(0.98595459,0.16701355,-0.16701355,0.98595459,131.18585,-157.34947)"
           d="m 985.27531,684.19696 a 16.627422,56.830387 0 1 1 -33.25484,0 16.627422,56.830387 0 1 1 33.25484,0 z"
           sodipodi:ry="56.830387"
           sodipodi:rx="16.627422"
           sodipodi:cy="684.19696"
           sodipodi:cx="968.64789"
           id="path3908"
           style="fill:url(#linearGradient4883);fill-opacity:1;stroke:none"
           sodipodi:type="arc" />
        <g
           id="g3945"
           clip-path="url(#clipPath3963)">
          <path
             sodipodi:nodetypes="ccccc"
             inkscape:connector-curvature="0"
             id="path3904"
             d="m 974.39315,699.9301 -2.82843,9.19239 9.19239,19.26866 10.07627,-21.56675 z"
             style="fill:#699cd3;fill-opacity:1;stroke:none" />
          <path
             inkscape:connector-curvature="0"
             id="path3902"
             d="m 973.50926,696.21779 17.85445,-0.53033 -5.48008,18.03123 -13.78858,-12.1976 z"
             style="fill:#5793d0;fill-opacity:1;stroke:none" />
        </g>
        <path
           sodipodi:type="arc"
           style="fill:#000000;stroke:none"
           id="path3900"
           sodipodi:cx="968.64789"
           sodipodi:cy="684.19696"
           sodipodi:rx="9.0843744"
           sodipodi:ry="44.60577"
           d="m 977.73226,684.19696 a 9.0843744,44.60577 0 1 1 -18.16875,0 9.0843744,44.60577 0 1 1 18.16875,0 z"
           transform="matrix(0.99531358,0.09669981,-0.09669981,0.99531358,71.761849,-93.643614)" />
        <path
           sodipodi:type="arc"
           style="fill:#ffffff;stroke:none"
           id="path3896"
           sodipodi:cx="976.25"
           sodipodi:cy="666"
           sodipodi:rx="5.25"
           sodipodi:ry="20.993631"
           d="m 981.5,666 a 5.25,20.993631 0 1 1 -10.5,0 5.25,20.993631 0 1 1 10.5,0 z"
           transform="matrix(0.99646618,0.08399506,-0.08399506,0.99646618,57.976395,-80.53053)" />
        <path
           transform="matrix(0.99527453,0.0971011,-0.0971011,0.99527453,60.620526,-55.055012)"
           d="m 978.47738,666 a 2.227376,6.7401681 0 1 1 -4.45476,0 2.227376,6.7401681 0 1 1 4.45476,0 z"
           sodipodi:ry="6.7401681"
           sodipodi:rx="2.227376"
           sodipodi:cy="666"
           sodipodi:cx="976.25"
           id="path3898"
           style="fill:#ffffff;stroke:none"
           sodipodi:type="arc" />
      </g>
      <path
         sodipodi:nodetypes="cscccsc"
         inkscape:connector-curvature="0"
         id="path3906"
         d="m 976.109,727.891 c 20.31843,-56.31327 9.75709,-101.14632 3.72483,-101.14632 -4.08771,0 -6.28089,6.0249 -7.79056,13.55102 0,0 -19.77754,-0.97272 -20.47576,-17.62069 8.21751,11.98896 18.09556,11.44239 18.09556,11.44239 1.7786,-9.97131 6.259,-16.08395 10.58537,-16.08395 16.81277,0 17.50045,75.56263 -4.13944,109.85755 z"
         style="fill:#000000;stroke:none" />
      <path
         style="fill:#000000;stroke:none"
         d="m 979.03909,620.17852 -3.46086,3.54787 c 0,0 -9.09602,-13.76385 -2.90981,-28.65195 1.59268,18.32509 6.37067,25.10408 6.37067,25.10408 z"
         id="path3924"
         inkscape:connector-curvature="0"
         sodipodi:nodetypes="cccc" />
      <path
         sodipodi:nodetypes="cccc"
         inkscape:connector-curvature="0"
         id="path3922"
         d="m 973.75,626.125 -1.25,6.625 c 0,0 -17,-11.5 -10.75,-29.125 1.25,17.75 12,22.5 12,22.5 z"
         style="fill:#000000;stroke:none" />
    </g>
    <path
       style="font-size:medium;font-style:normal;font-variant:normal;font-weight:normal;font-stretch:normal;text-indent:0;text-align:start;text-decoration:none;line-height:normal;letter-spacing:normal;word-spacing:normal;text-transform:none;direction:ltr;block-progression:tb;writing-mode:lr-tb;text-anchor:start;baseline-shift:baseline;color:#000000;fill:#bec2c3;fill-opacity:1;stroke:none;stroke-width:0.1;marker:none;visibility:visible;display:inline;overflow:visible;enable-background:accumulate;font-family:Sans;-inkscape-font-specification:Sans"
       d="m 1419.7477,713.97303 c 0.5594,71.60402 -74.2225,113.15197 -135.2477,113.15197 -72.8603,0 -112.6624,-22.28466 -190.8125,-14.25 C 961.23516,826.49251 942.65625,766.0333 942.65625,748 c 0,-8.07615 25.48858,1.06717 33.45275,-20.109 -13.35855,15.45247 -39.95275,2.56324 -39.95275,20.109 0,22.87615 24.28384,85.7401 158.21875,71.34375 75.9234,-8.16083 114.2632,14.28125 190.125,14.28125 65.1133,0 143.7367,-44.00973 135.2477,-119.65197 z"
       id="path3912"
       inkscape:connector-curvature="0"
       sodipodi:nodetypes="cssscsssc" />
    <g
       id="g4097">
      <path
         sodipodi:nodetypes="csssccc"
         inkscape:connector-curvature="0"
         id="path4095"
         d="m 1319.2465,859.75309 c -66.4399,34.13421 -88.9646,108.06978 -84.5228,113.78069 9.4416,12.13915 85.1323,11.58125 94.0722,0.20318 7.8048,-9.93338 5.0795,-40.43278 40.8392,-73.34791 11.722,-10.78951 48.1536,-32.30559 -24.788,-103.21534 l -41.2455,22.55296 z"
         style="fill:#ebeff1;fill-opacity:1;stroke:none" />
      <path
         sodipodi:nodetypes="cssscsssc"
         inkscape:connector-curvature="0"
         id="path4085"
         d="m 1330.9103,785.32349 c 36.4643,38.06848 76.9663,82.9211 40.6522,109.55151 -35.2165,25.82549 -41.0131,72.35679 -45.2813,76.625 -9.3061,9.30612 -78.8476,10.3399 -88.25,0.9375 -5.2459,-5.24594 21.5806,-85.16059 93.6203,-116.90781 -65.3696,14.85958 -111.4233,108.29227 -98.214,121.50156 12.8458,12.84577 86.3983,10.10168 97.4375,-0.9375 6.9855,-6.98545 10.1025,-50.58208 44.5625,-75.96875 43.6751,-32.1754 -8.9618,-92.0407 -44.5272,-114.80151 z"
         style="font-size:medium;font-style:normal;font-variant:normal;font-weight:normal;font-stretch:normal;text-indent:0;text-align:start;text-decoration:none;line-height:normal;letter-spacing:normal;word-spacing:normal;text-transform:none;direction:ltr;block-progression:tb;writing-mode:lr-tb;text-anchor:start;baseline-shift:baseline;color:#000000;fill:#bec2c3;fill-opacity:1;stroke:none;stroke-width:0.1;marker:none;visibility:visible;display:inline;overflow:visible;enable-background:accumulate;font-family:Sans;-inkscape-font-specification:Sans" />
      <path
         sodipodi:nodetypes="cccc"
         inkscape:connector-curvature="0"
         id="path4091"
         d="m 1315.5845,862.05289 6.0342,-2.58606 c 0,0 -6.8962,-28.30295 -26.4353,-55.45655 12.4993,29.88332 20.4011,58.04261 20.4011,58.04261 z"
         style="fill:#bec2c3;fill-opacity:1;stroke:none" />
    </g>
    <path
       style="fill:#bec2c3;fill-opacity:1;stroke:none"
       d="m 957.25,784.5 4.875,5.5 c 0,0 26.875,0.25 22.875,-24.25 -4.125,22.5 -27.75,18.75 -27.75,18.75 z"
       id="path3918"
       inkscape:connector-curvature="0"
       sodipodi:nodetypes="cccc" />
    <path
       style="fill:#bec2c3;fill-opacity:1;stroke:none"
       d="m 960.5,757.75 c 5.5,2 9.125,0.75 11.875,-2.375 -0.125,8.75 -7,10.25 -11.875,2.375 z"
       id="path3920"
       inkscape:connector-curvature="0"
       sodipodi:nodetypes="ccc" />
    <path
       style="fill:none;stroke:#bec2c3;stroke-width:6.5;stroke-linecap:butt;stroke-linejoin:miter;stroke-miterlimit:4;stroke-opacity:1;stroke-dasharray:none"
       d="m 1447.75,761.5 c 4.7891,-0.34068 18.949,0.81975 20.4998,3.36538 40.8563,67.06177 48.7289,193.50945 33.1038,209.13462 -10.474,10.47398 -81.1413,11.79809 -92.1716,0.76777 -11.451,-11.45099 52.2677,-88.24517 -7.4247,-200.26777"
       id="path4079"
       inkscape:connector-curvature="0"
       sodipodi:nodetypes="csssc" />
    <g
       transform="matrix(0.10890043,-0.0110516,0.03606304,0.19965066,1300.2992,536.28405)"
       style="display:inline"
       id="g3267">
      <g
         transform="matrix(0.54175624,0,0,0.54175624,524.39784,396.49353)"
         id="g4584">
        <path
           sodipodi:nodetypes="ccccc"
           style="fill:#7ad2f9;fill-opacity:1;stroke:none"
           d="M 829.99081,29.859771 728.02829,281.25546 839.0275,491.35365 940.11097,246.89108 z"
           id="path4326"
           inkscape:connector-curvature="0" />
        <g
           clip-path="url(#clipPath4580)"
           style="stroke:#1e98d3;stroke-opacity:1"
           id="g4567">
          <path
             transform="matrix(-0.1135107,0.99353678,-0.99353678,-0.1135107,1145.2317,-566.59016)"
             d="m 934.96796,216.76262 c 0,17.76684 -27.03351,32.16971 -60.38105,32.16971 -33.34753,0 -60.38104,-14.40287 -60.38104,-32.16971 0,-17.76684 27.03351,-32.16971 60.38104,-32.16971 33.34754,0 60.38105,14.40287 60.38105,32.16971 z"
             sodipodi:ry="32.169712"
             sodipodi:rx="60.381046"
             sodipodi:cy="216.76262"
             sodipodi:cx="874.58691"
             id="path4324"
             style="color:#000000;fill:none;stroke:#1e98d3;stroke-width:10;stroke-miterlimit:4;stroke-opacity:1;stroke-dasharray:none;marker:none;visibility:visible;display:inline;overflow:visible;enable-background:accumulate"
             sodipodi:type="arc" />
          <path
             inkscape:connector-curvature="0"
             id="path4328"
             d="M 837.59275,218.26528 830.37916,-4.3651764"
             style="fill:none;stroke:#1e98d3;stroke-width:10;stroke-linecap:butt;stroke-linejoin:miter;stroke-miterlimit:4;stroke-opacity:1;stroke-dasharray:none"
             sodipodi:nodetypes="cc" />
          <path
             inkscape:connector-curvature="0"
             id="path4330"
             d="M 861.60124,245.4529 933.6227,144.06929"
             style="fill:none;stroke:#1e98d3;stroke-width:10;stroke-linecap:butt;stroke-linejoin:miter;stroke-miterlimit:4;stroke-opacity:1;stroke-dasharray:none"
             sodipodi:nodetypes="cc" />
          <path
             inkscape:connector-curvature="0"
             id="path4332"
             d="M 863.92855,271.70423 977.11195,229.5812"
             style="fill:none;stroke:#1e98d3;stroke-width:10;stroke-linecap:butt;stroke-linejoin:miter;stroke-miterlimit:4;stroke-opacity:1;stroke-dasharray:none"
             sodipodi:nodetypes="cc" />
          <path
             style="fill:none;stroke:#1e98d3;stroke-width:10;stroke-linecap:butt;stroke-linejoin:miter;stroke-miterlimit:4;stroke-opacity:1;stroke-dasharray:none"
             d="m 1043.991,355.88495 68.0091,39.07988"
             id="path4547"
             inkscape:connector-curvature="0"
             transform="translate(-190.29552,-44.11151)" />
          <path
             style="fill:none;stroke:#1e98d3;stroke-width:10;stroke-linecap:butt;stroke-linejoin:miter;stroke-miterlimit:4;stroke-opacity:1;stroke-dasharray:none"
             d="m 1026.2274,380.24643 6.5979,198.9521"
             id="path4549"
             inkscape:connector-curvature="0"
             transform="translate(-190.29552,-44.11151)"
             sodipodi:nodetypes="cc" />
          <path
             style="fill:none;stroke:#1e98d3;stroke-width:10;stroke-linecap:butt;stroke-linejoin:miter;stroke-miterlimit:4;stroke-opacity:1;stroke-dasharray:none"
             d="m 996.28306,367.55816 -51.76815,85.26518"
             id="path4551"
             inkscape:connector-curvature="0"
             transform="translate(-190.29552,-44.11151)" />
          <path
             style="fill:none;stroke:#1e98d3;stroke-width:10;stroke-linecap:butt;stroke-linejoin:miter;stroke-miterlimit:4;stroke-opacity:1;stroke-dasharray:none"
             d="m 988.16256,322.89545 -97.44592,6.09037"
             id="path4553"
             inkscape:connector-curvature="0"
             transform="translate(-190.29552,-44.11151)"
             sodipodi:nodetypes="cc" />
          <path
             style="fill:none;stroke:#1e98d3;stroke-width:10;stroke-linecap:butt;stroke-linejoin:miter;stroke-miterlimit:4;stroke-opacity:1;stroke-dasharray:none"
             d="M 998.82071,285.84569 935.88688,220.37421"
             id="path4555"
             inkscape:connector-curvature="0"
             transform="translate(-190.29552,-44.11151)"
             sodipodi:nodetypes="cc" />
        </g>
      </g>
      <use
         x="0"
         y="0"
         xlink:href="#g4584"
         id="use3226"
         transform="translate(-55.702333,273.858)"
         width="1366.0044"
         height="768" />
      <use
         height="768"
         width="1366.0044"
         transform="translate(99.295667,178.884)"
         id="use3265"
         xlink:href="#g4584"
         y="0"
         x="0" />
    </g>
    <g
       id="g4068">
      <path
         style="fill:#ebeff1;fill-opacity:1;stroke:none"
         d="m 1015.6553,627.90877 30.6697,-13.06003 c 7.75,-4.625 9.2746,-15.0778 9.2746,-15.0778 -39.5,-56.5 -66.44258,-86.84692 -76.31737,-81.14571 -12.73005,7.3497 31.36547,103.03354 36.37307,109.28354 z"
         id="path4066"
         inkscape:connector-curvature="0"
         sodipodi:nodetypes="cccsc" />
      <path
         sodipodi:nodetypes="cccccc"
         inkscape:connector-curvature="0"
         id="path4064"
         d="m 1004.75,608.5 c 17,4.5 32.5218,-6.18461 28,-39.75 l -17,-21.25 c 0,0 2.75,38.25 -22.25,30.5 l -10.25,-26.25 c 0,0 18,11 16,-23"
         style="fill:none;stroke:#bec2c3;stroke-width:3;stroke-linecap:butt;stroke-linejoin:miter;stroke-miterlimit:4;stroke-opacity:1;stroke-dasharray:none" />
      <path
         sodipodi:nodetypes="ssscccsss"
         inkscape:connector-curvature="0"
         id="path4062"
         d="m 1015.1553,627.90877 c 2.3228,-0.8955 -9.7394,-26.64294 -20.42874,-53.30294 -10.45385,-26.07266 -16.98359,-50.95679 -13.83703,-52.77345 9.53407,-5.50448 41.43997,36.93007 71.63887,79.10278 -1.2892,8.00305 -6.2034,13.91358 -6.2034,13.91358 7.75,-4.625 13.2746,-15.3278 13.2746,-15.3278 -39.5,-56.5 -68.12231,-92.84123 -82.31737,-84.64571 -9.58092,5.53154 -0.10578,34.52119 11.15405,62.4528 10.44333,25.90616 24.12522,51.58074 26.71902,50.58074 z"
         style="fill:#bec2c3;fill-opacity:1;stroke:none" />
    </g>
    <g
       id="g4379">
      <g
         id="g4355">
        <path
           sodipodi:nodetypes="ssccs"
           inkscape:connector-curvature="0"
           id="path4343"
           d="m 1163.7375,851.97487 c -17.2501,-22.9021 11.9739,-58.32275 45.445,-85.10577 50.5803,-40.47345 39.996,-99.17634 29.7562,-119.16733 48.0022,79.17173 43.1259,144.59563 11.0234,207.58137 -23.9752,14.22259 -69.1102,19.41367 -86.2246,-3.30827 z"
           style="fill:url(#linearGradient4885);fill-opacity:1;stroke:#49176d;stroke-width:6.5;stroke-linecap:butt;stroke-linejoin:miter;stroke-miterlimit:4;stroke-opacity:1;stroke-dasharray:none" />
        <path
           style="fill:none;stroke:#49176d;stroke-width:2;stroke-linecap:butt;stroke-linejoin:miter;stroke-miterlimit:4;stroke-opacity:1;stroke-dasharray:none"
           d="m 1179.2556,863.00397 c -12.5972,-26.81974 6.9081,-86.14824 94.2754,-119.46973"
           id="path4345"
           inkscape:connector-curvature="0"
           sodipodi:nodetypes="cc" />
      </g>
      <path
         style="fill:#5e4fa2;fill-opacity:1;stroke:#49176d;stroke-width:6.5;stroke-linecap:butt;stroke-linejoin:miter;stroke-miterlimit:4;stroke-opacity:1;stroke-dasharray:none"
         d="m 1201.2191,813.19248 c -17.1088,-22.64215 32.2332,-48.45977 46.2004,-25.3387 32.1196,53.17017 4.5132,76.5619 -46.2004,25.3387 z"
         id="path4363"
         inkscape:connector-curvature="0"
         sodipodi:nodetypes="csc" />
      <path
         style="fill:#4b2568;fill-opacity:1;stroke:#49176d;stroke-width:6.5;stroke-linecap:butt;stroke-linejoin:miter;stroke-miterlimit:4;stroke-opacity:1;stroke-dasharray:none"
         d="m 1229.477,790.29195 c -3.9372,-6.81946 -13.9198,-0.0289 -13.9198,-0.0289 l 18.2792,23.08577 c 0,0 -1.6934,-18.43916 -4.3594,-23.05687 z"
         id="path4373"
         inkscape:connector-curvature="0"
         sodipodi:nodetypes="sccs" />
      <path
         style="fill:url(#linearGradient4887);fill-opacity:1;stroke:#49176d;stroke-width:6.5;stroke-linecap:butt;stroke-linejoin:miter;stroke-miterlimit:4;stroke-opacity:1;stroke-dasharray:none"
         d="m 1229.477,790.29195 c 7.4429,12.89142 -16.9098,37.91894 -28.2579,22.90053 l 35.7661,36.7628 12.9757,-10.96052 z"
         id="path4361"
         inkscape:connector-curvature="0"
         sodipodi:nodetypes="ccccc" />
      <g
         id="g4339">
        <path
           sodipodi:nodetypes="ccccc"
           inkscape:connector-curvature="0"
           id="path4335"
           d="m 1247.4195,787.85378 c 29.7247,49.20554 -66.4712,86.971 -83.682,64.12109 30.147,29.31528 46.4014,78.4848 46.4014,78.4848 31.6961,7.72083 74.7702,-11.37808 91.0246,-38.60417 -10.1591,-30.07061 -32.3114,-92.19096 -53.744,-104.00172 z"
           style="fill:#5e4fa2;fill-opacity:1;stroke:#49176d;stroke-width:6.5;stroke-linecap:butt;stroke-linejoin:miter;stroke-miterlimit:3.79999995;stroke-opacity:1;stroke-dasharray:none" />
        <path
           style="fill:none;stroke:#49176d;stroke-width:2;stroke-linecap:butt;stroke-linejoin:miter;stroke-miterlimit:4;stroke-opacity:1;stroke-dasharray:none"
           d="m 1181.3078,874.62008 c 49.1097,5.69749 83.3615,-23.16746 87.2483,-61.10184 l 12.0225,24.9478 c 0,0 0.2105,62.43994 -79.2401,70.98194 l 2.4381,6.28414 c 0,0 75.4858,13.91833 90.8851,-43.71852"
           id="path4337"
           inkscape:connector-curvature="0"
           sodipodi:nodetypes="cccccc" />
      </g>
    </g>
  </g>
</svg>
