<svg xmlns="http://www.w3.org/2000/svg" xmlns:xlink="http://www.w3.org/1999/xlink" viewBox="-45 -48 90 96">
  <clipPath id="H2"><use xlink:href="#H"/></clipPath>
  <g clip-path="url(#H2)">
    <path d="m5.7 40.4c-36.6-12.3-49.6-40-41.8-71.2 2.2-8.8 19.2-14 36.2 3.6 6.7-23 29.1-25.3 38.8-10.7s1.9 53-7.7 65.6z" fill="#ffe36d" id="H"/>
    <g fill="#f1ba47">
      <ellipse cx="-13.5" cy="-5.6" rx="5.4" ry="4.4" transform="rotate(58)"/>
      <ellipse cx="-38.3" cy="-16" rx="10" ry="8" transform="rotate(37)"/>
      <ellipse cx="16.1" cy="-16.7" rx="8.1" ry="6.5" transform="rotate(58)"/>
      <ellipse cx="4.5" cy="-37" rx="9.7" ry="7.3" transform="rotate(47)"/>
    </g>
  </g>
  <path d="M17.7 47.1C-9.8 42.5-37.5 24-41.5 13.3s-.9-29.1 5.4-44.1c-7.8 31.2 46.6 57.6 67.3 58.5zM-6.2254136 14.245061C-6.6 3.6-15.1-6.2-27.192012-2.5020535-32 3.8-28.1 25.2-6.2254136 14.245061Z" fill="#f1ba47"/>
  <ellipse cx="24.6" cy="15.1" rx="5.5" ry="4.1" transform="rotate(51)" fill="#ffe36d"/>
</svg>
