<?xml version="1.0" encoding="UTF-8" standalone="no"?>
<!-- Created with Inkscape (http://www.inkscape.org/) -->

<svg
   xmlns:dc="http://purl.org/dc/elements/1.1/"
   xmlns:cc="http://creativecommons.org/ns#"
   xmlns:rdf="http://www.w3.org/1999/02/22-rdf-syntax-ns#"
   xmlns:svg="http://www.w3.org/2000/svg"
   xmlns="http://www.w3.org/2000/svg"
   xmlns:xlink="http://www.w3.org/1999/xlink"
   xmlns:sodipodi="http://sodipodi.sourceforge.net/DTD/sodipodi-0.dtd"
   xmlns:inkscape="http://www.inkscape.org/namespaces/inkscape"
   id="svg3039"
   version="1.1"
   inkscape:version="0.48.3.1 r9886"
   width="1920"
   height="1080"
   sodipodi:docname="90 Svedbergs.svg"
   inkscape:export-filename="/home/parclytaxel/Pictures/90 Svedbergs.png"
   inkscape:export-xdpi="1486.5624"
   inkscape:export-ydpi="1486.5624">
  <metadata
     id="metadata3045">
    <rdf:RDF>
      <cc:Work
         rdf:about="">
        <dc:format>image/svg+xml</dc:format>
        <dc:type
           rdf:resource="http://purl.org/dc/dcmitype/StillImage" />
        <dc:title></dc:title>
      </cc:Work>
    </rdf:RDF>
  </metadata>
  <defs
     id="defs3043">
    <inkscape:path-effect
       effect="skeletal"
       id="path-effect8771"
       is_visible="true"
       pattern="m 892.68272,411.47547 c -1.69057,0 -4.22772,0.18993 -7,0.85 2.83828,0.66007 5.30943,0.85 7,0.85 l 77.5,0 c 1.69058,0 4.33993,-0.25594 5.92409,-0.85 -1.58416,-0.59406 -4.23351,-0.85 -5.92409,-0.85 z"
       copytype="single_stretched"
       prop_scale="1"
       scale_y_rel="false"
       spacing="0"
       normal_offset="0"
       tang_offset="0"
       prop_units="false"
       vertical_pattern="false"
       fuse_tolerance="0"
       pattern-nodetypes="scsscss" />
    <inkscape:path-effect
       effect="skeletal"
       id="path-effect8385"
       is_visible="true"
       pattern="m 909.51102,406.67372 c -5.2233,0 -14.0819,0.32769 -19.5389,1.25 5.5339,0.84545 14.26079,1.25 19.5389,1.25 l 507.49998,0 c 4.3065,0 17.1741,-0.4979 22.1537,-1.25 -5.0344,-0.67525 -17.6991,-1.25 -22.1537,-1.25 z"
       copytype="single_stretched"
       prop_scale="1"
       scale_y_rel="false"
       spacing="0"
       normal_offset="0"
       tang_offset="0"
       prop_units="false"
       vertical_pattern="false"
       fuse_tolerance="0"
       pattern-nodetypes="scsscss" />
    <inkscape:path-effect
       effect="skeletal"
       id="path-effect6392"
       is_visible="true"
       pattern="m 916.97872,511.94531 c -2.4733,0 -3.9569,0.20269 -7.5389,1.25 3.2839,1.22045 5.3257,1.25 7.5389,1.25 l 87.49998,0 c 3.8397,0 10.3876,-0.40455 14.1537,-1.25 -4.381,-0.76859 -9.6991,-1.25 -14.1537,-1.25 z"
       copytype="single_stretched"
       prop_scale="1"
       scale_y_rel="false"
       spacing="0"
       normal_offset="0"
       tang_offset="0"
       prop_units="false"
       vertical_pattern="false"
       fuse_tolerance="0"
       pattern-nodetypes="scsscss" />
    <inkscape:path-effect
       effect="skeletal"
       id="path-effect6370"
       is_visible="true"
       pattern="m 1008.4277,401.63665 -1.2929,2.5 87.5,0 c 3.9647,0 7.3251,-0.46705 10.1537,-1.25 -3.131,-0.83109 -5.6991,-1.25 -10.1537,-1.25 z"
       copytype="single_stretched"
       prop_scale="1"
       scale_y_rel="false"
       spacing="0"
       normal_offset="0"
       tang_offset="0"
       prop_units="false"
       vertical_pattern="false"
       fuse_tolerance="0"
       pattern-nodetypes="ccscsc" />
    <inkscape:path-effect
       effect="skeletal"
       id="path-effect4112"
       is_visible="true"
       pattern="m 917.5389,360 c -5.2233,0 -12.0819,0.32769 -17.5389,1.25 5.5339,0.84545 11.7007,1.25 17.5389,1.25 l 87.5,0 c 3.8397,0 14.5394,-0.009 20.1537,-1.25 -5.8331,-0.76859 -15.6991,-1.25 -20.1537,-1.25 z"
       copytype="single_stretched"
       prop_scale="1"
       scale_y_rel="false"
       spacing="0"
       normal_offset="0"
       tang_offset="0"
       prop_units="false"
       vertical_pattern="false"
       fuse_tolerance="0"
       pattern-nodetypes="scsscss" />
    <inkscape:path-effect
       effect="skeletal"
       id="path-effect4002"
       is_visible="true"
       pattern="m 1040.8696,417.3913 c -5.2233,0 -12.0819,0.32769 -17.5389,1.25 5.5339,0.84545 11.7007,1.25 17.5389,1.25 l 87.5,0 c 3.8397,0 10.3876,-0.40455 14.1537,-1.25 -4.381,-0.76859 -9.6991,-1.25 -14.1537,-1.25 z"
       copytype="single_stretched"
       prop_scale="1"
       scale_y_rel="false"
       spacing="0"
       normal_offset="0"
       tang_offset="0"
       prop_units="false"
       vertical_pattern="false"
       fuse_tolerance="0"
       pattern-nodetypes="scsscss" />
    <linearGradient
       inkscape:collect="always"
       id="linearGradient3920">
      <stop
         style="stop-color:#007a96;stop-opacity:1"
         offset="0"
         id="stop3922" />
      <stop
         style="stop-color:#00d2b5;stop-opacity:1"
         offset="1"
         id="stop3924" />
    </linearGradient>
    <linearGradient
       inkscape:collect="always"
       xlink:href="#linearGradient3920"
       id="linearGradient3926"
       x1="1032.8011"
       y1="385.92191"
       x2="1031.8462"
       y2="405.93463"
       gradientUnits="userSpaceOnUse" />
    <clipPath
       clipPathUnits="userSpaceOnUse"
       id="clipPath3934">
      <path
         sodipodi:type="arc"
         style="fill:none;stroke:#000000;stroke-width:0.1;stroke-linecap:butt;stroke-linejoin:miter;stroke-miterlimit:4;stroke-opacity:1;stroke-dasharray:none;stroke-dashoffset:0"
         id="path3936"
         sodipodi:cx="1037.0109"
         sodipodi:cy="395.54349"
         sodipodi:rx="11.917518"
         sodipodi:ry="14.886806"
         d="m 1048.9284,395.54349 a 11.917518,14.886806 0 1 1 -23.8351,0 11.917518,14.886806 0 1 1 23.8351,0 z"
         transform="matrix(0.99333873,-0.11523092,0.11523092,0.99333873,-40.084075,121.15227)" />
    </clipPath>
    <clipPath
       clipPathUnits="userSpaceOnUse"
       id="clipPath3949">
      <path
         sodipodi:nodetypes="cccc"
         inkscape:connector-curvature="0"
         id="path3951"
         d="m 1043.0912,399.11547 c 0.9992,-5.99503 1.2111,-14.95029 0.9037,-20.71475 -9.1304,-6.08695 -24.2208,-14.43092 -38.981,-17.69631 -3.5882,18.97296 6.1051,34.88005 38.0773,38.41106 z"
         style="fill:none;stroke:#ff00ff;stroke-width:0.1;stroke-linecap:butt;stroke-linejoin:miter;stroke-miterlimit:4;stroke-opacity:1;stroke-dasharray:none;stroke-dashoffset:0" />
    </clipPath>
    <clipPath
       clipPathUnits="userSpaceOnUse"
       id="clipPath4042">
      <path
         style="fill:none;stroke:#008080;stroke-width:0.30000001;stroke-miterlimit:4;stroke-dasharray:none"
         d="m 1055.5393,422.99961 c 0.7706,-0.31239 1.5201,-0.66344 2.2452,-1.04048 3.0481,-1.56475 5.8176,-3.59862 8.3033,-5.8959 l 0,0 c 0.5192,-0.47793 1.0286,-0.96919 1.5259,-1.47423 -5.2264,-13.91156 -22.4022,-15.94788 -33.7006,-5.11069 -1.4604,11.68263 14.3246,19.5932 21.6262,13.5213 z"
         id="path4044"
         inkscape:connector-curvature="0"
         sodipodi:nodetypes="ccccccc" />
    </clipPath>
    <clipPath
       clipPathUnits="userSpaceOnUse"
       id="clipPath4046">
      <path
         id="path4048"
         style="font-size:medium;font-style:normal;font-variant:normal;font-weight:normal;font-stretch:normal;text-indent:0;text-align:start;text-decoration:none;line-height:normal;letter-spacing:normal;word-spacing:normal;text-transform:none;direction:ltr;block-progression:tb;writing-mode:lr-tb;text-anchor:start;baseline-shift:baseline;color:#000000;fill:none;stroke:#ff00ff;stroke-width:0.30000001;stroke-miterlimit:4;stroke-dasharray:none;marker:none;visibility:visible;display:inline;overflow:visible;enable-background:accumulate;font-family:Sans;-inkscape-font-specification:Sans"
         d="m 1058.6292,422.42857 c -1.1396,-1.29281 -2.3096,-2.50719 -3.511,-3.64592 l -57.94392,-20.67954 -0.61487,16.2942 62.56359,18.7537 z m 4.0429,-8.28284 c 1.2603,0.81731 2.4774,1.731 3.6471,2.73155 l 16.1691,11.50845 1.2297,-47.03798 -29.3603,2.45951 z"
         inkscape:connector-curvature="0" />
    </clipPath>
    <clipPath
       clipPathUnits="userSpaceOnUse"
       id="clipPath6312">
      <path
         transform="matrix(0.99836246,0.05720507,-0.05720507,0.99836246,21.425213,-63.421477)"
         d="m 1074.7968,387.34375 a 4.8905134,13.135427 0 1 1 -9.7811,0 4.8905134,13.135427 0 1 1 9.7811,0 z"
         sodipodi:ry="13.135427"
         sodipodi:rx="4.8905134"
         sodipodi:cy="387.34375"
         sodipodi:cx="1069.9062"
         id="path6314"
         style="fill:none;stroke:#1a1a1a"
         sodipodi:type="arc" />
    </clipPath>
    <linearGradient
       inkscape:collect="always"
       xlink:href="#linearGradient3920"
       id="linearGradient6325"
       gradientUnits="userSpaceOnUse"
       x1="1068.1602"
       y1="378.60727"
       x2="1067.7915"
       y2="396.75961" />
    <clipPath
       clipPathUnits="userSpaceOnUse"
       id="clipPath6337">
      <path
         style="fill:none;stroke:#ffffff;stroke-width:0.1;stroke-miterlimit:4;stroke-dasharray:none"
         d="m 1067.3469,395.21699 c -1.7808,-1.69772 -3.7539,-3.9219 -5.6557,-7.83691 -0.8322,-3.13221 -1.1753,-10.60883 -0.8367,-13.68944 3.2161,-4.54358 5.9654,-7.91626 9.5205,-11.63702 4.3935,12.02081 1.9574,25.82367 -3.0281,33.16337 z"
         id="path6339"
         inkscape:connector-curvature="0"
         sodipodi:nodetypes="ccccc"
         clip-path="none" />
    </clipPath>
    <clipPath
       clipPathUnits="userSpaceOnUse"
       id="clipPath8410">
      <path
         style="font-size:medium;font-style:normal;font-variant:normal;font-weight:normal;font-stretch:normal;text-indent:0;text-align:start;text-decoration:none;line-height:normal;letter-spacing:normal;word-spacing:normal;text-transform:none;direction:ltr;block-progression:tb;writing-mode:lr-tb;text-anchor:start;baseline-shift:baseline;color:#000000;fill:none;stroke:#ff0000;stroke-width:1;stroke-miterlimit:4;stroke-dasharray:none;marker:none;visibility:visible;display:inline;overflow:visible;enable-background:accumulate;font-family:Sans;-inkscape-font-specification:Sans"
         d="m 801.95658,330.99597 c 2.35915,0.36792 4.83338,0.41971 7.41701,0.0315 136.23588,32.43766 55.77039,89.75298 120.9269,110.10272 34.91193,-14.7489 -31.92482,-219.92654 -137.59412,-184.45452 -105.66929,35.47202 -61.69384,98.59063 9.25021,74.3203 z m 85.75339,94.8006 c -2.00345,0.46542 -3.8106,0.76939 -5.42273,0.93472 -22.24935,9.12465 -21.37054,29.05393 11.42106,26.16068 23.22868,-2.0495 25.36641,-22.05464 -5.99833,-27.0954 z"
         id="path8412"
         inkscape:connector-curvature="0"
         sodipodi:nodetypes="cccscccsc" />
    </clipPath>
    <clipPath
       clipPathUnits="userSpaceOnUse"
       id="clipPath8790">
      <path
         style="fill:none;stroke:#000000;stroke-width:0.61847502;stroke-miterlimit:4;stroke-dasharray:none"
         d="m 1515.6766,542.88968 c -1.1234,-3.18523 -3.3037,-6.2964 -5.6804,-8.94974 l 9.4088,-48.77802 c 8.5072,-1.65827 16.8801,-4.11627 24.2421,-8.37345 56.5571,48.99931 19.1082,83.22429 -27.9705,66.10121 z"
         id="path8792"
         inkscape:connector-curvature="0"
         sodipodi:nodetypes="ccccc" />
    </clipPath>
    <clipPath
       clipPathUnits="userSpaceOnUse"
       id="clipPath8794">
      <path
         style="font-size:medium;font-style:normal;font-variant:normal;font-weight:normal;font-stretch:normal;text-indent:0;text-align:start;text-decoration:none;line-height:normal;letter-spacing:normal;word-spacing:normal;text-transform:none;direction:ltr;block-progression:tb;writing-mode:lr-tb;text-anchor:start;baseline-shift:baseline;color:#000000;fill:none;stroke:#800000;stroke-width:0.30000001;stroke-miterlimit:4;stroke-dasharray:none;marker:none;visibility:visible;display:inline;overflow:visible;enable-background:accumulate;font-family:Sans;-inkscape-font-specification:Sans"
         d="m 876.30361,389.78486 c 1.50909,0.002 3.29215,-0.18846 5.35684,-0.62761 l 5.42018,12.67367 -14.74889,3.92059 z m -0.002,-27.72729 c -2.5873,0.11891 -4.86214,0.61898 -6.79778,1.37063 l -26.48319,-10.0446 25.85724,-26.9774 38.45914,17.9227 -4.85407,89.70688 -20.90982,0.1867 11.10834,-50.781 -2.24033,-19.41627 z"
         clip-path="none"
         id="path8796"
         inkscape:connector-curvature="0"
         sodipodi:nodetypes="ccccccc" />
    </clipPath>
    <clipPath
       clipPathUnits="userSpaceOnUse"
       id="clipPath3155">
      <path
         style="fill:none;stroke:#ffff00"
         clip-path="none"
         d="m 884.6243,433.00911 c 0.0363,-3.37181 1.56315,-6.69242 3.34942,-9.84446 m 0,0 -76.24814,-90.32636 c -7.84141,-3.73343 -14.83667,-9.38948 -19.5142,-16.63029 -22.59392,-27.30031 -120.55602,28.1162 -37.61001,92.82839 82.94601,64.71219 130.02293,23.97272 130.02293,23.97272"
         id="path3157"
         inkscape:connector-curvature="0"
         sodipodi:nodetypes="cccc" />
    </clipPath>
  </defs>
  <sodipodi:namedview
     pagecolor="#ffffff"
     bordercolor="#666666"
     borderopacity="1"
     objecttolerance="10"
     gridtolerance="10"
     guidetolerance="10"
     inkscape:pageopacity="0"
     inkscape:pageshadow="2"
     inkscape:window-width="1364"
     inkscape:window-height="698"
     id="namedview3041"
     showgrid="true"
     fit-margin-top="0"
     fit-margin-left="0"
     fit-margin-right="0"
     fit-margin-bottom="0"
     showguides="true"
     inkscape:zoom="2.7970002"
     inkscape:cx="960"
     inkscape:cy="701.79775"
     inkscape:window-x="0"
     inkscape:window-y="0"
     inkscape:window-maximized="1"
     inkscape:current-layer="layer2"
     inkscape:guide-bbox="true">
    <inkscape:grid
       type="xygrid"
       id="grid3976"
       empspacing="5"
       visible="true"
       enabled="false"
       snapvisiblegridlinesonly="true"
       spacingx="2.5px"
       spacingy="1.7px" />
  </sodipodi:namedview>
  <g
     inkscape:groupmode="layer"
     id="layer2"
     inkscape:label="Drawing"
     style="display:inline">
    <g
       id="g3156">
      <g
         id="g9065">
        <path
           style="fill:#4641d1;fill-opacity:0.50196081;stroke:#885de4;stroke-width:2.50000000000000000;stroke-linecap:butt;stroke-linejoin:miter;stroke-miterlimit:20;stroke-opacity:1;stroke-dasharray:none;stroke-dashoffset:0"
           d="m 875.2255,384.74834 c -20.86774,47.50199 -44.42483,59.01577 -82.4615,45.47072 -30.78325,-10.96207 -74.48091,10.66967 -76.31152,-23.3912 -1.60882,-29.93415 -6.35987,-31.84551 -18.08558,-28.92866 -0.80762,-17.45872 23.40655,-13.76917 31.43202,0.13135 10.32566,17.88457 31.50113,13.06348 26.5813,-16.05677 -4.1559,-24.59851 13.12101,-33.89082 56.65619,-29.06255 z"
           id="path8983"
           inkscape:connector-curvature="0"
           sodipodi:nodetypes="csscsscc" />
        <path
           style="fill:#1558ce;stroke:none;fill-opacity:1"
           d="m 868.38284,386.93069 c -18.12012,35.6177 -42.03078,43.79943 -77.58591,31.83193 -17.51234,-5.89448 -71.07591,9.98023 -67.10055,-6.74942 6.33663,-26.66667 36.99181,6.0257 45.67656,-42.24422 3.88157,-21.57376 3.43235,-31.41914 45.67657,-26.40264 z"
           id="path8985"
           inkscape:connector-curvature="0"
           sodipodi:nodetypes="cssscc" />
        <g
           transform="matrix(-0.74856159,0.83467263,-0.83467263,-0.74856159,2000.4489,-208.96276)"
           style="display:inline"
           id="g8936-5">
          <path
             sodipodi:type="star"
             style="fill:#b6ecff;fill-opacity:1;fill-rule:evenodd;stroke:none"
             id="use8872-7"
             sodipodi:sides="4"
             sodipodi:cx="957.74463"
             sodipodi:cy="609.71564"
             sodipodi:r1="7.435051"
             sodipodi:r2="1.1152577"
             sodipodi:arg1="0.89213384"
             sodipodi:arg2="1.677532"
             inkscape:flatsided="false"
             inkscape:rounded="0"
             inkscape:randomized="0"
             d="m 962.412,615.50318 -4.78618,-4.67863 -5.66873,3.55846 4.67863,-4.78618 -3.55846,-5.66873 4.78618,4.67863 5.66873,-3.55846 -4.67863,4.78618 z"
             transform="matrix(0.3738233,-0.3822116,0.3822116,0.3738233,516.01014,544.54234)" />
          <path
             sodipodi:type="star"
             style="fill:#b6ecff;fill-opacity:1;fill-rule:evenodd;stroke:none"
             id="use8874-7"
             sodipodi:sides="4"
             sodipodi:cx="957.74463"
             sodipodi:cy="609.71564"
             sodipodi:r1="7.435051"
             sodipodi:r2="1.1152577"
             sodipodi:arg1="0.89213384"
             sodipodi:arg2="1.677532"
             inkscape:flatsided="false"
             inkscape:rounded="0"
             inkscape:randomized="0"
             d="m 962.412,615.50318 -4.78618,-4.67863 -5.66873,3.55846 4.67863,-4.78618 -3.55846,-5.66873 4.78618,4.67863 5.66873,-3.55846 -4.67863,4.78618 z"
             transform="matrix(-0.28949062,-0.10672523,0.10672523,-0.28949062,1331.5464,715.93881)" />
          <path
             sodipodi:type="star"
             style="fill:#b6ecff;fill-opacity:1;fill-rule:evenodd;stroke:none"
             id="use8876-1"
             sodipodi:sides="4"
             sodipodi:cx="957.74463"
             sodipodi:cy="609.71564"
             sodipodi:r1="7.435051"
             sodipodi:r2="1.1152577"
             sodipodi:arg1="0.89213384"
             sodipodi:arg2="1.677532"
             inkscape:flatsided="false"
             inkscape:rounded="0"
             inkscape:randomized="0"
             d="m 962.412,615.50318 -4.78618,-4.67863 -5.66873,3.55846 4.67863,-4.78618 -3.55846,-5.66873 4.78618,4.67863 5.66873,-3.55846 -4.67863,4.78618 z"
             transform="matrix(-0.2705187,0.05385029,-0.05385029,-0.2705187,1407.1163,529.16281)" />
          <path
             sodipodi:type="star"
             style="fill:#b6ecff;fill-opacity:1;fill-rule:evenodd;stroke:none"
             id="use8878-1"
             sodipodi:sides="4"
             sodipodi:cx="957.74463"
             sodipodi:cy="609.71564"
             sodipodi:r1="7.435051"
             sodipodi:r2="1.1152577"
             sodipodi:arg1="0.89213384"
             sodipodi:arg2="1.677532"
             inkscape:flatsided="false"
             inkscape:rounded="0"
             inkscape:randomized="0"
             d="m 962.412,615.50318 -4.78618,-4.67863 -5.66873,3.55846 4.67863,-4.78618 -3.55846,-5.66873 4.78618,4.67863 5.66873,-3.55846 -4.67863,4.78618 z"
             transform="matrix(-0.05596194,0.18495834,-0.18495834,-0.05596194,1273.8652,280.92431)" />
          <path
             sodipodi:type="star"
             style="fill:#b6ecff;fill-opacity:1;fill-rule:evenodd;stroke:none"
             id="use8880-3"
             sodipodi:sides="4"
             sodipodi:cx="957.74463"
             sodipodi:cy="609.71564"
             sodipodi:r1="7.435051"
             sodipodi:r2="1.1152577"
             sodipodi:arg1="0.89213384"
             sodipodi:arg2="1.677532"
             inkscape:flatsided="false"
             inkscape:rounded="0"
             inkscape:randomized="0"
             d="m 962.412,615.50318 -4.78618,-4.67863 -5.66873,3.55846 4.67863,-4.78618 -3.55846,-5.66873 4.78618,4.67863 5.66873,-3.55846 -4.67863,4.78618 z"
             transform="matrix(0.34612919,-0.06158816,0.06158816,0.34612919,795.08254,314.44274)" />
          <path
             sodipodi:type="star"
             style="fill:#b6ecff;fill-opacity:1;fill-rule:evenodd;stroke:none"
             id="use8884-7"
             sodipodi:sides="4"
             sodipodi:cx="957.74463"
             sodipodi:cy="609.71564"
             sodipodi:r1="7.435051"
             sodipodi:r2="1.1152577"
             sodipodi:arg1="0.89213384"
             sodipodi:arg2="1.677532"
             inkscape:flatsided="false"
             inkscape:rounded="0"
             inkscape:randomized="0"
             d="m 962.412,615.50318 -4.78618,-4.67863 -5.66873,3.55846 4.67863,-4.78618 -3.55846,-5.66873 4.78618,4.67863 5.66873,-3.55846 -4.67863,4.78618 z"
             transform="matrix(-0.1520756,-0.59131585,0.59131585,-0.1520756,922.71005,1117.3473)" />
          <path
             sodipodi:type="star"
             style="fill:#b6ecff;fill-opacity:1;fill-rule:evenodd;stroke:none"
             id="use8888-1"
             sodipodi:sides="4"
             sodipodi:cx="957.74463"
             sodipodi:cy="609.71564"
             sodipodi:r1="7.435051"
             sodipodi:r2="1.1152577"
             sodipodi:arg1="0.89213384"
             sodipodi:arg2="1.677532"
             inkscape:flatsided="false"
             inkscape:rounded="0"
             inkscape:randomized="0"
             d="m 962.412,615.50318 -4.78618,-4.67863 -5.66873,3.55846 4.67863,-4.78618 -3.55846,-5.66873 4.78618,4.67863 5.66873,-3.55846 -4.67863,4.78618 z"
             transform="matrix(-0.07407706,-0.28803401,0.28803401,-0.07407706,1047.6414,780.53912)" />
          <path
             sodipodi:type="star"
             style="fill:#b6ecff;fill-opacity:1;fill-rule:evenodd;stroke:none"
             id="use8894-8"
             sodipodi:sides="4"
             sodipodi:cx="957.74463"
             sodipodi:cy="609.71564"
             sodipodi:r1="7.435051"
             sodipodi:r2="1.1152577"
             sodipodi:arg1="0.89213384"
             sodipodi:arg2="1.677532"
             inkscape:flatsided="false"
             inkscape:rounded="0"
             inkscape:randomized="0"
             d="m 962.412,615.50318 -4.78618,-4.67863 -5.66873,3.55846 4.67863,-4.78618 -3.55846,-5.66873 4.78618,4.67863 5.66873,-3.55846 -4.67863,4.78618 z"
             transform="matrix(-0.03091243,-0.26468679,0.26468679,-0.03091243,974.60349,720.25273)" />
          <path
             sodipodi:type="star"
             style="fill:#b6ecff;fill-opacity:1;fill-rule:evenodd;stroke:none"
             id="path8924-0"
             sodipodi:sides="4"
             sodipodi:cx="957.74463"
             sodipodi:cy="609.71564"
             sodipodi:r1="7.435051"
             sodipodi:r2="1.1152577"
             sodipodi:arg1="0.89213384"
             sodipodi:arg2="1.677532"
             inkscape:flatsided="false"
             inkscape:rounded="0"
             inkscape:randomized="0"
             d="m 962.412,615.50318 -4.78618,-4.67863 -5.66873,3.55846 4.67863,-4.78618 -3.55846,-5.66873 4.78618,4.67863 5.66873,-3.55846 -4.67863,4.78618 z"
             transform="matrix(-0.17597233,-0.27493143,0.27493143,-0.17597233,1134.855,815.34842)" />
          <path
             sodipodi:type="star"
             style="fill:#b6ecff;fill-opacity:1;fill-rule:evenodd;stroke:none"
             id="path8928-8"
             sodipodi:sides="4"
             sodipodi:cx="957.74463"
             sodipodi:cy="609.71564"
             sodipodi:r1="7.435051"
             sodipodi:r2="1.1152577"
             sodipodi:arg1="0.89213384"
             sodipodi:arg2="1.677532"
             inkscape:flatsided="false"
             inkscape:rounded="0"
             inkscape:randomized="0"
             d="m 962.412,615.50318 -4.78618,-4.67863 -5.66873,3.55846 4.67863,-4.78618 -3.55846,-5.66873 4.78618,4.67863 5.66873,-3.55846 -4.67863,4.78618 z"
             transform="matrix(-0.20299562,0.10606113,-0.10606113,-0.20299562,1375.9932,486.05321)" />
          <path
             transform="matrix(-0.15735632,-0.38652773,0.38652773,-0.15735632,1033.1353,923.29483)"
             d="m 962.412,615.50318 -4.78618,-4.67863 -5.66873,3.55846 4.67863,-4.78618 -3.55846,-5.66873 4.78618,4.67863 5.66873,-3.55846 -4.67863,4.78618 z"
             inkscape:randomized="0"
             inkscape:rounded="0"
             inkscape:flatsided="false"
             sodipodi:arg2="1.677532"
             sodipodi:arg1="0.89213384"
             sodipodi:r2="1.1152577"
             sodipodi:r1="7.435051"
             sodipodi:cy="609.71564"
             sodipodi:cx="957.74463"
             sodipodi:sides="4"
             id="path8930-7"
             style="fill:#b6ecff;fill-opacity:1;fill-rule:evenodd;stroke:none"
             sodipodi:type="star" />
          <path
             transform="matrix(-0.38967736,-0.12130859,0.12130859,-0.38967736,1399.7491,829.6422)"
             d="m 962.412,615.50318 -4.78618,-4.67863 -5.66873,3.55846 4.67863,-4.78618 -3.55846,-5.66873 4.78618,4.67863 5.66873,-3.55846 -4.67863,4.78618 z"
             inkscape:randomized="0"
             inkscape:rounded="0"
             inkscape:flatsided="false"
             sodipodi:arg2="1.677532"
             sodipodi:arg1="0.89213384"
             sodipodi:r2="1.1152577"
             sodipodi:r1="7.435051"
             sodipodi:cy="609.71564"
             sodipodi:cx="957.74463"
             sodipodi:sides="4"
             id="path8934-9"
             style="fill:#b6ecff;fill-opacity:1;fill-rule:evenodd;stroke:none"
             sodipodi:type="star" />
        </g>
      </g>
      <g
         id="g8958">
        <path
           style="fill:#4641d1;fill-opacity:0.50196078;stroke:#885de4;stroke-width:2.5;stroke-miterlimit:20;stroke-opacity:1;stroke-dasharray:none"
           d="m 985.74886,321.64548 -5.24622,132.59088 c 105.68236,-49.96505 85.23786,96.72798 184.09986,65.67906 34.3381,-10.78434 70.93,-16.84461 50.5358,23.67821 22.4669,2.17005 41.9508,-43.57341 -1.5608,-60.81588 -40.2305,-15.94224 34.8904,-56.91395 -46.1645,-58.29732 -36.8471,-0.62887 -20.3932,-23.37982 -9.7649,-41.78857 17.006,-29.45529 -14.7548,-54.04448 -49.6342,-40.1703 -18.8128,7.48324 -32.2537,1.86556 -29.9576,-13.74588 2.4554,-16.6947 -53.0463,-43.33789 -92.30744,-7.1302 z"
           id="path8850"
           inkscape:connector-curvature="0"
           sodipodi:nodetypes="ccscsssssc" />
        <path
           sodipodi:nodetypes="ccsssssc"
           inkscape:connector-curvature="0"
           id="path8852"
           d="m 991.35723,330.64548 -1.36569,106.14204 c 109.55316,-21.26781 93.36446,92.62 168.01026,74.94308 43.2341,-10.23828 59.5361,5.38847 59.5361,-8.88684 0,-14.79019 -41.4132,-13.61362 -29.7949,-40.34353 21.5098,-49.48664 -71.895,-7.15319 -57.0256,-62.64665 11.0166,-41.11445 2.5766,-50.52384 -29.3042,-39.1142 -38.7608,13.87188 -50.0731,-52.83168 -110.05597,-30.0939 z"
           style="fill:#1558ce;fill-opacity:1;stroke:none" />
        <g
           id="g8936">
          <path
             transform="matrix(0.4236214,-0.09308912,0.09308912,0.4236214,640.75142,211.79921)"
             d="m 962.412,615.50318 -4.78618,-4.67863 -5.66873,3.55846 4.67863,-4.78618 -3.55846,-5.66873 4.78618,4.67863 5.66873,-3.55846 -4.67863,4.78618 z"
             inkscape:randomized="0"
             inkscape:rounded="0"
             inkscape:flatsided="false"
             sodipodi:arg2="1.677532"
             sodipodi:arg1="0.89213384"
             sodipodi:r2="1.1152577"
             sodipodi:r1="7.435051"
             sodipodi:cy="609.71564"
             sodipodi:cx="957.74463"
             sodipodi:sides="4"
             id="use8024-9"
             style="fill:#b6ecff;fill-opacity:1;fill-rule:evenodd;stroke:none"
             sodipodi:type="star" />
          <path
             transform="matrix(0.3738233,-0.3822116,0.3822116,0.3738233,504.78425,551.47865)"
             d="m 962.412,615.50318 -4.78618,-4.67863 -5.66873,3.55846 4.67863,-4.78618 -3.55846,-5.66873 4.78618,4.67863 5.66873,-3.55846 -4.67863,4.78618 z"
             inkscape:randomized="0"
             inkscape:rounded="0"
             inkscape:flatsided="false"
             sodipodi:arg2="1.677532"
             sodipodi:arg1="0.89213384"
             sodipodi:r2="1.1152577"
             sodipodi:r1="7.435051"
             sodipodi:cy="609.71564"
             sodipodi:cx="957.74463"
             sodipodi:sides="4"
             id="use8872"
             style="fill:#b6ecff;fill-opacity:1;fill-rule:evenodd;stroke:none"
             sodipodi:type="star" />
          <path
             transform="matrix(-0.28949062,-0.10672523,0.10672523,-0.28949062,1331.5464,715.93881)"
             d="m 962.412,615.50318 -4.78618,-4.67863 -5.66873,3.55846 4.67863,-4.78618 -3.55846,-5.66873 4.78618,4.67863 5.66873,-3.55846 -4.67863,4.78618 z"
             inkscape:randomized="0"
             inkscape:rounded="0"
             inkscape:flatsided="false"
             sodipodi:arg2="1.677532"
             sodipodi:arg1="0.89213384"
             sodipodi:r2="1.1152577"
             sodipodi:r1="7.435051"
             sodipodi:cy="609.71564"
             sodipodi:cx="957.74463"
             sodipodi:sides="4"
             id="use8874"
             style="fill:#b6ecff;fill-opacity:1;fill-rule:evenodd;stroke:none"
             sodipodi:type="star" />
          <path
             transform="matrix(-0.2705187,0.05385029,-0.05385029,-0.2705187,1407.1163,529.16281)"
             d="m 962.412,615.50318 -4.78618,-4.67863 -5.66873,3.55846 4.67863,-4.78618 -3.55846,-5.66873 4.78618,4.67863 5.66873,-3.55846 -4.67863,4.78618 z"
             inkscape:randomized="0"
             inkscape:rounded="0"
             inkscape:flatsided="false"
             sodipodi:arg2="1.677532"
             sodipodi:arg1="0.89213384"
             sodipodi:r2="1.1152577"
             sodipodi:r1="7.435051"
             sodipodi:cy="609.71564"
             sodipodi:cx="957.74463"
             sodipodi:sides="4"
             id="use8876"
             style="fill:#b6ecff;fill-opacity:1;fill-rule:evenodd;stroke:none"
             sodipodi:type="star" />
          <path
             transform="matrix(-0.05596194,0.18495834,-0.18495834,-0.05596194,1218.2453,293.22877)"
             d="m 962.412,615.50318 -4.78618,-4.67863 -5.66873,3.55846 4.67863,-4.78618 -3.55846,-5.66873 4.78618,4.67863 5.66873,-3.55846 -4.67863,4.78618 z"
             inkscape:randomized="0"
             inkscape:rounded="0"
             inkscape:flatsided="false"
             sodipodi:arg2="1.677532"
             sodipodi:arg1="0.89213384"
             sodipodi:r2="1.1152577"
             sodipodi:r1="7.435051"
             sodipodi:cy="609.71564"
             sodipodi:cx="957.74463"
             sodipodi:sides="4"
             id="use8878"
             style="fill:#b6ecff;fill-opacity:1;fill-rule:evenodd;stroke:none"
             sodipodi:type="star" />
          <path
             transform="matrix(0.34612919,-0.06158816,0.06158816,0.34612919,773.30163,298.63602)"
             d="m 962.412,615.50318 -4.78618,-4.67863 -5.66873,3.55846 4.67863,-4.78618 -3.55846,-5.66873 4.78618,4.67863 5.66873,-3.55846 -4.67863,4.78618 z"
             inkscape:randomized="0"
             inkscape:rounded="0"
             inkscape:flatsided="false"
             sodipodi:arg2="1.677532"
             sodipodi:arg1="0.89213384"
             sodipodi:r2="1.1152577"
             sodipodi:r1="7.435051"
             sodipodi:cy="609.71564"
             sodipodi:cx="957.74463"
             sodipodi:sides="4"
             id="use8880"
             style="fill:#b6ecff;fill-opacity:1;fill-rule:evenodd;stroke:none"
             sodipodi:type="star" />
          <path
             transform="matrix(0.28486594,-0.35348506,0.35348506,0.28486594,648.18483,641.51263)"
             d="m 962.412,615.50318 -4.78618,-4.67863 -5.66873,3.55846 4.67863,-4.78618 -3.55846,-5.66873 4.78618,4.67863 5.66873,-3.55846 -4.67863,4.78618 z"
             inkscape:randomized="0"
             inkscape:rounded="0"
             inkscape:flatsided="false"
             sodipodi:arg2="1.677532"
             sodipodi:arg1="0.89213384"
             sodipodi:r2="1.1152577"
             sodipodi:r1="7.435051"
             sodipodi:cy="609.71564"
             sodipodi:cx="957.74463"
             sodipodi:sides="4"
             id="use8882"
             style="fill:#b6ecff;fill-opacity:1;fill-rule:evenodd;stroke:none"
             sodipodi:type="star" />
          <path
             transform="matrix(-0.1520756,-0.59131585,0.59131585,-0.1520756,883.68598,1123.715)"
             d="m 962.412,615.50318 -4.78618,-4.67863 -5.66873,3.55846 4.67863,-4.78618 -3.55846,-5.66873 4.78618,4.67863 5.66873,-3.55846 -4.67863,4.78618 z"
             inkscape:randomized="0"
             inkscape:rounded="0"
             inkscape:flatsided="false"
             sodipodi:arg2="1.677532"
             sodipodi:arg1="0.89213384"
             sodipodi:r2="1.1152577"
             sodipodi:r1="7.435051"
             sodipodi:cy="609.71564"
             sodipodi:cx="957.74463"
             sodipodi:sides="4"
             id="use8884"
             style="fill:#b6ecff;fill-opacity:1;fill-rule:evenodd;stroke:none"
             sodipodi:type="star" />
          <path
             transform="matrix(-0.24478849,-0.17391354,0.17391354,-0.24478849,1312.9949,807.49198)"
             d="m 962.412,615.50318 -4.78618,-4.67863 -5.66873,3.55846 4.67863,-4.78618 -3.55846,-5.66873 4.78618,4.67863 5.66873,-3.55846 -4.67863,4.78618 z"
             inkscape:randomized="0"
             inkscape:rounded="0"
             inkscape:flatsided="false"
             sodipodi:arg2="1.677532"
             sodipodi:arg1="0.89213384"
             sodipodi:r2="1.1152577"
             sodipodi:r1="7.435051"
             sodipodi:cy="609.71564"
             sodipodi:cx="957.74463"
             sodipodi:sides="4"
             id="use8886"
             style="fill:#b6ecff;fill-opacity:1;fill-rule:evenodd;stroke:none"
             sodipodi:type="star" />
          <path
             transform="matrix(-0.07407706,-0.28803401,0.28803401,-0.07407706,1036.1303,823.07173)"
             d="m 962.412,615.50318 -4.78618,-4.67863 -5.66873,3.55846 4.67863,-4.78618 -3.55846,-5.66873 4.78618,4.67863 5.66873,-3.55846 -4.67863,4.78618 z"
             inkscape:randomized="0"
             inkscape:rounded="0"
             inkscape:flatsided="false"
             sodipodi:arg2="1.677532"
             sodipodi:arg1="0.89213384"
             sodipodi:r2="1.1152577"
             sodipodi:r1="7.435051"
             sodipodi:cy="609.71564"
             sodipodi:cx="957.74463"
             sodipodi:sides="4"
             id="use8888"
             style="fill:#b6ecff;fill-opacity:1;fill-rule:evenodd;stroke:none"
             sodipodi:type="star" />
          <path
             transform="matrix(-0.34177432,-0.0868994,0.0868994,-0.34177432,1442.7678,789.24708)"
             d="m 962.412,615.50318 -4.78618,-4.67863 -5.66873,3.55846 4.67863,-4.78618 -3.55846,-5.66873 4.78618,4.67863 5.66873,-3.55846 -4.67863,4.78618 z"
             inkscape:randomized="0"
             inkscape:rounded="0"
             inkscape:flatsided="false"
             sodipodi:arg2="1.677532"
             sodipodi:arg1="0.89213384"
             sodipodi:r2="1.1152577"
             sodipodi:r1="7.435051"
             sodipodi:cy="609.71564"
             sodipodi:cx="957.74463"
             sodipodi:sides="4"
             id="use8890"
             style="fill:#b6ecff;fill-opacity:1;fill-rule:evenodd;stroke:none"
             sodipodi:type="star" />
          <path
             transform="matrix(0.1556125,-0.22297631,0.22297631,0.1556125,761.01703,549.24785)"
             d="m 962.412,615.50318 -4.78618,-4.67863 -5.66873,3.55846 4.67863,-4.78618 -3.55846,-5.66873 4.78618,4.67863 5.66873,-3.55846 -4.67863,4.78618 z"
             inkscape:randomized="0"
             inkscape:rounded="0"
             inkscape:flatsided="false"
             sodipodi:arg2="1.677532"
             sodipodi:arg1="0.89213384"
             sodipodi:r2="1.1152577"
             sodipodi:r1="7.435051"
             sodipodi:cy="609.71564"
             sodipodi:cx="957.74463"
             sodipodi:sides="4"
             id="use8892"
             style="fill:#b6ecff;fill-opacity:1;fill-rule:evenodd;stroke:none"
             sodipodi:type="star" />
          <path
             transform="matrix(-0.03091243,-0.26468679,0.26468679,-0.03091243,1027.76,757.57649)"
             d="m 962.412,615.50318 -4.78618,-4.67863 -5.66873,3.55846 4.67863,-4.78618 -3.55846,-5.66873 4.78618,4.67863 5.66873,-3.55846 -4.67863,4.78618 z"
             inkscape:randomized="0"
             inkscape:rounded="0"
             inkscape:flatsided="false"
             sodipodi:arg2="1.677532"
             sodipodi:arg1="0.89213384"
             sodipodi:r2="1.1152577"
             sodipodi:r1="7.435051"
             sodipodi:cy="609.71564"
             sodipodi:cx="957.74463"
             sodipodi:sides="4"
             id="use8894"
             style="fill:#b6ecff;fill-opacity:1;fill-rule:evenodd;stroke:none"
             sodipodi:type="star" />
          <path
             sodipodi:type="star"
             style="fill:#b6ecff;fill-opacity:1;fill-rule:evenodd;stroke:none"
             id="path8922"
             sodipodi:sides="4"
             sodipodi:cx="957.74463"
             sodipodi:cy="609.71564"
             sodipodi:r1="7.435051"
             sodipodi:r2="1.1152577"
             sodipodi:arg1="0.89213384"
             sodipodi:arg2="1.677532"
             inkscape:flatsided="false"
             inkscape:rounded="0"
             inkscape:randomized="0"
             d="m 962.412,615.50318 -4.78618,-4.67863 -5.66873,3.55846 4.67863,-4.78618 -3.55846,-5.66873 4.78618,4.67863 5.66873,-3.55846 -4.67863,4.78618 z"
             transform="matrix(-0.04495718,-0.23969989,0.23969989,-0.04495718,975.33712,684.81662)" />
          <path
             transform="matrix(-0.17597233,-0.27493143,0.27493143,-0.17597233,1165.4946,833.052)"
             d="m 962.412,615.50318 -4.78618,-4.67863 -5.66873,3.55846 4.67863,-4.78618 -3.55846,-5.66873 4.78618,4.67863 5.66873,-3.55846 -4.67863,4.78618 z"
             inkscape:randomized="0"
             inkscape:rounded="0"
             inkscape:flatsided="false"
             sodipodi:arg2="1.677532"
             sodipodi:arg1="0.89213384"
             sodipodi:r2="1.1152577"
             sodipodi:r1="7.435051"
             sodipodi:cy="609.71564"
             sodipodi:cx="957.74463"
             sodipodi:sides="4"
             id="path8924"
             style="fill:#b6ecff;fill-opacity:1;fill-rule:evenodd;stroke:none"
             sodipodi:type="star" />
          <path
             sodipodi:type="star"
             style="fill:#b6ecff;fill-opacity:1;fill-rule:evenodd;stroke:none"
             id="path8926"
             sodipodi:sides="4"
             sodipodi:cx="957.74463"
             sodipodi:cy="609.71564"
             sodipodi:r1="7.435051"
             sodipodi:r2="1.1152577"
             sodipodi:arg1="0.89213384"
             sodipodi:arg2="1.677532"
             inkscape:flatsided="false"
             inkscape:rounded="0"
             inkscape:randomized="0"
             d="m 962.412,615.50318 -4.78618,-4.67863 -5.66873,3.55846 4.67863,-4.78618 -3.55846,-5.66873 4.78618,4.67863 5.66873,-3.55846 -4.67863,4.78618 z"
             transform="matrix(-0.16789247,-0.15578287,0.15578287,-0.16789247,1156.561,693.78187)" />
          <path
             transform="matrix(-0.20299562,0.10606113,-0.10606113,-0.20299562,1378.7638,487.14726)"
             d="m 962.412,615.50318 -4.78618,-4.67863 -5.66873,3.55846 4.67863,-4.78618 -3.55846,-5.66873 4.78618,4.67863 5.66873,-3.55846 -4.67863,4.78618 z"
             inkscape:randomized="0"
             inkscape:rounded="0"
             inkscape:flatsided="false"
             sodipodi:arg2="1.677532"
             sodipodi:arg1="0.89213384"
             sodipodi:r2="1.1152577"
             sodipodi:r1="7.435051"
             sodipodi:cy="609.71564"
             sodipodi:cx="957.74463"
             sodipodi:sides="4"
             id="path8928"
             style="fill:#b6ecff;fill-opacity:1;fill-rule:evenodd;stroke:none"
             sodipodi:type="star" />
          <path
             sodipodi:type="star"
             style="fill:#b6ecff;fill-opacity:1;fill-rule:evenodd;stroke:none"
             id="path8930"
             sodipodi:sides="4"
             sodipodi:cx="957.74463"
             sodipodi:cy="609.71564"
             sodipodi:r1="7.435051"
             sodipodi:r2="1.1152577"
             sodipodi:arg1="0.89213384"
             sodipodi:arg2="1.677532"
             inkscape:flatsided="false"
             inkscape:rounded="0"
             inkscape:randomized="0"
             d="m 962.412,615.50318 -4.78618,-4.67863 -5.66873,3.55846 4.67863,-4.78618 -3.55846,-5.66873 4.78618,4.67863 5.66873,-3.55846 -4.67863,4.78618 z"
             transform="matrix(-0.15735632,-0.38652773,0.38652773,-0.15735632,1082.6633,940.61069)" />
          <path
             sodipodi:type="star"
             style="fill:#b6ecff;fill-opacity:1;fill-rule:evenodd;stroke:none"
             id="path8932"
             sodipodi:sides="4"
             sodipodi:cx="957.74463"
             sodipodi:cy="609.71564"
             sodipodi:r1="7.435051"
             sodipodi:r2="1.1152577"
             sodipodi:arg1="0.89213384"
             sodipodi:arg2="1.677532"
             inkscape:flatsided="false"
             inkscape:rounded="0"
             inkscape:randomized="0"
             d="m 962.412,615.50318 -4.78618,-4.67863 -5.66873,3.55846 4.67863,-4.78618 -3.55846,-5.66873 4.78618,4.67863 5.66873,-3.55846 -4.67863,4.78618 z"
             transform="matrix(0.09280445,-0.17197261,0.17197261,0.09280445,919.94952,493.76201)" />
          <path
             sodipodi:type="star"
             style="fill:#b6ecff;fill-opacity:1;fill-rule:evenodd;stroke:none"
             id="path8934"
             sodipodi:sides="4"
             sodipodi:cx="957.74463"
             sodipodi:cy="609.71564"
             sodipodi:r1="7.435051"
             sodipodi:r2="1.1152577"
             sodipodi:arg1="0.89213384"
             sodipodi:arg2="1.677532"
             inkscape:flatsided="false"
             inkscape:rounded="0"
             inkscape:randomized="0"
             d="m 962.412,615.50318 -4.78618,-4.67863 -5.66873,3.55846 4.67863,-4.78618 -3.55846,-5.66873 4.78618,4.67863 5.66873,-3.55846 -4.67863,4.78618 z"
             transform="matrix(-0.38967736,-0.12130859,0.12130859,-0.38967736,1418.3403,843.38872)" />
        </g>
      </g>
      <path
         sodipodi:nodetypes="cccccccc"
         inkscape:connector-curvature="0"
         id="path4054"
         d="m 1064.2725,410.70806 -11.2983,10.68346 -18.4462,-9.14627 5.5493,-5.98259 8.9003,4.66135 -7.6092,-5.9804 3.4782,-3.61384 z"
         style="fill:#ffffff;fill-opacity:1;stroke:#b0d8e7;stroke-width:1.29999995;stroke-linecap:butt;stroke-linejoin:miter;stroke-miterlimit:20;stroke-opacity:1;stroke-dasharray:none;stroke-dashoffset:0" />
      <path
         sodipodi:nodetypes="csssscc"
         inkscape:connector-curvature="0"
         id="path6412"
         d="m 924.5,450.25 c -4.06066,18.27297 -16.39177,20.70568 -17,23.48744 -3.9725,18.16846 0.0598,69.79568 17.64645,90.31434 8.31197,9.69772 35.161,7.47998 36.82322,0 2.16967,-9.76352 -37.33534,-52.70715 -36.42678,-86.25368 0.19424,-7.172 19.71231,-4.77729 24.42462,-18.5429 z"
         style="fill:#284282;fill-opacity:1;stroke:#071b42;stroke-width:2.5;stroke-linecap:butt;stroke-linejoin:miter;stroke-miterlimit:4;stroke-opacity:1;stroke-dasharray:none;stroke-dashoffset:0" />
      <g
         id="g7967">
        <path
           sodipodi:nodetypes="csscccc"
           inkscape:connector-curvature="0"
           id="path6414"
           d="m 920.64101,557.66363 c 1.39042,2.35829 2.89081,4.50433 4.50544,6.38815 8.31197,9.69772 35.161,7.47998 36.82322,0 1.02126,-4.59569 -7.19085,-16.54271 -16.07555,-31.40079 -2.47884,1.95684 -3.32078,6.24443 0.46475,16.32959 -2.23744,-1.85876 -4.80698,-2.8033 -7.51929,-2.63021 4.3802,7.04442 0.56219,12.66511 -18.19857,11.31326 z"
           style="fill:#a5a8d9;fill-opacity:1;stroke:#8182d3;stroke-width:2.5;stroke-linecap:butt;stroke-linejoin:miter;stroke-miterlimit:4;stroke-opacity:1;stroke-dasharray:none;stroke-dashoffset:0" />
        <use
           height="1080"
           width="1920"
           transform="matrix(0.38326481,0.11023341,-0.11023341,0.38326481,645.78452,226.05597)"
           id="use7949"
           xlink:href="#path7925"
           y="0"
           x="0" />
        <use
           x="0"
           y="0"
           xlink:href="#path7925"
           id="use7951"
           transform="matrix(0.55877603,-0.74747844,0.74747844,0.55877603,-45.75311,918.29987)"
           width="1920"
           height="1080" />
        <use
           height="1080"
           width="1920"
           transform="matrix(-0.38727276,-0.38509191,0.38509191,-0.38727276,1070.2809,1166.0268)"
           id="use7953"
           xlink:href="#path7925"
           y="0"
           x="0" />
      </g>
      <path
         sodipodi:nodetypes="csscc"
         inkscape:connector-curvature="0"
         id="path7188"
         d="m 969,478.5 c -8.75,36.5 -8.75001,95.37501 7.5,116.875 7.7379,10.23782 37.2065,9.60162 42.75,0 3.6094,-6.25163 -40.40685,-37.30341 -33.7803,-123.375 z"
         style="fill:#284282;fill-opacity:1;stroke:#071b42;stroke-width:2.5;stroke-linecap:butt;stroke-linejoin:miter;stroke-miterlimit:4;stroke-opacity:1;stroke-dasharray:none;stroke-dashoffset:0" />
      <g
         id="g7955">
        <path
           sodipodi:nodetypes="csscccc"
           inkscape:connector-curvature="0"
           id="path7190"
           d="m 971.54443,586.60584 c 1.44617,3.35354 3.09427,6.30653 4.95557,8.76916 7.7379,10.23782 37.2065,9.60161 42.75,0 1.7121,-2.96546 -7.2919,-11.51113 -16.5236,-28.86243 -2.8986,1.38757 -3.7264,6.86243 -1.8514,12.61243 -3.375,-2.875 -7.375,-4.5 -12.125,-5.125 5.75,8.625 9.125,20.5 -17.20557,12.60584 z"
           style="fill:#a5a8d9;fill-opacity:1;stroke:#8182d3;stroke-width:2.5;stroke-linecap:butt;stroke-linejoin:miter;stroke-miterlimit:4;stroke-opacity:1;stroke-dasharray:none;stroke-dashoffset:0" />
        <use
           height="1080"
           width="1920"
           transform="matrix(-0.64392762,-0.10614458,0.10614458,-0.64392762,1557.7809,1077.4912)"
           id="use7937"
           xlink:href="#path7925"
           y="0"
           x="0" />
        <use
           x="0"
           y="0"
           xlink:href="#path7925"
           id="use7939"
           transform="matrix(-0.52050184,0.16533312,-0.16533312,-0.52050184,1601.7637,757.22692)"
           width="1920"
           height="1080" />
        <use
           height="1080"
           width="1920"
           transform="matrix(0.43183207,-0.58760232,0.58760232,0.43183207,198.8182,891.46604)"
           id="use7941"
           xlink:href="#path7925"
           y="0"
           x="0" />
      </g>
      <path
         sodipodi:nodetypes="cssscscccccccc"
         inkscape:connector-curvature="0"
         d="m 948.48421,438.25483 c 16.6864,-13.48244 -15.12933,-18.19573 37.33453,-51.93278 41.45856,-26.66003 35.19886,-38.1017 14.56146,-79.99105 -24.73529,-50.20715 20.8908,-51.62882 13.3183,-64.93507 -6.2631,-11.00533 -39.28486,6.89615 -42.01928,39.43412 -8.32951,-16.14072 3.22228,-30.41238 -4.17009,-32.39316 -5.37157,-1.4393 -24.42803,13.38352 -22.36424,36.98948 -30.45978,-29.83039 -52.43923,-15.4511 -20.10023,16.99887 -28.52595,-12.08459 -25.44094,9.18149 1.14644,24.53359 -27.98768,-1.75726 -18.95525,13.8737 10.23675,27.44286 -19.86378,4.78478 -17.60642,15.44571 -2.37556,22.59061 -9.1003,1.45674 -10.73321,7.49581 -1.35747,15.40456 -14.81087,3.59035 -11.80547,15.34446 -0.11883,28.54038 z"
         style="fill:#284282;fill-opacity:1;stroke:#071b42;stroke-width:2.5;stroke-miterlimit:20;stroke-opacity:1;stroke-dasharray:none;display:inline"
         id="path8422-8" />
      <path
         sodipodi:nodetypes="csscsssssssscscccssc"
         inkscape:connector-curvature="0"
         d="m 1005.2487,407.75053 c 4.5726,48.04298 -13.04534,79.32269 -45.92548,79.32269 -13.15457,0 -26.98805,-8.34873 -35.60966,-20.04627 -4.78269,-6.48901 -9.05738,-9.55725 -12.08303,-12.38795 -6.41601,8.72734 -20.03773,12.46144 -21.77095,15.96153 -13.70287,27.6718 17.18081,85.952 13.54268,99.52971 -2.39777,8.94862 -30.17426,12.27932 -39.94532,0 -6.23348,-7.83362 -5.95512,-76.49123 8.66757,-103.23157 0.77028,-1.4086 18.49134,-3.16166 14.59357,-32.7166 -1.88886,-14.32237 11.06957,-25.53487 26.25414,-25.53487 23.19825,0 29.8216,16.23373 33.82646,13.02012 16.89769,-13.55917 18.34595,-58.12562 46.06872,-86.37644 31.2906,-31.88661 98.1541,15.41598 74.2018,60.0405 3.6618,3.46685 6.5484,3.75796 6.5484,6.20949 0,3.69536 -3.4926,9.08168 -8.2957,13.57438 -7.0958,-5.45628 -15.8096,-7.87799 -25.2132,-5.33265 6.0475,2.57192 11.4727,6.29961 16.3324,11.43466 -2.6001,1.23891 -5.2032,1.9684 -7.6359,1.9684 -4.7621,0 -11.6938,-9.05855 -24.7485,-9.05855 -6.1677,0 -13.4445,-2.48796 -18.8629,-6.40824"
         style="fill:#314b8f;fill-opacity:1;stroke:none"
         id="path8833" />
      <g
         id="g8345">
        <path
           style="fill:#020016;fill-opacity:1;stroke:none"
           d="m 885.14852,454.65346 c 6.37529,3.82838 11.9624,-4.79664 9.56741,-14.46677 3.30032,1.32013 6.33663,0.79208 8.58085,-1.58416 8.63554,5.82186 20.00195,-5.93395 11.88119,-12.67327 5.14851,-1.32012 13.79892,-7.18339 15.25107,-13.12398 -9.52551,-6.42974 -25.51696,-5.33471 -34.25864,1.09697 -17.96762,13.21966 -3.99741,24.91089 -11.02188,40.75121 z"
           id="path8293"
           inkscape:connector-curvature="0"
           sodipodi:nodetypes="cccccsc" />
        <path
           sodipodi:type="arc"
           style="fill:#020016;fill-opacity:1;stroke:none"
           id="path8295"
           sodipodi:cx="889.92773"
           sodipodi:cy="464.46704"
           sodipodi:rx="2.5670543"
           sodipodi:ry="3.4724128"
           d="m 892.49479,464.46704 a 2.5670543,3.4724128 0 1 1 -5.13411,0 2.5670543,3.4724128 0 1 1 5.13411,0 z"
           transform="matrix(0.81961245,0.57291833,-0.57291833,0.81961245,425.04667,-427.28537)" />
        <path
           transform="matrix(0.93815273,0.34622166,-0.34622166,0.93815273,206.88682,-274.43884)"
           d="m 891.40263,464.46704 a 1.474894,2.1487005 0 1 1 -2.94979,0 1.474894,2.1487005 0 1 1 2.94979,0 z"
           sodipodi:ry="2.1487005"
           sodipodi:rx="1.474894"
           sodipodi:cy="464.46704"
           sodipodi:cx="889.92773"
           id="path8297"
           style="fill:#020016;fill-opacity:1;stroke:none"
           sodipodi:type="arc" />
        <path
           transform="matrix(0.97976931,0.20013017,-0.20013017,0.97976931,122.96832,-179.93007)"
           d="m 892.75048,464.46704 a 2.8227494,3.1515386 0 1 1 -5.6455,0 2.8227494,3.1515386 0 1 1 5.6455,0 z"
           sodipodi:ry="3.1515386"
           sodipodi:rx="2.8227494"
           sodipodi:cy="464.46704"
           sodipodi:cx="889.92773"
           id="path8299"
           style="fill:#020016;fill-opacity:1;stroke:none"
           sodipodi:type="arc" />
        <path
           sodipodi:type="arc"
           style="fill:#020016;fill-opacity:1;stroke:none"
           id="path8301"
           sodipodi:cx="889.92773"
           sodipodi:cy="464.46704"
           sodipodi:rx="1.890877"
           sodipodi:ry="1.6145865"
           d="m 891.81861,464.46704 a 1.890877,1.6145865 0 1 1 -3.78175,0 1.890877,1.6145865 0 1 1 3.78175,0 z"
           transform="matrix(0.98112614,-0.19336877,0.19336877,0.98112614,-58.119322,169.98271)" />
        <path
           inkscape:connector-curvature="0"
           style="fill:#ffffff;stroke:none;display:inline"
           d="m 908.569,416.50702 c -1.89609,-0.87133 -4.24088,-1.08349 -6.73022,-0.43642 -5.68996,1.47911 -9.9428,6.86349 -9.49589,12.02767 0.44694,5.16418 5.41724,8.16073 11.10717,6.68162 4.17374,-1.08497 7.56266,-4.27385 8.90144,-7.93345 -0.52706,0.58073 -1.15575,1.08363 -1.8706,1.49215 -3.0375,1.73584 -6.48379,0.93165 -7.70156,-1.79394 -1.21779,-2.72558 0.26244,-6.32936 3.29991,-8.06517 1.43266,-0.81873 2.94953,-1.07503 4.2881,-0.82897 -0.53631,-0.45613 -1.13787,-0.84017 -1.79835,-1.14353 z"
           id="path4122-4-5" />
      </g>
      <g
         id="g3953">
        <path
           style="fill:#000000;stroke:#000000;stroke-width:0.1;stroke-linecap:butt;stroke-linejoin:miter;stroke-miterlimit:4;stroke-opacity:1;stroke-dasharray:none;stroke-dashoffset:0"
           d="m 1005.7441,361.40273 -0.3075,1.95991 c -4.8037,-0.0384 -11.49041,-1.6909 -15.52554,-5.26487 4.61158,2.03678 10.91404,3.30496 15.83304,3.30496 z"
           id="path3894"
           inkscape:connector-curvature="0"
           sodipodi:nodetypes="cccc" />
        <path
           sodipodi:nodetypes="cccc"
           inkscape:connector-curvature="0"
           id="path3896"
           d="m 1006.6168,364.55076 0.3382,1.95485 c -3.9466,1.69848 -10.27191,2.20408 -15.47164,0.73017 6.059,-0.16698 11.39734,-1.18216 15.13344,-2.68502 z"
           style="fill:#000000;stroke:#000000;stroke-width:0.1;stroke-linecap:butt;stroke-linejoin:miter;stroke-miterlimit:4;stroke-opacity:1;stroke-dasharray:none;stroke-dashoffset:0" />
        <path
           style="fill:#000000;stroke:#000000;stroke-width:0.1;stroke-linecap:butt;stroke-linejoin:miter;stroke-miterlimit:4;stroke-opacity:1;stroke-dasharray:none;stroke-dashoffset:0"
           d="m 1007.2112,368.25328 0.559,1.90351 c -3.6502,2.17599 -9.6844,3.43819 -15.24889,2.45171 5.92355,-0.70328 10.49629,-2.05172 14.68989,-4.35522 z"
           id="path3898"
           inkscape:connector-curvature="0"
           sodipodi:nodetypes="cccc" />
        <path
           style="fill:#ffffff;stroke:none"
           d="m 1043.0912,399.11547 c 0.9992,-5.99503 1.2111,-14.95029 0.9037,-20.71475 -9.1304,-6.08695 -24.2208,-14.43092 -38.981,-17.69631 -3.5882,18.97296 6.1051,34.88005 38.0773,38.41106 z"
           id="path3890"
           inkscape:connector-curvature="0"
           sodipodi:nodetypes="cccc" />
        <g
           id="g3938"
           clip-path="url(#clipPath3949)">
          <path
             sodipodi:type="arc"
             style="fill:url(#linearGradient3926);fill-opacity:1;stroke:none"
             id="path3888"
             sodipodi:cx="1037.0109"
             sodipodi:cy="395.54349"
             sodipodi:rx="11.917518"
             sodipodi:ry="14.886806"
             d="m 1048.9284,395.54349 a 11.917518,14.886806 0 1 1 -23.8351,0 11.917518,14.886806 0 1 1 23.8351,0 z"
             transform="matrix(0.99333873,-0.11523092,0.11523092,0.99333873,-40.084075,121.15227)" />
          <g
             clip-path="url(#clipPath3934)"
             id="g3928">
            <path
               style="fill:#9cfff3;fill-opacity:1;stroke:none"
               d="m 1023.9982,401.17749 4.6885,8.22396 3.6892,-8.5314 -2.2289,-2.38264 z"
               id="path3918"
               inkscape:connector-curvature="0"
               sodipodi:nodetypes="ccccc" />
            <path
               style="fill:#66f4d4;fill-opacity:1;stroke:none"
               d="m 1022.0767,398.94856 8.6852,-1.99834 0.538,1.92148 -6.6099,5.99504 z"
               id="path3916"
               inkscape:connector-curvature="0"
               sodipodi:nodetypes="ccccc" />
          </g>
          <path
             transform="matrix(0.98076817,-0.19517631,0.19517631,0.98076817,-57.148408,209.89827)"
             d="m 1046.0718,395.54349 a 9.0609226,10.963628 0 1 1 -18.1219,0 9.0609226,10.963628 0 1 1 18.1219,0 z"
             sodipodi:ry="10.963628"
             sodipodi:rx="9.0609226"
             sodipodi:cy="395.54349"
             sodipodi:cx="1037.0109"
             id="path3886"
             style="fill:#000000;stroke:none"
             sodipodi:type="arc" />
          <path
             transform="matrix(0.93699856,-0.34933323,0.34933323,0.93699856,-78.036339,389.22941)"
             d="m 1051.7219,391.80063 a 4.4352603,6.4814315 0 1 1 -8.8705,0 4.4352603,6.4814315 0 1 1 8.8705,0 z"
             sodipodi:ry="6.4814315"
             sodipodi:rx="4.4352603"
             sodipodi:cy="391.80063"
             sodipodi:cx="1047.2866"
             id="path3114"
             style="fill:#ffffff;stroke:none"
             sodipodi:type="arc" />
          <path
             sodipodi:type="arc"
             style="fill:#ffffff;stroke:none"
             id="path3884"
             sodipodi:cx="1047.2866"
             sodipodi:cy="391.80063"
             sodipodi:rx="1.8528918"
             sodipodi:ry="2.7211018"
             d="m 1049.1395,391.80063 a 1.8528918,2.7211018 0 1 1 -3.7058,0 1.8528918,2.7211018 0 1 1 3.7058,0 z"
             transform="matrix(0.97023614,-0.24216079,0.24216079,0.97023614,-76.235538,270.05172)" />
        </g>
        <path
           style="fill:#000000;stroke:#000000;stroke-width:0.1;stroke-linecap:butt;stroke-linejoin:miter;stroke-miterlimit:4;stroke-opacity:1;stroke-dasharray:none;stroke-dashoffset:0"
           d="m 990.9014,354.55203 c 3.95332,3.81525 8.31082,5.69741 13.4652,6.88643 11.7689,2.71483 29.7045,11.88024 39.5464,18.72072 4.7109,3.27428 9.4565,0.49298 6.6848,-7.71353 -0.3804,6.30435 -2.0276,6.85217 -5.7625,4.34783 -10.4612,-7.01443 -28.4422,-14.88678 -39.7903,-17.33696 -5.0017,-1.07993 -9.53881,-2.58072 -14.1436,-4.90449 z"
           id="path3892"
           inkscape:connector-curvature="0"
           sodipodi:nodetypes="csscssc" />
      </g>
      <path
         sodipodi:nodetypes="cssc"
         inkscape:original-d="m 1005.125,406.5 c 5,48.75 -12.63721,80.57322 -45.80178,80.57322 -13.15457,0 -26.98805,-8.34873 -35.60966,-20.04627 -9.7289,-13.19987 -17.35571,-12.24484 -17.08596,-24.051"
         inkscape:path-effect="#path-effect6370"
         inkscape:connector-curvature="0"
         id="path6356"
         d="m 1006.5962,408.7415 c -0.901,-0.71653 -1.8061,-1.42094 -2.7147,-2.11396 1.1194,10.94759 1.2437,22.01622 -0.3762,32.8439 -1.3131,8.74422 -3.74883,17.36552 -8.05805,24.982 0,10e-6 0,10e-6 0,10e-6 -3.6251,6.40627 -8.66244,12.07309 -14.9164,15.81393 -6.30616,3.79816 -13.78093,5.54877 -21.20763,5.55584 -6.57272,0.0144 -13.09095,-2.1584 -18.88217,-5.47052 0,0 0,0 0,0 -6.13624,-3.52307 -11.51859,-8.3664 -15.72127,-14.06738 -2.46164,-3.32079 -5.36907,-6.17673 -8.32016,-8.91733 -1.43745,-1.33491 -2.847,-2.56382 -4.19223,-3.73053 0,0 0,0 0,0 -1.4988,-1.31695 -2.80639,-2.62641 -3.65893,-4.1211 -1.18734,-2.01921 -1.64132,-4.35955 -1.92086,-6.54041 -0.40674,2.41154 -0.45999,4.80267 0.43298,7.23462 0.70608,1.85303 1.96647,3.55644 3.56228,5.12234 1.20977,1.20642 2.56518,2.47056 4.07454,3.8697 2.92048,2.70724 5.7245,5.44607 8.00994,8.56597 4.40533,5.97811 10.0435,11.04967 16.48867,14.75204 10e-6,10e-6 10e-6,10e-6 10e-6,10e-6 6.07864,3.50469 13.01188,5.78819 20.1272,5.80259 7.82236,0.007 15.72602,-1.86237 22.49429,-5.91236 6.68186,-4.02411 12.01603,-9.99582 15.80688,-16.72858 1e-5,0 1e-5,0 1e-5,0 4.4898,-7.973 7.024,-16.88089 8.3535,-25.84178 1.5345,-10.30374 1.5404,-20.76679 0.6183,-31.099 z"
         style="fill:#071b42;fill-opacity:1;fill-rule:evenodd;stroke:none" />
      <path
         sodipodi:nodetypes="cssssssssc"
         inkscape:connector-curvature="0"
         id="path4077"
         d="m 1067.0271,395.42392 c 23.9944,-44.71706 -42.8691,-92.01965 -74.1597,-60.13304 -27.72277,28.25082 -29.17103,72.81727 -46.06872,86.37644 -4.00486,3.21361 -10.62821,-13.02012 -33.82646,-13.02012 -15.18457,0 -28.143,11.2125 -26.25414,25.53487 3.89777,29.55494 -13.82329,31.308 -14.59357,32.7166 -14.62269,26.74034 -14.90105,95.39795 -8.66757,103.23157 9.77106,12.27932 37.54755,8.94862 39.94532,0 3.63813,-13.57771 -27.24555,-71.85791 -13.54268,-99.52971 1.73322,-3.50009 15.35494,-7.23419 21.82359,-15.94707"
         style="fill:none;stroke:#071b42;stroke-width:2.5;stroke-linecap:butt;stroke-linejoin:miter;stroke-miterlimit:20;stroke-opacity:1;stroke-dasharray:none;stroke-dashoffset:0" />
      <g
         id="g6341">
        <path
           style="fill:#000000;stroke:none"
           d="m 1070.1177,362.44129 0.3978,1.08276 c 1.7015,-0.88388 3.0715,-2.23181 3.7565,-4.17635 -1.1654,1.60536 -2.4932,2.437 -4.1543,3.09359 z"
           id="path6329"
           inkscape:connector-curvature="0"
           sodipodi:nodetypes="cccc" />
        <path
           sodipodi:nodetypes="cccc"
           inkscape:connector-curvature="0"
           id="path6331"
           d="m 1070.6446,364.37604 0.2227,1.03176 c 1.7562,-0.55263 3.2956,-1.47063 4.4648,-3.23499 -1.588,1.18075 -3.1275,1.88278 -4.6875,2.20323 z"
           style="fill:#000000;stroke:none" />
        <path
           style="fill:#000000;stroke:none"
           d="m 1070.9461,367.19771 c 1.804,-0.2347 3.4795,-0.8004 4.9657,-2.39641 -1.7053,0.88385 -3.3649,1.23632 -4.9266,1.35679 z"
           id="path6333"
           inkscape:connector-curvature="0"
           sodipodi:nodetypes="cccc" />
        <path
           clip-path="none"
           sodipodi:nodetypes="ccccc"
           inkscape:connector-curvature="0"
           id="path4153"
           d="m 1067.3469,395.21699 c -1.7808,-1.69772 -3.7539,-3.9219 -5.6557,-7.83691 -0.7697,-2.81971 -1.2164,-6.97418 -1.1903,-10.30479 3.0911,-5.29358 6.819,-10.30091 9.8741,-15.02167 4.3935,12.02081 1.9574,25.82367 -3.0281,33.16337 z"
           style="fill:#ffffff;stroke:none" />
        <g
           id="g6316"
           clip-path="url(#clipPath6337)">
          <path
             transform="matrix(0.99836246,0.05720507,-0.05720507,0.99836246,21.029174,-57.348879)"
             d="m 1074.7968,387.34375 a 4.8905134,13.135427 0 1 1 -9.7811,0 4.8905134,13.135427 0 1 1 9.7811,0 z"
             sodipodi:ry="13.135427"
             sodipodi:rx="4.8905134"
             sodipodi:cy="387.34375"
             sodipodi:cx="1069.9062"
             id="path6182"
             style="fill:url(#linearGradient6325);fill-opacity:1;stroke:none"
             sodipodi:type="arc" />
          <g
             transform="translate(-0.3960396,6.0726072)"
             clip-path="url(#clipPath6312)"
             id="g6306">
            <path
               sodipodi:nodetypes="ccccc"
               inkscape:connector-curvature="0"
               id="path6237"
               d="m 1066.9375,388.5 0,2.25 -5.0625,4.5625 -0.5312,-5.59375 z"
               style="fill:#9cfff3;fill-opacity:1;stroke:none" />
            <path
               style="fill:#66f4d4;fill-opacity:1;stroke:none"
               d="m 1066.4375,387.875 0,1.5625 -6.0625,3.0625 -0.1562,-3.84375 z"
               id="path6235"
               inkscape:connector-curvature="0"
               sodipodi:nodetypes="ccccc" />
          </g>
          <path
             sodipodi:type="arc"
             style="fill:#000000;stroke:#000000;stroke-width:0.1;stroke-linecap:butt;stroke-linejoin:miter;stroke-miterlimit:4;stroke-opacity:1;stroke-dasharray:none;stroke-dashoffset:0"
             id="path6233"
             sodipodi:cx="1069.9062"
             sodipodi:cy="387.34375"
             sodipodi:rx="3.2952754"
             sodipodi:ry="10.45141"
             d="m 1073.2015,387.34375 a 3.2952754,10.45141 0 1 1 -6.5905,0 3.2952754,10.45141 0 1 1 6.5905,0 z"
             transform="matrix(0.99864908,0.05196195,-0.05196195,0.99864908,19.264854,-51.119855)" />
          <path
             transform="matrix(0.99419293,-0.1076123,0.1076123,0.99419293,-33.846739,115.90907)"
             d="m 1069.1374,386.4375 a 1.9498668,4.9547849 0 1 1 -3.8998,0 1.9498668,4.9547849 0 1 1 3.8998,0 z"
             sodipodi:ry="4.9547849"
             sodipodi:rx="1.9498668"
             sodipodi:cy="386.4375"
             sodipodi:cx="1067.1875"
             id="path4163"
             style="fill:#ffffff;stroke:none"
             sodipodi:type="arc" />
          <path
             sodipodi:type="arc"
             style="fill:#ffffff;stroke:none"
             id="path6180"
             sodipodi:cx="1067.1875"
             sodipodi:cy="386.4375"
             sodipodi:rx="0.97109073"
             sodipodi:ry="1.676368"
             d="m 1068.1586,386.4375 a 0.97109073,1.676368 0 1 1 -1.9422,0 0.97109073,1.676368 0 1 1 1.9422,0 z"
             transform="matrix(0.98415125,-0.17733104,0.17733104,0.98415125,-51.947326,200.00502)" />
        </g>
        <path
           style="fill:#000000;stroke:none"
           d="m 1060.366,375.65394 c -1.66,2.75443 -2.7812,0.59414 -0.9736,-3.72801 -4.6485,5.52036 -1.0308,10.86825 1.2754,6.89353 3.3883,-5.83972 6.9017,-11.75498 9.8918,-16.22349 1.4137,-2.11275 2.1435,-3.62392 2.5191,-5.61266 -1.127,1.94455 -1.916,3.20842 -3.0494,4.64039 -3.2811,4.14538 -6.9202,9.47852 -9.6633,14.03024 z"
           id="path6327"
           inkscape:connector-curvature="0"
           sodipodi:nodetypes="scsscss" />
      </g>
      <path
         sodipodi:nodetypes="csscc"
         inkscape:connector-curvature="0"
         id="path7923"
         d="m 1017.1495,332.4191 c -1.0561,-43.0363 12.9933,-0.77165 14.1755,-33.23169 0.6671,-18.31652 7.7949,-19.54262 11.8486,-2.77777 7.0632,29.21104 4.3425,-15.86556 14.3755,25.19054 z"
         style="fill:#020016;fill-opacity:1;stroke:#7070ca;stroke-width:2.5;stroke-linecap:butt;stroke-linejoin:miter;stroke-miterlimit:4;stroke-opacity:1;stroke-dasharray:none;stroke-dashoffset:0" />
      <g
         id="g4147">
        <path
           style="fill:#314b8f;fill-opacity:1;stroke:#071b42;stroke-width:2.5;stroke-miterlimit:4;stroke-opacity:1;stroke-dasharray:none"
           d="m 1039.977,334.51041 19.75,15.56586 c 44.0953,-121.09096 46.7872,-121.17683 -19.75,-15.56586 z"
           id="path4129"
           inkscape:connector-curvature="0"
           sodipodi:nodetypes="ccc" />
        <path
           id="path4144"
           style="fill:none;stroke:#071b42;stroke-width:1.70000005;stroke-linecap:butt;stroke-linejoin:miter;stroke-miterlimit:4;stroke-opacity:1;stroke-dasharray:none;stroke-dashoffset:0"
           d="m 1047.75,321.375 c 1.5,10 7.875,15.625 16.625,16.625 m 24.3866,-67.43116 c -2.2834,-0.93566 -4.1474,-2.86028 -4.9492,-5.26713 m 1.1992,15.14213 c -3.1584,-1.18566 -5.3974,-3.86028 -6.1992,-7.64213 m 2.1992,18.76713 c -4.4084,-2.31066 -6.8974,-5.86028 -7.3242,-10.89213 m 2.9492,22.76713 c -5.4084,-2.81066 -7.8974,-7.11028 -8.6992,-13.64213 m 4.9492,24.64213 c -6.0334,-1.81066 -10.0224,-9.23528 -10.4492,-15.89213 m 6.3242,26.76713 c -7.6584,-1.93566 -12.0224,-8.61028 -12.8242,-16.39213"
           inkscape:connector-curvature="0"
           sodipodi:nodetypes="cccccccccccccc" />
      </g>
      <path
         sodipodi:nodetypes="cccccc"
         inkscape:connector-curvature="0"
         id="path7979"
         d="m 1001.2445,324.2592 c 10.0815,21.65661 79.9054,30.43127 51.5279,57.50202 51.4249,-11.39011 16.8017,-86.62844 -69.45059,-58.99557 -18.11673,15.96409 -27.07074,53.95481 -21.0965,81.21226 25.4355,-26.36648 13.68364,-47.12397 21.28321,-64.59642 z"
         style="fill:#1558ce;fill-opacity:1;stroke:#885de4;stroke-width:2.5;stroke-miterlimit:4;stroke-opacity:1;stroke-dasharray:none" />
      <path
         style="fill:#314b8f;fill-opacity:1;stroke:none"
         d="m 946.22855,474.04289 c -11.42068,23.40508 -38.62538,105.61964 -24.00888,140.83211 5.18703,12.49603 40.14037,9.39498 44.53033,0 4.49136,-9.61198 -37.16789,-33.25152 -8.375,-143.875 z"
         id="path6400"
         inkscape:connector-curvature="0"
         sodipodi:nodetypes="cssc" />
      <path
         inkscape:original-d="m 946.22855,474.04289 c -11.42068,23.40508 -38.62538,105.61964 -24.00888,140.83211 5.18703,12.49603 40.14037,9.39498 44.53033,0 4.49136,-9.61198 -37.16789,-33.25152 -8.375,-143.875"
         inkscape:path-effect="#path-effect6392"
         sodipodi:nodetypes="cssc"
         inkscape:connector-curvature="0"
         id="path6378"
         d="m 938.50865,496.41938 c 1.39549,-3.92643 2.48669,-7.00563 3.71544,-10.69015 0.52879,-1.58485 1.08031,-3.28084 1.71908,-5.19463 0.63878,-1.91379 1.36138,-4.04609 2.28538,-6.49171 -2.62315,4.07788 -4.40814,7.67684 -5.88448,10.94027 -1.6909,3.73698 -2.94319,7.08783 -4.19112,10.59897 -0.58935,1.65817 -1.16641,3.32029 -1.73276,4.98554 -4.37469,12.86168 -8.13674,25.93753 -11.17832,39.18377 -3.13003,13.62083 -5.56417,27.47401 -6.29151,41.49008 -0.32065,6.16866 -0.29501,12.38899 0.39371,18.571 0,1e-5 0,1e-5 0,1e-5 0.5827,5.26933 1.66117,10.562 3.72111,15.54169 0.78211,1.84379 2.09606,3.36259 3.62832,4.49477 1.73981,1.29123 3.69569,2.17648 5.66983,2.80813 4.69875,1.51128 9.64739,1.87378 14.46914,1.67606 4.81051,-0.18248 9.65852,-0.92647 14.25669,-2.55995 1.85937,-0.65665 3.71355,-1.4927 5.41127,-2.66056 1.32367,-0.88539 2.59109,-2.08941 3.38204,-3.70851 0.38479,-0.85587 0.51339,-1.7554 0.4442,-2.60158 0,0 0,-1e-5 0,-1e-5 -0.0805,-1.00804 -0.34106,-1.9304 -0.65428,-2.76212 0,-10e-6 0,-10e-6 0,-2e-5 -0.89527,-2.42279 -2.14224,-4.60452 -3.28219,-6.73265 -3.916,-7.34923 -7.38201,-14.92973 -9.74306,-22.84871 -4.0146,-13.42111 -5.39189,-27.56876 -5.22904,-41.64611 0.0938,-8.02507 0.67027,-16.03202 1.62927,-24.00499 0.35841,-2.97978 0.81165,-6.4831 1.36019,-10.24138 0.54854,-3.75828 1.19261,-7.7714 1.88744,-11.77339 1.38966,-8.00398 2.9978,-15.95711 4.08,-21.7932 -2.10668,6.56829 -4.1828,13.93896 -5.9011,21.42906 -1.71831,7.4901 -3.06841,15.09823 -3.90703,22.08077 -0.96708,8.0521 -1.54994,16.1485 -1.64859,24.27334 -0.17492,14.26124 1.23717,28.65732 5.33343,42.39138 2.43486,8.13771 5.96401,15.8718 9.93249,23.30948 1.15682,2.17935 2.35666,4.25569 3.14079,6.41648 0.25945,0.73126 0.47122,1.42558 0.50788,2.07801 0,0 0,10e-6 0,10e-6 0.0263,0.50652 -0.0261,0.99463 -0.21534,1.36731 -0.45571,1.04888 -1.44248,1.9205 -2.54008,2.71132 0,0 -10e-6,1e-5 -10e-6,1e-5 -1.43649,1.00191 -3.09608,1.73815 -4.8275,2.36112 -4.293,1.53502 -8.89376,2.23129 -13.51494,2.41679 -4.63613,0.17128 -9.29553,-0.1513 -13.60138,-1.55634 -1.79582,-0.58932 -3.50928,-1.34905 -4.94257,-2.43159 -1.23203,-0.93575 -2.27551,-2.10675 -2.81689,-3.45137 -1.94779,-4.67529 -2.96774,-9.74099 -3.54555,-14.86078 0,-10e-6 0,-10e-6 0,-2e-5 -0.67244,-6.0034 -0.69404,-12.08819 -0.38159,-18.16438 0.71148,-13.81214 3.12559,-27.52186 6.23145,-41.05969 3.02102,-13.15776 6.75982,-26.15177 11.10857,-38.93823 0.56302,-1.65525 1.13636,-3.30662 1.72161,-4.9533 z"
         style="fill:#071b42;fill-opacity:1;stroke:none" />
      <g
         id="g4124">
        <path
           sodipodi:nodetypes="csc"
           inkscape:connector-curvature="0"
           id="path4122"
           d="m 983.69522,355.99733 c -15.68237,-32.85829 10.68293,-55.81142 15.12228,-54.70159 5.9742,1.49355 8.5879,17.92271 4.4807,31.17804 z"
           style="fill:#314b8f;fill-opacity:1;stroke:none" />
        <path
           style="fill:#071b42;fill-opacity:1;fill-rule:evenodd;stroke:none"
           d="m 994.20495,314.76806 c -5.69258,5.79286 -9.05066,16.02789 -7.8159,24.84959 0.75839,-9.20182 3.34548,-17.92883 7.8159,-24.84959 z"
           id="path4120"
           inkscape:connector-curvature="0"
           sodipodi:nodetypes="ccc" />
        <path
           style="fill:#071b42;fill-opacity:1;stroke:none"
           d="m 978.24841,343.34925 c 0.36902,2.0404 1.02533,4.36144 1.9644,6.58809 0.93908,2.22666 2.1568,4.35317 3.48241,6.05999 -1.08147,-4.22878 -2.20328,-8.77408 -2.98953,-13.09387 -0.56593,-3.10928 -0.80017,-6.26475 -0.63944,-9.40936 0.29226,-5.9153 1.9518,-11.76357 4.74698,-16.99658 0,0 0,0 0,0 2.17366,-4.05932 4.96438,-7.7964 8.38907,-10.80522 1.15868,-1.0125 2.34656,-1.93893 3.62876,-2.60575 0,0 0,0 0,0 0.43663,-0.22386 0.84499,-0.41436 1.23395,-0.51235 0.28597,-0.0425 0.44996,-0.10614 0.44932,-0.0658 1.21505,0.18886 2.15867,1.57664 2.99297,3.00304 1.1316,2.14378 1.7066,4.61636 2.0947,7.14687 0.2205,1.48032 0.3632,2.97303 0.4289,4.46984 0.063,1.44351 0.083,4.17932 -0.1,7.0931 -0.091,1.45689 -0.2252,2.95821 -0.3545,4.37469 -0.1294,1.41648 -0.2532,2.74855 -0.2783,3.87782 1.035,-2.04202 2.0432,-4.98512 2.6106,-7.90272 0.5674,-2.9176 0.699,-5.7825 0.6208,-7.55299 -0.07,-1.58244 -0.2213,-3.16127 -0.4549,-4.72822 -0.3877,-2.67598 -1.0481,-5.41112 -2.3509,-7.93457 -0.8353,-1.77461 -2.3157,-3.58545 -4.60313,-4.27222 -0.70357,-0.13538 -1.28382,-0.0686 -1.69809,0.0751 -0.65364,0.17925 -1.23529,0.4373 -1.75381,0.71501 0,0 0,0 0,0 -1.53618,0.81315 -2.8872,1.85181 -4.11816,2.94246 -3.68063,3.24467 -6.65581,7.21463 -8.94241,11.50384 -2.9672,5.55276 -4.72403,11.75234 -5.03887,18.05053 -0.16213,3.3508 0.0853,6.69624 0.67908,9.97926 z"
           id="path4098"
           inkscape:connector-curvature="0"
           inkscape:path-effect="#path-effect4112"
           inkscape:original-d="m 983.69522,355.99733 c -15.68237,-32.85829 10.68293,-55.81142 15.12228,-54.70159 5.9742,1.49355 8.5879,17.92271 4.4807,31.17804"
           sodipodi:nodetypes="csc" />
      </g>
      <g
         id="g8033">
        <path
           sodipodi:nodetypes="cccsscc"
           inkscape:connector-curvature="0"
           id="path6408"
           d="m 950.99941,596.61356 c -3.00081,-3.36841 -7.05079,-4.94651 -11.2193,-4.99917 4.25038,16.89152 -2.11854,18.46489 -19.737,16.50011 0.58562,2.40497 1.3071,4.66589 2.17656,6.7605 5.18703,12.49603 40.14037,9.39498 44.53033,0 2.2025,-4.71357 -6.44039,-13.17967 -12.93651,-32.86417 -2.5295,3.76183 -3.32931,9.12165 -2.81408,14.60273 z"
           style="fill:#c2bff3;fill-opacity:1;stroke:#9b93f0;stroke-width:2.5;stroke-miterlimit:4;stroke-opacity:1;stroke-dasharray:none" />
        <path
           sodipodi:type="star"
           style="fill:#ffffff;fill-opacity:1;fill-rule:evenodd;stroke:none"
           id="path7925"
           sodipodi:sides="4"
           sodipodi:cx="957.74463"
           sodipodi:cy="609.71564"
           sodipodi:r1="7.435051"
           sodipodi:r2="1.1152577"
           sodipodi:arg1="0.89213384"
           sodipodi:arg2="1.677532"
           inkscape:flatsided="false"
           inkscape:rounded="0"
           inkscape:randomized="0"
           d="m 962.412,615.50318 -4.78618,-4.67863 -5.66873,3.55846 4.67863,-4.78618 -3.55846,-5.66873 4.78618,4.67863 5.66873,-3.55846 -4.67863,4.78618 z"
           transform="matrix(0.56227045,0.28476528,-0.28476528,0.56227045,599.65766,-4.3236997)" />
        <use
           x="0"
           y="0"
           xlink:href="#path7925"
           id="use7929"
           transform="matrix(0.18765555,-0.46385063,0.46385063,0.18765555,482.58533,925.11354)"
           width="1920"
           height="1080" />
        <use
           height="1080"
           width="1920"
           transform="matrix(0.57462629,-0.36842431,0.36842431,0.57462629,158.71714,623.69306)"
           id="use7931"
           xlink:href="#path7925"
           y="0"
           x="0" />
      </g>
      <g
         id="g7973">
        <path
           sodipodi:nodetypes="csscccc"
           inkscape:connector-curvature="0"
           id="path6410"
           d="m 861.6236,565.37532 c 0.52269,2.24775 1.13743,3.88037 1.83334,4.75492 9.77107,12.27931 37.54755,8.94862 39.94532,0 1.40553,-5.24552 -2.34144,-17.16305 -6.6794,-31.41004 -3.9544,1.51304 -5.67992,8.74001 -5.50315,16.60656 -2.2981,-1.94454 -5.39169,-2.2097 -7.86656,-1.76776 6.09879,6.80591 -0.97227,15.37957 -21.72955,11.81632 z"
           style="fill:#c2bff3;fill-opacity:1;stroke:#9b93f0;stroke-width:2.5;stroke-linecap:butt;stroke-linejoin:miter;stroke-miterlimit:20;stroke-opacity:1;stroke-dasharray:none;stroke-dashoffset:0" />
        <use
           x="0"
           y="0"
           xlink:href="#path7925"
           id="use7943"
           transform="matrix(0.10960505,0.52876648,-0.52876648,0.10960505,1113.6632,-13.423216)"
           width="1920"
           height="1080" />
        <use
           height="1080"
           width="1920"
           transform="matrix(0.12679811,-0.32532933,0.32532933,0.12679811,574.03762,777.9)"
           id="use7945"
           xlink:href="#path7925"
           y="0"
           x="0" />
        <use
           x="0"
           y="0"
           xlink:href="#path7925"
           id="use7947"
           transform="matrix(0.58730689,-0.59759041,0.59759041,0.58730689,-51.470208,792.32847)"
           width="1920"
           height="1080" />
      </g>
      <g
         id="g8039">
        <path
           style="fill:#020016;fill-opacity:1;stroke:#7070ca;stroke-width:2.5;stroke-linecap:butt;stroke-linejoin:miter;stroke-miterlimit:4;stroke-opacity:1;stroke-dasharray:none;stroke-dashoffset:0"
           d="m 948.82469,418.6608 -2.95314,3.0625 c 21.28069,17.92997 5.10029,44.06596 25.46019,54.28788 15.82297,7.9441 32.43726,-12.26567 32.93226,-31.03854 -36.19258,13.90133 -33.90373,-30.23243 -55.43931,-26.31184 z"
           id="path7981"
           inkscape:connector-curvature="0"
           sodipodi:nodetypes="ccscc" />
        <use
           height="1080"
           width="1920"
           transform="matrix(0.47245699,-0.66154503,0.66154503,0.47245699,125.36309,801.89337)"
           id="use7931-1"
           xlink:href="#path7925"
           y="0"
           x="0"
           style="display:inline" />
        <use
           style="display:inline"
           x="0"
           y="0"
           xlink:href="#path7925"
           id="use8022"
           transform="matrix(0.5342971,-0.46641973,0.46641973,0.5342971,160.61911,575.60776)"
           width="1920"
           height="1080" />
        <use
           height="1080"
           width="1920"
           transform="matrix(0.22746178,-0.48420447,0.48420447,0.22746178,447.10461,785.44405)"
           id="use8024"
           xlink:href="#path7925"
           y="0"
           x="0"
           style="display:inline" />
        <path
           style="fill:#ffffff;fill-opacity:1;stroke:none"
           d="m 977.375,448.03125 c -1.40963,-0.0578 -2.8313,0.17664 -4.1875,0.75 -5.42479,2.29344 -7.74678,9.07141 -5.1875,15.125 2.55928,6.05359 9.01271,9.10594 14.4375,6.8125 4.77461,-2.01857 7.15128,-7.49333 5.90625,-12.90625 -0.34327,1.78578 -1.48986,3.2839 -3.15625,3.875 -2.66622,0.94576 -5.6927,-0.77498 -6.78125,-3.84375 -1.08855,-3.06877 0.17753,-6.30424 2.84375,-7.25 0.79106,-0.2806 1.60963,-0.34196 2.40625,-0.1875 -1.86143,-1.43209 -4.05396,-2.28361 -6.28125,-2.375 z"
           id="path7985"
           inkscape:connector-curvature="0"
           sodipodi:nodetypes="sssscssscs" />
      </g>
      <g
         transform="translate(15.86695,-8.693136)"
         id="g8802">
        <path
           sodipodi:nodetypes="cssscsccccccc"
           inkscape:connector-curvature="0"
           d="m 928.62024,435.15595 c -2.42704,-21.8433 -25.20381,9.18761 -25.20381,-59.92905 0,-49.29062 -11.13423,-51.4285 -57.68871,-55.07498 -61.90124,-4.84855 -37.15114,-47.79388 -52.46126,-47.79388 -10.19886,0 -18.11768,38.16311 10.92331,57.64736 -16.46601,-1.12936 -27.56031,-19.35376 -33.32669,-13.58738 -3.93226,3.93226 5.41415,28.75101 25.01711,38.45914 -42.19304,5.97424 -40.32609,29.31109 1.86695,25.76389 -24.83042,16.61585 1.68025,23.33686 25.2038,13.06864 -16.61584,22.59008 2.98712,24.45703 29.68449,8.02788 -7.84119,20.34974 8.77466,21.46991 18.66948,15.49568 -2.93395,7.601 0.90335,12.45391 13.11986,10.4946 -4.45227,12.52618 5.67981,17.46614 19.92513,16.94954 z"
           style="fill:#314b8f;fill-opacity:1;stroke:none"
           id="path8422" />
        <g
           id="g8414">
          <path
             clip-path="url(#clipPath3155)"
             sodipodi:nodetypes="cscccccc"
             inkscape:connector-curvature="0"
             id="path8357"
             d="m 812.86942,328.92657 c -21.28321,6.72102 -35.27496,-19.23993 -42.00634,-12.50855 -3.93226,3.93226 5.41415,28.75101 25.01711,38.45914 -42.19304,5.97424 -40.32609,29.31109 1.86695,25.76389 -24.83042,16.61585 1.68025,23.33686 25.2038,13.06864 -16.61584,22.59008 2.98712,24.45703 29.68449,8.02788 -7.84119,20.34974 8.77466,21.46991 18.66948,15.49568 -3.49251,9.04806 2.60984,14.20207 20.99882,8.60673"
             style="fill:none;stroke:#071b42;stroke-width:2.5;stroke-miterlimit:20;stroke-opacity:1;stroke-dasharray:none" />
          <path
             clip-path="url(#clipPath8410)"
             inkscape:original-d="m 928.62024,435.15595 c -2.42704,-21.8433 -25.20381,9.18761 -25.20381,-59.92905 0,-49.29062 -11.13423,-51.4285 -57.68871,-55.07498 -61.90124,-4.84855 -37.15114,-47.79388 -52.46126,-47.79388 -10.94387,0 -19.26243,43.94229 17.9227,61.6093 81.0966,38.52976 89.84447,64.07689 75.70203,88.57231 -9.44551,16.36011 1.38969,22.72048 17.45871,22.13774"
             inkscape:path-effect="#path-effect8385"
             sodipodi:nodetypes="csssssc"
             inkscape:connector-curvature="0"
             d="m 916.7415,425.12581 c 0.7421,0.30987 1.57926,0.59826 2.46601,0.85846 1.31842,0.39683 2.71393,0.7136 3.97005,1.27026 1.14926,0.50111 2.22714,1.28837 2.99165,2.30661 1.28873,1.67604 1.91496,3.84451 2.45103,5.59481 0.10759,-1.8426 -0.004,-4.18144 -1.13863,-6.40979 -0.73933,-1.40751 -1.95031,-2.60211 -3.35273,-3.38784 -1.45128,-0.80872 -2.9294,-1.27303 -4.17979,-1.69996 -0.8285,-0.28965 -1.58695,-0.56789 -2.24905,-0.84106 -0.6844,-0.28237 -1.33836,-0.59811 -1.94692,-0.96915 -1.55915,-0.93246 -2.90262,-2.25316 -3.98262,-3.76871 -1.62772,-2.27507 -2.70347,-4.9741 -3.56128,-7.76519 -3.41311,-11.16768 -3.52747,-23.1811 -3.54279,-35.08733 0,0 0,-1e-5 0,-2e-5 0.01,-9.69883 -0.15253,-19.59507 -2.50343,-29.1862 -0.80427,-3.28452 -1.93766,-6.5446 -3.63692,-9.55544 -10e-6,0 -10e-6,0 -10e-6,-10e-6 -1.46911,-2.59622 -3.38775,-4.95061 -5.69699,-6.87363 -2.38548,-1.97605 -5.10588,-3.46574 -7.9257,-4.58839 -3.34233,-1.33281 -6.81496,-2.21122 -10.28188,-2.88577 -9.54394,-1.86098 -19.22102,-2.48454 -28.79617,-3.23172 0,0 -10e-6,0 -10e-6,0 -6.50162,-0.51291 -12.96361,-1.47614 -19.12566,-3.39332 -4.4246,-1.37958 -8.69505,-3.24668 -12.40644,-5.89264 -2.84997,-2.0281 -5.36407,-4.52901 -7.2914,-7.4158 -10e-6,0 -10e-6,-10e-6 -10e-6,-10e-6 -1.65989,-2.47621 -2.89714,-5.24673 -3.7809,-8.13229 0,-1e-5 0,-1e-5 0,-1e-5 -0.79598,-2.5979 -1.3035,-5.30661 -1.71241,-8.05299 -0.343,-2.31885 -0.59655,-4.7071 -1.06398,-7.11392 -0.31309,-1.77677 -0.81518,-3.74199 -2.07583,-5.45344 -0.5533,-0.7258 -1.28052,-1.33279 -2.1404,-1.74202 -0.9775,-0.44247 -1.99818,-0.61211 -2.96183,-0.60126 -1.96751,0.0658 -3.63706,1.04763 -4.79321,2.30113 -1.58313,1.65079 -2.64323,3.64045 -3.41492,5.63132 -2.20226,5.60751 -2.67274,11.72536 -2.12375,17.61032 0,1e-5 0,1e-5 0,2e-5 0.67375,7.41156 3.1281,14.66026 7.17861,20.91642 0,10e-6 10e-6,2e-5 10e-6,2e-5 4.98763,7.6784 12.32467,13.63405 20.53954,17.52912 16.52697,7.8551 32.81188,16.27309 47.8614,26.55275 9.43221,6.45677 18.55245,13.55268 25.23587,22.61078 0,0 0,10e-6 10e-6,10e-6 4.24326,5.7717 7.35818,12.54867 7.43343,19.54364 0,1e-5 0,2e-5 0,3e-5 0.1211,6.29111 -2.1659,12.51581 -5.37479,18.11105 -1.92409,3.27451 -3.56238,6.99407 -3.68379,11.04132 -0.0612,2.71319 0.86267,5.44068 2.6887,7.50806 0.1063,0.12036 0.22385,0.24677 0.35337,0.37737 0,0 0,0 0,0 0.76026,0.73937 1.88872,1.59776 3.30145,2.29545 1.41273,0.69769 3.10534,1.23068 4.8195,1.54893 0,0 0,0 0,0 2.113,0.40411 4.29815,0.54249 6.24107,0.49661 1.94293,-0.0459 3.64177,-0.26187 4.82094,-0.505 -1.20946,-0.13655 -2.90277,-0.28052 -4.77612,-0.54736 -1.87334,-0.26684 -3.92092,-0.6681 -5.83844,-1.26198 0,0 0,0 0,0 -1.54252,-0.48741 -3.00275,-1.08888 -4.17028,-1.75877 -1.16753,-0.66989 -2.04075,-1.40801 -2.62693,-2.02638 -0.0956,-0.0963 -0.18349,-0.1898 -0.26435,-0.27914 -1.38012,-1.52486 -2.09091,-3.68121 -2.04948,-5.79465 0.0363,-3.37181 1.56315,-6.69242 3.34942,-9.84446 3.39153,-5.83701 5.79008,-12.49112 5.70943,-19.39929 -0.1493,-7.69477 -3.42759,-14.95471 -7.92354,-20.99255 0,0 0,-10e-6 -10e-6,-10e-6 -6.97936,-9.40478 -16.29955,-16.69319 -25.83572,-23.18827 -15.22087,-10.38933 -31.61809,-18.87181 -48.1983,-26.74624 -7.84141,-3.73343 -14.83667,-9.38948 -19.5142,-16.63029 0,-1e-5 0,-1e-5 -10e-6,-2e-5 -3.82452,-5.8998 -6.14836,-12.77093 -6.78708,-19.78369 0,-10e-6 0,-10e-6 0,-2e-5 -0.49657,-5.60595 -0.081,-11.3419 1.95894,-16.46462 0.73173,-1.81187 1.61424,-3.5269 2.88216,-4.80743 0.91944,-0.88056 1.99162,-1.61003 3.00107,-1.54418 0.70288,0.0109 1.37043,0.10196 1.90242,0.3657 0.46199,0.2092 0.8815,0.56905 1.21726,1.00058 0.89532,1.09505 1.24033,2.7121 1.6046,4.40893 0.44322,2.26322 0.69037,4.61411 1.04475,7.00186 0.41456,2.81131 0.94942,5.64126 1.79443,8.41674 0,0 0,10e-6 10e-6,2e-5 0.94023,3.08702 2.28181,6.07745 4.09387,8.79202 0,0 10e-6,1e-5 10e-6,2e-5 2.11731,3.16019 4.8413,5.87703 7.92107,8.06359 3.99842,2.83393 8.50459,4.81766 13.11356,6.24251 6.40782,1.98507 13.05181,2.98323 19.67165,3.49809 0,0 10e-6,0 2e-5,0 9.59834,0.75463 19.18067,1.36526 28.5119,3.19294 3.37725,0.66297 6.70032,1.49729 9.83321,2.75352 2.63038,1.05655 5.12744,2.41329 7.25571,4.18953 2.0613,1.71024 3.7876,3.83456 5.11994,6.18344 0,0 10e-6,10e-6 10e-6,2e-5 1.5585,2.73974 2.60783,5.78842 3.38471,8.92123 2.28347,9.21822 2.42132,18.91509 2.43084,28.58812 -0.0153,11.92475 0.13503,24.18047 3.65079,35.81423 0.88319,2.93813 2.07669,5.87717 3.91454,8.48522 1.24956,1.76689 2.84266,3.31914 4.73151,4.46337 0.74219,0.4425 1.50659,0.81388 2.27823,1.13609 z"
             style="fill:#071b42;fill-opacity:1;stroke:none"
             id="path8353" />
        </g>
        <g
           id="g8798">
          <path
             transform="matrix(-0.48307063,-0.04393104,-0.04393104,0.48307063,1634.4832,196.36005)"
             clip-path="url(#clipPath8790)"
             sodipodi:nodetypes="ccc"
             inkscape:connector-curvature="0"
             id="path5883"
             d="m 1516.75,479.5 c 43.263,-0.77192 53.5416,41.66407 14.2471,39.5226 13.0568,11.00531 6.6589,30.3895 -27.7471,16.9774"
             style="fill:none;stroke:#071b42;stroke-width:3.5046916;stroke-linecap:butt;stroke-linejoin:miter;stroke-miterlimit:20;stroke-opacity:1;stroke-dasharray:none" />
          <path
             clip-path="url(#clipPath8794)"
             inkscape:original-d="m 896.22161,430.19899 c -21.29393,-28.87772 16.27126,-33.72809 -7.02759,-80.24071 -15.8607,-31.66348 -49.8953,3.35984 -10.24075,14.83674 13.23827,3.83145 13.17084,12.65049 2.07355,22.52508 -5.81019,5.17003 -5.66055,12.3612 3.02029,12.96657"
             inkscape:path-effect="#path-effect8771"
             sodipodi:nodetypes="csssc"
             inkscape:connector-curvature="0"
             id="path8769"
             d="m 888.86402,416.39812 c 0.20606,1.25784 0.56968,2.70471 1.16319,4.22937 0,0 0,0 0,0 0.6083,1.55835 1.43803,3.19254 2.48337,4.81297 1.04535,1.62043 2.30537,3.22607 3.71103,4.75853 -1.07421,-1.82939 -2.03531,-3.60782 -2.8311,-5.30052 -0.79578,-1.6927 -1.42642,-3.30054 -1.89554,-4.78996 -0.46177,-1.46207 -0.76038,-2.80948 -0.95377,-3.98563 -0.22184,-1.34913 -0.3185,-2.71547 -0.27504,-4.077 0.0736,-2.49083 0.60468,-4.97783 1.33175,-7.41817 0.76482,-2.55908 1.74041,-5.08006 2.66179,-7.64886 0,0 0,-1e-5 0,-1e-5 2.17589,-6.04369 3.78333,-12.41543 3.71707,-18.93134 -0.13293,-10.00606 -3.58434,-19.63727 -8.02277,-28.46991 -2.9199,-5.93995 -7.74306,-11.64821 -14.45612,-13.10553 -2.39618,-0.49452 -4.91924,-0.35663 -7.24475,0.43556 0,0 0,0 -1e-5,0 -2.15338,0.73519 -4.11546,2.0203 -5.63327,3.72699 0,0 0,0 0,10e-6 -1.4761,1.65884 -2.50663,3.72314 -2.8735,5.93624 -0.38356,2.38337 0.039,4.8403 1.08274,6.98271 0,0 0,0 0,0 1.36281,2.77497 3.58402,4.991 6.03927,6.70521 3.59705,2.52305 7.70237,4.15919 11.8486,5.35273 2.63692,0.77876 5.21333,1.80018 7.13586,3.56148 0,0 0,0 0,0 1.3498,1.23242 2.32341,2.92116 2.4148,4.67268 0,1e-5 0,1e-5 0,1e-5 0.15416,1.99347 -0.6651,4.0345 -1.75108,5.89172 -1.55445,2.61374 -3.72456,4.86616 -6.05476,6.9477 -1.45009,1.23833 -2.77937,2.84135 -3.55533,4.66147 -0.50042,1.17379 -0.83454,2.67251 -0.56682,4.28858 0.28575,1.4626 1.20989,2.77958 2.41922,3.55611 0.90123,0.56631 1.8659,0.87724 2.77967,1.02656 0.91376,0.14933 1.7748,0.14084 2.50859,0.0688 -1.43339,-0.34628 -3.28125,-0.84352 -4.61416,-2.01336 -0.86761,-0.74866 -1.45748,-1.82772 -1.56692,-2.8782 -0.1828,-1.24879 0.14841,-2.40573 0.58862,-3.3662 0.68261,-1.48934 1.87252,-2.89647 3.13721,-4.07381 2.40585,-2.13269 4.68566,-4.5177 6.38386,-7.34548 1.22336,-2.0062 2.12174,-4.37417 1.98842,-6.87252 0,0 0,-10e-6 0,-10e-6 -0.1665,-2.2778 -1.32569,-4.35078 -2.97153,-5.8254 -10e-6,0 -10e-6,0 -10e-6,-1e-5 -2.24523,-2.00491 -5.04404,-3.15022 -7.80302,-3.93315 -4.03673,-1.17479 -7.97345,-2.73001 -11.34279,-5.10995 -2.28282,-1.62047 -4.32043,-3.62062 -5.48846,-6.05758 0,-10e-6 0,-10e-6 0,-10e-6 -0.89517,-1.85051 -1.26828,-3.96831 -0.93434,-5.96534 0.30171,-1.86867 1.19675,-3.64831 2.46702,-5.08225 1.31144,-1.47944 3.03303,-2.60458 4.91177,-3.24709 0,0 0,0 10e-6,0 2.02246,-0.6934 4.24788,-0.81252 6.35183,-0.37927 5.96904,1.15729 10.39997,6.56435 13.27942,12.20193 4.35399,8.72009 7.74542,18.10415 7.84284,27.72847 0,0 0,0 0,1e-5 0.0832,6.21949 -1.491,12.39317 -3.61726,18.33715 0,10e-6 0,10e-6 0,10e-6 -0.91295,2.54243 -1.89807,5.09234 -2.69032,7.73565 0,10e-6 0,10e-6 -10e-6,10e-6 -0.75995,2.52806 -1.31452,5.1599 -1.40231,7.8527 -0.0449,1.47689 0.0591,2.95261 0.29704,4.40515 z"
             style="fill:#071b42;fill-opacity:1;stroke:none" />
        </g>
      </g>
      <g
         id="g4050">
        <path
           style="fill:#071b42;fill-opacity:1;stroke:none"
           d="m 1013.7142,410.8434 c -0.7083,-0.2689 -1.4491,-0.56577 -2.2091,-0.88823 -1.9048,-0.82033 -3.9378,-1.80481 -5.8575,-2.94961 -1.9196,-1.1448 -3.7163,-2.45596 -5.2902,-3.82973 1.0273,1.87911 2.4983,3.65044 4.2523,5.18055 1.754,1.53011 3.7862,2.81841 5.8846,3.82252 0.7639,0.37026 1.5428,0.70719 2.3298,1.0066 3.5669,1.35715 7.3674,2.18437 11.2326,2.19161 5.1637,-0.0196 10.2721,1.7524 14.8634,4.36437 1.7132,0.97917 3.4107,2.10167 5.2363,3.12061 1.2526,0.74817 2.7947,1.51436 4.6488,1.57357 3.2201,-0.0217 6.27,-1.0677 8.9793,-2.47653 3.0481,-1.56475 5.8176,-3.59862 8.3033,-5.8959 0,0 0,0 0,0 2.3494,-2.16264 4.4988,-4.59819 6.2234,-7.34854 1.3147,-2.02144 2.5049,-4.43504 2.5564,-7.17382 0,0 0,0 0,-10e-6 -0.063,-1.27949 -0.6603,-2.34725 -1.4989,-3.04575 -0.9891,-0.84763 -2.0159,-1.43667 -2.8666,-2.04482 -0.075,-0.0536 -0.1503,-0.10778 -0.2248,-0.1625 -1.3096,-0.96215 -2.982,-2.40213 -4.5187,-4.06018 -1.5367,-1.65805 -2.9447,-3.50388 -4.0674,-4.84753 0.518,1.94581 1.3823,4.053 2.5996,5.98013 1.2173,1.92713 2.7922,3.66082 4.5,4.93472 0.084,0.0624 0.1679,0.12436 0.2526,0.18573 0.9939,0.71703 1.9601,1.25809 2.6848,1.9009 0.3909,0.37062 0.7021,0.80957 0.6394,1.15931 0,0 0,0 0,0 0.052,1.93521 -1.0119,3.90687 -2.1759,5.848 -1.5719,2.5195 -3.5799,4.78452 -5.7991,6.83694 0,0 0,0 0,0 -2.3527,2.16671 -4.9372,4.07139 -7.748,5.50833 -2.5171,1.26884 -5.187,2.22319 -7.8394,2.20152 -1.0293,0.0592 -2.1656,-0.60153 -3.4315,-1.25723 -1.7162,-0.95534 -3.4058,-2.07335 -5.2125,-3.10714 0,0 0,0 0,0 -4.8593,-2.7926 -10.3814,-4.67456 -16.1045,-4.69418 -3.5029,0.007 -7.0066,-0.76736 -10.3425,-2.03371 z"
           id="path3972"
           inkscape:connector-curvature="0"
           sodipodi:nodetypes="csssc"
           inkscape:path-effect="#path-effect4002"
           inkscape:original-d="m 1000.3574,403.17583 c 5.0832,6.44237 15.3962,10.95128 23.6993,10.95128 13.0547,0 19.9864,9.05855 24.7485,9.05855 10.7435,0 24.8124,-14.22811 24.8124,-21.64479 0,-3.61524 -6.2775,-2.53222 -11.9264,-14.16079"
           clip-path="url(#clipPath4046)" />
        <path
           style="fill:none;stroke:#071b42;stroke-width:1.5;stroke-linecap:butt;stroke-linejoin:miter;stroke-miterlimit:4;stroke-opacity:1;stroke-dasharray:none;stroke-dashoffset:0"
           d="m 1075.3261,426.30435 c -7.9348,-12.6087 -20.7609,-20.43479 -35.2174,-16.52175 9.4566,4.02175 17.3913,10.86957 24.1305,21.41305"
           id="path3974"
           inkscape:connector-curvature="0"
           sodipodi:nodetypes="ccc"
           clip-path="url(#clipPath4042)" />
      </g>
      <path
         sodipodi:nodetypes="ccc"
         inkscape:connector-curvature="0"
         id="path8846"
         d="m 1058.3024,401.49619 c 1.2569,1.38889 2.8165,1.80095 4.31,1.05417 -0.5327,2.83909 -5.0954,2.10832 -4.31,-1.05417 z"
         style="fill:#071b42;fill-opacity:1;fill-rule:evenodd;stroke:none" />
      <path
         style="fill:#071b42;fill-opacity:1;fill-rule:evenodd;stroke:none"
         d="m 1069.3802,403.68242 c 0.5308,0.76749 1.3586,0.80285 1.9451,0.0561 -0.354,2.28702 -2.0271,2.08567 -1.9451,-0.0561 z"
         id="path8848"
         inkscape:connector-curvature="0"
         sodipodi:nodetypes="ccc" />
    </g>
  </g>
</svg>
