<?xml version="1.0" encoding="UTF-8" standalone="no"?>
<!-- Created with Inkscape (http://www.inkscape.org/) -->

<svg
   xmlns:dc="http://purl.org/dc/elements/1.1/"
   xmlns:cc="http://creativecommons.org/ns#"
   xmlns:rdf="http://www.w3.org/1999/02/22-rdf-syntax-ns#"
   xmlns:svg="http://www.w3.org/2000/svg"
   xmlns="http://www.w3.org/2000/svg"
   xmlns:xlink="http://www.w3.org/1999/xlink"
   xmlns:sodipodi="http://sodipodi.sourceforge.net/DTD/sodipodi-0.dtd"
   xmlns:inkscape="http://www.inkscape.org/namespaces/inkscape"
   id="svg2"
   version="1.1"
   inkscape:version="0.48.3.1 r9886"
   width="1052.3622"
   height="744.09448"
   sodipodi:docname="Limburg Pony.svg"
   inkscape:export-filename="/home/parclytaxel/Pictures/Limburg Pony.png"
   inkscape:export-xdpi="780.83984"
   inkscape:export-ydpi="780.83984">
  <metadata
     id="metadata8">
    <rdf:RDF>
      <cc:Work
         rdf:about="">
        <dc:format>image/svg+xml</dc:format>
        <dc:type
           rdf:resource="http://purl.org/dc/dcmitype/StillImage" />
        <dc:title></dc:title>
      </cc:Work>
    </rdf:RDF>
  </metadata>
  <defs
     id="defs6">
    <inkscape:path-effect
       effect="skeletal"
       id="path-effect4948"
       is_visible="true"
       pattern="m 482.47306,914.0936 c -10.419,0 -19.85252,1.03895 -31,4 11.14748,2.78687 20.581,4 31,4 l 259,0 c 10.419,0 22.11685,-1.38731 31,-4 -9.05733,-2.78687 -20.581,-4 -31,-4 z"
       copytype="single_stretched"
       prop_scale="1"
       scale_y_rel="false"
       spacing="0"
       normal_offset="0"
       tang_offset="0"
       prop_units="false"
       vertical_pattern="false"
       fuse_tolerance="0"
       pattern-nodetypes="scsscss" />
    <inkscape:path-effect
       effect="skeletal"
       id="path-effect4447"
       is_visible="true"
       pattern="m 456,1242 0,8 267,0 c 10.419,0 22.11685,-1.3873 31,-4 -9.05733,-2.7869 -20.581,-4 -31,-4 z"
       copytype="single_stretched"
       prop_scale="1"
       scale_y_rel="false"
       spacing="0"
       normal_offset="0"
       tang_offset="0"
       prop_units="false"
       vertical_pattern="false"
       fuse_tolerance="0"
       pattern-nodetypes="ccscsc" />
    <inkscape:path-effect
       effect="skeletal"
       id="path-effect4415"
       is_visible="true"
       pattern="m 478,1068.9055 0,8 157,0 c 10.419,0 22.11685,-1.3873 31,-4 -9.05733,-2.7869 -20.581,-4 -31,-4 z"
       copytype="single_stretched"
       prop_scale="1"
       scale_y_rel="false"
       spacing="0"
       normal_offset="0"
       tang_offset="0"
       prop_units="false"
       vertical_pattern="false"
       fuse_tolerance="0"
       pattern-nodetypes="ccscsc" />
    <inkscape:path-effect
       effect="skeletal"
       id="path-effect4302"
       is_visible="true"
       pattern="m 390.5,1226.4055 2,8 62,0 c 10.419,0 22.11685,-1.3873 31,-4 -9.05733,-2.7869 -20.581,-4 -31,-4 z"
       copytype="single_stretched"
       prop_scale="1"
       scale_y_rel="false"
       spacing="0"
       normal_offset="0"
       tang_offset="0"
       prop_units="false"
       vertical_pattern="false"
       fuse_tolerance="0"
       pattern-nodetypes="ccscsc" />
    <inkscape:path-effect
       effect="skeletal"
       id="path-effect4294"
       is_visible="true"
       pattern="m 356.12698,1318.3311 c -16.60618,0 -30.14021,1.2157 -45,4 14.85979,2.61 28.92415,4 45,4 l 151,0 c 10.419,0 22.11685,-1.3874 31,-4 -9.05733,-2.7869 -20.581,-4 -31,-4 z"
       copytype="single_stretched"
       prop_scale="1"
       scale_y_rel="false"
       spacing="0"
       normal_offset="0"
       tang_offset="0"
       prop_units="false"
       vertical_pattern="false"
       fuse_tolerance="0"
       pattern-nodetypes="scsscss" />
    <inkscape:path-effect
       effect="skeletal"
       id="path-effect4144"
       is_visible="true"
       pattern="m 290.96046,294.15642 c -10.419,0 -19.85252,1.03895 -31,4 11.14748,2.78687 20.581,4 31,4 l 72.78954,0 c 10.67187,0 5.32813,-0.99994 16,-0.99994 l 33,0 c 7.74829,0 17.07493,0.99994 25,0.99994 l 216.21046,0 c 10.419,0 22.11685,-1.38731 31,-4 -9.05733,-2.78687 -20.581,-4 -31,-4 l -216.21046,0 c -7.92507,0 -16.5446,1.00006 -25,1.00006 l -33,0 c -10.67187,0 -5.32813,-1.00006 -16,-1.00006 z"
       copytype="single_stretched"
       prop_scale="1"
       scale_y_rel="false"
       spacing="0"
       normal_offset="0"
       tang_offset="0"
       prop_units="false"
       vertical_pattern="false"
       fuse_tolerance="0"
       pattern-nodetypes="scsssssscssssss" />
    <linearGradient
       inkscape:collect="always"
       id="linearGradient3766">
      <stop
         style="stop-color:#4c466a;stop-opacity:1;"
         offset="0"
         id="stop3768" />
      <stop
         style="stop-color:#72699c;stop-opacity:1"
         offset="1"
         id="stop3770" />
    </linearGradient>
    <inkscape:path-effect
       effect="skeletal"
       id="path-effect5339"
       is_visible="true"
       pattern="m 168.20389,834.914 c -10.419,0 -19.85252,1.03895 -31,4 11.14748,2.78687 20.581,4 31,4 l 136,0 c 10.419,0 22.11685,-1.38731 31,-4 -9.05733,-2.78687 -20.581,-4 -31,-4 z"
       copytype="single_stretched"
       prop_scale="1"
       scale_y_rel="false"
       spacing="0"
       normal_offset="0"
       tang_offset="0"
       prop_units="false"
       vertical_pattern="false"
       fuse_tolerance="0"
       pattern-nodetypes="scsscss" />
    <linearGradient
       inkscape:collect="always"
       xlink:href="#linearGradient3766"
       id="linearGradient3772"
       x1="338.49023"
       y1="206.72476"
       x2="336.26227"
       y2="267.48163"
       gradientUnits="userSpaceOnUse" />
    <clipPath
       clipPathUnits="userSpaceOnUse"
       id="clipPath4214">
      <use
         x="0"
         y="0"
         xlink:href="#path5354"
         id="use4216"
         width="1"
         height="1" />
    </clipPath>
    <clipPath
       clipPathUnits="userSpaceOnUse"
       id="clipPath4169">
      <path
         style="font-size:medium;font-style:normal;font-variant:normal;font-weight:normal;font-stretch:normal;text-indent:0;text-align:start;text-decoration:none;line-height:normal;letter-spacing:normal;word-spacing:normal;text-transform:none;direction:ltr;block-progression:tb;writing-mode:lr-tb;text-anchor:start;baseline-shift:baseline;color:#000000;fill:none;stroke:#808080;stroke-width:0.40000001;stroke-miterlimit:4;stroke-dasharray:none;marker:none;visibility:visible;display:inline;overflow:visible;enable-background:accumulate;font-family:Sans;-inkscape-font-specification:Sans"
         d="M 295.94269,294.35274 C 293.36236,276.45659 286.55187,256.26802 275.1875,234 l 146.95525,-11.04322 20.5061,156.97771 45.96194,4.2426 L 486.48947,42.64455 183.14066,49.00852 185.5,320.59449 z m -27.91144,66.52225 c 9.49292,-7.0862 16.21769,-16.4383 19.87839,-28.073 L 413,270.09448 l 17.5,70.00001 z"
         id="path4171"
         inkscape:connector-curvature="0"
         sodipodi:nodetypes="ccccccc" />
    </clipPath>
    <clipPath
       clipPathUnits="userSpaceOnUse"
       id="clipPath4173">
      <path
         style="fill:none;stroke:#00ff00;stroke-width:0.40000001;stroke-miterlimit:4;stroke-dasharray:none"
         d="m 290.99497,257.08431 c -1.70385,3.85972 -3.81586,7.74551 -6.34332,11.44676 -2.52747,3.70124 -5.47031,7.21521 -8.79581,10.34537 L 256.875,350.16937 c 30.25219,1.54944 61.22463,-2.23171 89.38944,-14.16213 z"
         id="path4175"
         inkscape:connector-curvature="0"
         sodipodi:nodetypes="cscccc" />
    </clipPath>
    <clipPath
       clipPathUnits="userSpaceOnUse"
       id="clipPath4966">
      <path
         style="font-size:medium;font-style:normal;font-variant:normal;font-weight:normal;font-stretch:normal;text-indent:0;text-align:start;text-decoration:none;line-height:normal;letter-spacing:normal;word-spacing:normal;text-transform:none;direction:ltr;block-progression:tb;writing-mode:lr-tb;text-anchor:start;baseline-shift:baseline;color:#000000;fill:none;stroke:#ffff00;stroke-width:1;stroke-miterlimit:4;stroke-dasharray:none;marker:none;visibility:visible;display:inline;overflow:visible;enable-background:accumulate;font-family:Sans;-inkscape-font-specification:Sans"
         d="m 617.59375,926.3125 c -19.79081,18.12829 -50.59548,40.58288 -94.96875,66.40625 l -27.95545,0.89834 15.95545,-94.27334 c 24.60542,-39.617 50.88822,-72.03489 73.9375,-95.15625 l 16.70486,-78.11 -146.31071,-0.69672 -34.13917,348.35882 189.50721,-15.3278 z"
         clip-path="none"
         id="path4968"
         inkscape:connector-curvature="0"
         sodipodi:nodetypes="ccccc" />
    </clipPath>
    <clipPath
       clipPathUnits="userSpaceOnUse"
       id="clipPath4970">
      <path
         style="fill:none;stroke:#ffff00;stroke-width:1;stroke-miterlimit:4;stroke-dasharray:none"
         clip-path="none"
         d="m 526.83614,876.65684 0.20999,105.80377 c 4.21821,1.14368 8.41872,0.8926 12.14183,-0.0715 8.78649,-2.10438 17.5818,-3.74411 26.26963,-3.69354 l 150.76819,-79.83209 -43.89322,-173.4827 -136.55666,71.0652 7.05093,40.35868 c -3.04988,7.48614 -6.14822,14.96982 -9.20475,22.48793 -2.32031,5.70462 -4.66387,11.4631 -6.78594,17.36425 z"
         id="path4972"
         inkscape:connector-curvature="0"
         sodipodi:nodetypes="cccccccccc" />
    </clipPath>
    <clipPath
       clipPathUnits="userSpaceOnUse"
       id="clipPath4976">
      <use
         x="0"
         y="0"
         xlink:href="#path4033"
         id="use4978"
         transform="matrix(-0.79968484,0.14217214,-0.14217214,-0.79968484,1052.9197,1223.6353)"
         width="1"
         height="1" />
    </clipPath>
  </defs>
  <sodipodi:namedview
     pagecolor="#ffffff"
     bordercolor="#666666"
     borderopacity="1"
     objecttolerance="10"
     gridtolerance="10"
     guidetolerance="10"
     inkscape:pageopacity="0"
     inkscape:pageshadow="2"
     inkscape:window-width="1364"
     inkscape:window-height="698"
     id="namedview4"
     showgrid="true"
     fit-margin-top="0"
     fit-margin-left="0"
     fit-margin-right="0"
     fit-margin-bottom="0"
     inkscape:zoom="0.7176508"
     inkscape:cx="526.18109"
     inkscape:cy="372.04724"
     inkscape:window-x="0"
     inkscape:window-y="0"
     inkscape:window-maximized="1"
     inkscape:current-layer="layer2"
     showguides="false"
     inkscape:guide-bbox="true"
     inkscape:object-nodes="false">
    <inkscape:grid
       type="xygrid"
       id="grid5324"
       empspacing="5"
       visible="true"
       enabled="false"
       snapvisiblegridlinesonly="true"
       spacingx="8px"
       spacingy="8px" />
  </sodipodi:namedview>
  <g
     inkscape:groupmode="layer"
     id="layer2"
     inkscape:label="Drawing"
     transform="translate(0,-698.90551)"
     style="display:inline">
    <g
       id="g3822">
      <path
         sodipodi:nodetypes="ccc"
         transform="translate(0,698.90551)"
         inkscape:connector-curvature="0"
         id="path4322"
         d="m 249.99778,284.56086 c 16.12437,17.97056 28.07717,36.90433 39.05204,59.07159 81.58136,-36.67082 14.61813,-125.18636 -39.05204,-59.07159 z"
         style="fill:#ffffff;fill-opacity:1;stroke:#b0d8e7;stroke-width:6;stroke-linecap:butt;stroke-linejoin:miter;stroke-miterlimit:20;stroke-opacity:1;stroke-dasharray:none" />
      <path
         transform="translate(0,698.90551)"
         inkscape:connector-curvature="0"
         id="path3052"
         d="m 278.41876,312.01043 27.31827,-23.22054 5.23601,10.92731 z"
         style="opacity:1;fill:#b0d8e7;fill-opacity:1;fill-rule:evenodd;stroke:none" />
    </g>
    <path
       sodipodi:nodetypes="ccccscc"
       inkscape:connector-curvature="0"
       id="path4988"
       d="m 473.45114,1045.5639 c 97.59857,-16.2879 133.67073,-82.02524 74.52601,-72.48144 130.60935,-99.67153 88.77474,-136.06448 11.94943,-79.14758 121.39157,-188.64943 42.17208,-170.18233 -37.25065,-49.96928 16.15095,-50.4271 38.11221,-121.90973 3.49771,-95.32768 -80.05237,61.47581 -19.57959,199.99727 -75.11287,290.58688 z"
       style="fill:#bfdff3;fill-opacity:1;stroke:#9dd1f1;stroke-width:8;stroke-miterlimit:20;stroke-opacity:1;stroke-dasharray:none" />
    <path
       sodipodi:nodetypes="csscc"
       inkscape:connector-curvature="0"
       id="path4355"
       d="m 635.20533,1187.0276 c 8.68613,76.2417 1.67814,157.3543 -23.76345,240.5029 -4.28574,14.0067 -107.50453,-19.8894 -100.87908,-31.5386 112.18289,-197.246 17.00158,-219.7001 32.17331,-337.7621 z"
       style="fill:#bfdff3;fill-opacity:1;stroke:#9dd1f1;stroke-width:8;stroke-linecap:butt;stroke-linejoin:miter;stroke-miterlimit:4;stroke-opacity:1;stroke-dasharray:none"
       inkscape:transform-center-x="15.594891"
       inkscape:transform-center-y="162.47661" />
    <g
       id="g4345"
       transform="matrix(0.97199486,0.23500223,-0.23500223,0.97199486,266.35958,-76.504865)">
      <path
         sodipodi:nodetypes="ccssccc"
         inkscape:connector-curvature="0"
         id="path4347"
         d="m 454.50435,1151.2413 c 13.74141,100.9515 -18.98091,121.953 -71.54352,93.2509 -1.02919,30.3432 -0.53135,61.9044 2.65267,92.3683 1.52062,14.5489 -102.80801,8.6728 -99.97388,-8.7889 24.94492,-153.6913 72.3484,-195.9813 116.12828,-153.0925 8.67491,-10.1112 15.17934,-20.5018 20.30163,-33.8745 z"
         style="fill:#bfdff3;fill-opacity:1;stroke:none" />
      <path
         style="fill:#9dd1f1;fill-opacity:1;stroke:none"
         d="m 387.87204,1316.4426 c -1.19364,-17.5743 -1.82369,-33.5687 -2.37014,-49.1508 -0.54646,-15.5822 -0.99135,-30.7552 -1.45175,-46.6871 -2.23212,15.774 -3.80429,31.2347 -4.57534,47.0732 -0.77105,15.8386 -0.75201,32.0587 0.41894,49.3065 0.45964,6.7703 1.03633,13.5353 1.74142,20.2919 0.0891,-0.5026 0.0394,-0.6271 0.10814,-0.6079 -0.16401,0.2979 -0.83003,0.5817 -1.72622,1.051 -2.92197,1.3489 -6.48494,1.863 -10.29075,2.3937 0,0 -10e-6,0 -10e-6,0 -5.19498,0.6706 -10.50124,0.9079 -15.86374,0.9645 0,0 0,0 -1e-5,0 -6.14028,0.061 -12.2941,-0.1565 -18.4422,-0.5973 -6.16387,-0.4432 -12.29705,-1.1076 -18.36775,-2.0689 -5.34147,-0.85 -10.5907,-1.8853 -15.6352,-3.3884 0,0 -1e-5,0 -1e-5,0 -3.7613,-1.1676 -7.27881,-2.3103 -9.94088,-4.2415 0,0 0,0 0,0 -0.84998,-0.6588 -1.52756,-1.1723 -1.74798,-1.654 0,0 0,0 0,0 -0.10359,-0.2277 -0.20547,-0.4447 -0.14061,-0.4151 5.69274,-34.9844 12.93457,-69.7627 25.42349,-102.6137 4.29963,-11.3035 9.21006,-22.3201 15.38268,-32.5122 0,0 1e-5,0 1e-5,0 4.62987,-7.612 9.85383,-14.7774 16.2855,-20.4602 4.85787,-4.262 10.35685,-7.7342 16.27099,-9.133 0.72458,-0.1815 1.45818,-0.3309 2.19829,-0.449 4.53353,-0.7236 9.44615,-0.3614 14.1213,1.0323 6.36363,1.8684 12.397,5.6029 17.89932,9.8584 7.70921,5.992 14.29848,13.0503 20.00792,19.3975 -3.792,-7.7946 -9.04981,-16.1653 -16.30215,-23.5394 -5.21681,-5.3275 -11.66373,-10.1188 -19.20812,-12.885 -5.68309,-2.0574 -11.88295,-2.6782 -17.76685,-1.7532 -0.95776,0.1505 -1.91156,0.3401 -2.8589,0.5695 -7.54359,1.9085 -14.17795,5.9774 -19.67714,10.923 -7.24374,6.4749 -12.97787,14.2534 -17.81598,22.2997 -1e-5,0 -1e-5,0 -1e-5,0 -6.50076,10.7673 -11.62229,22.2172 -16.016,33.8121 -12.75714,33.6476 -20.13814,68.9451 -25.84101,104.1716 -0.28532,2.1871 0.17109,4.218 1.20421,5.8572 10e-6,0 10e-6,0 2e-5,0 1.19257,1.839 2.61949,3.1509 3.99599,4.0493 1e-5,0 1e-5,0 2e-5,0 3.9676,2.7055 8.25432,4.2192 12.2485,5.3547 10e-6,0 10e-6,0 2e-5,0 5.52348,1.6351 11.11506,2.748 16.66223,3.621 6.3287,1.0008 12.68773,1.6911 19.04532,2.1468 6.34179,0.4557 12.71287,0.6799 19.094,0.6174 5.55225,-0.051 11.17165,-0.3101 16.80315,-1.0291 10e-6,0 10e-6,0 2e-5,0 3.96745,-0.4669 8.27162,-1.1881 12.51431,-3.0151 1.36201,-0.5317 2.92529,-1.4648 4.41801,-2.999 1.29119,-1.3327 2.01512,-3.2739 1.91474,-5.5893 -0.69672,-6.6555 -1.26621,-13.3239 -1.71979,-20.0021 z"
         id="path4349"
         inkscape:connector-curvature="0"
         sodipodi:nodetypes="cssc"
         inkscape:path-effect="#path-effect4294"
         inkscape:original-d="m 384.05015,1220.6047 c -2.19364,37.4129 -2.4651,77.7126 1.56335,116.2558 1.52061,14.5489 -102.80801,8.6728 -99.97388,-8.7889 27.90907,-171.9541 83.93123,-204.4588 131.53783,-134.2391" />
      <path
         style="fill:#9dd1f1;fill-opacity:1;stroke:none"
         d="m 383.26818,1240.1048 c -0.31279,2.8813 -0.57587,5.7801 -0.77709,8.6965 5.30216,2.8291 10.81463,5.3702 16.5709,7.4036 5.68209,2.0175 11.69625,3.5187 17.94156,3.9652 10e-6,0 10e-6,0 10e-6,0 5.26911,0.3855 10.74301,-0.1228 15.97018,-1.9263 5.00736,-1.7673 9.50472,-4.7417 13.11495,-8.5582 4.14219,-4.4194 7.10167,-9.6403 9.19102,-15.0055 0,0 0,0 0,0 2.71136,-6.9112 4.2377,-14.1114 5.13973,-21.2381 0.33536,-2.6388 0.60035,-5.2791 0.80178,-7.9198 0.7079,-9.2806 0.27564,-19.1482 -1.00622,-28.5217 -1.28187,-9.3736 -3.3703,-18.2514 -5.71065,-25.7592 -0.31427,8.0226 -0.248,17.0561 -0.30218,26.2637 -0.0542,9.2076 -0.26299,18.5816 -0.94329,27.4067 -0.19358,2.5111 -0.44935,5.0149 -0.77411,7.51 -0.87612,6.7022 -2.23796,13.2633 -4.64623,19.3209 -1.87028,4.6653 -4.28556,9.0318 -7.55842,12.4421 -2.76642,2.9168 -6.21004,5.2084 -9.95373,6.5099 -3.9413,1.4117 -8.34963,1.776 -12.77346,1.4944 0,0 0,0 -1e-5,0 -5.2941,-0.3479 -10.60534,-1.7039 -15.83282,-3.5296 -6.33787,-2.2261 -12.46926,-5.2038 -18.45192,-8.5546 z"
         id="path4351"
         inkscape:connector-curvature="0"
         sodipodi:nodetypes="cc"
         inkscape:path-effect="#path-effect4302"
         inkscape:original-d="m 381.31061,1243.5931 c 53.51915,30.0343 87.07972,9.6618 73.19374,-92.3518" />
      <path
         style="fill:#9dd1f1;fill-opacity:1;fill-rule:evenodd;stroke:none"
         d="m 399.47244,473.58325 4.88909,4.91053 c 9.125,-11.125 13.91358,-21.28859 17.708,-36.29468 -7.46752,13.71688 -13.53643,22.66815 -22.59709,31.38415 z"
         id="path4353"
         inkscape:connector-curvature="0"
         transform="translate(0,698.90551)"
         sodipodi:nodetypes="cccc" />
    </g>
    <g
       id="g5041">
      <path
         sodipodi:nodetypes="ccccccccccccccccc"
         transform="translate(0,698.90551)"
         inkscape:connector-curvature="0"
         id="path5037"
         d="m 910.42422,570.68035 -18.72085,-76.854 67.00092,-86.70706 -87.69238,-67.00092 23.64738,-65.0303 -88.67768,-16.75023 1.97062,-90.6483 -102.47199,67.00092 -81.78053,-10.83839 -33.69147,97.78996 24.7408,20.83839 61.34102,-25.02413 8.002,51.57411 62.31345,-9.66352 -47.94196,74.35571 80.16853,64.04499 -26.84239,67.00092 119.22222,76.85399 -12.809,-53.20661 z"
         style="fill:#111e63;stroke:#060d35;stroke-width:8;stroke-linecap:butt;stroke-linejoin:miter;stroke-miterlimit:20;stroke-opacity:1;stroke-dasharray:none;fill-opacity:1" />
      <path
         sodipodi:nodetypes="cccccccccccccccccccc"
         transform="translate(0,698.90551)"
         inkscape:connector-curvature="0"
         id="path5039"
         d="m 591.15517,337.14775 45.36823,-96.56014 58.11845,22.98005 88.3891,-55.7691 -11.52041,59.11846 95.58953,30.95066 -23.96536,36.74698 94.58953,76.73444 -63.05969,57.82987 17.0829,79.53602 -50.05969,22.93597 6.66208,72.41848 -75.01561,-83.25686 30.69146,-80.78053 -68.98623,-35.75966 31.54454,-104.15402 -69.95684,9.2592 -12.69146,-61.4952 -84.91276,58.10377 z"
         style="fill:#97bdd3;stroke:#68a0c0;stroke-width:8;stroke-linecap:butt;stroke-linejoin:miter;stroke-miterlimit:20;stroke-opacity:1;stroke-dasharray:none;fill-opacity:1" />
    </g>
    <path
       clip-path="none"
       sodipodi:nodetypes="ccssscscsssccc"
       transform="translate(0,698.90551)"
       inkscape:connector-curvature="0"
       id="path4997"
       d="m 285.29106,346.03813 c 10.77604,-18.39507 12.02162,-44.03511 1.86504,-75.65025 -19.50256,29.37495 -52.51865,34.64813 -62.14409,2.33142 -5.58724,-18.75873 32.13429,-19.80398 29.24722,-25.20786 -78.0457,-146.08231 123.4226,-237.6703152 180.33496,-89.09608 16.57691,43.27534 0.85501,107.05151 10.70691,163.14983 75.62994,-39.72322 154.62962,-27.57429 187.04798,28.576 25.23778,43.7131 22.75049,90.7025 32.55067,123.34405 0,0 14.23468,-7.25895 17.87434,-2.81365 48.98879,59.8332 77.18083,137.1281 98.01235,219.3348 3.59805,14.1989 -103.18654,35.9597 -103.25887,22.5583 -0.9607,-178.0038 -55.66307,-200.0215 -101.5628,-248.5563 -110.58815,74.9922 -237.35829,26.5348 -227.46409,-133.47168 -18.81881,8.67487 -39.70857,13.90742 -63.20962,15.50142 z"
       style="fill:#d1e8f6;fill-opacity:1;stroke:none" />
    <path
       style="fill:#9dd1f1;fill-opacity:1;stroke:none"
       d="m 347.48436,335.48146 c 6.26988,-2.7336 12.17295,-5.85677 17.77839,-9.34182 5.60543,-3.48506 10.91363,-7.33321 15.96838,-11.55945 5.05476,-4.22623 9.85653,-8.83164 14.41735,-13.8569 4.56083,-5.02525 8.88126,-10.47159 12.93389,-16.38828 -5.14802,4.98662 -10.29716,9.52354 -15.46267,13.717 -5.16551,4.19346 -10.34833,8.04396 -15.60685,11.62501 -5.25851,3.58105 -10.59325,6.89325 -16.09499,9.96911 -5.50175,3.07585 -11.17076,5.91628 -17.12461,8.50155 -0.38537,0.16733 -0.77148,0.33303 -1.15832,0.49707 -10e-6,0 -10e-6,1e-5 -10e-6,1e-5 -26.73586,11.40587 -56.53135,14.97786 -85.8586,13.53469 -5.2499,-0.2687 -10.43179,-0.79648 -15.44823,-1.84205 -3.64809,-0.77755 -7.12697,-1.71234 -10.1566,-3.23635 -1.95652,-1.11305 -3.6634,-2.01862 -4.17229,-3.17632 -0.15939,-0.3104 -0.27897,-0.57341 -0.25018,-0.70149 -0.0407,-0.12889 0.0651,-0.41138 0.20829,-0.75183 0,0 0,-10e-6 0,-10e-6 0.47429,-1.31359 2.25806,-2.4241 4.2774,-3.78186 0,-1e-5 0,-1e-5 1e-5,-1e-5 3.32461,-2.00248 7.19437,-3.37454 11.25161,-4.61293 10.25273,-3.09365 20.99276,-4.687 31.90381,-5.67382 5.31886,-0.48106 9.08632,-0.74471 11.88879,-0.97705 0,0 0,0 0,0 2.59512,-0.19363 4.4236,-0.48917 5.90479,-0.78395 1.4812,-0.29479 2.62095,-0.59378 3.86377,-0.94783 1.24282,-0.35404 2.59217,-0.75669 4.46073,-1.41069 0.93428,-0.327 1.99779,-0.71943 3.23112,-1.23489 1.23333,-0.51547 2.63748,-1.1522 4.23348,-2.01323 0,0 0,0 0,0 2.03551,-1.1067 4.36134,-2.59764 6.8059,-4.79894 2.30289,-2.07372 4.32345,-4.4742 5.95332,-7.15492 2.79786,-4.66763 4.34861,-9.93322 4.8193,-15.21994 0,0 0,0 0,0 0.47207,-5.22618 -0.009,-10.47679 -1.23674,-15.50078 -1.12745,-4.66314 -2.90404,-9.21732 -5.41995,-13.39656 -1.97927,-3.37514 -4.63758,-6.67947 -8.30109,-9.04383 -1.46993,-0.94834 -3.2131,-1.67367 -5.16966,-1.97418 -1.87523,-0.26043 -3.79217,-0.005 -5.55109,0.75547 0,0 0,0 0,0 -2.00519,0.9192 -3.59889,2.27508 -4.7875,3.77486 0,0 0,0 0,1e-5 -1.62964,2.01939 -2.78687,4.22974 -3.65621,6.41022 -0.30131,0.73677 -0.61267,1.46954 -0.93413,2.19776 -1.70385,3.85972 -3.81586,7.74551 -6.34332,11.44676 -2.52747,3.70124 -5.47031,7.21521 -8.79581,10.34537 -2.82189,2.63485 -5.89443,5.02854 -9.12128,6.95079 -3.22685,1.92225 -6.6064,3.36997 -10.04474,4.17782 -3.38869,0.79087 -6.87467,0.94494 -10.02503,0.43839 -2.31728,-0.37261 -4.51436,-1.12721 -6.43521,-2.31882 -2.50925,-1.46843 -4.69889,-3.62473 -6.48958,-6.10929 -2.19038,-3.0341 -3.74389,-6.63752 -4.89442,-10.43785 0,0 0,-10e-6 -1e-5,-2e-5 -0.39834,-1.47967 -0.56055,-2.93915 -0.19865,-4.07105 0.2365,-1.04442 0.9578,-2.11567 1.87041,-3.11069 1.0436,-1.12053 2.45621,-2.07567 4.03092,-2.99342 1.70147,-0.97351 3.5712,-1.79573 5.53472,-2.57093 3.52736,-1.3896 7.43315,-2.48083 11.45377,-3.99807 1e-5,0 2e-5,0 3e-5,-1e-5 1.20834,-0.39521 2.80319,-1.04873 4.53057,-2.30646 0.616,-0.34288 1.33698,-1.21073 2.02146,-2.63889 0.48673,-1.62009 0.36874,-3.07741 -0.30151,-4.26139 -10e-6,-1e-5 -10e-6,-2e-5 -2e-5,-3e-5 -8.41972,-15.8017 -14.56449,-32.86493 -16.54704,-50.43268 -1.63711,-14.4217 -0.43954,-29.19371 4.06791,-42.87761 4.07771,-12.42928 10.85432,-23.98887 19.66552,-33.67493 8.55967,-9.41426 19.03568,-17.10599 30.55481,-22.55853 11.46326,-5.42299 23.98484,-8.644606 36.62337,-9.291345 12.85358,-0.659953 25.86365,1.372932 37.82498,6.048623 13.00118,5.063188 24.76756,13.301732 34.42048,23.502602 1e-5,10e-6 1e-5,10e-6 2e-5,2e-5 11.66912,12.30982 20.29337,27.45879 26.46154,43.50353 5.18035,13.40381 6.84475,28.16334 7.52653,42.9973 0.73443,16.71081 0.0333,33.58548 -0.33942,50.58569 -0.18829,8.37314 -0.31643,16.78572 -0.20673,25.21806 0.11807,9.07496 0.68025,18.55147 1.93865,27.94499 1.23091,9.23596 3.19787,18.4045 5.92318,26.85242 2.7253,8.44791 6.2122,16.16347 10.13217,22.656 -2.34975,-7.35723 -4.35156,-15.39887 -5.85188,-23.87882 -1.50032,-8.47996 -2.50736,-17.3951 -3.1377,-26.34543 -0.63929,-9.16495 -0.8914,-18.38553 -1.00397,-27.33155 -0.10421,-8.28256 0.0231,-16.60207 0.20432,-24.93881 0.37687,-16.89785 1.07612,-33.94761 0.33379,-51.11098 -0.62855,-15.2226 -2.46686,-30.81988 -8.04827,-45.51053 0,-1e-5 -10e-6,-1e-5 -10e-6,-2e-5 -6.42604,-16.83345 -15.60256,-32.8603 -28.11833,-46.1372 0,-1e-5 -10e-6,-1e-5 -10e-6,-2e-5 -10.3993,-11.013624 -23.13367,-19.904389 -37.32446,-25.459263 -13.05838,-5.094144 -27.17543,-7.306169 -41.14593,-6.586045 -13.71768,0.709265 -27.24293,4.183642 -39.63438,10.04963 -12.45497,5.892934 -23.76292,14.200658 -33.05063,24.406498 -9.56818,10.51888 -16.90576,23.041 -21.34843,36.56253 -1e-5,0 -1e-5,1e-5 -1e-5,2e-5 -4.87828,14.90252 -6.1917,30.8089 -4.41547,46.28074 2.16967,18.79683 8.61185,36.81415 17.4393,53.29492 -0.35497,-0.59384 -0.3807,-1.33242 -0.12965,-2.32631 0.40751,-0.69224 0.5389,-0.98517 0.53565,-0.84346 0,0 0,0 -1e-5,1e-5 -0.31658,0.34172 -1.21145,0.60112 -2.43064,1.1241 -3.57475,1.35562 -7.5104,2.45835 -11.54337,4.03257 -1e-5,0 -2e-5,0 -3e-5,1e-5 -2.18292,0.85028 -4.39692,1.83677 -6.56753,3.06373 -2.01626,1.12298 -4.03569,2.55051 -5.85139,4.4106 -1.70929,1.73813 -3.08217,3.9658 -3.82513,6.57995 0,1e-5 -1e-5,2e-5 -1e-5,3e-5 -0.72994,2.94654 -0.54748,5.85685 0.25938,8.42356 1.30479,4.44323 3.24347,8.8346 6.04994,12.80167 2.32928,3.28798 5.32795,6.18803 8.91667,8.34054 2.89467,1.6678 6.01316,2.75003 9.19947,3.3017 4.38905,0.75991 8.98913,0.48231 13.31665,-0.73995 8.51439,-2.4018 15.98849,-7.5902 21.9834,-13.85422 6.77064,-7.02367 11.97969,-15.41163 15.84587,-24.20577 0.34323,-0.78071 0.67494,-1.56583 0.99521,-2.35477 0.76755,-1.83736 1.61938,-3.53446 2.74002,-4.87044 1e-5,0 1e-5,0 1e-5,-1e-5 0.8139,-0.94329 1.66219,-1.73458 2.55125,-2.08112 0.69757,-0.314 1.53626,-0.42129 2.31633,-0.31054 0.89,0.0974 1.84746,0.53637 2.81254,1.11509 0,0 0,0 0,0 2.53903,1.52543 4.54774,4.16903 6.35228,7.06162 2.16731,3.57836 3.71273,7.57148 4.72642,11.71336 1.07669,4.45344 1.50926,9.04909 1.09185,13.53589 0,0 0,0 0,0 -0.42585,4.50332 -1.69704,8.91754 -3.98065,12.66581 -1.28704,2.15024 -2.9318,4.09704 -4.82592,5.7939 -2.01065,1.80124 -3.95369,3.02151 -5.65417,3.90933 0,0 -1e-5,0 -1e-5,0 -1.35304,0.71337 -2.56657,1.22117 -3.64224,1.61574 -1.07568,0.39456 -2.01474,0.67431 -2.84478,0.89162 -1.66009,0.4346 -2.88065,0.62825 -4.00483,0.77505 -1.12418,0.14681 -2.15599,0.24062 -3.48843,0.34837 -1.33245,0.10776 -2.96769,0.23148 -5.31523,0.32925 0,0 0,0 0,0 -2.84829,0.10081 -6.68289,0.28076 -12.15285,0.77671 -11.22102,1.01739 -22.48595,2.71736 -33.4785,5.99368 -4.35167,1.28286 -8.81764,2.91668 -13.04024,5.3982 -2.59008,1.38081 -5.39256,3.58263 -7.33351,7.0558 -1e-5,10e-6 -1e-5,10e-6 -1e-5,10e-6 -0.69979,1.33029 -1.08964,2.91383 -1.06035,4.65498 0.0979,1.7165 0.59712,3.25422 1.38916,4.52561 2.09661,3.174 4.90628,5.09529 7.48067,6.22349 3.96574,1.9363 8.08553,3.09198 12.0793,3.89904 5.55195,1.1459 11.14151,1.72586 16.67124,1.99861 30.25219,1.54944 61.22463,-2.23171 89.38944,-14.16213 0,-1e-5 1e-5,-1e-5 1e-5,-1e-5 0.40745,-0.17358 0.81409,-0.34884 1.21991,-0.52577 z"
       id="path3777"
       inkscape:connector-curvature="0"
       transform="translate(0,698.90551)"
       sodipodi:nodetypes="cssssssc"
       inkscape:path-effect="#path-effect4144"
       inkscape:original-d="m 408.58237,284.33501 c -35.77715,42.13637 -84.07443,65.22645 -151.50671,61.8394 -49.10421,-2.46645 -49.22577,-27.99995 29.47385,-32.63993 67.95733,-4.00663 23.58997,-95.39482 8.15792,-57.51602 -16.86158,41.38766 -58.65766,53.7593 -69.69542,16.70084 -5.58724,-18.75873 32.13429,-19.80398 29.24722,-25.20786 -78.0457,-146.08231 123.4226,-237.6703146 180.33496,-89.09608 20.11404,52.5093 -7.32492,135.20163 21.23905,197.6853"
       clip-path="url(#clipPath4169)" />
    <path
       style="fill:none;stroke:#9dd1f1;stroke-width:6;stroke-linecap:butt;stroke-linejoin:miter;stroke-miterlimit:4;stroke-opacity:1;stroke-dasharray:none"
       d="m 272.51654,235.36311 c 31.13823,61.0141 27.18767,105.61246 -2.6882,127.91417"
       id="path3779"
       inkscape:connector-curvature="0"
       transform="translate(0,698.90551)"
       sodipodi:nodetypes="cc"
       clip-path="url(#clipPath4173)" />
    <path
       style="fill:#9dd1f1;fill-opacity:1;stroke:none"
       d="m 443.34656,1016.9583 3.71844,7.0834 c 17.5047,-9.1819 36.20618,-16.1077 55.52595,-19.8201 17.11618,-3.2844 34.72986,-4.0839 51.82195,-1.4578 0,0 0,0 0,0 15.44103,2.3752 30.48683,7.5575 43.51135,15.9131 12.69334,8.1202 23.43451,19.3255 30.96073,32.3698 6.99218,12.0942 12.16078,25.2642 15.92491,38.8408 3.45086,12.4461 5.72322,25.2858 7.73064,38.2393 0.3214,2.0828 0.6347,4.1721 0.94746,6.2666 1.38224,9.2568 3.14533,19.1334 5.83425,28.552 1.48291,5.2466 3.3052,10.4015 5.54127,15.0714 2.23607,4.6698 4.88806,8.847 7.82768,12.2518 -1.77314,-4.2171 -3.22088,-8.7626 -4.3919,-13.5798 -1.17102,-4.8173 -2.07166,-9.9055 -2.89744,-15.0825 -1.469,-9.3766 -2.60715,-19.0845 -3.99931,-28.3955 -0.31373,-2.0982 -0.62985,-4.2008 -0.95593,-6.3062 -2.01602,-13.0723 -4.35367,-26.2158 -7.92649,-39.1507 -3.9006,-14.121 -9.32988,-27.9131 -16.70693,-40.7072 0,0 -10e-6,0 -10e-6,0 -8.18683,-14.1714 -19.80003,-26.2894 -33.57684,-35.1082 -14.1194,-9.0146 -30.19948,-14.58682 -46.61421,-17.08274 -10e-6,0 -10e-6,0 -2e-5,0 -18.1401,-2.76118 -36.66103,-1.94427 -54.54371,1.51008 -20.18198,3.89326 -39.61875,11.07656 -57.73184,20.59246 z"
       id="path5364"
       inkscape:connector-curvature="0"
       sodipodi:nodetypes="csc"
       inkscape:path-effect="#path-effect4415"
       inkscape:original-d="m 445.20578,1020.5 c 75.72526,-39.75252 154.72491,-27.60357 187.1433,28.5467 30.30198,52.4846 20.63596,109.6921 40.34211,141.2219" />
    <path
       style="fill:none;stroke:#9dd1f1;stroke-width:8;stroke-linecap:butt;stroke-linejoin:miter;stroke-miterlimit:4;stroke-opacity:1;stroke-dasharray:none"
       d="m 348.68034,1029.2378 c -10.07386,160.2109 116.69628,208.6683 227.49049,133.5959"
       id="path5356"
       inkscape:connector-curvature="0"
       sodipodi:nodetypes="cc" />
    <path
       style="fill:#9dd1f1;fill-opacity:1;stroke:none"
       d="m 663.36521,1168.6211 2.97165,7.4194 7.45619,-2.9916 c 1.75906,-0.511 3.35079,-0.93 4.7565,-0.9184 0.59111,0.012 1.02033,0.012 1.22779,0.1101 0,0 10e-6,0 10e-6,0 0.0945,0.077 0.1146,0.027 -0.0982,-0.1295 24.60299,30.0253 43.69282,64.4133 58.97938,100.3093 0,0 0,0 1e-5,0 16.11224,37.8526 28.09864,77.4364 38.25047,117.4741 -0.0377,-0.1979 -0.047,-0.3346 -0.0157,-0.4569 0.0439,-0.089 0.003,-0.053 -0.0657,0.096 -0.23853,0.4972 -0.94767,1.0392 -1.83886,1.7712 0,0 0,0 -10e-6,0 -2.8546,2.1847 -6.47086,3.7173 -10.30235,5.2957 -5.18703,2.0917 -10.57963,3.8087 -16.06738,5.3751 -6.23252,1.7759 -12.5464,3.308 -18.91144,4.6514 -6.33323,1.3359 -12.69647,2.4807 -19.08403,3.3773 -5.55514,0.7773 -11.08329,1.3891 -16.57663,1.5942 -10e-6,0 -2e-5,0 -3e-5,0 -2.19018,0.081 -4.34128,0.1017 -6.44349,-0.012 -1.65447,-0.097 -3.19928,-0.2333 -4.58888,-0.5579 -10e-6,0 -2e-5,0 -3e-5,0 -1.00675,-0.2998 -1.7234,-0.4329 -1.91708,-0.6785 0,0 0,0 0,0 -0.0172,-0.051 0.0283,0.041 0.20207,0.2655 0,0 0,0 10e-6,0 0.15102,0.2761 0.22326,0.536 0.22802,0.8323 -0.13451,-25.5209 -1.3252,-51.1208 -4.59959,-76.5412 0,0 0,0 0,0 -2.43849,-18.955 -6.07066,-37.8637 -11.78642,-56.243 0,0 0,-10e-5 -10e-6,-10e-5 -4.37987,-14.0839 -10.0569,-27.8382 -17.38136,-40.7506 -10e-6,0 -10e-6,0 -2e-5,-10e-5 -6.05677,-10.6632 -13.22956,-20.6523 -21.22731,-29.892 -7.28168,-8.4076 -15.16031,-16.1623 -23.10774,-23.7027 -7.61752,-7.2337 -15.27454,-14.3044 -22.47883,-21.7037 -0.21084,-0.2166 -0.42175,-0.4336 -0.6327,-0.6511 -7.66016,-7.8981 -15.37979,-16.4743 -22.22492,-25.4346 -4.2794,-5.596 -8.23755,-11.3433 -11.84171,-17.0014 -3.60415,-5.6581 -6.85539,-11.2251 -9.77429,-16.4362 1.58786,5.8627 3.73433,12.0601 6.46398,18.3276 2.72966,6.2676 6.04387,12.6032 9.8998,18.7434 6.22515,9.902 13.82642,19.1857 21.72963,27.3643 0.21643,0.224 0.43302,0.4472 0.64973,0.6696 7.40363,7.5981 15.13477,14.7422 22.70117,21.9239 7.87423,7.4805 15.57242,15.0462 22.56639,23.1358 7.67852,8.8761 14.54881,18.4368 20.31982,28.6069 7.00322,12.3242 12.45312,25.5546 16.70001,39.1791 0,0 10e-6,0 10e-6,0 5.54912,17.8024 9.08264,36.2594 11.49046,54.888 3.2254,24.9859 4.39423,50.2592 4.53402,75.5613 0.009,1.1031 0.29742,2.1678 0.8536,3.1417 2e-5,0 3e-5,0 5e-5,0 0.61616,0.9868 1.30424,1.7098 1.99864,2.1784 1.78585,1.1997 3.48723,1.7802 4.87122,2.0207 2e-5,0 3e-5,0 4e-5,0 2.06031,0.455 4.05197,0.6534 5.92946,0.7434 2.43047,0.1266 4.82339,0.1078 7.16898,0.017 2e-5,0 3e-5,0 4e-5,0 5.87627,-0.2254 11.67435,-0.8612 17.38641,-1.6661 6.59044,-0.9259 13.13338,-2.1022 19.62314,-3.4719 6.5227,-1.3758 13.01666,-2.9525 19.45164,-4.7852 5.64982,-1.6065 11.30778,-3.4144 16.86343,-5.6479 3.9922,-1.5716 8.21035,-3.443 12.10804,-6.312 10e-6,0 2e-5,0 3e-5,0 1.26801,-0.884 2.64122,-2.1486 3.83109,-3.939 10e-6,0 2e-5,0 3e-5,0 0.46644,-0.7071 0.8547,-1.6038 1.10723,-2.6806 0,0 1e-5,-10e-5 1e-5,-10e-5 0.21917,-1.0122 0.20428,-2.0814 -0.0568,-3.1609 -10.20076,-40.2791 -22.31831,-80.2518 -38.64393,-118.6409 0,0 0,0 -10e-6,0 -15.48336,-36.4253 -34.96369,-71.4586 -60.1509,-102.2453 -1.13448,-1.2823 -2.42857,-2.0903 -3.72375,-2.444 -2e-5,0 -4e-5,0 -6e-5,0 -1.41311,-0.4045 -2.70205,-0.5231 -3.80695,-0.4659 -2.66707,0.1192 -5.07689,0.6934 -7.2108,1.384 z"
       id="path5366"
       inkscape:connector-curvature="0"
       sodipodi:nodetypes="csssc"
       inkscape:path-effect="#path-effect4447"
       inkscape:original-d="m 664.85099,1172.3308 c 0,0 14.28344,-7.199 17.9231,-2.7537 48.98879,59.8332 77.18083,137.1281 98.01235,219.3348 3.59805,14.1989 -103.18654,35.9597 -103.25887,22.5583 -1.2654,-234.4601 -95.76831,-198.2969 -141.05496,-308.3783" />
    <path
       id="path5002"
       style="fill:none;stroke:#e2401e;stroke-width:2.36680007;stroke-linecap:round;stroke-linejoin:round;stroke-miterlimit:4;stroke-opacity:1;stroke-dasharray:none;display:inline"
       d="m 604.32959,1075.3472 -8.70539,-35.244 m -1.40884,47.8809 32.0478,9.1951 m -42.5145,19.7715 -5.35077,14.002 -21.71047,-52.8714 m 20.00494,-7.9507 27.63723,5.2166 -22.5961,28.2322 m 1.69648,11.2566 20.74743,-1.2121 17.59892,22.0719 8.49028,-2.4602 m -53.03126,-80.3384 -14.87318,-0.4953 14.3302,17.7287 11.56278,76.7215 11.47341,0.8675 m -48.05766,-72.2622 c 0.68809,2.0583 2.82181,3.2701 4.76609,2.7067 1.94418,-0.5635 2.96255,-2.6887 2.27455,-4.7469 -0.68798,-2.0583 -2.82182,-3.2701 -4.76597,-2.7067 -1.94431,0.5635 -2.96268,2.6887 -2.27467,4.7469 z m 25.77623,-21.4157 c 0.688,2.0583 2.82182,3.2701 4.76607,2.7067 1.94421,-0.5635 2.96258,-2.6886 2.27466,-4.7469 -0.68805,-2.0582 -2.8219,-3.2701 -4.76611,-2.7066 -1.94422,0.5634 -2.96262,2.6886 -2.27462,4.7468 z m 13.71793,-16.7192 c 0.688,2.0582 2.82187,3.27 4.76607,2.7066 1.94421,-0.5634 2.96257,-2.6886 2.27461,-4.7469 -0.688,-2.0582 -2.82186,-3.2701 -4.76606,-2.7066 -1.94418,0.5634 -2.96262,2.6886 -2.27462,4.7469 z m 35.2365,61.9265 c 0.68801,2.0583 2.82183,3.2701 4.76607,2.7067 1.94422,-0.5635 2.96258,-2.6887 2.27462,-4.7469 -0.688,-2.0583 -2.82185,-3.2701 -4.76607,-2.7067 -1.94422,0.5635 -2.96263,2.6887 -2.27462,4.7469 z m -26.45812,49.7737 c 0.68806,2.0584 2.82183,3.2703 4.76613,2.7068 1.94421,-0.5634 2.96252,-2.6886 2.27456,-4.747 -0.68797,-2.0581 -2.82184,-3.27 -4.76605,-2.7066 -1.94424,0.5635 -2.9626,2.6887 -2.27464,4.7468 z m 30.32317,-15.7871 c 0.68798,2.0582 2.82182,3.2701 4.76597,2.7066 1.94432,-0.5634 2.96268,-2.6886 2.27467,-4.7468 -0.68809,-2.0583 -2.82179,-3.2701 -4.76609,-2.7066 -1.94416,0.5634 -2.96255,2.6885 -2.27455,4.7468 z"
       inkscape:connector-curvature="0" />
    <g
       id="g4316">
      <path
         style="fill:#d1e8f6;fill-opacity:1;stroke:none"
         d="m 454.50435,1151.2413 c 13.74141,100.9515 -18.98091,121.953 -71.54352,93.2509 -1.02919,30.3432 -0.53135,61.9044 2.65267,92.3683 1.52062,14.5489 -102.80801,8.6728 -99.97388,-8.7889 24.94492,-153.6913 72.3484,-195.9813 116.12828,-153.0925 8.67491,-10.1112 15.17934,-20.5018 20.30163,-33.8745 z"
         id="path4314"
         inkscape:connector-curvature="0"
         sodipodi:nodetypes="ccssccc" />
      <path
         inkscape:original-d="m 384.05015,1220.6047 c -2.19364,37.4129 -2.4651,77.7126 1.56335,116.2558 1.52061,14.5489 -102.80801,8.6728 -99.97388,-8.7889 27.90907,-171.9541 83.93123,-204.4588 131.53783,-134.2391"
         inkscape:path-effect="#path-effect4294"
         sodipodi:nodetypes="cssc"
         inkscape:connector-curvature="0"
         id="path4116"
         d="m 387.87204,1316.4426 c -1.19364,-17.5743 -1.82369,-33.5687 -2.37014,-49.1508 -0.54646,-15.5822 -0.99135,-30.7552 -1.45175,-46.6871 -2.23212,15.774 -3.80429,31.2347 -4.57534,47.0732 -0.77105,15.8386 -0.75201,32.0587 0.41894,49.3065 0.45964,6.7703 1.03633,13.5353 1.74142,20.2919 0.0891,-0.5026 0.0394,-0.6271 0.10814,-0.6079 -0.16401,0.2979 -0.83003,0.5817 -1.72622,1.051 -2.92197,1.3489 -6.48494,1.863 -10.29075,2.3937 0,0 -10e-6,0 -10e-6,0 -5.19498,0.6706 -10.50124,0.9079 -15.86374,0.9645 0,0 0,0 -1e-5,0 -6.14028,0.061 -12.2941,-0.1565 -18.4422,-0.5973 -6.16387,-0.4432 -12.29705,-1.1076 -18.36775,-2.0689 -5.34147,-0.85 -10.5907,-1.8853 -15.6352,-3.3884 0,0 -1e-5,0 -1e-5,0 -3.7613,-1.1676 -7.27881,-2.3103 -9.94088,-4.2415 0,0 0,0 0,0 -0.84998,-0.6588 -1.52756,-1.1723 -1.74798,-1.654 0,0 0,0 0,0 -0.10359,-0.2277 -0.20547,-0.4447 -0.14061,-0.4151 5.69274,-34.9844 12.93457,-69.7627 25.42349,-102.6137 4.29963,-11.3035 9.21006,-22.3201 15.38268,-32.5122 0,0 1e-5,0 1e-5,0 4.62987,-7.612 9.85383,-14.7774 16.2855,-20.4602 4.85787,-4.262 10.35685,-7.7342 16.27099,-9.133 0.72458,-0.1815 1.45818,-0.3309 2.19829,-0.449 4.53353,-0.7236 9.44615,-0.3614 14.1213,1.0323 6.36363,1.8684 12.397,5.6029 17.89932,9.8584 7.70921,5.992 14.29848,13.0503 20.00792,19.3975 -3.792,-7.7946 -9.04981,-16.1653 -16.30215,-23.5394 -5.21681,-5.3275 -11.66373,-10.1188 -19.20812,-12.885 -5.68309,-2.0574 -11.88295,-2.6782 -17.76685,-1.7532 -0.95776,0.1505 -1.91156,0.3401 -2.8589,0.5695 -7.54359,1.9085 -14.17795,5.9774 -19.67714,10.923 -7.24374,6.4749 -12.97787,14.2534 -17.81598,22.2997 -1e-5,0 -1e-5,0 -1e-5,0 -6.50076,10.7673 -11.62229,22.2172 -16.016,33.8121 -12.75714,33.6476 -20.13814,68.9451 -25.84101,104.1716 -0.28532,2.1871 0.17109,4.218 1.20421,5.8572 10e-6,0 10e-6,0 2e-5,0 1.19257,1.839 2.61949,3.1509 3.99599,4.0493 1e-5,0 1e-5,0 2e-5,0 3.9676,2.7055 8.25432,4.2192 12.2485,5.3547 10e-6,0 10e-6,0 2e-5,0 5.52348,1.6351 11.11506,2.748 16.66223,3.621 6.3287,1.0008 12.68773,1.6911 19.04532,2.1468 6.34179,0.4557 12.71287,0.6799 19.094,0.6174 5.55225,-0.051 11.17165,-0.3101 16.80315,-1.0291 10e-6,0 10e-6,0 2e-5,0 3.96745,-0.4669 8.27162,-1.1881 12.51431,-3.0151 1.36201,-0.5317 2.92529,-1.4648 4.41801,-2.999 1.29119,-1.3327 2.01512,-3.2739 1.91474,-5.5893 -0.69672,-6.6555 -1.26621,-13.3239 -1.71979,-20.0021 z"
         style="fill:#9dd1f1;fill-opacity:1;stroke:none" />
      <path
         inkscape:original-d="m 381.31061,1243.5931 c 53.51915,30.0343 87.07972,9.6618 73.19374,-92.3518"
         inkscape:path-effect="#path-effect4302"
         sodipodi:nodetypes="cc"
         inkscape:connector-curvature="0"
         id="path4112"
         d="m 383.26818,1240.1048 c -0.31279,2.8813 -0.57587,5.7801 -0.77709,8.6965 5.30216,2.8291 10.81463,5.3702 16.5709,7.4036 5.68209,2.0175 11.69625,3.5187 17.94156,3.9652 10e-6,0 10e-6,0 10e-6,0 5.26911,0.3855 10.74301,-0.1228 15.97018,-1.9263 5.00736,-1.7673 9.50472,-4.7417 13.11495,-8.5582 4.14219,-4.4194 7.10167,-9.6403 9.19102,-15.0055 0,0 0,0 0,0 2.71136,-6.9112 4.2377,-14.1114 5.13973,-21.2381 0.33536,-2.6388 0.60035,-5.2791 0.80178,-7.9198 0.7079,-9.2806 0.27564,-19.1482 -1.00622,-28.5217 -1.28187,-9.3736 -3.3703,-18.2514 -5.71065,-25.7592 -0.31427,8.0226 -0.248,17.0561 -0.30218,26.2637 -0.0542,9.2076 -0.26299,18.5816 -0.94329,27.4067 -0.19358,2.5111 -0.44935,5.0149 -0.77411,7.51 -0.87612,6.7022 -2.23796,13.2633 -4.64623,19.3209 -1.87028,4.6653 -4.28556,9.0318 -7.55842,12.4421 -2.76642,2.9168 -6.21004,5.2084 -9.95373,6.5099 -3.9413,1.4117 -8.34963,1.776 -12.77346,1.4944 0,0 0,0 -1e-5,0 -5.2941,-0.3479 -10.60534,-1.7039 -15.83282,-3.5296 -6.33787,-2.2261 -12.46926,-5.2038 -18.45192,-8.5546 z"
         style="fill:#9dd1f1;fill-opacity:1;stroke:none" />
      <path
         sodipodi:nodetypes="cccc"
         transform="translate(0,698.90551)"
         inkscape:connector-curvature="0"
         id="path4310"
         d="m 399.47244,473.58325 4.88909,4.91053 c 9.125,-11.125 13.91358,-21.28859 17.708,-36.29468 -7.46752,13.71688 -13.53643,22.66815 -22.59709,31.38415 z"
         style="fill:#9dd1f1;fill-opacity:1;fill-rule:evenodd;stroke:none" />
    </g>
    <path
       style="fill:#9dd1f1;fill-opacity:1;stroke:none"
       d="m 253.07877,965.97038 c 4.12776,10.12668 -6.4136,14.10597 -10.42575,4.23297 4.71788,3.25389 9.23831,1.48246 10.42575,-4.23297 z"
       id="path4110"
       inkscape:connector-curvature="0"
       sodipodi:nodetypes="ccc" />
    <g
       id="g4980">
      <path
         sodipodi:nodetypes="ccccscc"
         inkscape:connector-curvature="0"
         id="path4033"
         d="m 479.10018,1041.3899 c 98.57923,-8.5369 139.72539,-71.22318 80.01209,-66.37553 138.06602,-89.05607 99.23317,-128.63626 18.15671,-77.95803 135.89705,-178.48399 55.46751,-166.32459 -33.19205,-52.75252 20.0791,-48.99563 47.61174,-118.52279 11.00781,-94.75453 -84.65295,54.96826 -35.29773,197.82894 -97.8052,283.75461 z"
         style="fill:#d1e8f6;fill-opacity:1;stroke:none" />
      <path
         inkscape:original-d="m 479.10018,1041.3899 c 108.37399,-9.3852 147.3349,-84.2147 59.14756,-62.88868 -31.14114,7.53075 -27.56969,-45.05445 -7.64731,-100.49161 13.0707,-36.37131 71.35275,-158.8937 24.48431,-128.46032 -84.65296,54.96824 -35.29773,197.82894 -97.8052,283.75461"
         inkscape:path-effect="#path-effect4948"
         style="fill:#9dd1f1;fill-opacity:1;stroke:none"
         d="m 548.43626,1019.2462 c -1.20871,0.5918 -2.41921,1.1676 -3.63077,1.7296 -10.27759,4.7671 -20.54529,8.5166 -31.30387,11.8114 -10.75859,3.2947 -22.02457,6.1275 -34.40144,8.6027 12.61102,0.2287 24.43231,-0.7076 35.81859,-2.8388 11.38627,-2.1312 22.35549,-5.4432 33.20232,-10.3179 1.27934,-0.5749 2.55758,-1.1734 3.83369,-1.7977 6.64622,-3.2511 13.09714,-7.0191 19.12064,-11.4786 5.3402,-3.9257 10.48172,-8.5254 14.5669,-14.2072 1.53048,-2.12552 2.90536,-4.50056 3.91807,-7.14612 10e-6,-10e-6 10e-6,-2e-5 2e-5,-3e-5 0.83846,-2.14377 1.35443,-4.57476 1.29978,-7.18499 0,-10e-6 0,-3e-5 0,-4e-5 -0.0698,-2.34927 -0.7464,-4.69255 -2.03263,-6.79036 -1.43354,-2.21731 -3.31436,-3.90184 -5.34482,-5.06232 -2.5583,-1.47796 -5.23897,-2.3707 -7.82671,-2.89675 -3.43404,-0.72017 -6.85465,-0.97206 -10.17223,-0.97344 -9.67928,-0.01 -19.11013,1.70479 -28.17626,3.91764 -2.88759,0.63458 -5.71795,0.91665 -8.03139,0.16443 -10e-6,0 -10e-6,0 -10e-6,0 -1.90716,-0.51807 -3.70045,-1.82455 -5.02086,-3.48128 -1.65005,-2.01328 -2.68609,-4.73932 -3.49452,-7.6735 -0.99056,-3.74461 -1.36457,-7.75263 -1.48691,-11.86103 -0.30854,-10.85325 1.37075,-21.83999 3.65197,-32.7812 0,-1e-5 0,-1e-5 10e-6,-2e-5 2.81851,-13.42377 6.77602,-26.63495 11.43891,-39.61831 2.04441,-5.69274 4.34874,-11.34875 6.66827,-17.05684 10e-6,-10e-6 10e-6,-2e-5 2e-5,-3e-5 3.04364,-7.48656 6.14124,-14.96844 9.20252,-22.48248 6.67802,-16.3855 13.29132,-32.89554 18.88299,-49.84262 2.3564,-7.13257 4.56219,-14.41085 6.17337,-21.91191 0.63764,-2.96218 1.17965,-6.00796 1.49515,-9.13956 0,-10e-6 0,-2e-5 0,-3e-5 0.2567,-2.42278 0.3598,-5.01879 0.0548,-7.73288 -0.15257,-1.95417 -0.76504,-4.22324 -2.1957,-6.47468 -0.63412,-0.94215 -1.48348,-1.79446 -2.535,-2.49768 -1.08787,-0.6917 -2.23776,-1.12921 -3.387,-1.32255 -2e-5,0 -4e-5,0 -6e-5,-10e-6 -2.90781,-0.39459 -5.43259,0.10635 -7.3918,0.90881 -3.15114,1.14852 -5.92489,2.73705 -8.42597,4.38458 -10.42625,6.77154 -19.61072,15.42073 -26.98597,25.43312 0,0 -10e-6,10e-6 -2e-5,2e-5 -7.20389,9.80356 -12.66516,20.71359 -16.79515,31.98528 -4.36413,11.89907 -7.35328,24.18135 -9.63857,36.48547 0,10e-6 0,2e-5 0,3e-5 -2.42989,13.05895 -4.09986,26.18721 -5.58351,39.26777 -3.07679,27.03591 -5.31328,54.0275 -10.79146,80.26536 -0.3644,1.74613 -0.74294,3.48864 -1.13696,5.22664 -2.43542,10.74246 -5.34895,21.95093 -8.97294,32.67912 -2.21799,6.56579 -4.701,12.95839 -7.36526,18.97509 -2.66427,6.0166 -5.51054,11.6562 -8.35697,16.7915 4.10192,-4.3391 8.0981,-9.4225 11.76973,-15.0694 3.67163,-5.6469 7.01751,-11.8548 9.91016,-18.36129 4.75727,-10.69911 8.31052,-22.16501 10.82003,-33.2466 0.40438,-1.78567 0.79196,-3.57385 1.1641,-5.36364 5.58691,-26.88199 7.8624,-54.11646 10.90847,-80.99404 0,-10e-6 0,-2e-5 10e-6,-3e-5 1.47937,-13.00969 3.12128,-25.95058 5.49935,-38.70565 0,-1e-5 0,-2e-5 0,-3e-5 2.24469,-12.01743 5.11533,-23.86836 9.28304,-35.19139 3.94387,-10.7038 9.04934,-20.95223 15.72776,-30.00048 10e-6,0 2e-5,-10e-6 2e-5,-2e-5 6.79504,-9.23046 15.28449,-17.22436 24.90092,-23.46725 2.30026,-1.47016 4.51823,-2.78376 6.75865,-3.55979 1.46745,-0.42071 2.62976,-0.80747 3.3044,-0.56627 0.19791,0.0458 0.35731,0.0914 0.41555,0.14699 0.0752,0.0314 0.18314,0.16 0.31069,0.32649 0.44511,0.47878 0.60742,1.55206 0.84521,2.88731 0.23541,1.83941 0.12687,3.85673 -0.0711,5.99681 0,10e-6 0,2e-5 0,3e-5 -0.26751,2.71884 -0.76353,5.47059 -1.35718,8.25746 -1.50857,7.06542 -3.63934,14.06701 -5.94832,21.08186 -5.4816,16.63176 -12.03196,32.97083 -18.69418,49.32969 -3.04988,7.48614 -6.14822,14.96982 -9.20474,22.48792 0,0 -10e-6,10e-6 -10e-6,2e-5 -2.32031,5.70461 -4.66387,11.46309 -6.78594,17.36424 -4.76592,13.25379 -8.82353,26.81835 -11.73926,40.67844 0,10e-6 0,2e-5 0,3e-5 -2.37943,11.23447 -4.11478,22.84066 -3.82018,34.63954 0.10643,4.4835 0.56569,9.09303 1.74264,13.66556 0.89635,3.6074 2.41841,7.31152 4.95259,10.60773 2.2685,2.89735 5.41289,5.11422 9.07416,6.21246 10e-6,10e-6 2e-5,10e-6 4e-5,10e-6 4.21821,1.14368 8.41872,0.8926 12.14183,-0.0715 8.78649,-2.10438 17.5818,-3.74411 26.26963,-3.69354 2.95645,0.0192 5.83081,0.21269 8.53346,0.7983 10e-6,0 2e-5,10e-6 3e-5,10e-6 2.03424,0.45744 3.91478,1.03859 5.42632,1.96197 1.1364,0.70808 2.11053,1.5085 2.62475,2.40996 0.50523,0.7707 0.77852,1.79118 0.82259,2.82195 0,10e-6 0,2e-5 0,2e-5 0.0749,1.23602 -0.27122,2.63668 -0.79016,4.094 0,10e-6 -10e-6,2e-5 -10e-6,3e-5 -0.6658,1.8074 -1.7173,3.57578 -2.94795,5.32615 -3.33154,4.7293 -7.88967,8.7344 -12.81673,12.4233 -5.54322,4.1189 -11.57846,7.6324 -17.87361,10.7149 z"
         id="path3180"
         inkscape:connector-curvature="0"
         sodipodi:nodetypes="csssc"
         clip-path="url(#clipPath4966)" />
      <path
         style="fill:none;stroke:#9dd1f1;stroke-width:8;stroke-linecap:butt;stroke-linejoin:miter;stroke-miterlimit:20;stroke-opacity:1;stroke-dasharray:none"
         d="M 524.63271,996.17863 C 702.82389,892.47889 664.49247,842.5358 577.26898,897.05634 731.99977,693.83655 606.28838,737.76369 507.24005,897.24065"
         id="path3950"
         inkscape:connector-curvature="0"
         sodipodi:nodetypes="ccc"
         clip-path="url(#clipPath4970)" />
      <path
         style="fill:none;stroke:#9dd1f1;stroke-width:6.49779654;stroke-linecap:butt;stroke-linejoin:miter;stroke-miterlimit:20;stroke-opacity:1;stroke-dasharray:none"
         d="m 507.17677,457.05159 c -25.80114,8.38299 -35.56585,41.20406 -12.42677,43.54289 -56.5,52.25 -19.75,99.5 7.5,48.25 -6.75,80 27.25,67.75 32.5,-3.5"
         id="path4051"
         inkscape:connector-curvature="0"
         transform="matrix(-1.2121786,-0.21550743,0.21550743,-1.2121786,1012.6242,1710.1765)"
         sodipodi:nodetypes="cccc"
         clip-path="url(#clipPath4976)" />
    </g>
    <g
       id="g4218">
      <path
         sodipodi:nodetypes="ccc"
         transform="translate(0,698.90551)"
         inkscape:connector-curvature="0"
         id="path5354"
         d="m 301.28532,271.81005 c -16.3626,-72.50214 -2.55706,-98.17443 67.14973,-107.62963 21.8741,59.71966 10.43775,102.87815 -67.14973,107.62963 z"
         style="fill:#ffffff;stroke:none" />
      <g
         clip-path="url(#clipPath4214)"
         id="g3774">
        <path
           sodipodi:type="arc"
           style="fill:url(#linearGradient3772);fill-opacity:1;stroke:none"
           id="path5358"
           sodipodi:cx="322.19559"
           sodipodi:cy="237.64638"
           sodipodi:rx="31.305496"
           sodipodi:ry="44.826393"
           d="m 353.50108,237.64638 c 0,24.75693 -14.01594,44.82639 -31.30549,44.82639 -17.28955,0 -31.3055,-20.06946 -31.3055,-44.82639 0,-24.75694 14.01595,-44.8264 31.3055,-44.8264 17.28955,0 31.30549,20.06946 31.30549,44.8264 z"
           transform="matrix(1.2128833,-0.15905102,0.15905102,1.2128833,-112.80517,692.03804)" />
        <path
           transform="matrix(0.95240203,-0.0910517,0.0910517,0.95240203,-17.11296,735.07648)"
           d="m 353.50108,237.64638 c 0,25.61845 -14.01594,46.3863 -31.30549,46.3863 -17.28955,0 -31.3055,-20.76785 -31.3055,-46.3863 0,-25.61845 14.01595,-46.38631 31.3055,-46.38631 17.28955,0 31.30549,20.76786 31.30549,46.38631 z"
           sodipodi:ry="46.386303"
           sodipodi:rx="31.305496"
           sodipodi:cy="237.64638"
           sodipodi:cx="322.19559"
           id="path5360"
           style="fill:#000000;stroke:none"
           sodipodi:type="arc" />
        <path
           sodipodi:type="arc"
           style="fill:#ffffff;stroke:none"
           id="path5362"
           sodipodi:cx="332.04865"
           sodipodi:cy="218.06339"
           sodipodi:rx="12.029372"
           sodipodi:ry="19.037611"
           d="m 344.07802,218.06339 c 0,10.51418 -5.38574,19.03761 -12.02937,19.03761 -6.64364,0 -12.02938,-8.52343 -12.02938,-19.03761 0,-10.51419 5.38574,-19.03762 12.02938,-19.03762 6.64363,0 12.02937,8.52343 12.02937,19.03762 z"
           transform="matrix(1.1588482,0.21196602,-0.21196602,1.1588482,-10.262294,589.40554)" />
      </g>
      <path
         sodipodi:nodetypes="ccccccccscscs"
         inkscape:connector-curvature="0"
         d="m 349.66199,866.72139 10.62566,-2.24274 c 5.20782,-8.68018 6.90155,-16.96302 6.13506,-29.43801 -4.38475,12.78745 -9.11224,21.64168 -16.76072,31.68075 z m 13.81839,-2.29784 10.81944,-2.09266 c 5.55234,-9.16264 8.01726,-18.63682 8.05036,-31.28437 -4.58735,13.01961 -9.82226,22.60406 -18.8698,33.37703 z m 5.8147,2.4052 c 15.34245,-2.42822 26.16034,-10.869 28.80033,-26.80129 -7.79731,11.44275 -16.67315,16.36238 -29.98231,18.41457 -67.81291,10.45633 -90.59521,36.5519 -66.82778,112.27353 -12.86508,-77.6413 8.73186,-94.505 68.00976,-103.88681 z"
         style="fill:#000000;stroke:none"
         id="path3783" />
    </g>
    <g
       style="display:inline"
       id="g5019"
       transform="translate(0,698.90551)">
      <path
         sodipodi:nodetypes="ccccccccc"
         inkscape:connector-curvature="0"
         id="path5017"
         d="m 189.50721,97.540478 16.0245,126.802612 31.3523,-55.0407 45.28665,7.6639 22.29497,-50.86039 34.83588,30.65557 42.15142,-39.01618 7.31554,-45.983369 z"
         style="fill:#111e63;fill-opacity:1;stroke:#060d35;stroke-width:8;stroke-linecap:butt;stroke-linejoin:miter;stroke-miterlimit:20;stroke-opacity:1;stroke-dasharray:none" />
      <path
         sodipodi:nodetypes="cccccccccccc"
         inkscape:connector-curvature="0"
         id="path5013"
         d="m 398.06427,93.791471 -45.90133,35.062939 -35.8792,-40.974784 -41.38292,54.191914 -38.427,-34.48576 -51.29476,86.67768 L 170.4087,78.265625 259.23492,74.373909 286.29825,5.6414535 340.82827,63.246936 391.31351,48.559735 z"
         style="fill:#97bdd3;fill-opacity:1;stroke:#68a0c0;stroke-width:8;stroke-miterlimit:4;stroke-opacity:1;stroke-dasharray:none;display:inline" />
    </g>
    <g
       style="display:inline"
       id="g5030"
       transform="translate(0,698.90551)">
      <path
         sodipodi:nodetypes="ccccccccccc"
         inkscape:connector-curvature="0"
         id="path5028"
         d="m 447.32965,159.80708 -28.31284,-35.13873 19.91721,-19.26326 59.13897,104.65267 -38.427,47.29478 21.18412,52.71395 -49.75804,54.19192 5.41919,103.4573 -42.36822,-106.41323 59.61111,-153.70798 z"
         style="fill:#111e63;fill-opacity:1;stroke:#060d35;stroke-width:8;stroke-linecap:butt;stroke-linejoin:miter;stroke-miterlimit:20;stroke-opacity:1;stroke-dasharray:none" />
      <path
         sodipodi:nodetypes="cccccccccccc"
         inkscape:connector-curvature="0"
         id="path5026"
         d="m 436.20267,174.79075 8.66371,36.68521 -41.87557,36.0235 9.36042,60.10376 -47.29477,22.16942 31.03719,122.6708 10.83839,-84.2438 45.8168,-58.62581 -12.809,-56.16253 42.36823,-36.45638 -46.30946,-78.94415 z"
         style="fill:#97bdd3;fill-opacity:1;stroke:#68a0c0;stroke-width:8;stroke-linecap:butt;stroke-linejoin:miter;stroke-miterlimit:20;stroke-opacity:1;stroke-dasharray:none" />
    </g>
    <g
       id="g5349">
      <path
         style="fill:#d1e8f6;fill-opacity:1;stroke:none"
         d="m 375.40219,833.10928 c -14.91966,-55.05768 4.54502,-107.1004 10.54255,-108.70743 4.57696,-1.22639 100.74731,65.71632 48.54652,173.19938 -26.19834,-24.51138 -28.65545,-87.11952 -59.08907,-64.49195 z"
         id="path5347"
         inkscape:connector-curvature="0"
         sodipodi:nodetypes="cscc" />
      <path
         inkscape:original-d="m 375.40219,833.10928 c -14.91966,-55.05768 4.54502,-107.1004 10.54255,-108.70743 4.57696,-1.22639 100.74731,65.71632 48.54652,173.19938"
         inkscape:path-effect="#path-effect5339"
         sodipodi:nodetypes="csc"
         inkscape:connector-curvature="0"
         id="path4716"
         d="m 365.9514,784.75668 c -0.282,8.37738 0.28615,16.39312 1.78942,24.36688 1.50328,7.97376 3.94167,15.9196 7.66137,23.98572 -0.94578,-8.81781 -1.34882,-16.83591 -1.54428,-24.65228 -0.19546,-7.81637 -0.17638,-15.43366 0.0945,-23.43015 0.29062,-8.57904 1.23729,-17.14313 2.80917,-25.58128 1.5306,-8.14298 3.54604,-16.12963 6.61091,-23.61096 0.96789,-2.33706 1.93977,-4.52882 3.15527,-6.40366 0.40032,-0.59888 0.71767,-1.0776 1.01754,-1.36337 0,0 0,0 0,0 0.35152,-0.16072 0.14404,-0.17298 -0.56531,0.19797 -2e-5,1e-5 -4e-5,1e-5 -6e-5,1e-5 -1.34639,0.0922 -1.8335,0.15933 -1.48997,0.0528 0.085,0.014 0.28393,0.11354 0.60765,0.25689 0,0 1e-5,0 1e-5,0 1.02032,0.47752 2.07506,1.13548 3.21201,1.86432 3.77802,2.44305 7.35247,5.32537 10.84958,8.39527 10.94387,9.63078 20.39643,20.9749 27.92444,33.46521 4.62636,7.68005 8.49371,15.80845 11.41379,24.25092 3.21864,9.30152 5.28813,19.00126 6.08754,28.79677 0.69307,8.44706 0.4367,16.97994 -0.67249,25.41226 -0.33471,2.54458 -0.71823,5.13527 -1.15237,7.74601 -1.12369,6.77014 -2.60793,13.67779 -4.25367,20.32419 -1.64574,6.64641 -3.44434,13.02981 -5.01521,18.77098 3.65523,-4.85357 7.14731,-10.68574 10.07828,-17.10689 2.93097,-6.42114 5.29036,-13.42893 6.84182,-20.49955 0.59955,-2.73642 1.0777,-5.47919 1.43434,-8.19139 1.17925,-8.96796 1.44903,-18.06586 0.71272,-27.10729 -0.85794,-10.48218 -3.06523,-20.83688 -6.50097,-30.76167 0,0 0,0 0,0 -3.11728,-9.00107 -7.22064,-17.63369 -12.1218,-25.76355 -7.94944,-13.19285 -17.9243,-25.16245 -29.49134,-35.34165 -3.66734,-3.23495 -7.55268,-6.35285 -11.78224,-9.10203 -1.23431,-0.80871 -2.59314,-1.63672 -4.1243,-2.37448 0,0 -1e-5,0 -1e-5,0 -0.44492,-0.22275 -1.02731,-0.46992 -1.75805,-0.69964 -0.10516,-0.24052 -1.07143,-0.32835 -2.87016,-0.11495 -3e-5,0 -6e-5,0 -8e-5,10e-6 -1.71604,0.64069 -2.73254,1.37213 -3.10665,1.95953 0,0 0,1e-5 -10e-6,1e-5 -0.86447,0.91466 -1.51426,1.81341 -2.01488,2.62344 -1.61213,2.5471 -2.80629,5.16763 -3.82208,7.68999 -3.3274,8.17785 -5.49535,16.68299 -7.06841,25.16645 -1.6512,8.82806 -2.6435,17.79143 -2.94604,26.77911 z"
         style="fill:#9dd1f1;fill-opacity:1;stroke:none" />
      <path
         sodipodi:nodetypes="ccc"
         inkscape:connector-curvature="0"
         id="path4722"
         d="m 400.0114,768.80027 c 19.24766,23.90051 27.34381,53.01861 22.86545,85.02121 -1.18473,-31.32724 -7.93872,-58.73384 -22.86545,-85.02121 z"
         style="fill:#9dd1f1;fill-opacity:1;stroke:none" />
    </g>
  </g>
</svg>
