<?xml version="1.0" encoding="UTF-8" standalone="no"?>
<!-- Created with Inkscape (http://www.inkscape.org/) -->

<svg xmlns:dc="http://purl.org/dc/elements/1.1/" xmlns:cc="http://creativecommons.org/ns#" xmlns:rdf="http://www.w3.org/1999/02/22-rdf-syntax-ns#" xmlns:svg="http://www.w3.org/2000/svg" xmlns="http://www.w3.org/2000/svg" xmlns:xlink="http://www.w3.org/1999/xlink" xmlns:sodipodi="http://sodipodi.sourceforge.net/DTD/sodipodi-0.dtd" xmlns:inkscape="http://www.inkscape.org/namespaces/inkscape" id="svg2" version="1.1" inkscape:version="0.91+devel r" width="564.66339" height="497.04388" viewBox="0 0 564.66339 497.04388" sodipodi:docname="Secret Santa-Ponyhearted.svg">
  <title id="title3594">Paarden (Koren) Bloem (en Zielen)</title>
  <sodipodi:namedview pagecolor="#ffffff" bordercolor="#666666" borderopacity="1" objecttolerance="10" gridtolerance="10" guidetolerance="10" inkscape:pageopacity="0" inkscape:pageshadow="2" inkscape:window-width="1364" inkscape:window-height="698" id="namedview4" showgrid="false" showguides="true" inkscape:zoom="1.0823994" inkscape:cx="282.3317" inkscape:cy="248.52194" inkscape:window-x="0" inkscape:window-y="0" inkscape:window-maximized="1" inkscape:current-layer="layer2" inkscape:object-nodes="false" inkscape:snap-nodes="true" inkscape:object-paths="false" fit-margin-top="0" fit-margin-left="0" fit-margin-right="0" fit-margin-bottom="0" />
  <metadata id="metadata8">
    <rdf:RDF>
      <cc:Work rdf:about="">
        <dc:format>image/svg+xml</dc:format>
        <dc:type rdf:resource="http://purl.org/dc/dcmitype/StillImage" />
        <dc:title>Paarden (Koren) Bloem (en Zielen)</dc:title>
        <dc:date>15 December 2014</dc:date>
        <dc:creator>
          <cc:Agent>
            <dc:title>Parcly Taxel / Jeremy Tan</dc:title>
          </cc:Agent>
        </dc:creator>
        <dc:rights>
          <cc:Agent>
            <dc:title>CC BY-SA 4.0 / FAL 1.3</dc:title>
          </cc:Agent>
        </dc:rights>
        <dc:coverage>My-Little-OC-Pony Secret Santa 2014</dc:coverage>
        <dc:subject>
          <rdf:Bag>
            <rdf:li>Soul Flower (MLP unicorn/genie OC) relaxing</rdf:li>
          </rdf:Bag>
        </dc:subject>
      </cc:Work>
    </rdf:RDF>
  </metadata>
  <defs id="defs6">
    <inkscape:path-effect effect="powerstroke" id="path-effect6899" is_visible="true" offset_points="0.64,3" sort_points="true" interpolator_type="CubicBezierSmooth" interpolator_beta="0.2" start_linecap_type="butt" linejoin_type="extrp_arc" miter_limit="4" end_linecap_type="zerowidth" />
    <inkscape:path-effect effect="powerstroke" id="path-effect8987" is_visible="true" offset_points="0.29,3" sort_points="true" interpolator_type="CubicBezierSmooth" interpolator_beta="0.2" start_linecap_type="zerowidth" linejoin_type="extrp_arc" miter_limit="4" end_linecap_type="butt" />
    <inkscape:path-effect effect="powerstroke" id="path-effect8985" is_visible="true" offset_points="1.7,3" sort_points="true" interpolator_type="CubicBezierSmooth" interpolator_beta="0.2" start_linecap_type="butt" linejoin_type="extrp_arc" miter_limit="4" end_linecap_type="zerowidth" />
    <inkscape:path-effect effect="powerstroke" id="path-effect7364" is_visible="true" offset_points="0.23,3 | 2.25,3" sort_points="true" interpolator_type="CubicBezierSmooth" interpolator_beta="0.2" start_linecap_type="zerowidth" linejoin_type="extrp_arc" miter_limit="4" end_linecap_type="zerowidth" />
    <inkscape:path-effect effect="powerstroke" id="path-effect7334" is_visible="true" offset_points="0.21,3 | 2.3,3" sort_points="true" interpolator_type="CubicBezierSmooth" interpolator_beta="0.2" start_linecap_type="zerowidth" linejoin_type="extrp_arc" miter_limit="4" end_linecap_type="zerowidth" />
    <inkscape:path-effect effect="powerstroke" id="path-effect7290" is_visible="true" offset_points="0.89,3 | 1.77,3" sort_points="true" interpolator_type="CubicBezierSmooth" interpolator_beta="0.2" start_linecap_type="zerowidth" linejoin_type="extrp_arc" miter_limit="4" end_linecap_type="zerowidth" />
    <inkscape:path-effect effect="powerstroke" id="path-effect7266" is_visible="true" offset_points="0.22,3 | 1.6,3" sort_points="true" interpolator_type="CubicBezierSmooth" interpolator_beta="0.2" start_linecap_type="zerowidth" linejoin_type="extrp_arc" miter_limit="4" end_linecap_type="zerowidth" />
    <linearGradient inkscape:collect="always" id="linearGradient6881">
      <stop style="stop-color:#df21df;stop-opacity:1" offset="0" id="stop6883" />
      <stop style="stop-color:#8a188a;stop-opacity:1" offset="1" id="stop6885" />
    </linearGradient>
    <clipPath clipPathUnits="userSpaceOnUse" id="clipPath6905">
      <use x="0" y="0" xlink:href="#path6823" id="use6907" width="100%" height="100%" />
    </clipPath>
    <clipPath clipPathUnits="userSpaceOnUse" id="clipPath6921">
      <use x="0" y="0" xlink:href="#path3119" id="use6923" width="100%" height="100%" />
    </clipPath>
    <clipPath clipPathUnits="userSpaceOnUse" id="clipPath7231">
      <use x="0" y="0" xlink:href="#path7110" id="use7233" width="100%" height="100%" />
    </clipPath>
    <clipPath clipPathUnits="userSpaceOnUse" id="clipPath7249">
      <use x="0" y="0" xlink:href="#path3811" id="use7251" width="100%" height="100%" />
    </clipPath>
    <clipPath clipPathUnits="userSpaceOnUse" id="clipPath7384">
      <path style="opacity:1;fill:none;fill-opacity:1;fill-rule:nonzero;stroke:red;stroke-width:1;stroke-linecap:butt;stroke-linejoin:miter;stroke-miterlimit:4;stroke-dasharray:none;stroke-dashoffset:7.80000019;stroke-opacity:1" d="m 401.75,266.75 -2,-12.75 5,-55 63.5,3.75 8.25,58.75 -29.75,29 z" id="path7386" inkscape:connector-curvature="0" sodipodi:nodetypes="cc" />
    </clipPath>
    <clipPath clipPathUnits="userSpaceOnUse" id="clipPath8849">
      <path sodipodi:nodetypes="ccc" inkscape:connector-curvature="0" id="path8851" d="m 473.95823,-37.6991 c 13.62086,8.73595 30.60545,5.695525 39.6136,20.273863 49.72463,-111.757083 28.08964,-122.059283 -39.6136,-20.273863 z" style="opacity:1;fill:none;fill-opacity:1;fill-rule:nonzero;stroke:black;stroke-width:0.40000001;stroke-linecap:butt;stroke-linejoin:miter;stroke-miterlimit:4;stroke-dasharray:none;stroke-dashoffset:7.80000019;stroke-opacity:1" />
    </clipPath>
    <clipPath clipPathUnits="userSpaceOnUse" id="clipPath6165">
      <path style="opacity:1;fill:none;fill-opacity:1;fill-rule:nonzero;stroke:white;stroke-width:0.1;stroke-linecap:butt;stroke-linejoin:miter;stroke-miterlimit:20;stroke-dasharray:none;stroke-dashoffset:7.80000019;stroke-opacity:1" d="m 869.39599,119.45853 c 0.45007,-0.49098 1.04586,1.09894 2.02532,0.64994 0.45018,-0.20638 0.92985,-1.58164 1.49737,-1.04215 0.16281,0.15477 0.0154,1.92781 0.28059,1.85508 0.31503,-0.0864 0.39118,-1.47691 1.26282,-0.82123 l 9.63016,-7.28533 -9.11351,-5.61277 -12.26708,2.86425 z" id="path6167" inkscape:connector-curvature="0" sodipodi:nodetypes="csssc" />
    </clipPath>
    <clipPath clipPathUnits="userSpaceOnUse" id="clipPath6907">
      <path inkscape:original-d="m 433.87068,282.41317 c -2.0169,-8.0561 -13.04595,-14.9099 -17.46537,-27.28427 l 11.57107,-33.14303 52.14913,-0.70711 -1.76777,74.95332 z" sodipodi:nodetypes="cc" inkscape:connector-curvature="0" id="path6909" d="m 431.55143,289.93497 c -2.27884,-9.10236 -14.74026,-16.84628 -19.73364,-30.82774 l 13.07383,-37.4474 58.92187,-0.79895 -1.99736,84.6877 z" style="opacity:1;fill:none;fill-opacity:1;fill-rule:nonzero;stroke:black;stroke-width:1;stroke-linecap:butt;stroke-linejoin:miter;stroke-miterlimit:4;stroke-dasharray:none;stroke-dashoffset:7.80000019;stroke-opacity:1" />
    </clipPath>
    <clipPath clipPathUnits="userSpaceOnUse" id="clipPath7021">
      <path style="opacity:1;fill:none;fill-opacity:1;fill-rule:nonzero;stroke:black;stroke-width:1;stroke-linecap:butt;stroke-linejoin:miter;stroke-miterlimit:4;stroke-dasharray:none;stroke-dashoffset:7.80000019;stroke-opacity:1" d="m 444.02571,250.14346 c 34.7483,13.10877 63.76607,10.18277 94.38115,2.71324 l -10.36322,-87.47968 c -26.49023,2.76704 -43.82312,1.36433 -58.62204,-7.17984 l 101.00317,-18.91498 2.61861,142.38673 -129.2937,-17.02094 z" id="path7023" inkscape:connector-curvature="0" sodipodi:nodetypes="cccccccc" />
    </clipPath>
    <filter inkscape:collect="always" style="color-interpolation-filters:sRGB" id="filter7433" x="-0.038970247" width="1.0779405" y="-0.022839475" height="1.045679">
      <feGaussianBlur inkscape:collect="always" stdDeviation="1.3966308" id="feGaussianBlur7435" />
    </filter>
    <clipPath clipPathUnits="userSpaceOnUse" id="clipPath7473">
      <path style="opacity:1;fill:none;fill-opacity:1;fill-rule:nonzero;stroke:black;stroke-width:1;stroke-linecap:butt;stroke-linejoin:miter;stroke-miterlimit:4;stroke-dasharray:none;stroke-dashoffset:7.80000019;stroke-opacity:1" d="m 460.9614,121.47539 -74.27735,53.89649 c 4.86123,17.43886 11.76719,33.25826 21.14453,46.1582 9.38246,12.90697 21.33542,23.00666 36.19727,28.61328 36.10218,13.61952 66.018,9.9306 97.9668,1.82031 12.09497,-3.07034 21.70664,-6.62386 25.81836,-8.26758 4.91628,-1.96537 6.79883,-3.10156 6.79883,-3.10156 l -12.02735,-76.42187 c 0,0 -2.11502,-0.52784 -7.22851,-0.65235 -3.05156,-0.0743 -6.59539,0.0164 -11.00782,0.3086 0.0325,-2.64641 -3.37077,-4.67139 -6.61914,-0.70118 1.96737,-7.63799 -8.8092,-7.2 -5.45312,0.78516 -3.82597,-2.61138 -6.30086,-0.64463 -6.53906,1.69531 -25.19619,2.44568 -41.94804,0.88318 -56.3125,-7.41015 -2.39121,-1.38056 -4.2715,-3.55473 -5.69922,-6.02539 -1.43034,-2.47521 -2.40464,-5.23848 -3.04493,-7.91211 -1.6899,-7.05641 -1.17112,-13.75632 -0.71679,-17.26563 0.49794,-3.84623 1,-5.51953 1,-5.51953 z" id="path7475" inkscape:connector-curvature="0" />
    </clipPath>
    <linearGradient inkscape:collect="always" xlink:href="#linearGradient6881" id="linearGradient3588" gradientUnits="userSpaceOnUse" x1="170.00987" y1="-433.90778" x2="125.80681" y2="-435.97159" />
    <linearGradient inkscape:collect="always" xlink:href="#linearGradient6881" id="linearGradient3590" gradientUnits="userSpaceOnUse" gradientTransform="matrix(1.012261,0,0,1.012261,-6.3844379,-1.2874799)" x1="519.09698" y1="98.090187" x2="518.5166" y2="54.732555" />
  </defs>
  <g inkscape:label="Drawing" id="layer2" inkscape:groupmode="layer" transform="translate(-339.12174,100.25204)">
    <g id="g3506">
      <g id="g6880">
        <path style="opacity:1;fill:#a8fed3;fill-opacity:1;fill-rule:nonzero;stroke:none;stroke-width:1;stroke-linecap:butt;stroke-linejoin:miter;stroke-miterlimit:4;stroke-dasharray:none;stroke-dashoffset:7.80000019;stroke-opacity:1" d="m 456.95421,222.0552 c -4.42285,-14.05217 -20.00721,-17.96752 -23.56186,-10.26579 -2.54221,5.50813 -6.8791,12.56983 -11.65101,18.26935 -41.4632,-40.32556 -85.98573,-23.46106 -75.25166,101.64901 2.21152,25.77622 61.72338,-12.71727 54.99148,-36.81587 -2.85792,-10.23068 -5.477,-20.44392 -7.3889,-30.64887 47.9025,33.12092 77.75843,5.14109 62.86195,-42.18783 z" id="path7372" inkscape:connector-curvature="0" sodipodi:nodetypes="sscsscs" />
        <path sodipodi:nodetypes="cssc" inkscape:connector-curvature="0" id="path7328" d="m 398.89645,258.3358 c 43.46877,31.34314 70.82608,6.47574 57.4571,-36 -3.91446,-12.43696 -17.70749,-15.90226 -20.85355,-9.0858 -2.25,4.875 -6.08839,11.125 -10.33839,16.25" style="opacity:1;fill:none;fill-opacity:1;fill-rule:nonzero;stroke:#6bfdb4;stroke-width:5.31033373;stroke-linecap:butt;stroke-linejoin:miter;stroke-miterlimit:4;stroke-dasharray:none;stroke-dashoffset:7.80000019;stroke-opacity:1" clip-path="url(#clipPath7384)" transform="matrix(1.1298725,0,0,1.1298725,-58.667121,-29.155902)" />
        <path inkscape:path-effect="#path-effect7364" inkscape:original-d="m 429.9653,238.70585 c -43.54228,-50.73272 -94.92117,-40.40074 -83.47562,93.00192 2.21152,25.77622 61.72337,-12.71727 54.99148,-36.81587 -3.94388,-14.11813 -7.4329,-28.20305 -9.15367,-42.0675" style="opacity:1;fill:#6bfdb4;fill-opacity:1;fill-rule:nonzero;stroke:none;stroke-width:6;stroke-linecap:butt;stroke-linejoin:miter;stroke-miterlimit:4;stroke-dasharray:none;stroke-dashoffset:7.80000019;stroke-opacity:1" d="m 429.9653,238.70585 c 0,0 -1.22467,-2.80601 -5.55868,-8.24315 -3.81911,-4.79119 -12.13207,-13.92038 -23.64733,-19.05683 -0.89,-0.39698 -1.80837,-0.77819 -2.75214,-1.13612 -4.54445,-1.72353 -9.7982,-2.95221 -15.33451,-2.70235 -5.569,0.25134 -11.40502,2.00422 -16.89026,6.20735 -8.50375,6.5161 -15.89918,18.72812 -20.14006,39.38459 -3.81415,18.57797 -5.111,44.19596 -2.14166,78.80488 0.32757,3.81798 1.77143,6.93505 4.46476,8.95195 2.59349,1.94215 5.86908,2.50304 9.18293,2.29652 6.61567,-0.41229 14.60315,-3.94404 21.83937,-8.70333 7.71998,-5.07746 14.75974,-11.64117 19.50085,-18.3406 5.33998,-7.54567 7.79042,-15.25219 5.88197,-22.084 -1.20339,-4.30786 -2.10861,-7.69946 -2.83656,-10.52161 -3.03129,-11.75179 -5.22271,-19.4336 -6.74201,-24.13864 -1.52756,-4.7306 -2.46448,-6.60011 -2.46448,-6.60011 0,0 -0.55879,2.03212 -0.49662,7.08166 0.0624,5.06844 0.79636,13.14949 3.89327,25.1557 0.73847,2.86294 1.65413,6.29321 2.86764,10.63728 0.5988,2.14357 0.58464,4.64339 -0.22414,7.53935 -0.81368,2.91351 -2.40172,6.10838 -4.7767,9.46436 -4.24121,5.99305 -10.70019,12.05815 -17.90026,16.79367 -6.88591,4.5289 -13.82459,7.41062 -18.91552,7.72789 -2.48509,0.15487 -4.16301,-0.32429 -5.21327,-1.11078 -0.98864,-0.74034 -1.86195,-2.08349 -2.08319,-4.66221 -2.93921,-34.25775 -1.61918,-59.25715 2.04102,-77.08529 4.08106,-19.87803 10.98365,-30.51975 17.91202,-35.8287 4.43071,-3.39508 9.06454,-4.7766 13.51529,-4.97675 4.48904,-0.20187 8.9078,0.79286 12.93243,2.31924 0.83002,0.3148 1.64277,0.65199 2.43563,1.00564 9.92581,4.42744 19.47231,12.0853 23.96354,15.69185 5.29645,4.25316 7.68667,6.12854 7.68667,6.12854 z" id="path7362" inkscape:connector-curvature="0" sodipodi:nodetypes="cssc" />
      </g>
      <path sodipodi:nodetypes="scsssssssssssssssssssccs" inkscape:connector-curvature="0" id="path8835" d="m 537.08932,79.696955 c -5.38356,23.880415 -38.12995,47.834425 -79.14622,41.167225 -3.85425,16.79008 0.009,34.17525 9.9785,39.93108 50.2146,28.99142 126.35278,-26.5043 201.66592,22.55454 107.63519,70.11337 54.27856,229.91577 -102.34215,207.90426 C 477.52714,378.64504 457.55955,283.78113 483.12354,196.97352 529.05855,40.992059 639.66067,28.662494 692.71487,115.41705 c 26.52211,43.36911 56.71352,40.34938 71.27988,2.6659 26.71533,-69.113132 102.77784,-84.725846 98.07166,40.34494 -0.72475,19.26083 6.76111,49.08699 19.72771,69.23044 23.287,36.17605 -9.91709,73.80794 -4.27818,107.6414 5.31286,31.87714 -11.06687,64.25247 -23.74873,51.43681 -12.48528,-12.617 -29.57028,-59.24192 -18.26346,-99.81297 7.9099,-28.38225 -17.63846,-62.64426 -0.98959,-73.00356 10.05343,-6.25547 17.21697,-34.16917 18.56394,-55.51771 5.31302,-84.207896 -46.115,-96.187278 -65.1321,-25.21455 -16.1488,60.2681 -77.38196,68.1317 -124.57789,-0.75372 -36.51777,-53.299975 -105.59761,-44.201524 -137.28417,74.05434 -16.36478,61.07419 -1.74518,123.52388 53.14266,130.80297 84.3127,11.18134 110.18895,-65.74029 59.08478,-91.39887 -60.82532,-30.53941 -110.78483,32.54524 -193.22677,1.44408 C 392.58746,227.53204 369.9158,146.0926 384.00057,28.316312 c 12.80787,-107.098927 176.44817,-83.640473 147.0022,42.465252 4.53239,1.2518 7.36037,3.264967 6.08655,8.915391 z" style="opacity:1;fill:#c8fee3;fill-opacity:1;fill-rule:nonzero;stroke:none;stroke-width:1;stroke-linecap:butt;stroke-linejoin:miter;stroke-miterlimit:4;stroke-dasharray:none;stroke-dashoffset:7.80000019;stroke-opacity:1" />
      <use height="100%" width="100%" transform="rotate(178.30639,533.157,209.32694)" id="use6999" xlink:href="#g6983" y="0" x="0" />
      <path style="opacity:1;fill:#c8fee3;fill-opacity:1;fill-rule:nonzero;stroke:none;stroke-width:1;stroke-linecap:butt;stroke-linejoin:miter;stroke-miterlimit:4;stroke-dasharray:none;stroke-dashoffset:7.80000019;stroke-opacity:1" d="m 467.9216,160.79526 c 23.97632,13.84274 53.86281,8.42373 86.74769,4.32155 l 6.77288,78.63443 c -33.63357,8.68597 -69.82044,21.1414 -116.35756,3.58531 z" id="path7001" inkscape:connector-curvature="0" sodipodi:nodetypes="ccccc" />
      <g id="g6863">
        <path sodipodi:nodetypes="cccccccccc" inkscape:connector-curvature="0" id="path6162" style="opacity:1;fill:#567535;fill-opacity:1;fill-rule:nonzero;stroke:none;stroke-width:0.5;stroke-linecap:butt;stroke-linejoin:miter;stroke-miterlimit:20;stroke-dasharray:none;stroke-dashoffset:7.80000019;stroke-opacity:1" d="m 866.69068,137.62756 c -4.05045,16.43981 -5.02457,34.82043 -4.22143,50.38777 l 1.79517,0.0725 c -0.74979,-15.86527 -0.37831,-33.9443 5.09065,-49.65992 z m -0.97714,-2.72657 c -0.98753,4.99494 4.85292,6.60457 6.03322,1.20725 1.4894,-6.81033 0.0715,-8.78099 1.51511,-15.37451 l -3.09751,-0.45329 c -0.0536,6.38984 -3.18115,8.19779 -4.45082,14.62055 z" />
        <path inkscape:connector-curvature="0" id="path6859" style="opacity:1;fill:#c7cffd;fill-opacity:1;fill-rule:nonzero;stroke:none;stroke-width:0.1;stroke-linecap:butt;stroke-linejoin:miter;stroke-miterlimit:20;stroke-dasharray:none;stroke-dashoffset:7.80000019;stroke-opacity:1" d="m 872.60985,118.88869 c 2.78401,-3.7604 6.39292,-6.73216 10.91845,-9.55373 -2.98011,0.0863 -5.13479,0.48834 -6.89166,1.54952 -0.34207,-1.39824 -0.95762,-2.51365 -2.12704,-3.51171 -1.56268,0.37117 -2.96559,1.15108 -4.12059,2.13516 -1.90598,-1.61422 -3.64197,-2.63939 -6.70567,-3.40652 3.93999,3.87505 6.51763,7.89029 7.94621,12.61396 z m 13.63947,-9.03567 c -0.063,1.16863 0.82997,2.40513 0.37201,3.38815 2.0181,-0.29093 4.56896,-0.24766 7.26638,0.2103 -1.05819,0.76181 -2.08399,1.19236 -3.61062,1.67605 3.21578,-0.0266 6.57967,0.7629 9.48473,1.71812 -9.49608,-0.22164 -17.06362,0.55365 -25.90991,2.64969 l -0.69016,-0.44591 c 3.70959,-4.53659 7.31901,-6.99597 13.08757,-9.1964 z m -25.2881,-4.13168 c -0.31881,1.13262 -0.24368,1.98179 0.23039,3.16484 -2.49011,-1.34965 -5.09308,-2.27212 -8.46781,-2.78697 0.96962,1.26029 1.9159,2.04666 3.39448,2.90123 -3.09932,-0.858 -6.13706,-1.23093 -9.30214,-1.0901 9.68396,2.78469 16.1751,5.51532 23.27409,10.96527 l 0.78205,-0.2521 c -1.8008,-5.16186 -4.79628,-9.44118 -9.91106,-12.90217 z" />
        <path style="opacity:1;fill:#a283d9;fill-opacity:1;fill-rule:nonzero;stroke:none;stroke-width:0.1;stroke-linecap:butt;stroke-linejoin:miter;stroke-miterlimit:20;stroke-dasharray:none;stroke-dashoffset:7.80000019;stroke-opacity:1" d="m 868.89416,119.52701 c -0.63276,-2.32357 7.36733,-0.7421 6.20031,0.86795 -1.52868,2.109 -5.61819,1.26965 -6.20031,-0.86795 z" id="path5564" inkscape:connector-curvature="0" sodipodi:nodetypes="sss" />
        <path inkscape:connector-curvature="0" id="path6151" style="opacity:1;fill:none;fill-opacity:1;fill-rule:nonzero;stroke:#31213b;stroke-width:0.2;stroke-linecap:butt;stroke-linejoin:miter;stroke-miterlimit:20;stroke-dasharray:none;stroke-dashoffset:7.80000019;stroke-opacity:1" d="m 880.25982,113.91775 c -2.50749,1.36802 -4.21496,2.7558 -6.21743,6.22445 m -3.39143,-3.20211 c -0.51182,0.89568 -0.24114,2.54309 0.59207,3.49639 m 3.33563,-2.93469 c -0.0917,1.23828 -0.86093,2.55798 -1.97935,3.16906 m 1.56934,-10.40201 c 0.26038,1.67804 -1.73592,6.13354 -1.64912,8.96886 m -6.22033,-7.40655 c 1.1126,3.32255 3.29822,4.33977 3.6454,7.89838" clip-path="url(#clipPath6165)" />
        <path sodipodi:nodetypes="cccccccccccccccccccccccccccccccccccccccc" inkscape:connector-curvature="0" id="path6857" style="opacity:1;fill:#c7cffd;fill-opacity:1;fill-rule:nonzero;stroke:none;stroke-width:0.1;stroke-linecap:butt;stroke-linejoin:miter;stroke-miterlimit:20;stroke-dasharray:none;stroke-dashoffset:7.80000019;stroke-opacity:1" d="m 871.03261,120.82921 c -4.09157,0.49096 -7.35995,1.59571 -11.65611,4.13249 2.98154,0.12976 5.40749,-0.10289 7.68729,-1.02289 0.31414,1.31341 1.19393,2.61775 2.74135,3.60058 1.76229,-0.51137 3.27326,-1.29627 4.37799,-2.25036 1.88211,1.71846 4.25036,2.70044 7.35996,3.19142 -2.94594,-2.90501 -6.13249,-5.44179 -9.20117,-7.44666 -0.34786,0.089 -0.99921,-0.0179 -1.30931,-0.20458 z m 28.54085,5.36991 c -3.48365,-0.1637 -7.01015,-0.79836 -10.35809,-1.58578 1.36595,0.81147 2.76749,2.00755 3.88147,3.41737 -2.92728,-0.43799 -5.39554,-1.20103 -7.85154,-2.38146 0.37315,1.16127 0.32209,2.1365 -0.0109,3.23511 -3.79252,-3.21767 -7.98352,-5.74394 -12.31506,-7.90823 0.29439,-0.0549 0.50863,-0.0956 0.73192,-0.24482 8.22275,0.56256 18.23425,2.54031 25.9222,5.46781 z m -29.98313,-6.16774 c -7.25401,-2.13925 -18.28208,-3.69011 -27.28795,-2.89626 3.88699,0.94107 7.15709,1.48206 10.75767,1.89122 -1.71846,0.42961 -3.28062,1.19137 -4.36489,2.0506 3.43693,0.45007 5.92118,0.31613 8.47841,-0.11352 -0.9206,0.7774 -1.43281,1.82955 -1.71922,2.95473 5.38041,-1.96395 9.94213,-2.9764 14.77018,-3.44693 -0.27298,-0.11547 -0.51189,-0.28074 -0.6342,-0.43984 z m -27.24895,-11.11735 c 3.01077,0.6264 5.40042,1.43868 8.171,2.88593 -3.30012,-0.64008 -6.6493,-0.72976 -10.56382,-0.0868 3.75131,1.40092 6.91459,2.02987 10.20345,2.584 -3.21578,-0.0266 -6.24337,0.22185 -9.08772,1.04508 11.37686,0.30045 19.54115,1.50286 28.11362,4.17034 -0.15912,-0.2025 -0.11127,-0.43396 0.0406,-0.57139 -5.95995,-5.48373 -15.86278,-8.75997 -26.87713,-10.02716 z m 61.42876,10.40335 c -3.06351,-0.34287 -5.91853,-0.28743 -9.23063,0.0186 3.62954,0.61929 6.33201,1.41546 9.24562,2.98266 -3.11825,0.16025 -6.43399,-0.14268 -9.4978,-0.63257 3.03004,1.03864 5.44948,2.18263 7.93902,3.84298 -8.94133,-2.99187 -18.80616,-4.53354 -27.73691,-5.16593 0.21039,-0.14852 0.23076,-0.384 0.12455,-0.55918 9.57854,-2.49027 19.25073,-2.57742 29.15615,-0.48656 z" />
        <path inkscape:connector-curvature="0" id="path6141" style="opacity:1;fill:#31213b;fill-opacity:1;fill-rule:nonzero;stroke:none;stroke-width:0.1;stroke-linecap:butt;stroke-linejoin:miter;stroke-miterlimit:20;stroke-dasharray:none;stroke-dashoffset:7.80000019;stroke-opacity:1" d="m 871.35457,116.08264 c -0.12497,0.67312 -0.52308,1.31581 -0.86347,1.04414 -0.24613,-0.19644 0.16718,-0.7749 0.86347,-1.04414 z m -5.35271,-5.17001 c 0.60258,0.51884 0.75519,1.20577 0.43865,1.27972 -0.35029,0.0818 -0.6295,-0.47367 -0.43865,-1.27972 z m 8.101,-1.74568 c 0.46084,0.63465 0.42943,1.48845 0.10478,1.50464 -0.37604,0.0187 -0.52638,-0.77436 -0.10478,-1.50464 z m 0.50506,7.42413 c 0.25417,0.49594 0.29385,1.26066 -0.0302,1.2551 -0.34534,-0.006 -0.33288,-0.70979 0.0302,-1.2551 z m 6.67585,-3.28881 c -0.36267,0.57513 -0.98679,1.0195 -1.22934,0.8079 -0.27717,-0.2418 0.42567,-0.78538 1.22934,-0.8079 z" />
      </g>
      <g id="g3499">
        <path sodipodi:nodetypes="csccscc" inkscape:connector-curvature="0" id="use8816" d="m 870.33833,396.79184 c 24.43372,-65.76322 30.27127,-168.03911 17.3497,-180.96068 -17.3142,-17.3142 -22.41301,-41.81059 -14.88036,-57.44094 l -29.16904,0 c 7.53265,15.63035 2.43384,40.12674 -14.88036,57.44094 -12.92157,12.92157 -7.08402,115.19746 17.3497,180.96068 z" style="opacity:1;fill:#2c8393;fill-opacity:1;fill-rule:nonzero;stroke:none;stroke-width:3.96084762;stroke-linecap:butt;stroke-linejoin:miter;stroke-miterlimit:4;stroke-dasharray:none;stroke-dashoffset:7.80000019;stroke-opacity:1" />
        <g transform="matrix(0.16356719,0,0,0.16356719,854.84511,241.98989)" id="g3342">
          <path style="fill:#52b27e" inkscape:connector-curvature="0" id="path4" d="M -11.509978,-13.760918 C -134.52477,-125.12985 -110.99583,148.35929 -8.8105615,17.615792 -43.751436,179.8342 181.33255,22.712942 17.01274,-0.41034804 174.96848,-51.25987 -73.644539,-167.62771 -11.509978,-13.760918 Z" />
          <path style="fill:#5e0c5b" inkscape:connector-curvature="0" id="path6" d="M -86.38344,-123.74856 C 30.65927,-48.342717 38.46571,42.395692 -63.977682,136.68454 -57.195632,-2.380358 17.48285,-54.510152 150.36114,-12.935968 26.53637,50.723092 -55.948612,12.114482 -86.38344,-123.74856 Z" />
          <circle style="fill:white" cy="0" cx="0" id="circle8" r="19.65872" />
        </g>
      </g>
      <g id="g6925">
        <path sodipodi:nodetypes="cccccccc" inkscape:connector-curvature="0" d="m 439.58664,65.01248 c -4.3836,1.636525 -7.00629,4.722113 -8.77249,9.670841 0.0853,-5.730177 2.09488,-9.671762 6.93991,-11.695566 z m -3.17057,-4.353348 c -4.56624,0.811382 -8.37778,3.20393 -11.34634,7.548612 1.61457,-5.527625 4.79988,-8.728205 9.85553,-9.887051 z" style="fill:black;fill-opacity:1;fill-rule:nonzero;stroke:none" id="path6816" />
        <g id="g6911" clip-path="url(#clipPath6921)">
          <path style="fill:white;stroke:none" d="M 427.71174,43.249092 C 437.52064,88.7729 481.45058,92.103076 488.2741,66.637353 498.63813,27.958282 452.62095,-39.136572 427.71174,43.249092 Z" id="path3119" inkscape:connector-curvature="0" sodipodi:nodetypes="csc" />
          <g clip-path="url(#clipPath6905)" id="g6897">
            <ellipse transform="rotate(76.922983)" inkscape:connector-curvature="0" id="path6823" style="opacity:1;fill:url(#linearGradient3588);fill-opacity:1;fill-rule:nonzero;stroke:none;stroke-width:0.5;stroke-linecap:butt;stroke-linejoin:miter;stroke-miterlimit:4;stroke-dasharray:none;stroke-dashoffset:7.80000019;stroke-opacity:1" cx="148.91753" cy="-446.2377" rx="31.898054" ry="24.158758" />
            <path sodipodi:nodetypes="cccc" inkscape:connector-curvature="0" id="path6893" d="m 448.14645,80.426776 25.15533,-33 -37.53033,13.396446 z" style="opacity:1;fill:#ed57ed;fill-opacity:1;fill-rule:nonzero;stroke:none;stroke-width:0.5;stroke-linecap:butt;stroke-linejoin:miter;stroke-miterlimit:4;stroke-dasharray:none;stroke-dashoffset:7.80000019;stroke-opacity:1" />
            <path style="opacity:1;fill:#e317e3;fill-opacity:1;fill-rule:nonzero;stroke:none;stroke-width:0.5;stroke-linecap:butt;stroke-linejoin:miter;stroke-miterlimit:4;stroke-dasharray:none;stroke-dashoffset:7.80000019;stroke-opacity:1" d="m 433.02145,53.801776 40.28033,-6.375 -36.53033,22.021446 z" id="path6891" inkscape:connector-curvature="0" sodipodi:nodetypes="cccc" />
            <ellipse transform="rotate(77.465994)" inkscape:connector-curvature="0" id="path6821" style="opacity:1;fill:black;fill-opacity:1;fill-rule:nonzero;stroke:none;stroke-width:0.5;stroke-linecap:butt;stroke-linejoin:miter;stroke-miterlimit:4;stroke-dasharray:none;stroke-dashoffset:7.80000019;stroke-opacity:1" cx="145.31665" cy="-450.52411" rx="25.496334" ry="19.921331" />
            <ellipse transform="rotate(-62.011898)" inkscape:connector-curvature="0" id="path6819" style="opacity:1;fill:white;fill-opacity:1;fill-rule:nonzero;stroke:none;stroke-width:0.5;stroke-linecap:butt;stroke-linejoin:miter;stroke-miterlimit:4;stroke-dasharray:none;stroke-dashoffset:7.80000019;stroke-opacity:1" cx="187.73903" cy="419.28543" rx="14.038624" ry="9.2705402" />
            <ellipse transform="rotate(-61.350146)" inkscape:connector-curvature="0" id="path6825" style="opacity:1;fill:white;fill-opacity:1;fill-rule:nonzero;stroke:none;stroke-width:0.5;stroke-linecap:butt;stroke-linejoin:miter;stroke-miterlimit:4;stroke-dasharray:none;stroke-dashoffset:7.80000019;stroke-opacity:1" cx="184.30801" cy="432.24503" rx="4.7018199" ry="3.049356" />
          </g>
        </g>
        <path sodipodi:nodetypes="cccccscsc" inkscape:connector-curvature="0" d="m 427.05133,45.136302 1.79395,-4.716225 c -6.7779,3.0152 -13.73941,3.529804 -21.41701,1.747079 7.01038,4.024386 13.58689,4.656474 19.62306,2.969146 z M 409.04156,56.10581 c 10.91191,0.846955 17.50965,-3.438985 20.36904,-12.346934 22.51268,-70.13452 62.90335,-25.253716 58.8635,22.878477 14.4674,-51.101645 -41.64302,-104.233923 -62.33543,-24.288954 -1.64602,6.359403 -7.8572,11.832912 -16.89711,13.757411 z" style="fill:black;stroke:none" id="path6807" />
      </g>
      <path inkscape:connector-curvature="0" inkscape:original-d="m 574.61018,240.59391 c -37.45339,8.04383 -76.86212,26.60989 -129.52557,6.74264 C 392.58746,227.53204 369.9158,146.0926 384.00057,28.316312 396.80844,-78.782615 560.44874,-55.324161 531.02479,71.086523" inkscape:path-effect="#path-effect8987" id="path8983" d="m 574.61018,240.59391 c 0,0 -2.18624,-0.33614 -7.50887,0.18787 -6.09413,0.59996 -13.04033,1.92797 -26.58076,5.36028 -31.36347,7.9502 -59.90358,11.39267 -94.37703,-1.61241 -13.57688,-5.12187 -24.63146,-14.38834 -33.45868,-26.53034 -8.84838,-12.1711 -15.4911,-27.27256 -20.22065,-44.23902 -11.55048,-41.43543 -11.66387,-93.418982 -5.48485,-145.087748 3.67663,-30.7437682 19.75239,-48.224787 35.92694,-56.945064 16.61493,-8.957697 34.88495,-9.841547 49.81784,-6.658097 20.13471,4.292404 34.88987,15.658146 43.98452,28.058316 9.2117,12.5597722 13.02094,26.36176 14.29692,38.28082 1.26158,11.784567 0.10715,22.265162 -0.91273,28.794448 -1.06431,6.813808 -1.98993,10.203445 -1.98993,10.203445 l 5.84378,1.360226 c 0,0 0.96256,-3.520048 2.07423,-10.637709 1.06121,-6.794553 2.28935,-17.848401 0.94534,-30.35463 -1.36057,-12.660308 -5.44027,-27.535775 -15.42788,-41.166585 -9.88655,-13.492895 -25.8448,-25.776434 -47.56323,-30.406461 -16.05454,-3.422567 -35.83489,-2.509589 -53.94612,7.263018 -17.79161,9.600148 -35.08802,28.7235319 -39.00723,61.495814 -6.22027,52.01367 -6.19023,104.890697 5.66276,147.411327 4.86123,17.43886 11.76668,33.25859 21.14402,46.15853 9.38245,12.90697 21.33529,23.0069 36.19714,28.61352 36.10218,13.61952 66.01857,9.93042 97.96737,1.82013 12.09497,-3.07034 21.70557,-6.62307 25.81729,-8.26679 4.91628,-1.96537 6.79981,-3.10289 6.79981,-3.10289 z" style="opacity:1;fill:#7ffdbe;fill-opacity:1;fill-rule:nonzero;stroke:none;stroke-width:6;stroke-linecap:butt;stroke-linejoin:miter;stroke-miterlimit:4;stroke-dasharray:none;stroke-dashoffset:7.80000019;stroke-opacity:1" />
      <path inkscape:connector-curvature="0" inkscape:original-d="m 458.04122,120.79122 c -3.95237,16.86304 -0.089,34.24821 9.88038,40.00404 25.88594,14.94526 58.66099,7.43834 94.66074,3.37683" inkscape:path-effect="#path-effect8985" id="path8806" d="m 455.12037,120.10663 c 0,0 -0.55819,1.85403 -1.11018,6.11768 -0.49609,3.83197 -1.10063,11.3584 0.83306,19.43283 0.7358,3.07247 1.89149,6.4149 3.68368,9.51698 1.77932,3.07981 4.33066,6.16153 7.89466,8.21921 17.06053,9.8499 36.72042,10.84258 65.07182,7.64691 11.03761,-1.24412 19.7782,-3.30544 24.22848,-4.54271 4.90785,-1.36448 6.86045,-2.32544 6.86045,-2.32544 0,0 -2.11556,-0.52732 -7.22905,-0.65183 -5.63789,-0.13729 -12.64767,0.21893 -24.54235,1.55644 -28.06172,3.15544 -46.0812,1.95865 -61.38934,-6.87952 -2.3912,-1.38056 -4.27064,-3.55311 -5.69836,-6.02377 -1.43034,-2.47521 -2.40469,-5.24003 -3.04498,-7.91366 -1.6899,-7.05641 -1.17205,-13.75579 -0.71772,-17.2651 0.49794,-3.84623 1.00153,-5.51884 1.00153,-5.51884 l -5.8417,-1.36918 z" style="opacity:1;fill:#7ffdbe;fill-opacity:1;fill-rule:nonzero;stroke:none;stroke-width:6;stroke-linecap:butt;stroke-linejoin:miter;stroke-miterlimit:4;stroke-dasharray:none;stroke-dashoffset:7.80000019;stroke-opacity:1" />
      <g id="g7253">
        <path inkscape:connector-curvature="0" id="path7135" style="fill:black;fill-opacity:1;fill-rule:nonzero;stroke:none" d="m 532.36473,45.784767 c 3.51863,-0.610098 6.4299,0.111083 9.11196,2.164157 -1.7637,-3.124362 -5.12846,-4.739871 -8.68079,-4.519463 z m 0.60308,-4.944469 c 3.19681,-1.257516 6.35293,-0.809046 9.76789,0.851335 -2.54562,-2.958255 -6.04177,-4.19268 -9.66553,-3.194452 z" />
        <g id="g7239" clip-path="url(#clipPath7249)">
          <path sodipodi:nodetypes="cccc" inkscape:connector-curvature="0" id="path3811" d="m 515.57169,64.677711 c 4.6017,2.826294 10.80136,4.921211 16.52072,6.24704 5.15644,-17.539937 4.55756,-39.14036 1.04352,-52.612566 -18.77059,-36.659386 -33.59596,-2.721595 -17.56424,46.365526 z" style="display:inline;fill:white;stroke:none" clip-path="none" />
          <g clip-path="url(#clipPath7231)" id="g7223">
            <ellipse style="opacity:1;fill:url(#linearGradient3590);fill-opacity:1;fill-rule:nonzero;stroke:none;stroke-width:0.51262981;stroke-linecap:butt;stroke-linejoin:miter;stroke-miterlimit:4;stroke-dasharray:none;stroke-dashoffset:7.80000019;stroke-opacity:1" id="path7110" cx="522.7417" cy="75.887917" rx="11.910331" ry="29.248255" transform="rotate(-3.9828174)" />
            <path sodipodi:nodetypes="cccc" inkscape:connector-curvature="0" id="path7154" d="M 530.15331,43.441406 517.07184,72.60956 503.99036,58.46222 Z" style="opacity:1;fill:#ed57ed;fill-opacity:1;fill-rule:nonzero;stroke:none;stroke-width:0.5;stroke-linecap:butt;stroke-linejoin:miter;stroke-miterlimit:4;stroke-dasharray:none;stroke-dashoffset:7.80000019;stroke-opacity:1" />
            <path style="opacity:1;fill:#e317e3;fill-opacity:1;fill-rule:nonzero;stroke:none;stroke-width:0.5;stroke-linecap:butt;stroke-linejoin:miter;stroke-miterlimit:4;stroke-dasharray:none;stroke-dashoffset:7.80000019;stroke-opacity:1" d="m 530.15331,43.441406 -27.22361,3.71231 3.35875,15.904698 z" id="path7152" inkscape:connector-curvature="0" sodipodi:nodetypes="cccc" />
            <ellipse style="opacity:1;fill:black;fill-opacity:1;fill-rule:nonzero;stroke:none;stroke-width:0.50759506;stroke-linecap:butt;stroke-linejoin:miter;stroke-miterlimit:4;stroke-dasharray:none;stroke-dashoffset:7.80000019;stroke-opacity:1" id="path7138" cx="525.67645" cy="72.076698" rx="10.002556" ry="23.410799" transform="rotate(-3.5108816)" />
            <ellipse style="opacity:1;fill:white;fill-opacity:1;fill-rule:nonzero;stroke:none;stroke-width:0.50778383;stroke-linecap:butt;stroke-linejoin:miter;stroke-miterlimit:4;stroke-dasharray:none;stroke-dashoffset:7.80000019;stroke-opacity:1" id="path7140" cx="514.33685" cy="-92.222763" rx="4.4566107" ry="11.74565" transform="rotate(13.246132)" />
            <ellipse transform="rotate(16.735129)" ry="3.6084399" rx="1.60649" cy="-111.63577" cx="514.81842" id="ellipse7142" style="opacity:1;fill:white;fill-opacity:1;fill-rule:nonzero;stroke:none;stroke-width:0.15947206;stroke-linecap:butt;stroke-linejoin:miter;stroke-miterlimit:4;stroke-dasharray:none;stroke-dashoffset:7.80000019;stroke-opacity:1" />
          </g>
        </g>
        <path id="path7107" style="fill:black;stroke:none" d="m 545.27811,13.772098 c -3.46839,2.196165 -8.39605,2.913194 -13.61037,1.55927 l 1.62979,3.358354 c 4.54771,0.281399 8.95908,-1.151312 11.98058,-4.917624 z m -29.7064,50.905613 c -10.19357,-37.588507 -3.61359,-82.684615 16.25697,-45.487453 2.91578,5.45827 8.3609,7.442531 13.83097,5.863092 -5.15342,-0.42015 -9.11226,-3.483074 -11.75191,-8.660133 -22.2116,-43.562871 -37.6297,8.427927 -18.33603,48.284494 z" inkscape:connector-curvature="0" sodipodi:nodetypes="cccccscsc" />
      </g>
      <path inkscape:original-d="m 515.57171,64.677711 c 11.05206,6.77857 23.98601,4.069934 21.51761,15.019244 -7.1591,31.756335 -62.70624,63.642825 -121.97296,23.648735" inkscape:path-effect="#path-effect7290" style="opacity:1;fill:#7ffdbe;fill-opacity:1;fill-rule:nonzero;stroke:none;stroke-width:6;stroke-linecap:butt;stroke-linejoin:miter;stroke-miterlimit:4;stroke-dasharray:none;stroke-dashoffset:7.80000019;stroke-opacity:1" d="m 515.57171,64.677711 c 0,0 0.81727,1.143102 3.36696,2.867893 1.31061,0.886591 2.8967,1.781111 5.00495,2.740831 -3.92349,-1.786051 10.40824,4.550684 6.58123,2.787922 0.84996,0.391501 1.60032,0.785437 2.20645,1.20277 0.61096,0.420653 0.98901,0.805305 1.22378,1.173172 0.19415,0.304203 0.36721,0.713413 0.42309,1.358783 0.033,0.381012 0.0429,1.082413 -0.2154,2.228114 -1.35641,6.016727 -4.9355,13.265821 -11.95894,20.298298 -7.03471,7.043746 -16.50244,12.802266 -27.45634,16.229076 -15.09142,4.72118 -29.09613,3.88612 -39.29788,1.90122 -13.29388,-2.58652 -24.61845,-7.31454 -30.68825,-9.92869 -6.68921,-2.8809 -9.645,-4.19141 -9.645,-4.19141 0,0 2.07189,2.5182 8.17827,6.80842 5.71361,4.01425 16.44165,10.36653 31.00899,13.20074 10.8757,2.11596 25.93649,3.03495 42.23529,-2.06395 11.82504,-3.69934 22.14259,-9.94268 29.9075,-17.71743 7.7605,-7.770338 11.94314,-16.002724 13.56946,-23.216757 0.38912,-1.726043 0.42939,-3.05155 0.34154,-4.068475 -0.15174,-1.75659 -0.7617,-3.207967 -1.667,-4.370148 -0.92405,-1.186242 -2.08274,-1.978321 -3.15952,-2.528267 -1.07439,-0.548724 -2.21817,-0.931932 -3.25437,-1.217569 -2.26495,-0.624352 -5.50635,-1.1281 -7.23336,-1.423698 -2.25168,-0.385403 -3.76578,-0.678412 -5.30416,-1.026317 -2.83535,-0.641219 -4.16729,-1.044528 -4.16729,-1.044528 z" id="path4197" inkscape:connector-curvature="0" sodipodi:nodetypes="csc" />
      <path id="path4280" style="opacity:1;fill:#7ffdbe;fill-opacity:1;fill-rule:nonzero;stroke:none;stroke-width:1;stroke-linecap:butt;stroke-linejoin:miter;stroke-miterlimit:4;stroke-dasharray:none;stroke-dashoffset:7.80000019;stroke-opacity:1" d="m 531.22726,92.692483 -2.78992,4.222796 c -9.19674,-0.177936 -17.35274,-6.61436 -19.82565,-15.367591 5.25743,7.368861 12.50987,11.811471 22.61557,11.144795 z m -8.34739,-15.662225 c 1.10684,2.698797 3.00087,3.303603 5.38508,1.741951 -2.30171,4.691652 -6.25959,3.156241 -5.38508,-1.741951 z" inkscape:connector-curvature="0" sodipodi:nodetypes="ccccccc" />
      <g id="g4221">
        <path id="path4210" style="opacity:1;fill:#f6c5f6;fill-opacity:1;fill-rule:nonzero;stroke:#f1a7f1;stroke-width:6;stroke-linecap:butt;stroke-linejoin:miter;stroke-miterlimit:20;stroke-dasharray:none;stroke-dashoffset:7.80000019;stroke-opacity:1" d="M 391.11748,-41.531988 C 331.20722,-2.6828991 319.55321,103.65081 393.99974,147.2084 368.16027,101.50874 394.16181,76.470523 385.87599,21.19334 Z m 23.08963,15.739095 C 461.58579,7.5208151 511.16548,-14.75736 548,27.5 578.43756,-51.446177 512.88478,-129.6741 402.77817,-47 Z" inkscape:connector-curvature="0" />
        <g id="g7286" clip-path="url(#clipPath8849)">
          <path sodipodi:nodetypes="ccc" inkscape:connector-curvature="0" id="path7277" d="M 471.17157,-20.12132 C 548.3154,-126.21033 550.25737,-125.92288 496.5,-0.29289342 Z" style="opacity:1;fill:#c8fee3;fill-opacity:1;fill-rule:nonzero;stroke:#7ffdbe;stroke-width:6;stroke-linecap:butt;stroke-linejoin:miter;stroke-miterlimit:4;stroke-dasharray:none;stroke-dashoffset:7.80000019;stroke-opacity:1" />
          <path sodipodi:nodetypes="cccccc" inkscape:connector-curvature="0" d="m 509.28525,-72.28194 c 6.45145,-0.485796 12.72311,-1.831614 18.71747,-4.028517 m -34.21547,24.820874 c 8.28717,1.288449 16.54634,1.138 24.57174,-0.464675 m -38.81248,20.066243 c 9.51263,3.205447 19.27339,4.405741 28.94444,3.537206" style="opacity:1;fill:none;fill-opacity:1;fill-rule:nonzero;stroke:#7ffdbe;stroke-width:3;stroke-linecap:butt;stroke-linejoin:miter;stroke-miterlimit:4;stroke-dasharray:none;stroke-dashoffset:7.80000019;stroke-opacity:1" id="path7283" />
        </g>
        <path style="opacity:1;fill:#f1a7f1;fill-opacity:1;fill-rule:nonzero;stroke:none;stroke-width:1;stroke-linecap:butt;stroke-linejoin:miter;stroke-miterlimit:4;stroke-dasharray:none;stroke-dashoffset:7.80000019;stroke-opacity:1" d="m 473.95823,-37.6991 c 12.19759,10.253048 28.83022,6.838835 39.6136,20.273863 -6.01042,-16.086679 -24.94114,-13.026019 -39.6136,-20.273863 z" id="path8841" inkscape:connector-curvature="0" sodipodi:nodetypes="ccc" />
        <path sodipodi:nodetypes="cscc" inkscape:connector-curvature="0" id="path7268" d="m 391.37757,39.628221 c -36.45065,-53.134186 -2.07917,-106.930496 7.66446,-106.930496 8.25496,0 30.21181,26.589837 29.12851,57.7343205 z" style="opacity:1;fill:#c8fee3;fill-opacity:1;fill-rule:nonzero;stroke:none;stroke-width:6;stroke-linecap:butt;stroke-linejoin:miter;stroke-miterlimit:4;stroke-dasharray:none;stroke-dashoffset:7.80000019;stroke-opacity:1" />
        <path style="opacity:1;fill:#7ffdbe;fill-opacity:1;fill-rule:nonzero;stroke:none;stroke-width:0.5;stroke-linecap:butt;stroke-linejoin:miter;stroke-miterlimit:4;stroke-dasharray:none;stroke-dashoffset:7.80000019;stroke-opacity:1" d="m 400.37089,-40.837067 c -9.33561,14.599512 -10.96595,37.1999375 -1.84835,53.181092 -4.80997,-17.7942641 -4.13611,-37.252413 1.84835,-53.181092 z" id="path6938" inkscape:connector-curvature="0" sodipodi:nodetypes="ccc" />
        <path style="opacity:1;fill:#7ffdbe;fill-opacity:1;fill-rule:nonzero;stroke:none;stroke-width:6;stroke-linecap:butt;stroke-linejoin:miter;stroke-miterlimit:4;stroke-dasharray:none;stroke-dashoffset:7.80000019;stroke-opacity:1" d="m 391.37757,39.628221 c 0,0 -1.07435,-2.596362 -3.47379,-8.405217 -2.21191,-5.354877 -6.08066,-15.008706 -8.37209,-26.7546676 -2.02894,-10.4004418 -2.44532,-23.3131704 1.25763,-37.4716054 2.40074,-9.179353 6.17618,-17.356107 10.29377,-23.367858 1.89819,-2.771393 3.73681,-4.880354 5.31171,-6.257313 0.77557,-0.678093 1.44103,-1.137802 1.94603,-1.402086 0.53235,-0.278593 0.75371,-0.271749 0.7012,-0.271749 0.30597,0 1.06345,0.155691 2.26455,0.850219 1.13628,0.657047 2.47771,1.684494 3.8782,2.987475 3.43496,3.195818 6.70714,7.529947 9.35749,11.904741 1.41708,2.339116 2.57945,4.555831 3.51421,6.509703 4.94753,10.341537 7.21808,19.332402 8.39966,24.558202 1.24124,5.489656 1.7144,7.9239805 1.7144,7.9239805 0,0 1.03674,-2.3050585 1.27395,-8.1881205 0.22968,-5.696037 -0.537,-15.515776 -5.97553,-26.883493 -1.00726,-2.1054 -2.26186,-4.498565 -3.79496,-7.029184 -2.84,-4.687853 -6.44299,-9.505006 -10.40226,-13.188628 -1.64112,-1.52687 -3.3084,-2.822172 -4.98025,-3.784407 -1.60406,-0.923214 -3.4156,-1.660487 -5.24946,-1.660488 -1.26557,0 -2.45173,0.423846 -3.47739,0.959433 -1.05304,0.549894 -2.09154,1.298982 -3.11911,2.197408 -2.0626,1.80336 -4.22358,4.333737 -6.31264,7.383801 -4.54605,6.637311 -8.59028,15.459373 -11.14832,25.240208 -3.95993,15.140993 -3.52024,28.9749085 -1.34194,40.1398711 2.52347,12.9341029 8.02964,22.1098159 11.64648,27.0754339 3.81312,5.235097 6.08846,6.934341 6.08846,6.934341 z" id="path6940" inkscape:connector-curvature="0" sodipodi:nodetypes="csc" inkscape:path-effect="#path-effect7266" inkscape:original-d="m 391.37757,39.628221 c -36.45065,-53.134186 -2.07917,-106.930496 7.66446,-106.930496 8.25496,0 30.21181,26.589837 29.12851,57.7343205" />
      </g>
      <path clip-path="url(#clipPath7021)" sodipodi:nodetypes="sss" inkscape:connector-curvature="0" id="path6932" d="m 527.49192,163.74049 c 20.97143,-2.21209 30.74339,86.24962 10.98639,90.4873 -18.49742,3.96751 -32.19251,-88.25046 -10.98639,-90.4873 z" style="opacity:1;fill:none;fill-opacity:1;fill-rule:nonzero;stroke:#0c768b;stroke-width:2;stroke-linecap:butt;stroke-linejoin:miter;stroke-miterlimit:4;stroke-dasharray:none;stroke-dashoffset:7.80000019;stroke-opacity:1" />
      <g id="g6983">
        <g id="g6934" transform="translate(-5.1355826,-10.980144)">
          <path sodipodi:nodetypes="cccccc" inkscape:connector-curvature="0" id="path6918" d="m 536.44874,180.74667 c -8.79526,0.8101 -6.33052,-10.83042 0.96028,-5.85415 -3.35608,-7.98516 7.42001,-8.42183 5.45264,-0.78384 5.20773,-6.36499 10.81675,2.67519 2.02149,4.98973 8.33235,2.19882 1.0155,12.29516 -3.61358,4.54144 -1.96736,8.79526 -12.3431,2.08309 -4.82083,-2.89318 z" style="opacity:1;fill:#e87b6c;fill-opacity:1;fill-rule:nonzero;stroke:none;stroke-width:1;stroke-linecap:butt;stroke-linejoin:miter;stroke-miterlimit:4;stroke-dasharray:none;stroke-dashoffset:7.80000019;stroke-opacity:1" />
          <path sodipodi:nodetypes="sss" inkscape:connector-curvature="0" id="path6920" d="m 537.4847,179.35565 c -0.69285,-4.23996 5.62037,-5.22662 6.23494,-0.7803 0.5627,4.07104 -5.54838,4.98182 -6.23494,0.7803 z" style="opacity:1;fill:#d3f181;fill-opacity:1;fill-rule:nonzero;stroke:none;stroke-width:1;stroke-linecap:butt;stroke-linejoin:miter;stroke-miterlimit:4;stroke-dasharray:none;stroke-dashoffset:7.80000019;stroke-opacity:1" />
        </g>
        <g id="g6941" transform="rotate(-1.8674732,171.78371,304.57294)">
          <path style="opacity:1;fill:#fbfbfb;fill-opacity:1;fill-rule:nonzero;stroke:none;stroke-width:1;stroke-linecap:butt;stroke-linejoin:miter;stroke-miterlimit:4;stroke-dasharray:none;stroke-dashoffset:7.80000019;stroke-opacity:1" d="m 547.33851,195.0567 c 0.46425,18.29411 -8.37258,17.16122 -1.94248,-0.2472 -14.12237,11.57318 -17.664,4.84152 -0.93916,-1.92172 -16.62475,-8.37144 -11.80705,-16.01051 1.34488,-1.59637 -0.46057,-18.77068 8.5719,-17.56621 1.84372,0.33059 14.08342,-11.98002 16.92194,-4.95935 0.77244,1.72418 16.33396,7.90665 12.00644,15.60552 -1.0794,1.71052 z" id="path6930" inkscape:connector-curvature="0" sodipodi:nodetypes="ccccccc" />
          <path sodipodi:nodetypes="sss" inkscape:connector-curvature="0" id="path6939" d="m 545.22572,193.06088 c 0.17691,-1.79556 2.76499,-1.50524 2.67224,0.19972 -0.0985,1.80561 -2.86213,1.72766 -2.67224,-0.19972 z" style="opacity:1;fill:#88f1f1;fill-opacity:1;fill-rule:nonzero;stroke:none;stroke-width:1;stroke-linecap:butt;stroke-linejoin:miter;stroke-miterlimit:4;stroke-dasharray:none;stroke-dashoffset:7.80000019;stroke-opacity:1" />
        </g>
        <g transform="matrix(0.84187812,-0.53966772,-0.53966772,-0.84187812,188.38765,639.68936)" id="g6951">
          <path style="opacity:1;fill:#caacdb;fill-opacity:1;fill-rule:nonzero;stroke:none;stroke-width:1;stroke-linecap:butt;stroke-linejoin:miter;stroke-miterlimit:4;stroke-dasharray:none;stroke-dashoffset:7.80000019;stroke-opacity:1" d="m 536.44874,180.74667 c -8.79526,0.8101 -6.33052,-10.83042 0.96028,-5.85415 -3.35608,-7.98516 7.42001,-8.42183 5.45264,-0.78384 5.20773,-6.36499 10.81675,2.67519 2.02149,4.98973 8.33235,2.19882 1.0155,12.29516 -3.61358,4.54144 -1.96736,8.79526 -12.3431,2.08309 -4.82083,-2.89318 z" id="path6953" inkscape:connector-curvature="0" sodipodi:nodetypes="cccccc" />
          <path style="opacity:1;fill:#e2f8a5;fill-opacity:1;fill-rule:nonzero;stroke:none;stroke-width:1;stroke-linecap:butt;stroke-linejoin:miter;stroke-miterlimit:4;stroke-dasharray:none;stroke-dashoffset:7.80000019;stroke-opacity:1" d="m 537.4847,179.35565 c -0.69285,-4.23996 5.62037,-5.22662 6.23494,-0.7803 0.5627,4.07104 -5.54838,4.98182 -6.23494,0.7803 z" id="path6955" inkscape:connector-curvature="0" sodipodi:nodetypes="sss" />
        </g>
        <use x="0" y="0" xlink:href="#g6941" id="use6957" transform="rotate(-146.40439,551.17747,197.34332)" width="100%" height="100%" />
        <g id="g6959" transform="rotate(-177.33898,545.28175,205.80465)">
          <path sodipodi:nodetypes="cccccc" inkscape:connector-curvature="0" id="path6961" d="m 536.44874,180.74667 c -8.79526,0.8101 -6.33052,-10.83042 0.96028,-5.85415 -3.35608,-7.98516 7.42001,-8.42183 5.45264,-0.78384 5.20773,-6.36499 10.81675,2.67519 2.02149,4.98973 8.33235,2.19882 1.0155,12.29516 -3.61358,4.54144 -1.96736,8.79526 -12.3431,2.08309 -4.82083,-2.89318 z" style="opacity:1;fill:#e2e582;fill-opacity:1;fill-rule:nonzero;stroke:none;stroke-width:1;stroke-linecap:butt;stroke-linejoin:miter;stroke-miterlimit:4;stroke-dasharray:none;stroke-dashoffset:7.80000019;stroke-opacity:1" />
          <path sodipodi:nodetypes="sss" inkscape:connector-curvature="0" id="path6963" d="m 537.4847,179.35565 c -0.69285,-4.23996 5.62037,-5.22662 6.23494,-0.7803 0.5627,4.07104 -5.54838,4.98182 -6.23494,0.7803 z" style="opacity:1;fill:#585d29;fill-opacity:1;fill-rule:nonzero;stroke:none;stroke-width:1;stroke-linecap:butt;stroke-linejoin:miter;stroke-miterlimit:4;stroke-dasharray:none;stroke-dashoffset:7.80000019;stroke-opacity:1" />
        </g>
        <use height="100%" width="100%" transform="matrix(0.29761987,0.95468446,0.95468446,-0.29761987,211.09008,-216.50173)" id="use6967" xlink:href="#g6941" y="0" x="0" />
      </g>
      <path clip-path="url(#clipPath7473)" d="m 507.13867,134.1875 a 3.4071801,3.4071801 0 0 0 -3.07812,1.7832 c -9.2354,17.04889 -17.42509,37.01623 -24.20508,60.03907 -7.93233,26.93578 -11.55067,54.65186 -10.11328,80.61328 a 3.4071801,3.4071801 0 0 0 3.32617,3.21875 l 48.9043,1.10351 a 3.4071801,3.4071801 0 0 0 3.42187,-4.05273 c -4.01167,-20.7739 -2.52555,-45.24262 3.98047,-69.52344 6.9866,-26.07433 15.78699,-46.68604 25.55469,-62.35156 a 3.4071801,3.4071801 0 0 0 -2.46875,-5.1836 l -44.98242,-5.62109 a 3.4071801,3.4071801 0 0 0 -0.33985,-0.0254 z" id="path7029" style="opacity:0.05;fill:#40c080;fill-opacity:1;fill-rule:nonzero;stroke:none;stroke-width:1;stroke-linecap:butt;stroke-linejoin:miter;stroke-miterlimit:4;stroke-dasharray:none;stroke-dashoffset:7.80000019;stroke-opacity:1;filter:url(#filter7433)" inkscape:original="M 507.05664 137.59375 C 497.95011 154.40474 489.84377 174.15111 483.12305 196.97266 C 475.29055 223.56946 471.73203 250.9237 473.14453 276.43555 L 522.04883 277.53906 C 517.91375 256.12612 519.46407 231.19413 526.08398 206.48828 C 533.13939 180.15714 542.0481 159.23843 552.03906 143.21484 L 507.05664 137.59375 z " inkscape:radius="3.4068394" sodipodi:type="inkscape:offset" />
      <path style="opacity:1;fill:#c8fee3;fill-opacity:1;fill-rule:nonzero;stroke:none;stroke-width:1;stroke-linecap:butt;stroke-linejoin:miter;stroke-miterlimit:4;stroke-dasharray:none;stroke-dashoffset:7.80000019;stroke-opacity:1" d="m 473.14526,276.43525 c -1.4125,-25.51185 2.14578,-52.86493 9.97828,-79.46173 6.72072,-22.82155 14.82574,-42.56803 23.93227,-59.37902 l 44.98381,5.61987 c -9.99096,16.02359 -18.90027,36.94286 -25.95568,63.274 -6.61991,24.70585 -8.1696,49.63678 -4.03452,71.04972 z" id="path7025" inkscape:connector-curvature="0" sodipodi:nodetypes="csccscc" />
      <g id="g6912">
        <path clip-path="none" sodipodi:nodetypes="ccssccc" inkscape:connector-curvature="0" id="path7350" d="m 462.03863,226.36075 c 16.20022,48.72209 -11.30675,73.10157 -40.48869,49.22349 4.43262,5.33039 8.72137,9.23753 10.00149,14.35073 6.07669,24.27212 -32.7862,76.49582 -41.40784,53.92849 -44.81787,-117.31172 -0.29886,-150.73329 39.12812,-105.05756 5.76573,-5.0596 10.30758,-11.60258 13.52482,-18.33561 z" style="opacity:1;fill:#c8fee3;fill-opacity:1;fill-rule:nonzero;stroke:none;stroke-width:1;stroke-linecap:butt;stroke-linejoin:miter;stroke-miterlimit:4;stroke-dasharray:none;stroke-dashoffset:7.80000019;stroke-opacity:1" />
        <path style="opacity:1;fill:#7ffdbe;fill-opacity:1;fill-rule:nonzero;stroke:none;stroke-width:6;stroke-linecap:butt;stroke-linejoin:miter;stroke-miterlimit:4;stroke-dasharray:none;stroke-dashoffset:7.80000019;stroke-opacity:1" d="m 436.01413,247.48243 c 0,0 -0.8974,-2.85064 -4.52766,-8.38526 -3.26136,-4.97221 -10.19349,-13.94267 -20.31059,-19.06655 -1.64834,-0.83481 -3.3945,-1.5918 -5.21804,-2.2121 -4.41388,-1.50144 -9.36779,-2.22678 -14.37501,-1.1983 -5.03812,1.03483 -9.92536,3.81599 -13.92705,8.96558 -6.26209,8.05837 -10.26569,21.86527 -9.06627,42.90265 1.08378,19.00923 6.45916,44.26986 18.75163,76.44566 1.26666,3.3155 3.30844,5.82185 6.27811,6.90525 2.87339,1.04826 5.91787,0.50325 8.69766,-0.72389 5.51566,-2.4349 11.38006,-8.15675 16.43535,-14.842 5.36949,-7.10076 9.98841,-15.48263 12.92114,-23.46416 3.25114,-8.84811 4.41625,-17.10006 2.78821,-23.60292 -0.95746,-3.82439 -3.37966,-7.18094 -4.84453,-9.11431 -1.51458,-1.99897 -3.28037,-3.97074 -4.73365,-5.56165 -5.8297,-6.38177 -7.01769,-7.57006 -10.09023,-11.52201 -2.04921,-2.63572 -2.97541,-3.90119 -2.97541,-3.90119 0,0 -0.14869,1.58408 0.85674,4.97554 1.12887,3.80784 3.22263,8.02272 7.84716,14.08832 -0.11755,-0.15418 4.39276,5.64616 4.31672,5.5459 1.46789,1.93569 3.17238,4.42833 3.80284,6.94656 1.21046,4.83497 0.4641,11.73813 -2.59969,20.07639 -2.71818,7.39763 -7.0439,15.26128 -12.07505,21.91461 -4.86875,6.43856 -9.97484,11.16296 -14.07271,12.97197 -1.99476,0.88059 -3.34945,0.89316 -4.2182,0.57622 -0.81371,-0.29686 -1.85695,-1.12584 -2.72956,-3.40993 -12.14027,-31.77741 -17.32703,-56.41811 -18.36626,-74.64586 -1.15752,-20.30258 2.79603,-32.42255 7.81368,-38.87953 3.13358,-4.03245 6.78197,-6.0396 10.39999,-6.77961 3.6739,-0.75144 7.52963,-0.24839 11.23213,1.01106 1.52241,0.51787 3.00823,1.15958 4.4395,1.88441 8.61807,4.36437 16.54,11.69294 20.71863,15.63668 4.68196,4.41877 6.83042,6.46247 6.83042,6.46247 z" id="path7316" inkscape:connector-curvature="0" sodipodi:nodetypes="cssc" inkscape:path-effect="#path-effect7334" inkscape:original-d="m 436.01413,247.48243 c -40.74598,-57.92318 -93.26921,-27.686 -45.87054,96.38103 8.62164,22.56733 47.48453,-29.65637 41.40784,-53.92849 -2.27884,-9.10236 -14.74026,-16.84628 -19.73364,-30.82774" />
        <path sodipodi:nodetypes="cc" inkscape:connector-curvature="0" id="path6897" d="m 414.85282,274.05877 c 0,0 1.62009,1.75572 5.58126,4.77047 3.58732,2.73021 10.40384,7.30841 18.65719,8.58144 6.15095,0.94876 13.94692,0.11105 20.48255,-5.94546 2.79419,-2.58935 5.31022,-6.11957 7.15724,-10.74576 2.48369,-6.22084 2.9607,-12.88803 2.61214,-18.56633 -0.35038,-5.70777 -1.54619,-10.80425 -2.72017,-14.63685 -2.43523,-7.95008 -4.5844,-11.15553 -4.5844,-11.15553 0,0 0.76261,3.75516 1.64735,11.76698 0.82198,7.44349 1.60809,20.01838 -2.52812,30.37125 -1.53498,3.84202 -3.5579,6.61523 -5.6623,8.56536 -4.82678,4.47293 -10.58898,5.17237 -15.48964,4.41647 -6.74277,-1.04004 -12.58007,-4.87038 -15.93807,-7.42606 -3.58003,-2.72467 -5.08169,-4.34516 -5.08169,-4.34516 l -4.13334,4.34918 z" clip-path="url(#clipPath6907)" style="opacity:1;fill:#7ffdbe;fill-opacity:1;fill-rule:nonzero;stroke:none;stroke-width:6;stroke-linecap:butt;stroke-linejoin:miter;stroke-miterlimit:4;stroke-dasharray:none;stroke-dashoffset:7.80000019;stroke-opacity:1" inkscape:path-effect="#path-effect6899" inkscape:original-d="m 416.91949,271.88418 c 31.31868,29.76439 61.9488,5.09169 45.11914,-45.52343" />
        <path style="opacity:1;fill:#7ffdbe;fill-opacity:1;fill-rule:nonzero;stroke:none;stroke-width:6;stroke-linecap:butt;stroke-linejoin:miter;stroke-miterlimit:4;stroke-dasharray:none;stroke-dashoffset:7.80000019;stroke-opacity:1" d="m 442.79653,220.47029 c -4.19064,6.18003 -9.56784,11.87989 -15.35843,16.11691 l 3.83574,4.72013 c 5.01381,-6.49677 8.83924,-13.2104 11.52269,-20.83704 z" id="path7318" inkscape:connector-curvature="0" sodipodi:nodetypes="cccc" />
      </g>
    </g>
  </g>
</svg>
