<svg xmlns="http://www.w3.org/2000/svg" xmlns:inkscape="http://www.inkscape.org/namespaces/inkscape" xmlns:xlink="http://www.w3.org/1999/xlink" height="1000" viewBox="0 0 1750 1000" width="1750">
  <defs>
    <inkscape:path-effect deform_type="Perspective" down_left_point="-99.113831,1011.3832" down_right_point="1807.2554,1018.1016" effect="perspective-envelope" horizontal_mirror="false" id="path-effect209" overflow_perspective="false" up_left_point="194.81417,308.38342" up_right_point="1494.8518,299.98548" vertical_mirror="false" />
    <linearGradient id="linearGradient3336">
      <stop offset="0" stop-color="#72a12b" />
      <stop offset="1" stop-color="#95c455" />
    </linearGradient>
    <inkscape:path-effect bendpath1="m -39.462085,-46.401087 c 16.548574,-7.882471 36.8814464,-8.976657 60.031003,3.360881" bendpath2="M 17.818901,-48.178608 C 29.602244,-7.1048566 24.963323,23.418281 9.3283805,32.915964" bendpath3="m -18.373452,26.309148 c 7.350648,-4.422047 17.2044538,-1.740911 27.3473449,6.547764" bendpath4="m -38.843976,-44.775194 c 14.592946,30.94581 18.318095,52.1275246 18.337606,69.284454" effect="envelope" id="path-effect4603" />
    <inkscape:path-effect effect="powerstroke" id="path-effect6370" interpolator_type="CubicBezierSmooth" offset_points="0.3,3 | 6,3" start_linecap_type="zerowidth" />
    <inkscape:path-effect effect="powerstroke" end_linecap_type="zerowidth" id="path-effect8777" interpolator_type="CubicBezierSmooth" offset_points="0.23,3 | 1.79,3" start_linecap_type="zerowidth" />
    <inkscape:path-effect effect="powerstroke" id="path-effect1143" interpolator_type="CubicBezierSmooth" offset_points="0.21,3 | 2,3" start_linecap_type="zerowidth" />
    <inkscape:path-effect effect="powerstroke" id="path-effect214" interpolator_type="CubicBezierSmooth" offset_points="0.83,3 | 4,3" start_linecap_type="zerowidth" />
    <inkscape:path-effect effect="powerstroke" end_linecap_type="zerowidth" id="path-effect5615" interpolator_type="CubicBezierSmooth" offset_points="0.32,3 | 0.62,3" start_linecap_type="zerowidth" />
    <inkscape:path-effect effect="powerstroke" id="path-effect5613" interpolator_type="CubicBezierSmooth" offset_points="0.83,3 | 4,3" start_linecap_type="zerowidth" />
    <inkscape:path-effect effect="powerstroke" end_linecap_type="zerowidth" id="path-effect5704" interpolator_type="CubicBezierSmooth" miter_limit="20" offset_points="0.18,1.5 | 4.63,1.5" start_linecap_type="zerowidth" />
    <inkscape:path-effect effect="powerstroke" end_linecap_type="zerowidth" id="path-effect3823" interpolator_type="CubicBezierSmooth" offset_points="1,3 | 2.1,3" start_linecap_type="zerowidth" />
    <inkscape:path-effect effect="powerstroke" end_linecap_type="zerowidth" id="path-effect3801" interpolator_type="CubicBezierSmooth" offset_points="0.5,3 | 3.56,3" start_linecap_type="zerowidth" />
    <inkscape:path-effect effect="powerstroke" end_linecap_type="zerowidth" id="path-effect5866" interpolator_type="CubicBezierSmooth" offset_points="0.47,3 | 1.77,3" start_linecap_type="zerowidth" />
    <inkscape:path-effect effect="powerstroke" end_linecap_type="zerowidth" id="path-effect4290" interpolator_type="CubicBezierSmooth" offset_points="0.18,3 | 1.71,3" start_linecap_type="zerowidth" />
    <linearGradient id="linearGradient2599">
      <stop offset="0" stop-color="#1e093c" />
      <stop offset="1" stop-color="#662f89" />
    </linearGradient>
    <clipPath id="clipPath2613">
      <use xlink:href="#path2400" />
    </clipPath>
    <clipPath id="clipPath4865">
      <use xlink:href="#path4419" />
    </clipPath>
    <clipPath id="clipPath4293">
      <use xlink:href="#path2392" />
    </clipPath>
    <clipPath id="clipPath5847">
      <use xlink:href="#path4310" />
    </clipPath>
    <inkscape:path-effect effect="powerstroke" end_linecap_type="zerowidth" id="path-effect4290-6" interpolator_type="CubicBezierSmooth" offset_points="0.18,2.9999998 | 1.71,2.9999998" start_linecap_type="zerowidth" />
    <clipPath id="clipPath4554">
      <path d="m 190.74204,467.55509 54.27045,-50.66169 65.45197,235.80332 -136.46447,29.3033 z" />
    </clipPath>
    <linearGradient gradientUnits="userSpaceOnUse" id="linearGradient5182" x1="980.32574" x2="978.41998" y1="221.42543" y2="299.6297" xlink:href="#linearGradient2599" />
    <linearGradient gradientUnits="userSpaceOnUse" id="linearGradient5184" x1="789.12738" x2="862.13562" y1="409.61383" y2="409.89047" xlink:href="#linearGradient2599" />
    <linearGradient gradientUnits="userSpaceOnUse" id="linearGradient3338" x1="941.02954" x2="941.02954" y1="593.42352" y2="-7.8841825" xlink:href="#linearGradient3336" />
  </defs>
  <rect fill="url(#linearGradient3338)" height="1000" width="1750" />
  <path d="m 1595.6585,286.14426 c 22.3661,-24.96579 72.851,-21.29365 89.7635,1.53253 -26.4174,-17.10523 -63.2108,-17.91361 -89.7635,-1.53253 z M 1417.9599,141.49703 c 22.6965,-23.74335 51.4719,-26.26956 75.1148,-4.06527 -24.8218,-15.70689 -51.1829,-12.6676 -75.1148,4.06527 z M 731.874,125.67068 c 25.66907,-25.866619 76.54517,-26.79502 99.7635,-2.46747 -28.21897,-17.4055 -72.00974,-15.11471 -99.7635,2.46747 z M 515.0751,53.268478 c 26.09372,-21.195437 71.94685,-21.39282 98.5624,2.934728 -31.61619,-16.131535 -66.56212,-18.8183 -98.5624,-2.934728 z M 88.087852,173.24228 c 22.220318,-28.82635 78.370538,-35.06962 112.104328,-14.4022 -38.40497,-12.58136 -82.42867,-6.79291 -112.104328,14.4022 z" fill="#4a7437" />
  <g>
    <path d="M -141.4043,1053.371 C 23.177692,790.93178 10.997176,492.47348 172.42332,284.88376 c 515.63368,-1.67959 910.44288,92.46047 1350.13988,-6.67959 169.6575,194.81325 305.2553,497.61462 338.9422,793.67873 -547.3055,-34.7316 -1265.61868,-45.4176 -2002.9097,-18.5119 z" fill="#766899" />
    <path d="M 891.91,1041.1793 C 900.21394,762.36475 624.47962,661.42551 592.38933,537.24368 565.98761,435.07525 705.62704,372.49528 687.56046,307.69833 l 233.1684,13.1907 c 0.0524,87.32159 -121.60083,147.54597 -10.8958,273.8205 114.71494,130.84846 347.38554,126.47182 412.13674,452.83557 z" fill="#2d2443" />
    <path d="M 1261.434,1050.0545 C 1214.3721,706.63364 916.79335,728.49125 892.18785,626.79558 872.15466,543.99742 743.37296,523.8396 824.28064,441.34867 867.23091,397.55791 875.86596,351.16942 866.59722,317.28892 L 714.08775,309.9265 c 5.19223,28.58647 -9.23897,77.6488 -53.55445,130.41801 -112.86314,134.39321 97.03888,90.37495 94.54252,200.30114 -3.32087,146.23406 211.75741,135.8508 229.6644,399.74165 z" fill="#231a37" />
    <path d="m 1826.204,1047.2801 c -25.1939,-255.29747 -148.5861,-550.26268 -316.545,-746.77454 -439.697,99.14006 -805.99922,1 -1321.6329,2.67959 C 35.093003,507.37765 42.49299,780.91787 -98.308471,1031.4668 637.28394,1002.8625 1295.8846,1007.4527 1826.204,1047.2801 Z m -2018.66681,41.9241 C 12.353223,751.46881 -24.914283,512.085 160.0261,267.54433 c 552.58463,-1.67959 921.0862,97.49367 1376.2547,-13.35918 235.1424,300.64635 317.9335,542.37106 364.962,851.41535 -539.1548,-39.8464 -1327.80452,-51.738 -2093.70561,-16.3963 z" fill="#2d2443" />
    <path fill="#fff" inkscape:original-d="m 10.964551,247.531 a 8.0107098,8.0107098 0 0 1 -8.0107103,8.01071 8.0107098,8.0107098 0 0 1 -8.010709,-8.01071 8.0107098,8.0107098 0 0 1 8.010709,-8.01071 8.0107098,8.0107098 0 0 1 8.0107103,8.01071 z M 1859.3226,1096.8205 a 8.6196976,8.6196976 0 0 1 -8.6197,8.6197 8.6196976,8.6196976 0 0 1 -8.6197,-8.6197 8.6196976,8.6196976 0 0 1 8.6197,-8.6197 8.6196976,8.6196976 0 0 1 8.6197,8.6197 z M 531.72527,849.35899 a 11.728208,11.728208 0 0 1 -11.72821,11.72821 11.728208,11.728208 0 0 1 -11.72821,-11.72821 11.728208,11.728208 0 0 1 11.72821,-11.72821 11.728208,11.728208 0 0 1 11.72821,11.72821 z m -265.6671,-232.0614 a 7.6254725,7.6254725 0 0 1 -7.62547,7.62547 7.6254725,7.6254725 0 0 1 -7.62547,-7.62547 7.6254725,7.6254725 0 0 1 7.62547,-7.62547 7.6254725,7.6254725 0 0 1 7.62547,7.62547 z m 90.3883,278.12335 a 15.331546,15.331546 0 0 1 -15.33155,15.33155 15.331546,15.331546 0 0 1 -15.33155,-15.33155 15.331546,15.331546 0 0 1 15.33155,-15.33154 15.331546,15.331546 0 0 1 15.33155,15.33154 z M 557.49372,637.34111 a 8.0787525,8.0787525 0 0 1 -8.07875,8.07875 8.0787525,8.0787525 0 0 1 -8.07875,-8.07875 8.0787525,8.0787525 0 0 1 8.07875,-8.07875 8.0787525,8.0787525 0 0 1 8.07875,8.07875 z m -377.98857,49.44604 a 7.8730135,7.8730135 0 0 1 -7.87302,7.87302 7.8730135,7.8730135 0 0 1 -7.87301,-7.87302 7.8730135,7.8730135 0 0 1 7.87301,-7.87301 7.8730135,7.8730135 0 0 1 7.87302,7.87301 z m 69.1872,126.8794 a 10.978523,10.978523 0 0 1 -10.97852,10.97852 10.978523,10.978523 0 0 1 -10.97852,-10.97852 10.978523,10.978523 0 0 1 10.97852,-10.97853 10.978523,10.978523 0 0 1 10.97852,10.97853 z M 1586.5814,334.53495 a 9.8478804,9.8478804 0 0 1 -9.8479,9.84789 9.8478804,9.8478804 0 0 1 -9.8479,-9.84789 9.8478804,9.8478804 0 0 1 9.8479,-9.84788 9.8478804,9.8478804 0 0 1 9.8479,9.84788 z m 64.041,133.07899 a 11.931902,11.931902 0 0 1 -11.9319,11.9319 11.931902,11.931902 0 0 1 -11.9319,-11.9319 11.931902,11.931902 0 0 1 11.9319,-11.93191 11.931902,11.931902 0 0 1 11.9319,11.93191 z m 195.339,470.26251 a 7.2148051,7.2148051 0 0 1 -7.2148,7.2148 7.2148051,7.2148051 0 0 1 -7.2149,-7.2148 7.2148051,7.2148051 0 0 1 7.2149,-7.21481 7.2148051,7.2148051 0 0 1 7.2148,7.21481 z m -47.8245,-559.15061 a 8.9494247,8.9494247 0 0 1 -8.9494,8.94943 8.9494247,8.9494247 0 0 1 -8.9495,-8.94943 8.9494247,8.9494247 0 0 1 8.9495,-8.94942 8.9494247,8.9494247 0 0 1 8.9494,8.94942 z M 63.54123,883.46586 a 16.511423,16.511423 0 0 1 -16.51142,16.51143 16.511423,16.511423 0 0 1 -16.51143,-16.51143 16.511423,16.511423 0 0 1 16.51143,-16.51142 16.511423,16.511423 0 0 1 16.51142,16.51142 z m 999.99077,74.25397 a 11.813415,11.813415 0 0 1 -11.8134,11.81342 11.813415,11.813415 0 0 1 -11.8134,-11.81342 11.813415,11.813415 0 0 1 11.8134,-11.81341 11.813415,11.813415 0 0 1 11.8134,11.81341 z M 818.45085,495.6923 a 8.1151609,8.1151609 0 0 1 -8.11517,8.11517 8.1151609,8.1151609 0 0 1 -8.11516,-8.11517 8.1151609,8.1151609 0 0 1 8.11516,-8.11516 8.1151609,8.1151609 0 0 1 8.11517,8.11516 z M 1039.417,716.35966 a 11.076834,11.076834 0 0 1 -11.0768,11.07684 11.076834,11.076834 0 0 1 -11.0769,-11.07684 11.076834,11.076834 0 0 1 11.0769,-11.07683 11.076834,11.076834 0 0 1 11.0768,11.07683 z M 402.37883,562.54463 a 17.032337,17.032337 0 0 1 -17.03234,17.03234 17.032337,17.032337 0 0 1 -17.03234,-17.03234 17.032337,17.032337 0 0 1 17.03234,-17.03234 17.032337,17.032337 0 0 1 17.03234,17.03234 z m 199.88648,-3.3511 a 10.573054,10.573054 0 0 1 -10.57306,10.57305 10.573054,10.573054 0 0 1 -10.57305,-10.57305 10.573054,10.573054 0 0 1 10.57305,-10.57306 10.573054,10.573054 0 0 1 10.57306,10.57306 z m 193.66958,164.77893 a 7.6808724,7.6808724 0 0 1 -7.68087,7.68087 7.6808724,7.6808724 0 0 1 -7.68087,-7.68087 7.6808724,7.6808724 0 0 1 7.68087,-7.68088 7.6808724,7.6808724 0 0 1 7.68087,7.68088 z m -48.68506,267.21869 a 9.5275469,9.5275469 0 0 1 -9.52755,9.52755 9.5275469,9.5275469 0 0 1 -9.52755,-9.52755 9.5275469,9.5275469 0 0 1 9.52755,-9.52755 9.5275469,9.5275469 0 0 1 9.52755,9.52755 z M 1041.3246,410.33192 a 12.774953,12.774953 0 0 1 -12.7749,12.77496 12.774953,12.774953 0 0 1 -12.775,-12.77496 12.774953,12.774953 0 0 1 12.775,-12.77495 12.774953,12.774953 0 0 1 12.7749,12.77495 z m 12.6981,205.85544 a 7.9302115,7.9302115 0 0 1 -7.9302,7.93021 7.9302115,7.9302115 0 0 1 -7.9302,-7.93021 7.9302115,7.9302115 0 0 1 7.9302,-7.93021 7.9302115,7.9302115 0 0 1 7.9302,7.93021 z M 901.15563,1030.8928 a 15.442931,15.442931 0 0 1 -15.44293,15.4429 15.442931,15.442931 0 0 1 -15.44293,-15.4429 15.442931,15.442931 0 0 1 15.44293,-15.4429 15.442931,15.442931 0 0 1 15.44293,15.4429 z M 403.81097,329.93894 a 6.2787242,6.2787242 0 0 1 -6.27872,6.27872 6.2787242,6.2787242 0 0 1 -6.27873,-6.27872 6.2787242,6.2787242 0 0 1 6.27873,-6.27873 6.2787242,6.2787242 0 0 1 6.27872,6.27873 z m 708.51343,53.24593 a 8.5701723,8.5701723 0 0 1 -8.5702,8.57018 8.5701723,8.5701723 0 0 1 -8.5701,-8.57018 8.5701723,8.5701723 0 0 1 8.5701,-8.57017 8.5701723,8.5701723 0 0 1 8.5702,8.57017 z M 787.38081,337.6213 a 7.7882886,7.7882886 0 0 1 -7.78829,7.78829 7.7882886,7.7882886 0 0 1 -7.78829,-7.78829 7.7882886,7.7882886 0 0 1 7.78829,-7.78829 7.7882886,7.7882886 0 0 1 7.78829,7.78829 z m -164.04063,24.85206 a 9.3790092,9.3790092 0 0 1 -9.37901,9.37901 9.3790092,9.3790092 0 0 1 -9.37901,-9.37901 9.3790092,9.3790092 0 0 1 9.37901,-9.37901 9.3790092,9.3790092 0 0 1 9.37901,9.37901 z m 912.21822,577.24739 a 16.511423,16.511423 0 0 1 -16.5114,16.51142 16.511423,16.511423 0 0 1 -16.5115,-16.51142 16.511423,16.511423 0 0 1 16.5115,-16.51143 16.511423,16.511423 0 0 1 16.5114,16.51143 z m 16.4099,67.99905 a 10.249693,10.249693 0 0 1 -10.2497,10.2497 10.249693,10.249693 0 0 1 -10.2497,-10.2497 10.249693,10.249693 0 0 1 10.2497,-10.24966 10.249693,10.249693 0 0 1 10.2497,10.24966 z M 1303.7597,548.81975 a 8.1151609,8.1151609 0 0 1 -8.1152,8.11516 8.1151609,8.1151609 0 0 1 -8.1152,-8.11516 8.1151609,8.1151609 0 0 1 8.1152,-8.11516 8.1151609,8.1151609 0 0 1 8.1152,8.11516 z m 380.4658,211.28503 a 11.076834,11.076834 0 0 1 -11.0768,11.07683 11.076834,11.076834 0 0 1 -11.0769,-11.07683 11.076834,11.076834 0 0 1 11.0769,-11.07683 11.076834,11.076834 0 0 1 11.0768,11.07683 z m -94.7086,-203.59329 a 8.0800581,8.0800581 0 0 1 -8.08,8.08006 8.0800581,8.0800581 0 0 1 -8.0801,-8.08006 8.0800581,8.0800581 0 0 1 8.0801,-8.08006 8.0800581,8.0800581 0 0 1 8.08,8.08006 z m -393.7761,38.83224 a 17.032337,17.032337 0 0 1 -17.0323,17.03234 17.032337,17.032337 0 0 1 -17.0324,-17.03234 17.032337,17.032337 0 0 1 17.0324,-17.03233 17.032337,17.032337 0 0 1 17.0323,17.03233 z M 70.00109,664.35426 a 8.371172,8.371172 0 0 1 -8.37117,8.37117 8.371172,8.371172 0 0 1 -8.37117,-8.37117 8.371172,8.371172 0 0 1 8.37117,-8.37117 8.371172,8.371172 0 0 1 8.37117,8.37117 z M 935.35288,356.10975 a 10.38381,10.38381 0 0 1 -10.3838,10.38381 10.38381,10.38381 0 0 1 -10.38378,-10.38381 10.38381,10.38381 0 0 1 10.38378,-10.38381 10.38381,10.38381 0 0 1 10.3838,10.38381 z m 350.58192,417.86271 a 7.6808724,7.6808724 0 0 1 -7.6809,7.68087 7.6808724,7.6808724 0 0 1 -7.6809,-7.68087 7.6808724,7.6808724 0 0 1 7.6809,-7.68088 7.6808724,7.6808724 0 0 1 7.6809,7.68088 z m -37.7389,214.05218 a 9.5275469,9.5275469 0 0 1 -9.5276,9.52755 9.5275469,9.5275469 0 0 1 -9.5275,-9.52755 9.5275469,9.5275469 0 0 1 9.5275,-9.52755 9.5275469,9.5275469 0 0 1 9.5276,9.52755 z m 209.6337,-408.84985 a 12.774953,12.774953 0 0 1 -12.7749,12.77495 12.774953,12.774953 0 0 1 -12.775,-12.77495 12.774953,12.774953 0 0 1 12.775,-12.77496 12.774953,12.774953 0 0 1 12.7749,12.77496 z M 933.11538,830.16636 a 8.1374454,8.1374454 0 0 1 -8.1374,8.13745 8.1374454,8.1374454 0 0 1 -8.13747,-8.13745 8.1374454,8.1374454 0 0 1 8.13747,-8.13744 8.1374454,8.1374454 0 0 1 8.1374,8.13744 z M 1752.4416,497.29747 a 8.5701723,8.5701723 0 0 1 -8.5702,8.57017 8.5701723,8.5701723 0 0 1 -8.5701,-8.57017 8.5701723,8.5701723 0 0 1 8.5701,-8.57017 8.5701723,8.5701723 0 0 1 8.5702,8.57017 z M 1277.3808,387.62132 a 7.7882886,7.7882886 0 0 1 -7.7883,7.78829 7.7882886,7.7882886 0 0 1 -7.7883,-7.78829 7.7882886,7.7882886 0 0 1 7.7883,-7.78829 7.7882886,7.7882886 0 0 1 7.7883,7.78829 z M 480.32775,1093.2986 a 8.3803673,8.3803673 0 0 1 -8.38037,8.3804 8.3803673,8.3803673 0 0 1 -8.38037,-8.3804 8.3803673,8.3803673 0 0 1 8.38037,-8.3803 8.3803673,8.3803673 0 0 1 8.38037,8.3803 z M 1786.1821,948.57176 a 11.232007,11.232007 0 0 1 -11.2321,11.23201 11.232007,11.232007 0 0 1 -11.232,-11.23201 11.232007,11.232007 0 0 1 11.232,-11.23201 11.232007,11.232007 0 0 1 11.2321,11.23201 z M 197.46555,274.31585 a 7.0278144,7.0278144 0 0 1 -7.02781,7.02782 7.0278144,7.0278144 0 0 1 -7.02782,-7.02782 7.0278144,7.0278144 0 0 1 7.02782,-7.02781 7.0278144,7.0278144 0 0 1 7.02781,7.02781 z m 32.4985,475.55358 a 7.5620809,7.5620809 0 0 1 -7.56208,7.56208 7.5620809,7.5620809 0 0 1 -7.56208,-7.56208 7.5620809,7.5620809 0 0 1 7.56208,-7.56208 7.5620809,7.5620809 0 0 1 7.56208,7.56208 z M 1463.5554,331.90532 a 6.7268205,6.7268205 0 0 1 -6.7268,6.72682 6.7268205,6.7268205 0 0 1 -6.7268,-6.72682 6.7268205,6.7268205 0 0 1 6.7268,-6.72682 6.7268205,6.7268205 0 0 1 6.7268,6.72682 z m -978.39069,169.992 a 9.5926399,9.5926399 0 0 1 -9.59264,9.59264 9.5926399,9.5926399 0 0 1 -9.59264,-9.59264 9.5926399,9.5926399 0 0 1 9.59264,-9.59264 9.5926399,9.5926399 0 0 1 9.59264,9.59264 z m 164.16686,263.92255 a 7.9302115,7.9302115 0 0 1 -7.93021,7.93021 7.9302115,7.9302115 0 0 1 -7.93021,-7.93021 7.9302115,7.9302115 0 0 1 7.93021,-7.93021 7.9302115,7.9302115 0 0 1 7.93021,7.93021 z m -297.59891,66.2135 a 8.5330801,8.5330801 0 0 1 -8.53308,8.53308 8.5330801,8.5330801 0 0 1 -8.53308,-8.53308 8.5330801,8.5330801 0 0 1 8.53308,-8.53308 8.5330801,8.5330801 0 0 1 8.53308,8.53308 z M 133.96391,413.36841 a 8.7174778,8.7174778 0 0 1 -8.71747,8.71747 8.7174778,8.7174778 0 0 1 -8.71748,-8.71747 8.7174778,8.7174778 0 0 1 8.71748,-8.71748 8.7174778,8.7174778 0 0 1 8.71747,8.71748 z m 48.07038,599.58719 a 9.3801956,9.3801956 0 0 1 -9.3802,9.3802 9.3801956,9.3801956 0 0 1 -9.3802,-9.3802 9.3801956,9.3801956 0 0 1 9.3802,-9.3802 9.3801956,9.3801956 0 0 1 9.3802,9.3802 z M 1848.8632,333.31328 a 7.8628144,7.8628144 0 0 1 -7.8629,7.86283 7.8628144,7.8628144 0 0 1 -7.8628,-7.86283 7.8628144,7.8628144 0 0 1 7.8628,-7.86281 7.8628144,7.8628144 0 0 1 7.8629,7.86281 z m -140.0641,288.64206 a 10.708167,10.708167 0 0 1 -10.7082,10.70816 10.708167,10.708167 0 0 1 -10.7082,-10.70816 10.708167,10.708167 0 0 1 10.7082,-10.70817 10.708167,10.708167 0 0 1 10.7082,10.70817 z M 626.76171,974.93461 a 11.058284,11.058284 0 0 1 -11.05829,11.05829 11.058284,11.058284 0 0 1 -11.05828,-11.05829 11.058284,11.058284 0 0 1 11.05828,-11.05828 11.058284,11.058284 0 0 1 11.05829,11.05828 z M 90.47979,506.50703 A 14.299062,14.299062 0 0 1 76.18073,520.80609 14.299062,14.299062 0 0 1 61.88167,506.50703 14.299062,14.299062 0 0 1 76.18073,492.20797 14.299062,14.299062 0 0 1 90.47979,506.50703 Z M 1654.0357,858.95952 a 11.339461,11.339461 0 0 1 -11.3394,11.33946 11.339461,11.339461 0 0 1 -11.3395,-11.33946 11.339461,11.339461 0 0 1 11.3395,-11.33946 11.339461,11.339461 0 0 1 11.3394,11.33946 z" inkscape:path-effect="#path-effect209" />
  </g>
  <g transform="translate(46.866146 38.078903)">
    <g opacity=".15">
      <ellipse cx="1405.4656" cy="-215.09964" rx="275.67532" ry="89.793991" transform="rotate(35.765712)" />
      <ellipse cx="941.55249" cy="571.45654" rx="105.12564" ry="24.116755" />
      <ellipse cx="591.96228" cy="746.7998" rx="148.63605" ry="89.819641" />
      <ellipse cx="956.96228" cy="692.7998" rx="157.63605" ry="49.819649" />
      <ellipse cx="389.48117" cy="432.27731" rx="107.29721" ry="29.221001" />
      <ellipse cx="262.84094" cy="831.92108" rx="149.29721" ry="31.221001" />
      <ellipse cx="292.84094" cy="717.92108" rx="190.40991" ry="44.120495" />
      <ellipse cx="655.84076" cy="580.99872" rx="165.43195" ry="54.548283" />
    </g>
    <g>
      <path d="m 1341.9915,565.97959 c 54.7156,-26.39653 101.7288,13.91185 73.8302,68.15826 3.723,-0.69509 7.2586,1.17485 9.9201,5.40303 25.0553,39.80257 63.185,75.53128 124.9165,86.97672 69.0087,12.79469 17.2435,139.07567 -46.3482,106.39816 -66.5572,-34.20139 -113.6745,-96.43974 -134.2716,-155.23254 -65.5752,6.71695 -89.3395,-82.13425 -28.047,-111.70363 z" fill="#6cb2ea" />
      <path d="m 1522.0775,825.91121 c -24.8557,-22.61169 2.3966,-84.2431 38.7324,-83.63694 -39.5328,-9.90591 -71.5341,65.45123 -38.7324,83.63694 z" fill="#338fcc" />
      <path fill="#338fcc" inkscape:original-d="m 1378.5022,676.1503 c -71.8726,15.88524 -100.4,-79.34854 -36.5107,-110.17071 55.0072,-26.53719 102.2296,14.34336 73.3336,68.9878" inkscape:path-effect="#path-effect1143" />
      <path fill="#338fcc" inkscape:original-d="m 1406.5531,641.94175 c 6.295,-9.9722 14.2478,-10.24997 19.1887,-2.40087 25.0553,39.80252 63.185,75.53128 124.9165,86.97672 69.0087,12.79469 17.2435,139.07567 -46.3482,106.39816 -66.5572,-34.20139 -113.6745,-96.43974 -134.1893,-155.09773" inkscape:path-effect="#path-effect214" />
      <path d="m 1455.7333,576.15888 c 22.9173,9.05774 45.546,25.0089 64.8314,49.17446 -18.848,-107.01503 -135.8926,-135.73689 -233.6759,-85.61544 l 3.2748,27.46073 c 159.1643,29.8034 10.6721,225.82083 101.6794,319.18664 -5.9272,-29.69735 -0.8161,-51.78625 8.9912,-75.55182 12.9316,76.29221 57.8207,103.90244 107.022,87.75045 -136.8761,-50.71708 65.4588,-197.60404 -52.1229,-322.40502 z" fill="#b8e0f9" />
      <path d="m 1433.7455,525.37096 c -50.1173,-0.29212 -102.4718,10.17512 -145.4157,29.10509 l 0.2771,3.31399 c 134.3688,-21.68459 203.8269,55.60053 177.9816,152.05536 -21.3347,79.63528 -28.296,140.35098 3.5842,164.27112 -52.0886,-64.00259 87.8886,-189.34338 -14.4394,-297.95647 22.9173,9.05774 45.5458,25.00802 64.8312,49.17358 -9.0377,-51.31897 -40.6616,-84.63319 -81.9738,-99.90157 -1.6118,-0.0306 -3.2294,-0.0507 -4.8452,-0.0624 z m -133.0739,44.15585 c 141.9321,36.44111 2.2615,225.62482 91.1706,316.83707 -25.8135,-49.86392 -21.6376,-111.64554 -4.6956,-187.3126 17.0921,-76.34571 -12.9789,-128.39861 -86.475,-129.52447 z" fill="#d8eefb" />
      <path d="m 1455.7333,576.15888 c 22.9173,9.05774 45.546,25.0089 64.8314,49.17446 -18.848,-107.01503 -135.8926,-135.73689 -233.6759,-85.61544 l 3.2748,27.46073 c 159.1643,29.8034 10.6721,225.82083 101.6794,319.18664 -5.9272,-29.69735 -0.8161,-51.78625 8.9912,-75.55182 12.9316,76.29221 57.8207,103.90244 107.022,87.75045 -136.8761,-50.71708 65.4588,-197.60404 -52.1229,-322.40502 z" style="stroke:#92cdf4;stroke-miterlimit:20;fill:none;stroke-width:6" />
      <path d="M 1183.755,598.32218 C 1100.076,582.99955 1047.5028,524.265 1037.8904,432.1898 c -5.6701,-54.31237 95.6382,-74.08193 116.2419,-20.52681 17.6341,45.83644 58.6228,80.01438 104.3033,92.25443 62.1012,16.63996 72.325,76.59408 15.8391,113.61535 3.6884,1.62011 5.6282,5.26976 5.3354,10.43856 -2.6602,46.9567 7.6945,98.17386 51.358,143.28796 48.8107,50.43233 -66.578,123.31565 -99.448,59.82327 -34.4029,-66.45331 -36.7119,-141.86226 -19.2729,-203.68679 -13.8789,-6.9705 -23.4492,-17.2284 -28.4922,-29.07359 z" fill="#6cb2ea" />
      <path fill="#338fcc" inkscape:original-d="m 1221.3449,630.93347 c -40.6353,-13.85854 -51.91,-52.77366 -34.0473,-86.08808" inkscape:path-effect="#path-effect5615" />
      <path d="m 1273.1715,618.04858 c 57.7167,-36.77455 47.7593,-97.38562 -14.7359,-114.13116 -45.6805,-12.24006 -86.6692,-46.41799 -104.3033,-92.25443 -20.6037,-53.55512 -121.912,-33.78556 -116.2419,20.52681 9.6124,92.0752 62.1856,150.80975 146.009,166.18823" style="stroke:#338fcc;stroke-miterlimit:20;fill:none;stroke-width:6" />
      <path fill="#338fcc" inkscape:original-d="m 1262.5832,618.80304 c 10.9105,-4.47586 17.5515,-0.0916 17.0269,9.16829 -2.6601,46.95671 7.6945,98.17386 51.358,143.28796 48.8107,50.43233 -66.578,123.31565 -99.448,59.82327 -34.4029,-66.45331 -36.7119,-141.86226 -19.4209,-203.5501" inkscape:path-effect="#path-effect5613" />
      <path d="m 1250.0578,835.67573 c -7.1435,-32.83389 50.792,-67.25188 80.047,-45.69262 -26.4685,-30.99016 -96.2308,11.85841 -80.047,45.69262 z" fill="#338fcc" />
      <g transform="matrix(-.61677102-.13010264-.0825968.37525011 1243.8505 545.03425)">
        <path d="M -21.1,-70.5 C -57.9,-23.2 -42.4,20.9 -8.3,16.9 25.8,12.9 49.5,-7.2 61,26.3 33.4,15.9 14.6,69 -25.7,62 -66,55 -80.7,-50.7 -21.1,-70.5 Z" fill="#82def4" />
        <path d="M 11.8,-12.2 35.6,79.6 44.1,74.7 17.2,-14.1 Z" fill="#adccea" />
        <path d="m 4.5,-27.5 3.5,18.1 13.2,-4 -6.1,-15.8 z" fill="#6ea3d3" />
        <path d="m -27.1,-42.7 29.8,15.6 30.4,11.4 -14.3,-29.9 -18.3,-34 -10.6,84 21.5,-31.8 22.2,-28 z" fill="#b7e0fa" />
        <path d="m -3.3,-41.4 8.8,4.3 -3.5,13.2 5.7,-12 8.6,6.1 -7.2,-8.2 5.3,-8 -6.2,5.2 -2.8,-10.9 0.4,11.9 z" fill="#71a2cd" />
        <path d="m -25.9,48.5 2.2,-2.1 -0.8,-5.3 2,4.6 2.5,-0.8 -2.1,2.2 1.1,7.1 -2.3,-6.4 z" fill="#fff" />
        <path d="M 0.1,33.9 -1.7,30 1.1,32.8 4.1,31 2,34 4,37.6 1,35 -2.1,37.1 Z" fill="#fff" id="K" />
        <use transform="rotate(352-94.200003-249.8)scale(.98)" xlink:href="#K" />
        <use transform="rotate(167-18.1 26.9)scale(.91)" xlink:href="#K" />
        <use transform="rotate(160-20.5 1.9)scale(.89)" xlink:href="#K" />
      </g>
    </g>
    <g>
      <path d="m 913.42902,565.5846 c 1.27176,32.92651 129.52868,34.4226 126.68788,-1.86208 -5.1005,-65.14608 11.9866,-113.83849 9.2026,-164.13145 -11.3126,-204.3675 -297.8473,-164.53193 -240.86195,50.83645 -6.3193,1.96774 -10.92493,4.94877 -9.67854,12.57325 7.17406,43.88562 46.18009,78.11417 119.50494,68.68117 -3.80049,10.16566 -5.28521,22.76245 -4.85493,33.90266 z" fill="#cc9cdf" />
      <g transform="translate(0 3.862214)">
        <path d="m 998.82165,423.21012 c -4.66592,-7.90593 -12.18483,-9.71202 -21.59769,-7.71616 l -1.02618,5.34425 c 8.28704,-3.44655 15.69053,-2.48334 22.62387,2.37191 z m -6.32813,18.24052 c -1.44105,-10.55337 -8.32477,-14.80772 -19.19842,-16.04373 l -2.99245,4.48726 c 10.52926,0.16467 17.03147,3.40628 22.19087,11.55647 z m -12.6673,12.55869 c 1.68437,-9.444 -3.57999,-16.06359 -12.01765,-18.66978 l -4.14836,3.17252 c 8.64566,2.06656 13.79622,6.5709 16.16601,15.49726 z" />
        <g clip-path="url(#clipPath4293)">
          <path d="m 881.0215,459.40244 c -25.5428,-135.20263 92.0271,-150.62423 102.55216,-82.4444 9.86805,63.9236 -43.83449,100.52057 -102.55216,82.4444 z" fill="#fff" id="path2392" />
          <g clip-path="url(#clipPath2613)" transform="rotate(.62158492 927.18782 465.88995)">
            <ellipse cx="963.62183" cy="260.70837" fill="url(#linearGradient5182)" id="path2400" rx="38.410027" ry="53.619835" transform="rotate(8.8585872)" />
            <path d="m 899.6166,413.71139 33.23923,47.54773 22.62221,-27.39519 z" fill="#ccb2d3" />
            <path d="m 899.6166,413.71139 58.69507,10.24264 -9.02081,20.87006 z" fill="#8d5da4" />
            <ellipse cx="959.65344" cy="262.84485" rx="31.093983" ry="43.406746" transform="rotate(8.8585872)" />
            <ellipse cx="924.06573" cy="382.20346" fill="#fff" rx="23.432785" ry="14.140794" transform="rotate(62.070949 924.06573 382.20345)" />
            <ellipse cx="913.11951" cy="407.64548" fill="#fff" rx="7.7501001" ry="5.1482677" transform="rotate(56.49635 913.11949 407.64548)" />
          </g>
        </g>
        <path d="m 972.10832,350.49995 c 9.91963,-7.3975 12.65554,-17.74095 8.42055,-28.66345 -0.0435,10.89931 -3.39039,18.88979 -13.1488,25.3035 m 12.61947,14.07661 c 12.29703,-3.10788 20.06666,-10.8738 20.03326,-23.82692 -4.48026,10.38556 -11.04702,16.41691 -22.95817,18.62577 M 881.0215,459.40244 c -21.05064,-125.32535 84.03798,-149.85863 102.55216,-82.4444 14.77939,-1.10189 21.96004,-5.23644 24.38684,-15.89436 -5.1807,6.62144 -10.73973,9.17427 -20.75222,9.7392 C 966.40425,303.60454 851.16384,328.1567 881.0215,459.40244 Z" />
      </g>
      <path d="M 808.49178,450.55196 C 751.4722,235.05914 1038.0069,195.22357 1049.3195,399.59107 c 2.784,50.29296 -14.3031,98.98537 -9.2026,164.13145 2.8408,36.28468 -125.41612,34.78859 -126.68788,1.86208 -0.43028,-11.14021 1.05444,-23.737 5.02658,-33.97842" fill="none" stroke="#a46bbd" stroke-width="6" />
      <g>
        <path d="m 794.78739,436.60963 c 1.578,-6.64736 6.10608,-9.6831 12.42983,-9.55029 l 2.17811,3.40714 c -6.257,-0.9245 -11.05998,0.98341 -14.60794,6.14315 z m 10.81443,-16.8385 0.88979,3.7831 c -6.12257,-2.98762 -11.11392,-2.40262 -17.25518,1.72691 4.30617,-6.32973 10.19972,-7.57636 16.36539,-5.51001 z m -0.24368,-8.01202 c -5.27199,-3.3592 -11.24799,-3.61459 -15.79481,0.72786 5.75496,-1.85814 11.20868,-0.99662 15.50691,3.14791 z m 3.46713,-45.48866 -0.49677,4.42525 c -9.22534,1.51329 -17.17813,-0.82835 -22.1878,-9.07985 7.64028,5.53229 14.53146,6.52193 22.68457,4.6546 z m 3.06992,-11.49705 -1.92876,4.07942 c -9.84363,-2.40023 -15.71687,-7.44898 -18.82305,-17.70933 6.08953,8.41079 11.75914,12.09838 20.75181,13.62991 z" />
        <g clip-path="url(#clipPath5847)">
          <path d="m 808.36847,450.55999 c -10.07364,-39.35889 -10.60218,-73.6299 2.63376,-109.3914 20.06564,16.76414 29.86501,47.9101 22.27451,95.19471 -3.20815,7.03349 -10.22676,10.18146 -24.90827,14.19669 z" fill="#fff" id="path4310" />
          <g clip-path="url(#clipPath4865)">
            <ellipse cx="824.60962" cy="403.83466" fill="url(#linearGradient5184)" id="path4419" rx="47.413006" ry="15.833751" transform="rotate(85.418503 824.60963 403.83465)" />
            <path d="m 829.61253,411.36019 -13.8465,41.91775 -9.07894,-24.33274 z" fill="#ccb2d3" />
            <path d="m 829.61253,411.36019 -24.02527,8.80614 3.56292,18.50139 z" fill="#8d5da4" />
            <ellipse cx="826.40576" cy="405.10291" rx="38.382149" ry="12.817864" transform="rotate(85.418497 826.40577 405.1029)" />
            <ellipse cx="822.97913" cy="382.03864" fill="#fff" rx="17.943834" ry="5.518908" transform="rotate(77.23535 822.97911 382.03864)" />
            <ellipse cx="821.42505" cy="404.75162" fill="#fff" rx="5.827642" ry="2.0461936" transform="rotate(77.343445 821.42503 404.75162)" />
          </g>
        </g>
        <path d="m 833.27674,436.3633 c 9.80776,-42.82426 1.16642,-78.75701 -19.19598,-95.15394 -6.08658,-4.90125 -10.78696,-8.83166 -13.0471,-17.8945 -0.27767,10.06521 3.58829,15.61131 11.38682,21.95004 18.38974,14.94737 25.57285,47.34266 20.85626,91.0984 z" />
      </g>
      <path fill="#a46bbd" inkscape:original-d="m 833.27674,436.3633 c -6.67923,16.81199 -37.49363,8.31088 -34.49773,26.63747 8.81815,53.94299 65.73013,93.29547 175.03545,55.04792" inkscape:path-effect="#path-effect5866" />
      <path d="m 809.48306,492.20044 c 18.35528,-0.10103 29.44325,-6.15631 37.37342,-20.4897 -2.95313,16.24433 -15.79722,25.0971 -33.49666,26.46282 z m 11.79117,-31.74749 c -1.33029,4.65735 -4.88356,5.99252 -8.55495,2.53388 3.19554,8.61521 10.26686,5.60083 8.55495,-2.53388 z" fill="#a46bbd" />
      <g>
        <path d="m 1032.3171,344.65083 c 16.386,112.88124 -13.2194,143.32422 -66.62549,137.25533 -1.13909,8.67673 -1.85608,17.83559 -1.78063,26.00809 20.69419,3.73205 37.77132,0.81537 54.15942,-7.91842 -12.315,18.75485 -27.93419,27.89923 -56.43313,31.35319 1.70581,55.0154 22.20574,102.35252 61.58953,135.89801 48.806,-45.33112 68.8475,-88.87969 60.5711,-153.09421 -5.8452,-45.35045 -29.9756,-68.39693 -35.0948,-222.30128 z" fill="#243870" />
        <path d="m 1078.678,488.74253 c -6.759,65.13837 -28.3941,118.91359 -71.64,163.38344 -15.3386,-17.52466 -24.145,-32.6718 -32.99841,-54.74359 55.50781,-16.26346 90.86321,-73.53911 96.87361,-136.82516 z" fill="#ea428b" />
        <path d="m 1073.0873,471.20323 c -8.7852,77.52089 -43.6634,124.66431 -90.55331,145.29174 -6.66588,-13.52084 -11.36121,-26.54169 -15.27661,-40.56253 56.49042,-7.25645 92.97992,-53.44274 100.71112,-124.18588 z" fill="#652d87" />
        <path d="m 1032.3171,344.65083 c 16.386,112.88124 -13.2194,143.32422 -66.62549,137.25533 -1.13909,8.67673 -1.85608,17.83559 -1.78063,26.00809 20.69419,3.73205 37.77132,0.81537 54.15942,-7.91842 -12.315,18.75485 -27.93419,27.89923 -56.43313,31.35319 1.70581,55.0154 22.20574,102.35252 61.58953,135.89801 48.806,-45.33112 68.8475,-88.87969 60.5711,-153.09421 -5.8452,-45.35045 -29.9756,-68.39693 -35.0948,-222.30128 z" style="stroke:#132248;stroke-miterlimit:20;fill:none;stroke-width:6" />
        <path d="m 963.79456,557.40366 c 55.03274,-4.65812 90.87034,-47.45324 100.34924,-123.91446 m -6.7292,-34.99112 c -7.8999,77.98261 -46.6528,104.41296 -93.20012,97.04782" style="stroke:#132248;stroke-miterlimit:20;fill:none;stroke-width:3" />
      </g>
      <g>
        <path d="m 995.4136,285.0131 c -27.2477,9.43301 -27.69449,43.15217 -16.09706,78.32467 -57.51111,-27.49393 -117.23417,-36.72384 -178.22089,-33.55031 0.64551,-28.71293 5.14055,-50.64169 13.15614,-70.9786 -19.34179,14.50396 -29.33265,35.8831 -32.68147,67.29372 -8.22261,-1.3897 -17.10308,-1.92984 -26.72905,-1.64826 12.49992,-68.54575 57.36793,-120.10244 120.39439,-111.50729 59.81989,8.15781 71.35364,37.63716 136.05654,48.12011 z" fill="#243870" />
        <path d="m 871.74654,332.80833 c 7.42462,-57.62921 36.82502,-84.38315 71.65003,-95.52008 l 16.1425,8.42975 c -24.62999,19.25507 -37.95209,52.18039 -34.86797,97.29806 -16.17327,-4.62533 -34.04419,-8.04682 -52.92456,-10.20773 z" fill="#ea428b" />
        <path d="m 855.19624,330.7714 c 7.80367,-55.65231 41.49247,-89.27329 81.98017,-96.8143 l 12.91054,6.54151 c -32.27069,12.57911 -57.08611,44.48742 -59.72927,94.54364 z" fill="#652d87" />
        <path d="m 995.4136,285.0131 c -27.2477,9.43301 -27.69449,43.15217 -16.09706,78.32467 -57.51111,-27.49393 -117.23417,-36.72384 -178.22089,-33.55031 0.64551,-28.71293 5.14055,-50.64169 13.15614,-70.9786 -19.34179,14.50396 -29.33265,35.8831 -32.68147,67.29372 -8.22261,-1.3897 -17.10308,-1.92984 -26.72905,-1.64826 12.49992,-68.54575 57.36793,-120.10244 120.39439,-111.50729 59.81989,8.15781 71.35364,37.63716 136.05654,48.12011 z" style="stroke:#132248;stroke-miterlimit:20;fill:none;stroke-width:5.99999952" />
        <path d="m 981.52101,254.15015 c -26.04117,28.75288 -33.82139,62.49051 -31.31032,96.81582 M 865.82891,212.14932 c -36.24815,27.48036 -48.07152,72.89105 -38.8987,117.08922 m 55.13121,-115.18386 c -30.17101,29.53649 -41.7221,66.70522 -41.15052,115.56697" style="stroke:#132248;stroke-miterlimit:20;fill:none;stroke-width:3" />
        <path d="M 862.34177,321.32596 C 772.11222,142.52473 775.4479,138.80005 892.75891,279.56716" fill="#cc9cdf" stroke="#a46bbd" stroke-width="6" />
        <path d="m 818.94294,234.37405 c 4.65853,-11.85838 6.27603,-23.17649 5.32004,-34.51424 m 11.79815,69.54819 c 8.55982,-14.90571 11.7324,-29.32609 10.6927,-44.40646 m 6.15745,78.37033 c 12.50956,-16.96498 17.14215,-33.77649 16.0728,-52.23104" fill="none" stroke="#a46bbd" stroke-width="3" />
        <path d="m 904.75836,280.8796 c -7.37633,13.38552 -12.33725,29.60831 -14.00971,48.59826 l -34.619,-4.57978 c 4.87693,-27.39448 16.2224,-49.0976 31.55485,-64.58299 z" fill="#652d87" />
      </g>
      <g>
        <path d="m 1030.5192,388.04937 c 54.3038,-80.71139 9.2415,-146.02383 -3.2298,-147.7103 -10.2087,-1.3805 -48.09127,31.7787 -50.1786,76.68381 23.7504,17.02994 40.0998,40.60966 53.4084,71.02649 z" fill="#cc9cdf" />
        <path d="m 1024.6774,281.40449 c 10.0542,21.15888 8.805,47.05415 -4.2198,64.27811 9.3952,-20.01956 10.0406,-41.15132 4.2198,-64.27811 z" fill="#a46bbd" />
        <path fill="#a46bbd" inkscape:original-d="m 1030.5192,388.04937 c 54.3038,-80.71139 9.2415,-146.02383 -3.2298,-147.7103 -10.2087,-1.3805 -48.09127,31.7787 -50.1786,76.68381" inkscape:path-effect="#path-effect4290" />
      </g>
    </g>
    <g>
      <path d="m 634.01483,594.73671 c -23.54573,68.06815 98.05152,103.16569 89.49608,163.94709 -7.09507,50.40683 -156.20156,56.34473 -211.54599,113.43861 -33.65363,34.71766 -78.39289,-5.47327 -17.38142,-40.70863 -57.27529,16.99559 -62.2169,-7.93747 -3.38444,-33.07066 -53.21007,4.64696 -56.71324,-17.74217 0.11491,-35.26598 -52.79611,-0.50275 -43.40119,-23.52473 7.17754,-40.25395 -58.91131,0.62739 -52.35391,-29.72696 28.60927,-37.72663 -47.37089,-9.45098 -43.03948,-26.84114 16.46946,-30.59648 -46.30738,-12.05826 -30.5939,-33.32468 25.07049,-31.87857 -42.25221,-14.12235 -29.1401,-34.13686 32.61127,-31.45403 z" style="stroke:#a46bbd;fill:#cc9cdf;stroke-width:6;stroke-miterlimit:20" />
      <path fill="#a46bbd" inkscape:original-d="m 609.16975,627.79362 c -51.18599,40.3407 85.18746,87.81564 70.25178,127.77871 -13.24505,35.43951 -70.56117,18.16833 -46.6854,-7.36994 -41.18684,13.34649 -66.04058,-12.60821 -29.96009,-28.26123 -34.10119,1.83244 -40.96435,-14.59712 -12.4246,-21.78536 -22.09154,-2.48034 -22.96823,-13.62661 -1.40115,-19.29491" inkscape:path-effect="#path-effect5704" />
      <path d="m 463.98495,539.05013 c 98.99239,14.94169 160.74473,-38.0675 250.13858,-30.38626 74.13543,6.37015 70.99552,74.43147 151.17796,103.12328 48.75722,17.4469 -14.38905,35.24634 -61.72269,5.34745 20.60123,27.06326 -16.74557,27.74896 -49.2824,-0.52965 2.62618,24.4463 -30.83554,24.63788 -52.25549,-2.25537 -4.97272,23.93665 -38.33949,18.2333 -59.0821,-5.7733 -3.78778,26.78342 -48.24825,21.91014 -53.62051,-15.34477 -17.79985,20.91467 -43.22547,17.86188 -44.0258,-9.3882 -21.57859,20.26895 -51.83752,11.80684 -45.23693,-13.37296 -24.31299,18.29904 -52.92479,11.09613 -44.00395,-16.7697 z" style="stroke:#a46bbd;fill:#cc9cdf;stroke-width:6;stroke-miterlimit:20" />
      <path d="m 503.96001,642.82535 c 0.17101,36.44019 109.60703,40.17786 120.35674,0.0594 14.12619,-52.71966 119.55609,-56.52481 144.66337,-145.76416 16.67751,-59.27723 -92.83272,-76.12735 -108.83833,-16.3936 -8.59687,32.08395 -30.40897,55.39673 -65.46964,77.9341 -12.65095,8.13217 11.21558,11.16124 -21.48686,26.85805 -32.44346,-1.91911 -69.41951,15.91961 -69.22528,57.30621 z" fill="#cc9cdf" />
      <g transform="matrix(-1.5951009-.29479149.68273319-.7272826 565.31417 606.23079)" inkscape:path-effect="#path-effect4603">
        <g fill="#fff">
          <path inkscape:original-d="M -4.5,-3.7 -13.8,-20.9 -0.3,-7.6 8.3,-21.4 3.6,-5.6 20.1,0 4.2,2.6 10.3,21.9 -1.6,1.4 -9.4,19.6 -6,-0.1 l -14.8,-2 z" />
          <path inkscape:original-d="m 11.692,-38.888 5.376,2.304 1.08,-7.416 1.728,7.176 4.224,-0.96 -3.24,3.696 2.808,3.696 -4.008,-1.296 -0.96,7.608 -1.512,-7.752 -4.416,1.776 3.336,-4.248 z" />
          <path inkscape:original-d="m -28.04,-43.464 4.48,2.112 0.9,-6.798 1.44,6.578 3.52,-0.88 -2.7,3.388 2.34,3.388 -3.34,-1.188 -0.8,6.974 -1.26,-7.106 -3.68,1.628 2.78,-3.894 z" />
          <path inkscape:original-d="m -41.384,0.176 6.048,2.592 1.215,-8.343 1.944,8.073 4.752,-1.08 -3.645,4.158 3.159,4.158 -4.509,-1.458 -1.08,8.559 -1.701,-8.721 -4.968,1.998 3.753,-4.779 z" />
          <path inkscape:original-d="m -20.232,28.176 4.704,2.592 0.945,-8.343 1.512,8.073 3.696,-1.08 -2.835,4.158 2.457,4.158 -3.507,-1.458 -0.84,8.559 -1.323,-8.721 -3.864,1.998 2.919,-4.779 z" />
          <path inkscape:original-d="m 15.524,16.792 6.272,3.264 1.26,-10.506 2.016,10.166 4.928,-1.36 -3.78,5.236 3.276,5.236 -4.676,-1.836 -1.12,10.778 -1.764,-10.982 -5.152,2.516 3.892,-6.018 z" />
        </g>
        <path fill="#ea428b" inkscape:original-d="m -29.2,-21.2 22.4,9.6 4.5,-30.9 7.2,29.9 17.6,-4 L 9,-1.2 20.7,14.2 4,8.8 0,40.5 -6.3,8.2 -24.7,15.6 -10.8,-2.1 Z" />
      </g>
      <path fill="#a46bbd" inkscape:original-d="m 602.63018,593.79506 c -33.23403,-19.44544 -98.92889,-6.09883 -98.67017,49.03029 0.17102,36.44019 109.60703,40.17786 120.35674,0.0594 14.12619,-52.71966 119.55609,-56.52481 144.66337,-145.76416 16.67751,-59.27723 -92.83272,-76.12735 -108.83833,-16.3936 -8.59687,32.08395 -30.40897,55.39673 -65.46964,77.9341 -12.65095,8.13217 11.21558,11.16124 -21.55125,26.87179" inkscape:path-effect="#path-effect6370" />
      <path d="m 859.08071,581.01552 c 75.21099,30.92519 145.46489,44.9729 227.56049,47.41056 18.3636,0.54528 19.6129,55.10847 0.3814,58.98424 -75.2355,15.16239 -173.55964,16.35153 -249.85397,-0.58257 -37.86535,-8.40441 -18.85057,-122.57299 21.91208,-105.81223 z" fill="#6cb2ea" stroke="#338fcc" stroke-width="6" />
      <path d="m 896.2279,691.93452 c 4.16211,-23.87686 8.13655,-48.24224 6.17871,-73.58939 -1.69604,-21.95784 95.64879,-22.99919 100.52439,0.32076 5.1192,24.48521 6.8046,46.93383 3.7456,73.69612 -3.2365,28.31493 -115.1827,26.73013 -110.4487,-0.42749 z" fill="#cc9cdf" stroke="#a46bbd" stroke-width="6" />
      <path d="m 913.08583,622.14983 c 19.88469,9.59543 66.22086,8.84086 79.41735,-0.88206 -11.47427,13.8529 -64.25415,13.98114 -79.41735,0.88206 z" fill="#a46bbd" />
      <path d="m 1057.7705,619.05707 c -75.52507,30.15001 -146.11351,45.09583 -228.10325,49.92717 -18.3401,1.08071 -17.99673,55.6571 1.33944,58.97022 75.64567,12.96136 171.12201,13.28311 247.58651,-2.86535 37.9498,-8.01457 20.1102,-122.37269 -20.8227,-106.03204 z" fill="#cc9cdf" stroke="#a46bbd" stroke-width="6" />
      <g transform="translate(-158.42657-102.7619)scale(1.1662784)">
        <path d="m 988.7936,612.08063 c 0.9527,15.08988 -71.59164,16.4428 -72.02882,0.11221" style="stroke:#96de88;stroke-miterlimit:20;fill:#96de88;stroke-width:0.85742819" />
        <path d="m 916.76478,612.19284 c 0.1466,-12.17881 71.29262,-11.77267 72.02882,-0.11221 0.6991,11.07353 -72.18315,12.93271 -72.02882,0.11221 z" style="stroke:#96de88;stroke-miterlimit:20;fill:#d3f9cb;stroke-width:0.85742821" />
        <ellipse cx="952.26251" cy="611.19452" fill="#96de88" id="path1029-5" rx="2.9917669" ry="1.016225" />
        <use transform="translate(12.94538-3.588691)" xlink:href="#path1029-5" />
        <use transform="translate(24.019608 2.398542)" xlink:href="#path1029-5" />
        <use transform="translate(.054644 5.800911)" xlink:href="#path1029-5" />
        <use transform="translate(-25.613408 2.053423)" xlink:href="#path1029-5" />
        <use transform="translate(-12.351532-3.831768)" xlink:href="#path1029-5" />
        <path d="m 973.2338,592.66223 -20.98432,-1.9877 -25.99808,21.8605 1.21526,0.21632 c 6.19094,-0.0495 12.26587,1.23521 17.34823,3.08794 l 1.20373,0.21425 c 10.35718,-7.14531 18.62578,-14.53121 27.21518,-23.39131 z" fill="#f7fce1" />
        <path d="m 946.01862,616.05355 27.21518,-23.39132 c 2.8868,5.82607 3.6213,11.60564 3.1176,18.90882 z" fill="#f1facd" />
        <path d="m 970.9278,593.39575 -18.37306,-1.74023 -25.08808,21.09583 17.34823,3.08794 z" fill="#eaf598" />
      </g>
    </g>
    <g>
      <path d="m 441.66352,202.89839 c -2.03554,75.22464 10.26521,155.90685 39.34618,228.07491 14.45113,35.86228 129.90562,26.07697 106.998,-6.16421 -53.38908,-75.14212 -82.16475,-145.33176 -89.10409,-227.15335 z" fill="#bf89d1" stroke="#9156a9" stroke-width="6" />
      <path d="m 322.00028,320.28362 c -35.72289,-15.21895 6.00544,-130.23093 41.13102,-103.45245 21.18124,26.82104 -15.40848,110.25707 -41.13102,103.45245 z" fill="#6cb2ea" stroke="#338fcc" stroke-width="6" />
      <path d="m 365.12131,110.58581 c 10.63497,91.72825 -3.67129,144.08675 -44.41421,211.41421 -66.89023,110.53575 115.3275,203.03797 163,63 29.04016,-85.30548 33.08166,-172.8697 8,-282.41421 -8.44964,-36.903911 -131.34131,-33.017105 -126.58579,8 z" style="stroke:#a46bbd;stroke-miterlimit:20;fill:#cc9cdf;stroke-width:6" />
      <path d="m 380.98207,110.67432 c 18.01355,18.23299 84.79225,12.49735 94.41127,-4.8342 -0.97993,22.46106 -86.33273,28.2536 -94.41127,4.8342 z" fill="#a46bbd" />
      <g>
        <path d="m 480.47906,270.34549 c -15.99786,-4.28661 -32.97666,95.5452 -17.03123,98.3485 17.698,3.11141 30.61665,-94.7083 17.03123,-98.3485 z" fill="#bf89d1" stroke="#a46bbd" stroke-width="6" />
        <path d="m 450.60811,267.26918 c 37.78056,15.43635 77.6183,24.84449 116.81219,27.15313 20.00822,1.17855 21.05227,63.93512 -0.39136,66.94666 -44.70988,6.27904 -89.93954,3.43931 -134.30314,-5.70285 z" fill="#6cb2ea" stroke="#338fcc" stroke-width="6" />
        <path d="m 480.47906,270.34549 c -15.99786,-4.28661 -32.97666,95.5452 -17.03123,98.3485 l -40.4212,-5.71751 21.74354,-106.41957 z" fill="#cc9cdf" />
        <path d="m 480.47906,270.34549 c -15.99786,-4.28661 -32.97666,95.5452 -17.03123,98.3485" fill="none" stroke="#a46bbd" stroke-width="6" />
      </g>
      <g>
        <path d="m 616.2956,368.73384 c -18.42489,58.87496 -41.74123,117.07306 -71.27612,170.79532 -35.07339,4.77461 -69.13376,6.32356 -107.94404,4.61023 31.72959,11.22581 63.84077,14.68547 98.62926,11.39964 l -17.0731,27.07558 C 93.083029,558.77969 109.12275,352.77578 315.68764,361.47919 l -0.14456,22.56079 c -72.08958,62.94824 126.77634,89.24025 300.75252,-15.30614 z" fill="#243870" />
        <path d="M 315.43477,366.2183 C 116.89096,405.68148 192.39751,573.22588 577.08345,474.46314 588.51226,448.32479 599.27548,419.04904 609.1725,391.96785 271.52901,549.65267 165.10943,428.09096 315.36962,380.0077 Z" fill="#ea428b" />
        <path d="m 315.46304,376.7434 0.009,5.80869 c -111.51483,42.76595 -53.97534,134.42307 186.91052,36.73983 37.12404,-11.29876 76.10624,-27.83908 113.91304,-50.55808 -4.50588,14.39811 -9.30431,28.75575 -14.3926,42.8637 C 252.17957,556.14621 147.558,423.8591 315.46304,376.7434 Z" fill="#652d87" />
        <path d="m 616.2956,368.73384 c -18.42489,58.87496 -41.74123,117.07306 -71.27612,170.79532 -35.07339,4.77461 -69.13376,6.32356 -107.94404,4.61023 31.72959,11.22581 63.84077,14.68547 98.62926,11.39964 l -17.0731,27.07558 C 93.083029,558.77969 109.12275,352.77578 315.68764,361.47919 l -0.14456,22.56079 c -72.08958,62.94824 126.77634,89.24025 300.75252,-15.30614 z" style="stroke:#132248;stroke-miterlimit:20;fill:none;stroke-width:6" />
        <path d="m 315.54308,384.03998 c -62.02327,28.62934 -42.11453,86.34451 104.24426,52.82037 m -104.0997,-75.38116 c -187.22855,31.7808 -205.05098,199.12716 236.89853,163.73308" style="stroke:#132248;stroke-miterlimit:20;fill:none;stroke-width:3" />
        <path d="m 320.7071,322.00002 c -21.13974,34.93331 -17.39884,68.06546 -0.88745,92.62544" style="stroke:#a46bbd;stroke-miterlimit:20;fill:#cc9cdf;stroke-width:6" />
      </g>
      <path d="m 567.47115,303.42657 c -9.45494,10.77903 -10.63877,40.01114 -1.05708,48.75763 -12.75676,-5.75812 -11.10292,-42.19319 1.05708,-48.75763 z" fill="#338fcc" />
    </g>
    <g>
      <g id="g4548">
        <path d="M 116.42998,649.71868 C 37.165742,526.04399 84.110338,410.29911 160.33841,389.96115 c 61.97621,-16.5355 125.73221,49.32435 61.69312,172.26259 -32.21552,61.84534 -13.17114,113.70285 25.45584,57.73759 -13.00966,70.94722 -83.10908,55.12138 -48.79036,-63.34167 33.79899,-116.66905 -26.10661,-104.28427 -16.43503,-70.31371 2.44261,84.41091 -23.08697,148.16138 -65.832,163.41273 z" fill="#b8e0f9" />
        <path d="m 177.53348,387.50641 c -65.9132,3.37175 -115.014428,78.50885 -99.048598,168.63623 10.003244,30.71023 27.389028,60.41297 51.522258,86.48418 l 33.84924,-10.53553 C 90.751803,546.59611 107.59116,418.83303 177.53348,387.50641 m -26.72736,146.10465 c -32.95584,-126.76196 118.94469,-146.26702 58.31118,26.31981 -10.67629,30.38893 -16.71013,62.96489 -13.34678,87.7503 -8.10515,-16.26775 -10.02465,-46.35612 2.92649,-91.06151 33.799,-116.66905 -26.10661,-104.28427 -16.43503,-70.31371 z" fill="#d8eefb" />
        <path d="M 116.42998,649.71868 C 37.165742,526.04399 84.110338,410.29911 160.33841,389.96115 c 61.97621,-16.5355 125.73221,49.32435 61.69312,172.26259 -32.21552,61.84534 -13.17114,113.70285 25.45584,57.73759 -13.00966,70.94722 -83.10908,55.12138 -48.79036,-63.34167 C 232.496,439.95061 172.5904,452.33539 182.26198,486.30595" style="stroke:#92cdf4;stroke-miterlimit:20;fill:none;stroke-width:6" />
      </g>
      <path d="m 340.18578,470.65332 c 19.56755,16.90927 47.71307,26.60875 74.04193,27.53257 -20.32577,72.42185 -120.11245,29.55077 -74.04193,-27.53257 z" fill="#bb1c76" />
      <path d="m 376.53221,524.81973 c 5.06833,-20.8293 21.19912,-30.72382 37.35206,-27.46724 -2.81064,19.61932 -15.88432,28.28542 -37.35206,27.46724 z" fill="#ef6f2f" />
      <path d="m 202.80712,678.72894 c 58.71133,34.8106 139.89998,18.8924 233.33932,30.06396 32.21073,3.8511 44.99132,-114.36073 8.87867,-119.29289 -14.80733,-2.02234 -27.98039,-0.625 -41.03152,5.05033 11.78573,-36.10831 14.93368,-71.55378 10.95411,-98.94093 -16.45443,19.01762 -46.1156,20.53444 -79.36388,-1.91109 17.38139,-7.12467 19.57341,-31.78462 2.99038,-36.89655 -8.22193,-2.53452 -12.20487,-0.0541 -14.85109,4.56321 C 157.09952,400.16548 75.274475,603.11342 202.80712,678.72894 Z" fill="#6cb2ea" />
      <path d="m 243.28443,629.43907 c -1.91096,10.51042 -8.30771,18.40406 -18.96847,18.63689 8.19687,-4.20688 12.7476,-11.63972 13.68501,-20.966 m -6.95316,-5.10447 c -6.16625,11.08394 -15.66932,16.59469 -28.17805,13.23073 11.18852,-1.65825 18.80409,-6.3057 24.0023,-17.24795 m -6.15812,-7.07153 c -9.19681,8.27893 -19.87576,8.93633 -29.75745,2.6444 10.6968,2.09174 19.18798,0.37441 27.38848,-7.93908 m 60.78059,-78.32355 c -32.27029,5.04143 -52.33347,22.8766 -59.64113,41.43111 -11.98353,30.42673 7.85171,66.75399 62.67971,65.36052 -55.76898,10.77278 -82.04763,-34.18178 -68.05047,-67.51288 8.4632,-20.1532 32.01959,-39.82117 65.01189,-39.27875 z" />
      <path d="M 323.92355,461.24145 C 157.09952,400.16548 75.274475,603.11342 202.80712,678.72894 c 58.71133,34.8106 139.89998,18.8924 233.33932,30.06396 32.21073,3.8511 44.99132,-114.36073 8.87867,-119.29289 -14.80733,-2.02234 -27.98039,-0.625 -41.08762,4.875" fill="none" stroke="#338fcc" stroke-width="6" />
      <g>
        <path d="m 206.4673,502.64162 c 4.21057,-7.4907 2.46093,-13.54428 -1.58557,-16.63629 -144.34226,-110.29471 -146.623943,-105.2353 -34.17695,33.63011 4.56346,5.6356 13.37522,4.56138 19.38562,-0.38836 z" fill="#6cb2ea" />
        <path fill="#338fcc" inkscape:original-d="m 206.4673,502.64162 c 4.21057,-7.4907 2.46093,-13.54428 -1.58557,-16.63629 -144.34226,-110.29471 -146.623943,-105.2353 -34.17695,33.63011 4.56346,5.6356 13.37522,4.56138 19.38562,-0.38836" inkscape:path-effect="#path-effect3823" />
        <path d="m 165.74168,514.011 c 9.12433,-19.0012 10.18507,-36.02832 5.69104,-53.95923 m -28.95035,25.23593 c 5.45144,-15.18048 6.58465,-29.40922 3.10287,-44.20752 m -26.95746,13.50864 c 2.36401,-12.51937 2.19476,-22.70309 -0.50644,-33.66333" fill="none" stroke="#338fcc" stroke-width="3" />
      </g>
      <g>
        <path d="m 123.74369,659.96133 c 31.25347,111.03346 142.19297,137.65516 276.47518,88.48885 96.31332,-35.26432 120.08073,21.8995 40.61879,37.35534 113.3182,39.92079 139.60849,-124.56821 -52.48669,-95.21566 -98.46901,15.04627 -147.93115,16.897 -177.59762,-11.43614 z" fill="#b8e0f9" />
        <path d="m 153.44217,666.51215 -29.69848,-6.55082 c 31.25347,111.03346 142.19297,137.65516 276.47518,88.48885 67.19791,-35.2633 115.18257,-17.97565 124.64483,16.66915 2.63411,-5.23294 4.14157,-10.91325 4.42394,-16.7425 -44.2586,-125.39201 -298.90161,107.74698 -375.84547,-81.86468 z" fill="#d8eefb" />
        <path d="m 123.74369,659.96133 c 31.25347,111.03346 142.19297,137.65516 276.47518,88.48885 96.31332,-35.26432 120.08073,21.8995 40.61879,37.35534 113.3182,39.92079 139.60849,-124.56821 -52.48669,-95.21566 -98.46901,15.04627 -147.93115,16.897 -177.59762,-11.43614 z" style="stroke:#92cdf4;stroke-miterlimit:20;fill:none;stroke-width:6" />
      </g>
      <g>
        <path d="M 240.53601,674.47418 C 151.47022,713.59597 95.189329,657.66041 95.742369,645.08776 c 0.452708,-10.29167 39.807211,-41.68983 84.370191,-35.77664 15.60459,23.63453 34.92051,43.88528 60.42345,65.16306 z" fill="#6cb2ea" />
        <path d="m 136.61968,649.80333 c 19.03928,13.64885 44.74533,17.014 64.00697,7.25186 -21.36889,5.69412 -42.27989,2.57992 -64.00697,-7.25186 z" fill="#338fcc" />
        <path fill="#338fcc" inkscape:original-d="M 240.53601,674.47418 C 151.47022,713.59597 95.189329,657.66041 95.742369,645.08776 96.195077,634.79609 135.54958,603.39793 180.11256,609.31112" inkscape:path-effect="#path-effect4290-6" />
      </g>
      <path d="m -413.15651,404.01526 c -4.12889,-43.47859 6.6525,-71.9552 16.40345,-71.82464 11.85011,0.15866 21.95608,38.10134 14.87941,81.99246 -10.88135,-2.97542 -21.127,-1.17774 -31.28286,-10.16782 z" fill="#6cb2ea" transform="rotate(282.32619)" />
      <path d="m 248.67426,451.68378 c -4.49273,-8.91341 -10.13995,-12.78528 -19.08392,-13.96952 7.84402,3.48877 12.3809,8.18101 15.11279,15.06077 m 9.1872,-2.09975 4.28557,-0.99573 c -0.56773,-8.81885 -4.50586,-15.36863 -12.56138,-18.4877 5.78003,5.38825 8.69204,11.37862 8.27581,19.48343 z m 11.20515,-1.19581 4.43685,0.37943 c 2.22472,-6.92373 1.7345,-13.72774 -4.00279,-18.19747 2.92779,5.78137 2.54068,11.81881 -0.43406,17.81804 z m -23.19428,9.57766 c 1.59665,-7.99546 22.9218,-10.12287 50.32625,-6.68509 -27.91475,-7.04024 -52.82654,-5.42427 -55.07883,5.85443 -1.87812,9.40496 18.55343,23.22445 45.58233,27.2952 -25.78844,-8.27691 -42.2471,-19.36693 -40.82975,-26.46454 z" />
      <path fill="#338fcc" inkscape:original-d="m 306.50253,489.88043 c 17.81104,-12.97549 10.93824,-39.59331 32.07167,-33.07866 16.58303,5.11194 14.39101,29.77188 -2.99038,36.89655 33.24828,22.44553 62.90945,20.92871 79.36388,1.91109 5.89745,40.58589 -3.858,98.86884 -33.99895,151.35081" inkscape:path-effect="#path-effect3801" />
      <path d="m 328.05572,477.26545 c 4.82769,-0.39249 6.83283,-3.6155 4.16012,-7.89311 7.82263,4.82077 3.48185,11.16488 -4.16012,7.89311 z" fill="#338fcc" />
      <use clip-path="url(#clipPath4554)" xlink:href="#g4548" />
    </g>
    <g>
      <path d="m 149.39254,701.86276 c -87.914364,18.00984 -85.900395,123.5232 -8.43208,132.60698 -2.32335,13.10691 4.5885,19.63514 13.55531,17.79644 80.47572,-16.50209 168.0093,-16.03511 248.60975,-1.09634 37.8293,7.01141 46.928,-109.98332 4.1629,-112.11738 -61.46928,-3.06744 -128.83387,2.67602 -176.83319,23.10697 11.74273,-33.23729 -20.01052,-72.80361 -81.06269,-60.29667 z" fill="#cc9cdf" />
      <path fill="#a46bbd" inkscape:original-d="m 192.83829,795.798 c 70.72803,-24.88247 43.03533,-111.65146 -43.44575,-93.93524 -92.836014,19.01807 -85.393064,135.6112 5.30563,133.27555" inkscape:path-effect="#path-effect8777" />
      <path d="m 140.94326,834.40021 c -2.30615,13.17644 4.6057,19.70467 13.57251,17.86597 80.47572,-16.50209 168.0093,-16.03511 248.60975,-1.09634 37.8293,7.01141 46.928,-109.98332 4.1629,-112.11738 -61.46928,-3.06744 -128.83387,2.67602 -177.08619,23.24019" style="stroke:#a46bbd;stroke-miterlimit:20;fill:none;stroke-width:6" />
      <g transform="rotate(61.348612-567.8282 512.77334)scale(.98743344-.98743344)">
        <g fill="#fff">
          <path d="M -4.5,-3.7 -13.8,-20.9 -0.3,-7.6 8.3,-21.4 3.6,-5.6 20.1,0 4.2,2.6 10.3,21.9 -1.6,1.4 -9.4,19.6 -6,-0.1 l -14.8,-2 z" />
          <path d="m 11.692,-38.888 5.376,2.304 1.08,-7.416 1.728,7.176 4.224,-0.96 -3.24,3.696 2.808,3.696 -4.008,-1.296 -0.96,7.608 -1.512,-7.752 -4.416,1.776 3.336,-4.248 z" />
          <path d="m -28.04,-43.464 4.48,2.112 0.9,-6.798 1.44,6.578 3.52,-0.88 -2.7,3.388 2.34,3.388 -3.34,-1.188 -0.8,6.974 -1.26,-7.106 -3.68,1.628 2.78,-3.894 z" />
          <path d="m -41.384,0.176 6.048,2.592 1.215,-8.343 1.944,8.073 4.752,-1.08 -3.645,4.158 3.159,4.158 -4.509,-1.458 -1.08,8.559 -1.701,-8.721 -4.968,1.998 3.753,-4.779 z" />
          <path d="m -20.232,28.176 4.704,2.592 0.945,-8.343 1.512,8.073 3.696,-1.08 -2.835,4.158 2.457,4.158 -3.507,-1.458 -0.84,8.559 -1.323,-8.721 -3.864,1.998 2.919,-4.779 z" />
          <path d="m 15.524,16.792 6.272,3.264 1.26,-10.506 2.016,10.166 4.928,-1.36 -3.78,5.236 3.276,5.236 -4.676,-1.836 -1.12,10.778 -1.764,-10.982 -5.152,2.516 3.892,-6.018 z" />
        </g>
        <path d="m -29.2,-21.2 22.4,9.6 4.5,-30.9 7.2,29.9 17.6,-4 L 9,-1.2 20.7,14.2 4,8.8 0,40.5 -6.3,8.2 -24.7,15.6 -10.8,-2.1 Z" fill="#ea428b" />
      </g>
    </g>
  </g>
</svg>
