<?xml version="1.0" encoding="UTF-8" standalone="no"?>
<!-- Created with Inkscape (http://www.inkscape.org/) -->

<svg
   xmlns:dc="http://purl.org/dc/elements/1.1/"
   xmlns:cc="http://creativecommons.org/ns#"
   xmlns:rdf="http://www.w3.org/1999/02/22-rdf-syntax-ns#"
   xmlns:svg="http://www.w3.org/2000/svg"
   xmlns="http://www.w3.org/2000/svg"
   xmlns:sodipodi="http://sodipodi.sourceforge.net/DTD/sodipodi-0.dtd"
   xmlns:inkscape="http://www.inkscape.org/namespaces/inkscape"
   id="svg2985"
   version="1.1"
   inkscape:version="0.48.2 r9819"
   width="1312"
   height="664"
   sodipodi:docname="Hyperdrive Vectoring - CMC.svg">
  <metadata
     id="metadata2991">
    <rdf:RDF>
      <cc:Work
         rdf:about="">
        <dc:format>image/svg+xml</dc:format>
        <dc:type
           rdf:resource="http://purl.org/dc/dcmitype/StillImage" />
        <dc:title />
      </cc:Work>
    </rdf:RDF>
  </metadata>
  <defs
     id="defs2989" />
  <sodipodi:namedview
     pagecolor="#ffffff"
     bordercolor="#666666"
     borderopacity="1"
     objecttolerance="10"
     gridtolerance="10"
     guidetolerance="10"
     inkscape:pageopacity="0"
     inkscape:pageshadow="2"
     inkscape:window-width="1366"
     inkscape:window-height="706"
     id="namedview2987"
     showgrid="false"
     fit-margin-top="0"
     fit-margin-left="0"
     fit-margin-right="0"
     fit-margin-bottom="0"
     inkscape:zoom="1.746782"
     inkscape:cx="691.55109"
     inkscape:cy="469.3955"
     inkscape:window-x="-8"
     inkscape:window-y="-8"
     inkscape:window-maximized="1"
     inkscape:current-layer="layer2"
     showguides="false" />
  <g
     inkscape:groupmode="layer"
     id="layer2"
     inkscape:label="Drawing"
     style="display:inline">
    <g
       id="g4499">
      <path
         sodipodi:type="arc"
         style="fill:#a9b7bc;fill-opacity:1;stroke:none"
         id="path4385"
         sodipodi:cx="442.61978"
         sodipodi:cy="554.42639"
         sodipodi:rx="101.62273"
         sodipodi:ry="50.738914"
         d="m 544.24251,554.42639 a 101.62273,50.738914 0 1 1 -203.24545,0 101.62273,50.738914 0 1 1 203.24545,0 z"
         transform="translate(245.69396,-3.5681696)" />
      <g
         id="g4050">
        <path
           style="fill:#bf5d95;fill-opacity:1;stroke:#bf1f79;stroke-width:4.5;stroke-linecap:butt;stroke-linejoin:miter;stroke-miterlimit:20;stroke-opacity:1;stroke-dasharray:none"
           d="m 697.5,321 c 130,-28.5 76.5,123 134.5,110 -10,20.5 -29,16 -39,-4 2,35.5 25,49 48.5,26 -17.5,95 -107.5,60.5 -109,-20.5 -1.39818,-75.50196 -35.5,-86 -35.5,-86 z"
           id="path4046"
           inkscape:connector-curvature="0"
           sodipodi:nodetypes="ccccscc" />
        <path
           style="fill:none;stroke:#bf1f79;stroke-width:2;stroke-linecap:butt;stroke-linejoin:miter;stroke-miterlimit:4;stroke-opacity:1;stroke-dasharray:none"
           d="M 805,507.5 C 721.5,482 777,340 697,337 l 0,-9 c 127.46576,-5.07011 36.53274,159.98267 126,168"
           id="path4048"
           inkscape:connector-curvature="0"
           sodipodi:nodetypes="cccc" />
      </g>
      <g
         id="g4042">
        <path
           style="fill:#bf5d95;fill-opacity:1;stroke:#bf1f79;stroke-width:4.5;stroke-linecap:butt;stroke-linejoin:miter;stroke-miterlimit:20;stroke-opacity:1;stroke-dasharray:none"
           d="m 630.5,140 c -35,-28.5 -23,-76.5 17,-74.5 -29.5,30.5 10.69258,33.345789 26,12 14.30437,-19.947056 58.70711,10.232233 58.70711,10.232233 L 721.17157,68.171573 C 766.99569,91.242641 768.88909,134.66295 755.5,174 z"
           id="path4038"
           inkscape:connector-curvature="0"
           sodipodi:nodetypes="ccscccc" />
        <path
           style="fill:none;stroke:#bf1f79;stroke-width:2;stroke-linecap:butt;stroke-linejoin:miter;stroke-miterlimit:4;stroke-opacity:1;stroke-dasharray:none"
           d="M 662.75,87 C 685.5,97.25 694,126.5 694,126.5 l 33,4 c 0,0 -2.25,-32.75 -22,-57"
           id="path4040"
           inkscape:connector-curvature="0"
           sodipodi:nodetypes="cccc" />
      </g>
      <path
         style="fill:#f2ab56;fill-opacity:1;stroke:#f37033;stroke-width:4.5;stroke-linecap:butt;stroke-linejoin:miter;stroke-miterlimit:4;stroke-opacity:1;stroke-dasharray:none"
         d="m 731.20458,378.79289 c 24.82233,44.56677 -0.86258,70.98156 3.70963,73.62133 4.26987,2.46522 10.14726,-3.49 12.93934,-0.56067 6.6864,7.0151 13.69337,80.92303 7.64645,84.41422 -10.08427,5.82216 -33.18315,5.44242 -41.25439,0.78248 -5.00046,-2.88702 15.63428,-57.78692 -9.88589,-120.27386 z"
         id="path3832"
         inkscape:connector-curvature="0"
         sodipodi:nodetypes="csssscc" />
      <g
         transform="matrix(-1,0,0,1,1360.4759,1.4142136)"
         id="g3874">
        <path
           sodipodi:nodetypes="cccc"
           inkscape:connector-curvature="0"
           id="path3870"
           d="m 656.3811,337.81596 c -71.4841,-10.19107 -114.35811,78.88808 -49.42154,44.00807 -36.75038,38.98524 -10.82827,67.23088 28.13495,-2.93173 z"
           style="fill:#fbba64;fill-opacity:1;stroke:#f37033;stroke-width:4.5;stroke-linecap:butt;stroke-linejoin:miter;stroke-miterlimit:20;stroke-opacity:1;stroke-dasharray:none" />
        <path
           style="fill:none;stroke:#f37033;stroke-width:4.5;stroke-linecap:butt;stroke-linejoin:miter;stroke-miterlimit:4;stroke-opacity:1;stroke-dasharray:none"
           d="m 645.51688,337.10997 c -42.10286,-0.0211 -38.5748,54.99923 -2.28132,26.10477"
           id="path3108"
           inkscape:connector-curvature="0"
           sodipodi:nodetypes="cc" />
      </g>
      <g
         id="g3864">
        <path
           style="fill:#fbba64;fill-opacity:1;stroke:#f37033;stroke-width:4.5;stroke-linecap:butt;stroke-linejoin:miter;stroke-miterlimit:20;stroke-opacity:1;stroke-dasharray:none"
           d="m 657.44176,338.52307 c -77.49451,3.24396 -100.92308,76.4132 -51.54286,45.77583 -31.35824,37.84616 -14.77802,61.9956 29.19561,-5.4066 z"
           id="path3860"
           inkscape:connector-curvature="0"
           sodipodi:nodetypes="cccc" />
        <path
           sodipodi:nodetypes="cc"
           inkscape:connector-curvature="0"
           id="path3106"
           d="m 648.37654,339.49708 c -44.57082,2.83405 -44.49848,51.24332 -4.39098,23.71766"
           style="fill:none;stroke:#f37033;stroke-width:4.5;stroke-linecap:butt;stroke-linejoin:miter;stroke-miterlimit:4;stroke-opacity:1;stroke-dasharray:none" />
      </g>
      <path
         transform="matrix(0.99903007,-0.04403309,0.04403309,0.99903007,-21.129326,29.708727)"
         d="m 741.60812,388.20114 a 54.109528,62.652786 0 1 1 -108.21905,0 54.109528,62.652786 0 1 1 108.21905,0 z"
         sodipodi:ry="62.652786"
         sodipodi:rx="54.109528"
         sodipodi:cy="388.20114"
         sodipodi:cx="687.4986"
         id="path3908"
         style="fill:#fbba64;fill-opacity:1;stroke:#f37033;stroke-width:4.5;stroke-linecap:butt;stroke-linejoin:miter;stroke-miterlimit:4;stroke-opacity:1;stroke-dasharray:none;stroke-dashoffset:0"
         sodipodi:type="arc" />
      <path
         inkscape:connector-curvature="0"
         id="path4036"
         d="m 649,341.375 2.125,-39.875 c 0,0 30.625,11.25 51.625,2.875 l 1.625,31.375 z"
         style="fill:#fbba64;fill-opacity:1;stroke:none" />
      <g
         id="g3903">
        <path
           transform="matrix(0.99930379,0.03730855,-0.03730855,0.99930379,9.3619134,-30.863499)"
           style="fill:#fbba64;fill-opacity:1;stroke:#f37033;stroke-width:4.5;stroke-linecap:butt;stroke-linejoin:miter;stroke-miterlimit:4;stroke-opacity:1;stroke-dashoffset:0"
           d="m 768.3616,213.03479 c 0,55.2987 -39.57218,100.12715 -88.38693,100.12715 -48.81475,0 -88.38692,-44.82845 -88.38692,-100.12715 0,-45.07669 26.29444,-83.19623 62.45559,-95.74882 6.15231,-33.345469 47.91869,-20.374467 50.72149,-0.38655 36.7478,12.14021 63.59677,50.58585 63.59677,96.13537 z"
           id="path3868"
           inkscape:connector-curvature="0"
           sodipodi:nodetypes="sssccs" />
        <g
           id="g3819">
          <path
             sodipodi:nodetypes="ccc"
             inkscape:connector-curvature="0"
             id="path3810"
             d="m 629.63191,210.70065 c 24.3575,-11.79165 77.75289,-7.46897 98.5639,8.35729 11.17206,-105.92957 -85.37748,-127.426866 -98.5639,-8.35729 z"
             style="fill:#a8005b;fill-opacity:1;stroke:none" />
          <path
             sodipodi:nodetypes="czzcc"
             inkscape:connector-curvature="0"
             id="path3796"
             d="m 657.16775,204.33526 c -1.8488,-43.47312 21.90955,-34.0641 19.40692,-24.72416 -2.50263,9.33994 10.52834,9.93668 7.91651,0.1892 -2.61183,-9.74748 25.55031,-20.25126 17.34988,28.06179 0,0 -23.51227,-5.17269 -44.67331,-3.52683 z"
             style="fill:#8b1e63;fill-opacity:1;stroke:none" />
          <path
             sodipodi:nodetypes="ccc"
             inkscape:connector-curvature="0"
             id="path3783"
             d="m 671.71151,203.74103 c 1.52119,-13.34047 19.28297,-12.17686 20.36349,2.15135 -5.45817,-1.07675 -20.36349,-2.15135 -20.36349,-2.15135 z"
             style="fill:#f47735;fill-opacity:1;stroke:none" />
          <path
             style="fill:none;stroke:#f37033;stroke-width:2.5;stroke-linecap:butt;stroke-linejoin:miter;stroke-miterlimit:4;stroke-opacity:1;stroke-dasharray:none"
             d="m 629.63191,210.70065 c 24.3575,-11.79165 77.75289,-7.46897 98.5639,8.35729 11.17206,-105.92957 -85.37748,-127.426866 -98.5639,-8.35729 z"
             id="path3781"
             inkscape:connector-curvature="0"
             sodipodi:nodetypes="ccc" />
        </g>
        <path
           style="fill:#f37033;fill-opacity:1;stroke:none"
           d="m 676.83737,100.52515 c -0.70537,3.29171 -0.5273,5.22485 2.28236,7.26027 -4.51256,1.14709 -6.16535,-3.62423 -2.28236,-7.26027 z"
           id="path3871"
           inkscape:connector-curvature="0"
           sodipodi:nodetypes="ccc" />
        <path
           sodipodi:nodetypes="ccc"
           inkscape:connector-curvature="0"
           id="path3873"
           d="m 691.05855,100.69141 c 0.70537,3.29171 0.19479,5.55736 -2.61487,7.59278 5.01133,1.1471 6.16535,-4.62177 2.61487,-7.59278 z"
           style="fill:#f37033;fill-opacity:1;stroke:none" />
      </g>
      <path
         sodipodi:nodetypes="cccc"
         inkscape:connector-curvature="0"
         id="path3879"
         d="m 653.75847,303.20432 c -1.01433,12.36466 -1.91482,27.37353 -4.82001,41.0289 -1.02734,-13.61974 -0.88777,-30.24495 0.37286,-42.95858 z"
         style="fill:#f37033;fill-opacity:1;stroke:none" />
      <path
         style="fill:#f37033;fill-opacity:1;stroke:none"
         d="m 700.45744,305.08531 c 1.01433,12.36466 1.56213,24.55205 4.46732,38.20742 1.02734,-13.61974 1.24046,-27.25721 -0.0202,-39.97084 z"
         id="path3881"
         inkscape:connector-curvature="0"
         sodipodi:nodetypes="cccc" />
      <g
         id="g3876">
        <path
           sodipodi:nodetypes="ssccs"
           inkscape:connector-curvature="0"
           id="path3874"
           d="m 624.06549,576.07463 c 2.11585,7.89647 44.67015,7.4844 52.30648,3.07557 7.67558,-4.4315 6.38478,-93.1147 7.10182,-136.87949 l -22.96438,-9.15481 c -6.83647,34.00657 -42.81465,119.18285 -36.44392,142.95873 z"
           style="font-size:medium;font-style:normal;font-variant:normal;font-weight:normal;font-stretch:normal;text-indent:0;text-align:start;text-decoration:none;line-height:normal;letter-spacing:normal;word-spacing:normal;text-transform:none;direction:ltr;block-progression:tb;writing-mode:lr-tb;text-anchor:start;baseline-shift:baseline;color:#000000;fill:#fbba64;fill-opacity:1;stroke:none;stroke-width:0.1;marker:none;visibility:visible;display:inline;overflow:visible;enable-background:accumulate;font-family:Sans;-inkscape-font-specification:Sans" />
        <path
           style="font-size:medium;font-style:normal;font-variant:normal;font-weight:normal;font-stretch:normal;text-indent:0;text-align:start;text-decoration:none;line-height:normal;letter-spacing:normal;word-spacing:normal;text-transform:none;direction:ltr;block-progression:tb;writing-mode:lr-tb;text-anchor:start;baseline-shift:baseline;color:#000000;fill:#f37033;fill-opacity:1;stroke:none;stroke-width:0.1;marker:none;visibility:visible;display:inline;overflow:visible;enable-background:accumulate;font-family:Sans;-inkscape-font-specification:Sans"
           d="m 622.08162,577.06657 c 2.59264,9.67586 47.81128,8.14569 55.44761,3.73686 9.50224,-5.48612 7.87268,-95.09858 6.77117,-138.69804 l -2.18548,0.0736 c 0.002,47.26494 -1.82479,131.84731 -7.08367,134.88352 -6.66331,3.84707 -47.32823,3.72353 -48.91188,-2.01759 -4.58506,-16.62198 30.26534,-110.22358 34.9307,-144.67737 -2.8605,16.68654 -44.9876,124.23526 -38.96845,146.69902 z"
           id="path3867"
           inkscape:connector-curvature="0"
           sodipodi:nodetypes="ssccsscs" />
      </g>
      <g
         transform="matrix(-1,0,0,1,1364.7646,0)"
         id="g3880">
        <path
           style="font-size:medium;font-style:normal;font-variant:normal;font-weight:normal;font-stretch:normal;text-indent:0;text-align:start;text-decoration:none;line-height:normal;letter-spacing:normal;word-spacing:normal;text-transform:none;direction:ltr;block-progression:tb;writing-mode:lr-tb;text-anchor:start;baseline-shift:baseline;color:#000000;fill:#fbba64;fill-opacity:1;stroke:none;stroke-width:0.1;marker:none;visibility:visible;display:inline;overflow:visible;enable-background:accumulate;font-family:Sans;-inkscape-font-specification:Sans"
           d="m 624.06549,576.07463 c 2.11585,7.89647 44.67015,7.4844 52.30648,3.07557 7.67558,-4.4315 2.62268,-93.32035 3.33972,-137.08514 l -23.38004,-9.50508 c -5.27785,34.31829 -36.67978,127.04282 -32.26616,143.51465 z"
           id="path3882"
           inkscape:connector-curvature="0"
           sodipodi:nodetypes="ssccs" />
        <path
           sodipodi:nodetypes="ssccsscs"
           inkscape:connector-curvature="0"
           id="path3884"
           d="m 622.08162,577.06657 c 2.59264,9.67586 47.81128,8.14569 55.44761,3.73686 9.50224,-5.48612 4.11058,-95.30423 3.00907,-138.90369 l -2.18548,0.0736 c 0.002,47.26494 1.93731,132.05296 -3.32157,135.08917 -6.66331,3.84707 -47.37047,3.73502 -48.91188,-2.01759 -2.76969,-10.33661 25.54692,-108.03115 30.21228,-142.48494 -6.10446,33.98764 -39.05694,126.56694 -34.25003,144.50659 z"
           style="font-size:medium;font-style:normal;font-variant:normal;font-weight:normal;font-stretch:normal;text-indent:0;text-align:start;text-decoration:none;line-height:normal;letter-spacing:normal;word-spacing:normal;text-transform:none;direction:ltr;block-progression:tb;writing-mode:lr-tb;text-anchor:start;baseline-shift:baseline;color:#000000;fill:#f37033;fill-opacity:1;stroke:none;stroke-width:0.1;marker:none;visibility:visible;display:inline;overflow:visible;enable-background:accumulate;font-family:Sans;-inkscape-font-specification:Sans" />
      </g>
      <path
         sodipodi:nodetypes="ccc"
         inkscape:connector-curvature="0"
         id="path3886"
         d="m 675.32964,439.01413 c 6.00724,2.41844 13.40921,2.43336 17.6845,-0.4449 -4.79463,6.16701 -11.78572,6.41745 -17.6845,0.4449 z"
         style="fill:#f37033;fill-opacity:1;stroke:none" />
    </g>
    <g
       id="g4575">
      <path
         transform="translate(486.80028,-13.253201)"
         d="m 531.49904,554.42639 a 88.879257,51.248653 0 1 1 -177.75852,0 88.879257,51.248653 0 1 1 177.75852,0 z"
         sodipodi:ry="51.248653"
         sodipodi:rx="88.879257"
         sodipodi:cy="554.42639"
         sodipodi:cx="442.61978"
         id="path4387"
         style="fill:#a9b7bc;fill-opacity:1;stroke:none"
         sodipodi:type="arc" />
      <path
         style="fill:#e7e793;fill-opacity:1;stroke:#dac572;stroke-width:4.5;stroke-linecap:butt;stroke-linejoin:miter;stroke-miterlimit:4;stroke-opacity:1;stroke-dasharray:none"
         d="m 906.97709,463.85355 c 8.6864,5.0151 36.09289,72.74899 27.14645,77.91422 -10.08427,5.82216 -32.52495,5.94242 -40.59619,1.28248 -6.01204,-38.95752 -3.74181,-88.94164 13.44974,-79.1967 z"
         id="path4183"
         inkscape:connector-curvature="0"
         sodipodi:nodetypes="cscc" />
      <g
         id="g3992">
        <path
           style="fill:#f46091;fill-opacity:1;stroke:#c92866;stroke-width:4.5;stroke-linecap:butt;stroke-linejoin:miter;stroke-miterlimit:4;stroke-opacity:1;stroke-dasharray:none"
           d="m 882.11571,172.20723 c 35.70889,-41.0122 102.6944,-56.75821 136.47159,-21.56676 8.3182,8.66645 -42.07283,97.22719 -103.94468,103.59115 -28.99138,-75.66043 -32.52691,-82.02439 -32.52691,-82.02439 z"
           id="path3986"
           inkscape:connector-curvature="0"
           sodipodi:nodetypes="cscc" />
        <path
           sodipodi:nodetypes="ccc"
           inkscape:connector-curvature="0"
           id="path3990"
           d="m 882.11571,172.20723 c 35.70889,-41.0122 102.6944,-56.75821 136.47159,-21.56676 -21.91068,22.90646 -109.74101,30.10571 -136.47159,21.56676 z"
           style="fill:#ed438d;fill-opacity:1;stroke:#c92866;stroke-width:4.5;stroke-linecap:butt;stroke-linejoin:round;stroke-miterlimit:4;stroke-opacity:1;stroke-dasharray:none" />
      </g>
      <g
         id="g3980">
        <path
           id="path3966"
           style="fill:#f8415f;fill-opacity:1;stroke:none"
           d="m 781.353,187.41003 c -25.45585,-18.38478 -28.24138,-42.07286 -16.64562,-48.45087 -3.39121,-50.840274 52.1464,-59.278923 72.50705,-32.15931 19.79899,-32.173352 79.19596,10.96016 55.15433,80.61019 z"
           inkscape:connector-curvature="0"
           sodipodi:nodetypes="cccc" />
        <path
           style="fill:none;stroke:#c52451;stroke-width:2;stroke-linecap:butt;stroke-linejoin:miter;stroke-miterlimit:4;stroke-opacity:1;stroke-dasharray:none"
           d="m 810.56925,172.68947 c -16.78123,-27.33453 -46.68682,-46.87311 -46.68682,-46.87311 1.00435,-14.99928 14.31622,-29.397815 32.39087,-33.055086 35.07717,22.377416 49.77996,55.757886 49.77996,55.757886"
           id="path3974"
           inkscape:connector-curvature="0"
           sodipodi:nodetypes="cccc" />
        <path
           sodipodi:nodetypes="cc"
           inkscape:connector-curvature="0"
           id="path3977"
           d="M 781.353,187.41003 C 755.89715,169.02525 752.36162,145.33717 764.02888,138.97322"
           style="fill:none;stroke:#c52451;stroke-width:4.5;stroke-linecap:butt;stroke-linejoin:miter;stroke-miterlimit:4;stroke-opacity:1;stroke-dasharray:none" />
        <path
           style="font-size:medium;font-style:normal;font-variant:normal;font-weight:normal;font-stretch:normal;text-indent:0;text-align:start;text-decoration:none;line-height:normal;letter-spacing:normal;word-spacing:normal;text-transform:none;direction:ltr;block-progression:tb;writing-mode:lr-tb;text-anchor:start;baseline-shift:baseline;color:#000000;fill:#c52451;fill-opacity:1;stroke:none;stroke-width:0.1;marker:none;visibility:visible;display:inline;overflow:visible;enable-background:accumulate;font-family:Sans;-inkscape-font-specification:Sans"
           d="m 770.04687,156.375 c -21.84386,-56.530293 42.2014,-82.08245 67.35938,-45.59375 18.8165,-35.561662 75.94692,9.9323 52.84375,75.90625 l 4.25,1.46875 c 24.66757,-73.2558 -36.86161,-114.400983 -57.375,-85.04642 -33.52996,-35.533208 -98.52276,2.88318 -67.07813,53.26517 z"
           id="path3968"
           inkscape:connector-curvature="0"
           sodipodi:nodetypes="cccccc" />
      </g>
      <g
         id="g3942">
        <path
           style="fill:#f8415f;fill-opacity:1;stroke:none"
           d="m 894.14693,370.67937 c 27.10101,-33.53657 64.9861,-24.4415 61.69418,-8.80331 63.98369,2.31066 91.83179,116.83657 42.77044,132.77187 -38.10592,12.37693 -38.53731,-37.65344 -38.53731,-37.65344 -6.71752,9.54594 -21.12212,7.73161 -15.02603,-21.92031 6.1628,-29.97637 -21.38998,-37.47666 -39.77475,-34.64824 z"
           id="path3962"
           inkscape:connector-curvature="0"
           sodipodi:nodetypes="ccscsc" />
        <path
           sodipodi:nodetypes="cc"
           inkscape:connector-curvature="0"
           id="path3954"
           d="m 894.14693,370.67937 c 27.10101,-33.53657 64.9861,-24.4415 61.69418,-8.80331"
           style="fill:none;stroke:#c52451;stroke-width:4.5;stroke-linecap:butt;stroke-linejoin:miter;stroke-miterlimit:20;stroke-opacity:1;stroke-dasharray:none" />
        <path
           style="fill:none;stroke:#c52451;stroke-width:2;stroke-linecap:butt;stroke-linejoin:miter;stroke-miterlimit:4;stroke-opacity:1;stroke-dasharray:none"
           d="m 1000.9096,493.94082 c 0,0 9.8995,-106.41957 -101.82332,-108.18733 l -2.82843,-7.42463 c 72.12488,-6.36396 121.97595,31.46625 118.44035,104.29825"
           id="path3940"
           inkscape:connector-curvature="0"
           sodipodi:nodetypes="cccc" />
        <path
           sodipodi:nodetypes="cscsccscsc"
           inkscape:connector-curvature="0"
           id="path3956"
           d="m 940.94609,362.06434 c 78.53191,-7.12212 104.61441,116.12374 56.36641,130.24816 -31.78786,9.30578 -32.73478,-19.59015 -35.875,-42.59375 -7.83713,19.60213 -18.66577,8.80254 -14.65625,-11.25 6.53718,-32.69394 -19.2959,-44.25242 -43,-40.46875 l 0.53125,4.46875 c 24.89225,-3.3138 43.26083,8.48884 38.09375,34.96875 -5.51888,28.28277 11.45304,30.43055 16.03125,24.75 3.02348,26.89789 13.93183,42.141 40.03125,34.46875 55.81455,-16.40738 22.26585,-151.42691 -57.52266,-134.59191 z"
           style="font-size:medium;font-style:normal;font-variant:normal;font-weight:normal;font-stretch:normal;text-indent:0;text-align:start;text-decoration:none;line-height:normal;letter-spacing:normal;word-spacing:normal;text-transform:none;direction:ltr;block-progression:tb;writing-mode:lr-tb;text-anchor:start;baseline-shift:baseline;color:#000000;fill:#c52451;fill-opacity:1;stroke:none;stroke-width:0.1;marker:none;visibility:visible;display:inline;overflow:visible;enable-background:accumulate;font-family:Sans;-inkscape-font-specification:Sans" />
      </g>
      <path
         sodipodi:nodetypes="csssscc"
         inkscape:connector-curvature="0"
         id="path3829"
         d="m 901.61091,381.11091 c 55.82412,16.36828 34.5225,79.38395 39.09471,82.02372 4.26987,2.46522 8.64329,-1.30449 12.14793,0.71892 8.6864,5.0151 36.09289,72.74899 27.14645,77.91422 -10.08427,5.82216 -34.24239,5.94242 -42.31363,1.28248 -9.17205,-5.29549 7.14759,-51.87263 -36.75736,-92.79282 z"
         style="fill:#e7e793;fill-opacity:1;stroke:#dac572;stroke-width:4.5;stroke-linecap:butt;stroke-linejoin:miter;stroke-miterlimit:4;stroke-opacity:1;stroke-dasharray:none" />
      <path
         transform="matrix(0.93513103,-0.35430207,0.35430207,0.93513103,-84.933888,327.91648)"
         d="m 914.7772,425.11542 a 47.174721,59.29224 0 1 1 -94.34944,0 47.174721,59.29224 0 1 1 94.34944,0 z"
         sodipodi:ry="59.29224"
         sodipodi:rx="47.174721"
         sodipodi:cy="425.11542"
         sodipodi:cx="867.60248"
         id="path3912"
         style="fill:#f4f49b;fill-opacity:1;stroke:#dac572;stroke-width:4.5;stroke-linecap:butt;stroke-linejoin:miter;stroke-miterlimit:4;stroke-opacity:1;stroke-dasharray:none;stroke-dashoffset:0"
         sodipodi:type="arc" />
      <path
         inkscape:connector-curvature="0"
         id="path3934"
         d="M 833.625,357.625 838.25,381.25 890.125,368.625 884,344 c 0,0 -23,16.625 -50.375,13.625 z"
         style="fill:#f4f49b;fill-opacity:1;stroke:none" />
      <path
         style="fill:#dac572;fill-opacity:1;stroke:none;display:inline"
         d="m 831.7536,357.75279 c 0.89677,7.19196 4.03091,17.96861 7.28879,26.0986 -0.85364,-8.5646 -2.03108,-19.26303 -3.05659,-25.86348 z"
         id="path3881-1"
         inkscape:connector-curvature="0"
         sodipodi:nodetypes="cccc" />
      <path
         sodipodi:nodetypes="cccc"
         inkscape:connector-curvature="0"
         id="path3901"
         d="m 881.95229,344.82104 c 1.60213,6.60415 5.67676,18.3213 8.93464,26.68641 -0.9712,-8.91728 -3.32425,-21.73182 -5.29025,-28.68495 z"
         style="fill:#dac572;fill-opacity:1;stroke:none;display:inline" />
      <g
         id="g4179">
        <path
           style="fill:#f8415f;fill-opacity:1;stroke:#c52451;stroke-width:4.5;stroke-linecap:butt;stroke-linejoin:miter;stroke-miterlimit:4;stroke-opacity:1;stroke-dasharray:none"
           d="m 865.14514,344.74129 c 1.06067,27.93072 14.84925,64.34672 24.04163,64.34672 13.08148,0 25.80941,-45.25484 6.71752,-81.67083 -26.16295,7.42462 -30.75915,17.32411 -30.75915,17.32411 z"
           id="path3929"
           inkscape:connector-curvature="0"
           sodipodi:nodetypes="cscc" />
        <path
           style="fill:none;stroke:#c52451;stroke-width:2;stroke-linecap:butt;stroke-linejoin:miter;stroke-miterlimit:4;stroke-opacity:1;stroke-dasharray:none"
           d="m 876.49537,393.07398 c 18.60547,-16.82137 25.23206,-51.99333 25.23206,-51.99333 l 2.80356,15.03729 c 0,0 -6.37173,31.85866 -23.70284,44.85699"
           id="path3936"
           inkscape:connector-curvature="0"
           sodipodi:nodetypes="cccc" />
      </g>
      <g
         id="g3917">
        <g
           id="g3913">
          <path
             style="fill:#f4f49b;fill-opacity:1;stroke:#dac572;stroke-width:4.5;stroke-linecap:butt;stroke-linejoin:miter;stroke-miterlimit:4;stroke-opacity:1;stroke-dasharray:none"
             d="m 919.07669,265.07639 c 30.03576,22.79711 32.49861,68.20975 20.18997,71.50784 -10.30455,2.7611 -39.14445,-28.12713 -39.14445,-28.12713 -3.46638,-15.37039 3.50687,-39.79919 18.95448,-43.38071 z"
             id="path3920"
             inkscape:connector-curvature="0"
             sodipodi:nodetypes="cscc" />
          <path
             style="fill:#dac572;fill-opacity:1;stroke:none"
             d="m 935.23617,310.85847 c -0.64832,-16.64359 -8.60215,-28.08391 -23.70705,-34.82179 10.90821,8.06158 20.28054,19.59586 23.70705,34.82179 z"
             id="path3922"
             inkscape:connector-curvature="0"
             sodipodi:nodetypes="ccc" />
        </g>
        <path
           transform="matrix(0.99999997,2.8412648e-4,-2.8412648e-4,0.99999997,-9.3329864,2.5804541)"
           style="fill:#f4f49b;fill-opacity:1;stroke:#dac572;stroke-width:4.5;stroke-linecap:butt;stroke-linejoin:miter;stroke-miterlimit:4;stroke-opacity:1;stroke-dashoffset:0"
           d="m 936.73873,253.00565 c 0,56.42381 -39.58532,102.16435 -88.41628,102.16435 -48.83097,0 -88.41628,-45.74054 -88.41628,-102.16435 0,-46.73963 27.16312,-86.14848 64.24373,-98.29935 9.37308,-23.73616 44.03115,-20.64349 51.84653,1.23919 35.27668,13.42157 60.7423,51.80454 60.7423,97.06016 z"
           id="path3861"
           inkscape:connector-curvature="0"
           sodipodi:nodetypes="sssccs" />
        <g
           id="g3814"
           transform="translate(1.5,0)">
          <path
             sodipodi:nodetypes="ccc"
             inkscape:connector-curvature="0"
             id="path3812"
             d="m 867.31412,222.83739 c -20.20108,-8.134 -51.48431,-8.79902 -73.95789,-1.2856 -2.85922,-60.20895 82.55111,-52.77756 73.95789,1.2856 z"
             style="fill:#a8005b;fill-opacity:1;stroke:none" />
          <path
             sodipodi:nodetypes="csscc"
             inkscape:connector-curvature="0"
             id="path3136-1"
             d="m 813.96667,217.19852 c 5.75074,-16.2621 18.12502,-15.34218 16.51279,-11.61757 -2.74237,6.33547 6.96022,6.29453 4.50907,0.26967 -1.63922,-4.02916 8.64016,-5.35466 14.79752,12.61283 -16.43962,-2.89348 -35.81938,-1.26493 -35.81938,-1.26493 z"
             style="fill:#8b1e63;fill-opacity:1;stroke:none;display:inline" />
          <path
             sodipodi:nodetypes="ccc"
             inkscape:connector-curvature="0"
             id="path3788"
             d="m 844.09629,217.31223 c -2.95431,-10.44278 -17.6509,-11.46886 -22.85415,-1.26119 10.64449,-0.85491 22.85415,1.26119 22.85415,1.26119 z"
             style="fill:#f47735;fill-opacity:1;stroke:none" />
          <path
             style="fill:none;stroke:#dac572;stroke-width:2.5;stroke-linecap:butt;stroke-linejoin:miter;stroke-miterlimit:4;stroke-opacity:1;stroke-dasharray:none"
             d="m 867.31412,222.83739 c -20.20108,-8.134 -51.48431,-8.79902 -73.95789,-1.2856 -2.85922,-60.20895 82.55111,-52.77756 73.95789,1.2856 z"
             id="path3785"
             inkscape:connector-curvature="0"
             sodipodi:nodetypes="ccc" />
        </g>
        <path
           sodipodi:nodetypes="ccc"
           inkscape:connector-curvature="0"
           id="path3864"
           d="m 849.67895,148.71095 c 0.55116,2.43786 0.10913,4.42773 -2.15652,6.14182 3.885,0.23282 5.15839,-3.04482 2.15652,-6.14182 z"
           style="fill:#dac572;fill-opacity:1;stroke:none" />
        <path
           style="fill:#dac572;fill-opacity:1;stroke:none"
           d="m 835.05199,148.21218 c -0.4336,2.43786 -0.22669,4.31017 1.80384,5.9067 -3.64988,-0.11987 -5.04083,-3.04482 -1.80384,-5.9067 z"
           id="path3866"
           inkscape:connector-curvature="0"
           sodipodi:nodetypes="ccc" />
      </g>
      <g
         transform="translate(231.15888,3.7233646)"
         id="g3047">
        <path
           style="font-size:medium;font-style:normal;font-variant:normal;font-weight:normal;font-stretch:normal;text-indent:0;text-align:start;text-decoration:none;line-height:normal;letter-spacing:normal;word-spacing:normal;text-transform:none;direction:ltr;block-progression:tb;writing-mode:lr-tb;text-anchor:start;baseline-shift:baseline;color:#000000;fill:#f4f49b;fill-opacity:1;stroke:none;stroke-width:0.1;marker:none;visibility:visible;display:inline;overflow:visible;enable-background:accumulate;font-family:Sans;-inkscape-font-specification:Sans"
           d="m 628.40942,576.69519 c 2.11585,7.89647 40.07622,6.11384 47.71255,1.70501 7.67558,-4.4315 -16.64326,-74.32591 -23.92622,-116.0907 l -24.13265,-9.28829 c -1.76743,34.31829 -4.86467,104.22629 0.34632,123.67398 z"
           id="path3049"
           inkscape:connector-curvature="0"
           sodipodi:nodetypes="ssccs" />
        <path
           sodipodi:nodetypes="ssccsscs"
           inkscape:connector-curvature="0"
           id="path3051"
           d="m 626.42555,577.68713 c 2.59264,9.67586 43.21735,6.77513 50.85368,2.3663 9.50224,-5.48612 -14.65536,-76.55979 -24.25687,-117.90925 l -2.53903,0.0736 c 8.752,42.51494 28.91461,111.05852 23.65573,114.09473 -6.66331,3.84707 -42.13435,5.10558 -43.67576,-0.64703 -4.73706,-17.67896 -1.79992,-88.62928 -2.4002,-122.64427 -3.91044,33.76824 -6.07459,108.10666 -1.63755,124.66592 z"
           style="font-size:medium;font-style:normal;font-variant:normal;font-weight:normal;font-stretch:normal;text-indent:0;text-align:start;text-decoration:none;line-height:normal;letter-spacing:normal;word-spacing:normal;text-transform:none;direction:ltr;block-progression:tb;writing-mode:lr-tb;text-anchor:start;baseline-shift:baseline;color:#000000;fill:#dac572;fill-opacity:1;stroke:none;stroke-width:0.1;marker:none;visibility:visible;display:inline;overflow:visible;enable-background:accumulate;font-family:Sans;-inkscape-font-specification:Sans" />
      </g>
      <g
         id="g3053"
         transform="matrix(-1,0,0.47452227,1,1299.5915,3.3698112)">
        <path
           sodipodi:nodetypes="ssccs"
           inkscape:connector-curvature="0"
           id="path3055"
           d="m 608.08289,575.63453 c 2.11585,7.89647 40.40275,7.1745 48.03908,2.76567 7.67558,-4.4315 -14.62384,-73.79558 -21.9068,-115.56037 l -22.02034,-8.93474 c -1.76743,34.31829 -4.11194,121.72944 -4.11194,121.72944 z"
           style="font-size:medium;font-style:normal;font-variant:normal;font-weight:normal;font-stretch:normal;text-indent:0;text-align:start;text-decoration:none;line-height:normal;letter-spacing:normal;word-spacing:normal;text-transform:none;direction:ltr;block-progression:tb;writing-mode:lr-tb;text-anchor:start;baseline-shift:baseline;color:#000000;fill:#f4f49b;fill-opacity:1;stroke:none;stroke-width:0.1;marker:none;visibility:visible;display:inline;overflow:visible;enable-background:accumulate;font-family:Sans;-inkscape-font-specification:Sans" />
        <path
           style="font-size:medium;font-style:normal;font-variant:normal;font-weight:normal;font-stretch:normal;text-indent:0;text-align:start;text-decoration:none;line-height:normal;letter-spacing:normal;word-spacing:normal;text-transform:none;direction:ltr;block-progression:tb;writing-mode:lr-tb;text-anchor:start;baseline-shift:baseline;color:#000000;fill:#dac572;fill-opacity:1;stroke:none;stroke-width:0.1;marker:none;visibility:visible;display:inline;overflow:visible;enable-background:accumulate;font-family:Sans;-inkscape-font-specification:Sans"
           d="m 606.09902,576.62647 c 2.40153,8.96267 44.26502,7.74672 51.44087,3.60374 8.92666,-5.1538 -12.8966,-76.20624 -22.49811,-117.5557 l -2.53903,0.0736 c 8.752,42.51494 26.89519,110.52819 21.63631,113.5644 -6.66331,3.84707 -42.67037,3.65026 -44.0113,-1.35414 -3.08138,-11.49983 2.66735,-87.03829 2.06707,-121.05328 -3.91044,33.76824 -10.44437,106.49229 -6.09581,122.72138 z"
           id="path3057"
           inkscape:connector-curvature="0"
           sodipodi:nodetypes="ssccsscs" />
      </g>
      <path
         sodipodi:nodetypes="ccc"
         inkscape:connector-curvature="0"
         id="path3827"
         d="m 877.19822,464.07583 c 4.18934,2.19822 9.7955,1.76516 13.09728,-1.95711 -1.66422,6.04289 -9.53662,7.55806 -13.09728,1.95711 z"
         style="fill:#dac572;fill-opacity:1;stroke:none" />
    </g>
    <g
       id="g4426">
      <path
         transform="translate(-4.0779081,-4.0779081)"
         d="m 532.00879,554.42639 a 89.389008,43.092838 0 1 1 -178.77802,0 89.389008,43.092838 0 1 1 178.77802,0 z"
         sodipodi:ry="43.092838"
         sodipodi:rx="89.389008"
         sodipodi:cy="554.42639"
         sodipodi:cx="442.61978"
         id="path4185"
         style="fill:#a9b7bc;fill-opacity:1;stroke:none"
         sodipodi:type="arc" />
      <path
         sodipodi:nodetypes="cscc"
         inkscape:connector-curvature="0"
         id="path4175"
         d="m 455.55515,445.09457 c -8.6864,5.0151 -33.74407,73.4379 -26.43934,80.74264 6.96645,6.96646 36.4447,7.55529 44.13172,-0.13173 2.7084,-22.57993 1.76645,-78.25445 -17.69238,-80.61091 z"
         style="fill:#e2dee3;fill-opacity:1;stroke:#cfc8d1;stroke-width:4.5;stroke-linecap:butt;stroke-linejoin:miter;stroke-miterlimit:4;stroke-opacity:1;stroke-dasharray:none" />
      <g
         id="g4130">
        <path
           sodipodi:nodetypes="csccccsc"
           inkscape:connector-curvature="0"
           id="path4128"
           d="M 312,415 C 296.26738,371.05928 245.41274,427.62383 265.06603,478.87764 275.25981,505.46199 329.36515,522.21662 345.5,447 c 21.5,29 79.14645,-39.35355 27.79289,-47.85355 15.65946,-30.72723 44.21935,-29.68052 61.57778,-20.81759 l 21.83452,-14.31371 C 460.56889,267.04678 403.59212,250.99987 359.41832,295.17368 330.65216,323.93984 317.6158,355.39794 312,415 z"
           style="fill:#f6b8d2;fill-opacity:1;stroke:none" />
        <path
           style="fill:none;stroke:#795b8a;stroke-width:4.5;stroke-linecap:butt;stroke-linejoin:miter;stroke-miterlimit:4;stroke-opacity:1;stroke-dasharray:none"
           d="M 312,415 C 296.26738,371.05928 245.41274,427.62383 265.06603,478.87764 275.25981,505.46199 329.36515,522.21662 345.5,447 c 21.5,29 79.14645,-39.35355 27.79289,-47.85355"
           id="path4112"
           inkscape:connector-curvature="0"
           sodipodi:nodetypes="cscc" />
        <path
           style="fill:#795b8a;fill-opacity:1;stroke:none"
           d="m 375.76256,421.48223 c 2.9391,7.72535 -2.62668,10.82308 -7.38745,8.71396 -13.28174,-5.88409 7.88228,-75.07741 62.19811,-56.51941 l -2.39644,4.14644 c -48.02778,-14.89481 -65.36631,43.77236 -57.99503,48.02817 2.11132,1.21897 5.04447,1.23698 5.58081,-4.36916 z"
           id="path4114"
           inkscape:connector-curvature="0"
           sodipodi:nodetypes="csccsc" />
        <path
           style="fill:#b28dc0;fill-opacity:1;stroke:none"
           d="M 451.5,369 C 435.61091,266.44796 356.32184,282.68512 339,386.75 c -14.39774,86.4977 -43.18934,79.14645 -52,63.25 11.35355,10.09619 22.64645,-3.5 29.14645,-64.5 C 327.37729,280.10283 457.12132,204.91674 457,361 z"
           id="path4126"
           inkscape:connector-curvature="0"
           sodipodi:nodetypes="cscscc" />
        <path
           style="font-size:medium;font-style:normal;font-variant:normal;font-weight:normal;font-stretch:normal;text-indent:0;text-align:start;text-decoration:none;line-height:normal;letter-spacing:normal;word-spacing:normal;text-transform:none;direction:ltr;block-progression:tb;writing-mode:lr-tb;text-anchor:start;baseline-shift:baseline;color:#000000;fill:#795b8a;fill-opacity:1;stroke:none;stroke-width:0.1;marker:none;visibility:visible;display:inline;overflow:visible;enable-background:accumulate;font-family:Sans;-inkscape-font-specification:Sans"
           d="m 312.75,393.3125 c -5.00941,59.24263 -23.18314,67.53009 -25.90625,48.375 -1.66466,-11.70964 7.60754,-16.60773 9.4375,-4.34375 3.76551,-15.05288 -15.01009,-15.25102 -13.5,4.96875 1.46961,19.67783 27.62038,28.66843 34.46875,-48.625 10.26252,-115.82678 139.62574,-183.868 137.5,-31.21875 l 4.5,0.0625 c 2.01451,-159.55288 -136.2141,-90.86241 -146.5,30.78125 z"
           id="path4120"
           inkscape:connector-curvature="0"
           sodipodi:nodetypes="sscssccs" />
      </g>
      <g
         id="g4106">
        <path
           style="fill:#f6b8d2;fill-opacity:1;stroke:none"
           d="m 520,394.5 c 48,18 82.53072,-38.60469 54.25,-59.5 -39.25,-29 -49.5,11.75 -49.5,11.75 z"
           id="path4104"
           inkscape:connector-curvature="0"
           sodipodi:nodetypes="cscc" />
        <path
           style="fill:#795b8a;fill-opacity:1;stroke:none"
           d="m 520.17678,395.86612 c 53.04881,20.31656 87.92058,-44.48406 48.64644,-67.15901 -25.09095,-14.48628 -49.64006,28.4573 -29.57322,40.04289 11.6053,6.70032 22.58579,-9.37348 11.5,-15 5,5.5 -1.62797,16.3097 -9.85355,11.56066 -14.68865,-8.48049 5.89279,-44.71951 25.78033,-33.23744 35.15102,20.29444 3.09067,77.54415 -45,59.92678 z"
           id="path4100"
           inkscape:connector-curvature="0"
           sodipodi:nodetypes="csscsscc" />
      </g>
      <g
         id="g4095">
        <path
           sodipodi:nodetypes="cccc"
           inkscape:connector-curvature="0"
           id="path4093"
           d="m 423,269 c -54.5,-86 20,-188.5 92.5,-123.5 33,-12 71.5,-6.5 65.5,42.5 -64,27.5 -158,81 -158,81 z"
           style="fill:#b28dc0;fill-opacity:1;stroke:none" />
        <path
           sodipodi:nodetypes="cccc"
           inkscape:connector-curvature="0"
           id="path4091"
           d="M 404.56448,214.95621 C 399.34383,147.66304 458.04984,93.992959 515.5,145.5 548.5,133.5 587,139 581,188 459.37662,168.2188 425.30543,169.67664 404.56448,214.95621 z"
           style="fill:#f6b8d2;fill-opacity:1;stroke:none" />
        <path
           style="fill:none;stroke:#795b8a;stroke-width:4.5;stroke-linecap:butt;stroke-linejoin:miter;stroke-miterlimit:4;stroke-opacity:1;stroke-dasharray:none"
           d="m 423,269 c -54.5,-86 20,-188.5 92.5,-123.5 33,-12 71.5,-6.5 65.5,42.5 -64,27.5 -158,81 -158,81 z"
           id="path4089"
           inkscape:connector-curvature="0"
           sodipodi:nodetypes="cccc" />
      </g>
      <path
         style="fill:#e2dee3;fill-opacity:1;stroke:#cfc8d1;stroke-width:4.5;stroke-linecap:butt;stroke-linejoin:miter;stroke-miterlimit:4;stroke-opacity:1;stroke-dasharray:none"
         d="m 477.25099,358.4835 c -84.46194,1.87259 -56.35851,83.84551 -60.93072,86.48529 -1.93393,1.11656 -5.73101,-0.30102 -8.34314,1.2071 -8.6864,5.0151 -32.30231,77.0423 -24.99758,84.34704 6.96645,6.96646 36.4447,7.55529 44.13172,-0.13173 7.48895,-7.48895 -13.89265,-41.73878 24.709,-95.03333 z"
         id="path3834"
         inkscape:connector-curvature="0"
         sodipodi:nodetypes="csssscc" />
      <path
         transform="matrix(0.98345058,0.18117658,-0.18117658,0.98345058,75.707917,-81.698939)"
         d="m 538.40652,409.59732 a 50.05682,50.029907 0 1 1 -100.11364,0 50.05682,50.029907 0 1 1 100.11364,0 z"
         sodipodi:ry="50.029907"
         sodipodi:rx="50.05682"
         sodipodi:cy="409.59732"
         sodipodi:cx="488.3497"
         id="path3914"
         style="fill:#efedee;fill-opacity:1;stroke:#cfc8d1;stroke-width:4.5;stroke-linecap:butt;stroke-linejoin:miter;stroke-miterlimit:4;stroke-opacity:1;stroke-dasharray:none;stroke-dashoffset:0"
         sodipodi:type="arc" />
      <g
         id="g3833">
        <path
           sodipodi:nodetypes="ccssc"
           inkscape:connector-curvature="0"
           id="path3831"
           d="m 504.20312,441.84375 -23.88741,9.78615 c -4.74986,22.47258 -36.46237,119.77189 -23.17056,127.44592 8.59641,4.96314 36.51786,4.74714 45.55012,-0.46764 13.13354,-7.58265 3.1175,-102.29404 1.50785,-136.76443 z"
           style="font-size:medium;font-style:normal;font-variant:normal;font-weight:normal;font-stretch:normal;text-indent:0;text-align:start;text-decoration:none;line-height:normal;letter-spacing:normal;word-spacing:normal;text-transform:none;direction:ltr;block-progression:tb;writing-mode:lr-tb;text-anchor:start;baseline-shift:baseline;color:#000000;fill:#efedee;fill-opacity:1;stroke:none;stroke-width:0.1;marker:none;visibility:visible;display:inline;overflow:visible;enable-background:accumulate;font-family:Sans;-inkscape-font-specification:Sans" />
        <path
           style="font-size:medium;font-style:normal;font-variant:normal;font-weight:normal;font-stretch:normal;text-indent:0;text-align:start;text-decoration:none;line-height:normal;letter-spacing:normal;word-spacing:normal;text-transform:none;direction:ltr;block-progression:tb;writing-mode:lr-tb;text-anchor:start;baseline-shift:baseline;color:#000000;fill:#cfc8d1;fill-opacity:1;stroke:none;stroke-width:0.1;marker:none;visibility:visible;display:inline;overflow:visible;enable-background:accumulate;font-family:Sans;-inkscape-font-specification:Sans"
           d="m 504.20312,441.84375 c 0.72683,34.4777 8.91403,128.35891 -2.56217,134.9847 -7.82355,4.51693 -36.5569,4.12301 -43.1569,0.3125 -7.77286,-4.48766 18.02258,-103.23631 22.45666,-125.36035 l -1.69001,-0.27368 c -4.87051,22.32244 -36.75071,121.87089 -23.65695,129.43058 8.59641,4.96314 39.15524,4.90228 48.1875,-0.3125 15.70655,-9.06818 2.64742,-104.26759 0.42187,-138.78125 z"
           id="path3824"
           inkscape:connector-curvature="0"
           sodipodi:nodetypes="cssccssc" />
      </g>
      <g
         id="g3811">
        <path
           sodipodi:nodetypes="csscc"
           inkscape:connector-curvature="0"
           id="path3809"
           d="m 478.22991,451.81862 c -10.64604,56.87964 -29.7306,124.12382 -33.19405,126.12344 -10.95185,6.32306 -42.12175,6.20792 -53.82422,-0.5485 -7.16152,-4.13471 39.33107,-77.77479 69.89971,-135.63185 z"
           style="font-size:medium;font-style:normal;font-variant:normal;font-weight:normal;font-stretch:normal;text-indent:0;text-align:start;text-decoration:none;line-height:normal;letter-spacing:normal;word-spacing:normal;text-transform:none;direction:ltr;block-progression:tb;writing-mode:lr-tb;text-anchor:start;baseline-shift:baseline;color:#000000;fill:#efedee;fill-opacity:1;stroke:none;stroke-width:0.1;marker:none;visibility:visible;display:inline;overflow:visible;enable-background:accumulate;font-family:Sans;-inkscape-font-specification:Sans" />
        <path
           style="font-size:medium;font-style:normal;font-variant:normal;font-weight:normal;font-stretch:normal;text-indent:0;text-align:start;text-decoration:none;line-height:normal;letter-spacing:normal;word-spacing:normal;text-transform:none;direction:ltr;block-progression:tb;writing-mode:lr-tb;text-anchor:start;baseline-shift:baseline;color:#000000;fill:#cfc8d1;fill-opacity:1;stroke:none;stroke-width:0.1;marker:none;visibility:visible;display:inline;overflow:visible;enable-background:accumulate;font-family:Sans;-inkscape-font-specification:Sans"
           d="m 445.75005,580.3125 c 6.3558,-3.66952 25.55472,-88.90386 33.5142,-128.29007 l -2.15861,-0.4269 c -12.73035,56.98934 -30.14214,122.81113 -33.60559,124.81075 -9.01792,5.2065 -40.21106,5.57948 -49.875,0 -7.16152,-4.13471 38.89227,-75.47107 67.4863,-134.64454 -56.73418,99.3191 -81.32981,131.85726 -70.44997,138.13874 11.4918,6.63479 44.14706,6.72915 55.08867,0.41202 z"
           id="path3803"
           inkscape:connector-curvature="0"
           sodipodi:nodetypes="sccsscss" />
      </g>
      <path
         sodipodi:nodetypes="ccc"
         inkscape:connector-curvature="0"
         id="path3858"
         d="m 471.10571,448.09495 c 5.37708,2.72763 12.01692,3.21967 17.83485,1.31641 -5.84454,4.93406 -12.83252,4.85729 -17.83485,-1.31641 z"
         style="fill:#cfc8d1;fill-opacity:1;stroke:none" />
      <path
         sodipodi:nodetypes="ccccc"
         inkscape:connector-curvature="0"
         id="path4110"
         d="m 467.75,365.25 8.75,-26.75 c 0,0 24.25,15 56,10.5 -1.44755,13.42887 -4.27018,26.85774 -8.07322,40.28661 z"
         style="fill:#efedee;fill-opacity:1;stroke:none" />
      <g
         id="g3891">
        <g
           id="g3887">
          <path
             sodipodi:nodetypes="cscc"
             inkscape:connector-curvature="0"
             id="path3916"
             d="m 434.27149,243.13049 c -40.6762,28.44984 -26.02241,73.26486 -13.87222,77.8256 13.91711,5.22397 37.14937,-22.80691 37.14937,-22.80691 3.46638,-28.00591 -4.17189,-46.44947 -23.27715,-55.01869 z"
             style="fill:#efedee;fill-opacity:1;stroke:#cfc8d1;stroke-width:4.5;stroke-linecap:butt;stroke-linejoin:miter;stroke-miterlimit:4;stroke-opacity:1;stroke-dasharray:none" />
          <path
             sodipodi:nodetypes="ccc"
             inkscape:connector-curvature="0"
             id="path3918"
             d="m 421.10463,295.56284 c 1.64586,-21.63129 8.93466,-31.74156 23.04202,-37.14938 -11.9319,8.36018 -18.41109,19.9139 -23.04202,37.14938 z"
             style="fill:#cfc8d1;fill-opacity:1;stroke:none" />
        </g>
        <path
           style="fill:#efedee;fill-opacity:1;stroke:#cfc8d1;stroke-width:4.5;stroke-linecap:butt;stroke-linejoin:miter;stroke-miterlimit:4;stroke-opacity:1;stroke-dashoffset:0"
           d="m 613.56672,259.49689 c -5.76785,54.87486 -52.22469,94.96816 -103.76425,89.55088 -51.53955,-5.41728 -88.64485,-54.29372 -82.87699,-109.16859 4.53426,-43.13859 34.2141,-77.14224 71.74119,-87.08213 6.6875,-28.64625 40.20032,-28.62455 48.2816,0.79011 42.84097,12.85481 71.75935,56.99963 66.61845,105.90973 z"
           id="path3830"
           inkscape:connector-curvature="0"
           sodipodi:nodetypes="sssccs" />
        <g
           id="g3825">
          <path
             style="fill:#a8005b;fill-opacity:1;stroke:none"
             d="m 493.96636,219.67851 c 22.0299,-7.13646 51.81682,-7.13645 72.29532,-0.62057 1.86168,-43.74953 -56.78131,-68.57196 -72.29532,0.62057 z"
             id="path3808"
             inkscape:connector-curvature="0"
             sodipodi:nodetypes="ccc" />
          <path
             sodipodi:nodetypes="csscc"
             inkscape:connector-curvature="0"
             id="path3136"
             d="m 512.97366,215.2838 c 9.35098,-16.51674 17.44884,-14.94408 15.98286,-11.15952 -2.4936,6.43745 6.71944,5.44478 4.82724,0.25223 -1.48931,-4.08695 6.65712,-4.27303 15.03137,10.77655 -16.53982,-2.25117 -35.84147,0.13074 -35.84147,0.13074 z"
             style="fill:#8b1e63;fill-opacity:1;stroke:none" />
          <path
             style="fill:#f47735;fill-opacity:1;stroke:none"
             d="m 519.17927,214.81838 c 5.11566,-9.94401 17.31839,-10.30506 22.18913,-0.59616 -10.64449,-0.85491 -22.18913,0.59616 -22.18913,0.59616 z"
             id="path3768"
             inkscape:connector-curvature="0"
             sodipodi:nodetypes="ccc" />
          <path
             sodipodi:nodetypes="ccc"
             inkscape:connector-curvature="0"
             id="path3787"
             d="m 493.96636,219.67851 c 22.0299,-7.13646 51.81682,-7.13645 72.29532,-0.62057 1.86168,-43.74953 -56.78131,-68.57196 -72.29532,0.62057 z"
             style="fill:none;stroke:#cfc8d1;stroke-width:2.5;stroke-linecap:butt;stroke-linejoin:miter;stroke-miterlimit:4;stroke-opacity:1;stroke-dasharray:none" />
        </g>
        <path
           style="fill:#cfc8d1;fill-opacity:1;stroke:none"
           d="m 519.38627,138.96101 c 0.16626,2.49386 0.99754,4.32268 3.65765,5.32022 -3.65765,1.33005 -5.65273,-1.49631 -3.65765,-5.32022 z"
           id="path3857"
           inkscape:connector-curvature="0"
           sodipodi:nodetypes="ccc" />
        <path
           sodipodi:nodetypes="ccc"
           inkscape:connector-curvature="0"
           id="path3859"
           d="m 530.10465,138.77048 c 0.22841,2.48893 -0.80338,3.92704 -2.60825,5.16465 3.1564,0.73766 5.18043,-1.7025 2.60825,-5.16465 z"
           style="fill:#cfc8d1;fill-opacity:1;stroke:none" />
      </g>
      <path
         sodipodi:nodetypes="cccc"
         inkscape:connector-curvature="0"
         id="path3875"
         d="m 475.41796,337.88491 c -4.23221,8.22929 -9.64004,25.62837 -8.93467,35.50352 3.21334,-10.433 8.77792,-25.3294 12.22638,-33.85766 z"
         style="fill:#cfc8d1;fill-opacity:1;stroke:none" />
      <path
         style="fill:#cfc8d1;fill-opacity:1;stroke:none"
         d="m 534.49593,348.2945 c -0.38969,9.71866 -5.79791,33.7641 -10.88513,43.56952 1.54619,-9.8661 5.95124,-34.30144 6.47194,-43.48578 z"
         id="path3877"
         inkscape:connector-curvature="0"
         sodipodi:nodetypes="cccc" />
    </g>
  </g>
</svg>
