<?xml version="1.0" encoding="UTF-8" standalone="no"?>
<!-- Created with Inkscape (http://www.inkscape.org/) -->

<svg
   xmlns:dc="http://purl.org/dc/elements/1.1/"
   xmlns:cc="http://creativecommons.org/ns#"
   xmlns:rdf="http://www.w3.org/1999/02/22-rdf-syntax-ns#"
   xmlns:svg="http://www.w3.org/2000/svg"
   xmlns="http://www.w3.org/2000/svg"
   xmlns:sodipodi="http://sodipodi.sourceforge.net/DTD/sodipodi-0.dtd"
   xmlns:inkscape="http://www.inkscape.org/namespaces/inkscape"
   id="svg2"
   version="1.1"
   inkscape:version="0.48.3.1 r9886"
   width="301"
   height="409"
   sodipodi:docname="Lilo-Stitch Mike+Zoey.svg"
   inkscape:export-filename="/home/parclytaxel/Pictures/Lilo-Stitch Mike+Zoey.png"
   inkscape:export-xdpi="2311.9011"
   inkscape:export-ydpi="2311.9011">
  <metadata
     id="metadata8">
    <rdf:RDF>
      <cc:Work
         rdf:about="">
        <dc:format>image/svg+xml</dc:format>
        <dc:type
           rdf:resource="http://purl.org/dc/dcmitype/StillImage" />
        <dc:title></dc:title>
      </cc:Work>
    </rdf:RDF>
  </metadata>
  <defs
     id="defs6">
    <inkscape:path-effect
       effect="skeletal"
       id="path-effect6912"
       is_visible="true"
       pattern="m 29.75412,153.01115 30.905215,0 c 6.040799,0 12.508791,-0.30551 18.094785,-1 -5.530964,-0.6084 -12.053986,-1 -18.094785,-1 l -30.905215,0 z"
       copytype="single_stretched"
       prop_scale="1"
       scale_y_rel="false"
       spacing="0"
       normal_offset="0"
       tang_offset="0"
       prop_units="false"
       vertical_pattern="false"
       fuse_tolerance="0"
       pattern-nodetypes="cscscc" />
    <clipPath
       clipPathUnits="userSpaceOnUse"
       id="clipPath6929">
      <path
         style="fill:none;stroke:#000000"
         d="m 74.838597,158.52689 c -2.55757,-0.0761 -5.184222,-0.51948 -6.832427,-2.1214 l -12.254051,0.82502 -40.707896,246.45976 128.318367,-5.7522 z"
         id="path6931"
         inkscape:connector-curvature="0"
         sodipodi:nodetypes="cccccc" />
    </clipPath>
    <clipPath
       clipPathUnits="userSpaceOnUse"
       id="clipPath6933">
      <path
         style="font-size:medium;font-style:normal;font-variant:normal;font-weight:normal;font-stretch:normal;text-indent:0;text-align:start;text-decoration:none;line-height:normal;letter-spacing:normal;word-spacing:normal;text-transform:none;direction:ltr;block-progression:tb;writing-mode:lr-tb;text-anchor:start;baseline-shift:baseline;color:#000000;fill:none;stroke:#000000;stroke-width:1;stroke-miterlimit:4;stroke-dasharray:none;marker:none;visibility:visible;display:inline;overflow:visible;enable-background:accumulate;font-family:Sans;-inkscape-font-specification:Sans"
         d="m 73.5,188.90625 0.375,-31.53125 10.195656,5.16524 8.185827,-23.45129 -34.07074,-9.95574 -24.115004,39.38047 z"
         id="path6935"
         inkscape:connector-curvature="0"
         sodipodi:nodetypes="cc" />
    </clipPath>
  </defs>
  <sodipodi:namedview
     pagecolor="#ffffff"
     bordercolor="#666666"
     borderopacity="1"
     objecttolerance="10"
     gridtolerance="10"
     guidetolerance="10"
     inkscape:pageopacity="0"
     inkscape:pageshadow="2"
     inkscape:window-width="1364"
     inkscape:window-height="698"
     id="namedview4"
     showgrid="true"
     fit-margin-top="0"
     fit-margin-left="0"
     fit-margin-right="0"
     fit-margin-bottom="0"
     inkscape:zoom="1.3056235"
     inkscape:cx="150.5"
     inkscape:cy="204.5"
     inkscape:window-x="0"
     inkscape:window-y="0"
     inkscape:window-maximized="1"
     inkscape:current-layer="layer2"
     showguides="false"
     inkscape:snap-smooth-nodes="false"
     inkscape:object-nodes="false"
     inkscape:object-paths="false"
     inkscape:guide-bbox="true"
     inkscape:snap-nodes="true">
    <inkscape:grid
       type="xygrid"
       id="grid6897"
       empspacing="5"
       visible="true"
       enabled="false"
       snapvisiblegridlinesonly="true"
       spacingx="2px"
       spacingy="2px" />
  </sodipodi:namedview>
  <g
     inkscape:groupmode="layer"
     id="layer2"
     inkscape:label="Drawing"
     style="display:inline">
    <g
       id="Mike">
      <g
         transform="matrix(-0.74011085,0,-0.06891593,0.77876225,384.84193,-30.368738)"
         style="display:inline"
         id="g5402">
        <path
           sodipodi:nodetypes="cccccccc"
           inkscape:connector-curvature="0"
           id="path5404"
           d="m 201.56273,338.97721 2.89683,99.76085 -8.83456,94.51194 58.625,0 C 250,518.5 245.00035,517.375 222.125,517.375 l 0.57168,-80.90201 -10.8613,-97.49578 z"
           style="fill:#284563;fill-opacity:1;stroke:none" />
        <path
           d="M 208.77328,509.09002 212.71783,521.5 c -5.03033,2.375 -10.19604,3.875 -16.48193,4.35172 l -0.6109,7.39828 58.625,0 C 250,518.5 245.00035,517.375 222.125,517.375 l 0.71855,-8.19608 z"
           style="fill:#ded4ab;fill-opacity:1;stroke:none"
           id="path5406"
           inkscape:connector-curvature="0"
           sodipodi:nodetypes="cccccccc" />
        <path
           d="m 199.32824,503.19817 24.05032,0 -1.52381,5.89185 -13.08147,0 3.94455,12.40998 c -5.03033,2.375 -10.19604,3.875 -16.46783,4.3125 z"
           style="fill:#3b5b7a;fill-opacity:1;stroke:none"
           id="path5408"
           inkscape:connector-curvature="0"
           sodipodi:nodetypes="ccccccc" />
        <path
           d="m 197.9899,504.40544 24.13002,-0.35355 M 196.25,525.8125 c 6.27179,-0.4375 11.4375,-1.9375 16.46783,-4.3125 l 17.87099,0.0562 c -1.28948,2.07937 -2.21876,4.42043 -2.64063,7.44375 l -32.05174,0 z"
           style="fill:#805d51;fill-opacity:1;stroke:none"
           id="path5410"
           inkscape:connector-curvature="0"
           sodipodi:nodetypes="cccccccc" />
        <path
           style="fill:none;stroke:#000000;stroke-width:2.54907203;stroke-linecap:round;stroke-miterlimit:4;stroke-dasharray:none"
           d="m 201.56273,338.97721 2.89683,99.76085 -8.83456,94.51194 58.625,0 C 250,518.5 245.00035,517.375 222.125,517.375 l 0.57168,-80.90201 -10.8613,-97.49578"
           id="path5412"
           inkscape:connector-curvature="0"
           sodipodi:nodetypes="ccccccc" />
        <path
           id="path5414"
           style="fill:none;stroke:#000000;stroke-width:1.52944326;stroke-linecap:butt;stroke-linejoin:miter;stroke-miterlimit:4;stroke-opacity:1;stroke-dasharray:none"
           d="m 199.32824,503.19817 24.05032,0 M 212.71783,521.5 c -5.03033,2.375 -10.19604,3.875 -16.46783,4.3125 m 34.375,-4.3125 -17.90717,0 -3.94455,-12.40998 13.94431,0 m 2.82587,8.40762 c -1.19101,1.27614 -2.27999,2.57798 -3.19814,4.0463 m 7.32314,-4.0463 c -1.1971,1.28266 -2.29112,2.59129 -3.21222,4.06883 m 7.33722,-4.06883 c -2.84475,3.04808 -5.1074,6.24281 -5.85063,11.50236 m -32.04638,0 57.0821,0"
           inkscape:connector-curvature="0"
           sodipodi:nodetypes="cccccccccccccccc" />
      </g>
      <g
         id="g4958"
         style="display:inline"
         transform="matrix(-0.78459923,0,0.01460222,0.78459923,386.7673,-32.063325)">
        <path
           style="fill:#284563;fill-opacity:1;stroke:none"
           d="M 219.12118,339.01858 208.50044,438.5642 195.625,533.25 l 58.625,0 C 250,518.5 245.00035,517.375 222.125,517.375 l 5.65758,-79.44406 0.85646,-84.91236 4.25,0 c 1.33483,-12.9111 -3.33369,-15.88195 -13.76786,-14 z"
           id="path4956"
           inkscape:connector-curvature="0"
           sodipodi:nodetypes="ccccccccc" />
        <path
           sodipodi:nodetypes="cccccccc"
           inkscape:connector-curvature="0"
           id="path4949"
           style="fill:#ded4ab;fill-opacity:1;stroke:none"
           d="M 208.77328,509.09002 212.71783,521.5 c -5.03033,2.375 -10.19604,3.875 -16.48193,4.35172 l -0.6109,7.39828 58.625,0 C 250,518.5 245.00035,517.375 222.125,517.375 l 0.71855,-8.19608 z" />
        <path
           sodipodi:nodetypes="ccccccc"
           inkscape:connector-curvature="0"
           id="path4953"
           style="fill:#3b5b7a;fill-opacity:1;stroke:none"
           d="m 199.32824,503.19817 24.05032,0 -1.52381,5.89185 -13.08147,0 3.94455,12.40998 c -5.03033,2.375 -10.19604,3.875 -16.46783,4.3125 z" />
        <path
           sodipodi:nodetypes="cccccccc"
           inkscape:connector-curvature="0"
           id="path4951"
           style="fill:#805d51;fill-opacity:1;stroke:none"
           d="m 197.9899,504.40544 24.13002,-0.35355 M 196.25,525.8125 c 6.27179,-0.4375 11.4375,-1.9375 16.46783,-4.3125 l 17.87099,0.0562 c -1.28948,2.07937 -2.21876,4.42043 -2.64063,7.44375 l -32.05174,0 z" />
        <path
           sodipodi:nodetypes="cccccccc"
           inkscape:connector-curvature="0"
           id="path4923"
           d="M 219.12118,339.01858 208.50044,438.5642 195.625,533.25 l 58.625,0 C 250,518.5 245.00035,517.375 222.125,517.375 l 5.65758,-79.44406 0.85646,-84.91236 4.25,0"
           style="fill:none;stroke:#000000;stroke-width:2.54907203;stroke-linecap:round;stroke-miterlimit:4;stroke-dasharray:none" />
        <path
           sodipodi:nodetypes="cccccccccccccccc"
           inkscape:connector-curvature="0"
           d="m 199.32824,503.19817 24.05032,0 M 212.71783,521.5 c -5.03033,2.375 -10.19604,3.875 -16.46783,4.3125 m 34.375,-4.3125 -17.90717,0 -3.94455,-12.40998 13.94431,0 m 2.82587,8.40762 c -1.19101,1.27614 -2.27999,2.57798 -3.19814,4.0463 m 7.32314,-4.0463 c -1.1971,1.28266 -2.29112,2.59129 -3.21222,4.06883 m 7.33722,-4.06883 c -2.84475,3.04808 -5.1074,6.24281 -5.85063,11.50236 m -32.04638,0 57.0821,0"
           style="fill:none;stroke:#000000;stroke-width:1.52944326;stroke-linecap:butt;stroke-linejoin:miter;stroke-miterlimit:4;stroke-opacity:1;stroke-dasharray:none"
           id="path4944" />
      </g>
      <g
         id="g5513">
        <path
           sodipodi:nodetypes="ccccc"
           inkscape:connector-curvature="0"
           id="path5497"
           d="m 194.34989,132.30588 c -0.86165,10.38586 0.40454,16.21705 5.76596,24.45066 l 1.48936,80.83164 19.26595,0 -10.01475,-102.72433 -0.45043,-7.75912 -10.96711,-4.94197 z"
           style="fill:#388074;fill-opacity:1;stroke:none" />
        <g
           id="g5449">
          <path
             sodipodi:nodetypes="cccsc"
             inkscape:connector-curvature="0"
             id="path5447"
             d="m 194.15841,144.43547 -3.23822,23.65885 -7.41579,-1.00104 2.99654,-32.48326 c 0.58151,-6.30367 4.81502,-8.94826 12.5419,-8.80806"
             style="fill:#388074;fill-opacity:1;stroke:none" />
          <path
             sodipodi:nodetypes="ccccccccccccc"
             inkscape:connector-curvature="0"
             id="path5445"
             d="m 190.92019,168.09432 -3.3962,24.81305 -15.84137,56.1895 6.90521,-0.40619 c 0.1354,8.52998 -1.48936,15.70598 -8.52998,22.06961 l -3.92649,-5.95744 c 1.6046,-2.9069 3.33317,-5.64075 5.39158,-8.4172 -8.84771,4.14966 -18.35585,11.75802 -27.24321,20.20634 l -7.2586,-8.53963 c 4.46809,-13.13345 8.6499,-17.12763 29.83944,-18.5493 l 14.47484,-58.89743 2.16899,-23.51235 z"
             style="fill:#a8603b;fill-opacity:1;stroke:none" />
          <path
             sodipodi:nodetypes="ccccc"
             inkscape:connector-curvature="0"
             id="path5439"
             d="m 183.98449,161.88891 7.61156,1.2675 -1.29836,9.48598 -7.29496,-0.11094 z"
             style="fill:#ded4ab;fill-opacity:1;stroke:#000000;stroke-width:1.20000005;stroke-linecap:round;stroke-linejoin:miter;stroke-miterlimit:20;stroke-opacity:1;stroke-dasharray:none" />
          <path
             d="m 140.67684,272.24965 c 6.36363,-7.4468 12.52417,-11.91488 20.85104,-15.70598 m -23.82976,12.11798 c 7.5822,-8.19148 12.93036,-11.91488 21.39263,-14.21662"
             style="fill:none;stroke:#000000;stroke-width:1.20000005;stroke-linecap:round;stroke-linejoin:miter;stroke-miterlimit:20;stroke-opacity:1;stroke-dasharray:none"
             id="path5436"
             inkscape:connector-curvature="0" />
          <path
             sodipodi:nodetypes="cccccccccccsc"
             inkscape:connector-curvature="0"
             id="path5432"
             d="m 194.37257,142.36078 -6.84858,50.54659 -15.84137,56.1895 6.90521,-0.40619 c 0.1354,8.52998 -1.48936,15.70598 -8.52998,22.06961 l -3.92649,-5.95744 c 1.6046,-2.9069 3.33317,-5.64075 5.39158,-8.4172 -8.84771,4.14966 -18.35585,11.75802 -27.24321,20.20634 l -7.2586,-8.53963 c 4.46809,-13.13345 8.6499,-17.12763 29.83944,-18.5493 l 14.47484,-58.89743 5.16553,-55.99561 c 0.58151,-6.30367 4.81502,-8.94826 12.5419,-8.80806"
             style="fill:none;stroke:#000000;stroke-width:2;stroke-linecap:butt;stroke-linejoin:miter;stroke-miterlimit:20;stroke-opacity:1;stroke-dasharray:none" />
        </g>
        <path
           style="fill:none;stroke:#000000;stroke-width:2;stroke-linecap:round;stroke-miterlimit:4;stroke-dasharray:none"
           d="m 194.34989,132.30588 c -0.86165,10.38586 0.40454,16.21705 5.76596,24.45066 l 1.48936,80.83164 19.26595,0 -10.01475,-102.72433"
           id="path5456"
           inkscape:connector-curvature="0"
           sodipodi:nodetypes="ccccc" />
        <g
           id="g5490">
          <path
             style="fill:#388074;fill-opacity:1;stroke:none"
             d="m 210.38272,133.8441 13.98145,30.09894 7.00688,-3.45546 -12.5101,-29.41993 c -2.38785,-5.61549 -6.56732,-6.35288 -13.21226,-5.57555 z"
             id="path5488"
             inkscape:connector-curvature="0"
             sodipodi:nodetypes="cccscc" />
          <path
             sodipodi:nodetypes="ccccccccccccc"
             inkscape:connector-curvature="0"
             id="path5484"
             d="m 224.54448,164.24453 10.20926,22.06493 9.66972,57.06086 -6.03161,-2.68071 c -3.10399,7.01786 -3.40534,15.55917 1.4361,23.36048 l 5.26568,-3.92532 c -1.30261,-3.34637 -2.1347,-6.78876 -2.72331,-10.72285 7.41906,7.89675 14.00649,17.95008 20.33942,28.62617 l 8.93183,-6.16019 c 0.44179,-13.8864 -6.20206,-20.87905 -21.95243,-26.19983 l -8.23362,-61.46489 -9.62913,-23.15972 z"
             style="fill:#a8603b;fill-opacity:1;stroke:none" />
          <path
             sodipodi:nodetypes="ccccc"
             inkscape:connector-curvature="0"
             id="path5478"
             d="m 222.28101,159.35256 7.14244,-3.44513 4.21634,9.91554 -6.91693,3.12961 z"
             style="fill:#ded4ab;fill-opacity:1;stroke:#000000;stroke-width:1.20000005;stroke-linecap:round;stroke-linejoin:miter;stroke-miterlimit:4;stroke-opacity:1;stroke-dasharray:none" />
          <path
             sodipodi:nodetypes="cccccccccccsc"
             inkscape:connector-curvature="0"
             id="path5458"
             d="m 210.38272,133.8441 24.37102,52.46536 9.66972,57.06086 -6.03161,-2.68071 c -3.10399,7.01786 -3.40534,15.55917 1.4361,23.36048 l 5.26568,-3.92532 c -1.30261,-3.34637 -2.1347,-6.78876 -2.72331,-10.72285 7.41906,7.89675 14.00649,17.95008 20.33942,28.62617 l 8.93183,-6.16019 c 0.44179,-13.8864 -6.20206,-20.87905 -21.95243,-26.19983 l -8.23362,-61.46489 -22.59457,-53.13553 c -2.38785,-5.61549 -6.56732,-6.35288 -13.21226,-5.57555"
             style="fill:none;stroke:#000000;stroke-width:2;stroke-linecap:round;stroke-linejoin:miter;stroke-miterlimit:4;stroke-opacity:1;stroke-dasharray:none" />
          <path
             sodipodi:nodetypes="cccc"
             inkscape:connector-curvature="0"
             id="path5436-4"
             style="fill:none;stroke:#000000;stroke-width:1.20000005;stroke-linecap:round;stroke-linejoin:miter;stroke-miterlimit:20;stroke-opacity:1;stroke-dasharray:none;display:inline"
             d="m 266.99561,275.10428 c -3.61441,-9.10419 -8.54124,-15.45938 -14.65371,-21.60349 m 18.22624,19.10349 c -4.32368,-9.86435 -8.31631,-15.52303 -15.24152,-20.30154" />
        </g>
      </g>
      <g
         id="g5309">
        <path
           sodipodi:nodetypes="cccccccccc"
           inkscape:connector-curvature="0"
           id="path4728-7"
           d="m 213.04252,83.785938 -3.18432,14.292915 7.93725,8.830107 -6.98054,-2.16661 3.15721,10.75961 -10.41051,-8.55998 1.61862,8.07038 -9.17304,-5.78482 1.88151,-27.077681 z"
           style="fill:#281417;fill-opacity:1;stroke:#000000;stroke-width:2;stroke-miterlimit:20;stroke-dasharray:none;display:inline" />
        <path
           sodipodi:nodetypes="ccccccccccccc"
           inkscape:connector-curvature="0"
           id="path4748-9"
           d="m 211.14028,73.524202 -6.62655,26.961618 -5.8809,3.37638 7.93043,22.17656 -9.39195,0 -3.9913,-20.10573 -13.27392,8.06443 c -10.07151,-8.1157 -18.17128,-16.884683 -25.54878,-26.614881 l 4.98316,-24.741718 9.92818,-11.386684 50.15611,8.478333 -3.19884,13.886977 z"
           style="fill:#a8603b;fill-opacity:1;stroke:none;display:inline" />
        <path
           sodipodi:nodetypes="ccccccccccccc"
           inkscape:connector-curvature="0"
           id="path4732-4"
           d="m 169.26865,51.254177 50.22065,8.239409 -3.23463,14.126494 -5.11439,-0.09588 -4.29459,17.88393 -7.72145,1.94924 6.79667,-20.084605 -5.19021,2.954525 2.45452,-7.700582 -3.39526,1.981877 2.04693,-7.676399 -42.32158,-0.0099 z"
           style="fill:#281417;fill-opacity:1;stroke:none;display:inline" />
        <path
           style="fill:#a8603b;fill-opacity:1;stroke:none;display:inline"
           d="m 220.82003,73.725183 -9.67975,-0.200981 -3.19193,13.163793 c 8.34315,3.119487 12.56158,-0.694839 12.87168,-12.962812 z"
           id="path4719-4"
           inkscape:connector-curvature="0"
           sodipodi:nodetypes="cccc" />
        <path
           sodipodi:nodetypes="cccc"
           inkscape:connector-curvature="0"
           id="path4726-6"
           style="fill:#93512d;fill-opacity:1;stroke:none;display:inline"
           d="m 209.19362,81.596027 c 4.21714,1.425053 4.88773,0.841563 5.33405,-4.095095 l -4.41086,-0.01385 z" />
        <path
           sodipodi:nodetypes="cc"
           inkscape:connector-curvature="0"
           id="path3798"
           d="m 205.17552,121.39089 -8.90895,1.35483 0.90474,3.29304 9.39195,0 z"
           style="fill:#ded4ab;fill-opacity:1;stroke:none;display:inline" />
        <path
           sodipodi:nodetypes="cccccccccccccc"
           inkscape:connector-curvature="0"
           id="path3796-9"
           d="m 208.09522,86.560894 c 8.29202,3.150846 12.51044,-0.66348 12.82054,-12.931452 l -9.67974,-0.200982 -6.62656,26.96162 -5.88089,3.37638 7.83469,22.2723 -9.39195,0 -3.9913,-20.10573 -13.17819,7.96869 c -10.0715,-8.1157 -18.26701,-16.788943 -25.64451,-26.519141 l 4.98316,-24.741718 10.02392,-11.482426 50.16848,8.481216 -3.17075,13.874623"
           style="fill:none;stroke:#000000;stroke-width:2;stroke-linecap:butt;stroke-linejoin:miter;stroke-miterlimit:20;stroke-opacity:1;stroke-dasharray:none;display:inline" />
        <path
           sodipodi:nodetypes="cccccccc"
           inkscape:connector-curvature="0"
           id="path4730-0"
           d="m 206.94816,91.401525 -7.82392,1.955847 6.79667,-20.084605 -5.19021,2.954525 2.45452,-7.700582 -3.39526,1.981877 2.04693,-7.676399 -42.32183,0.0082"
           style="fill:none;stroke:#000000;stroke-width:1.20000005;stroke-linecap:butt;stroke-linejoin:miter;stroke-miterlimit:12;stroke-opacity:1;stroke-dasharray:none;display:inline" />
        <path
           inkscape:connector-curvature="0"
           d="m 214.54548,77.513106 c -0.46412,4.924468 -1.13472,5.507974 -5.35186,4.082921 m 11.40176,-4.104945 -10.47857,-0.004"
           style="fill:none;stroke:#000000;stroke-width:1.20000005;stroke-linecap:butt;stroke-linejoin:miter;stroke-miterlimit:12;stroke-opacity:1;stroke-dasharray:none;display:inline"
           id="path4723-8" />
        <path
           style="fill:none;stroke:#000000;stroke-width:1.20000005;stroke-miterlimit:12;stroke-dasharray:none;display:inline"
           d="m 205.17552,121.39089 -8.90895,1.35483"
           id="path5278"
           inkscape:connector-curvature="0"
           sodipodi:nodetypes="cc" />
        <path
           sodipodi:nodetypes="ccc"
           inkscape:connector-curvature="0"
           id="path5282"
           d="m 175.43846,69.407978 -3.08975,15.219342 5.42119,-3.174911"
           style="fill:none;stroke:#000000;stroke-width:1.20000005;stroke-linecap:round;stroke-linejoin:round;stroke-miterlimit:12;stroke-opacity:1;stroke-dasharray:none" />
        <g
           id="g4703"
           transform="matrix(0.79019625,-0.05683175,0.05683175,0.79019625,-403.23484,10.402187)">
          <path
             transform="matrix(1.2589961,0.09054833,-0.09054833,1.2589961,508.59459,23.671625)"
             d="m 172.83348,74.774025 a 7.1083102,5.0773644 0 1 1 -14.21662,0 7.1083102,5.0773644 0 1 1 14.21662,0 z"
             sodipodi:ry="5.0773644"
             sodipodi:rx="7.1083102"
             sodipodi:cy="74.774025"
             sodipodi:cx="165.72517"
             id="path4689"
             style="fill:#ffffff;stroke:none"
             sodipodi:type="arc" />
          <path
             style="fill:#532c24;fill-opacity:1;stroke:none"
             d="m 702.32482,129.85309 c 3.31866,1.02622 4.70316,4.51825 2.58778,7.81916 -3.4817,-2.12838 -4.22927,-5.21113 -2.58778,-7.81916 z"
             id="path4685"
             inkscape:connector-curvature="0"
             sodipodi:nodetypes="ccc" />
          <path
             sodipodi:type="arc"
             style="fill:none;stroke:#000000;stroke-width:1.19999993;stroke-linecap:butt;stroke-linejoin:miter;stroke-miterlimit:12;stroke-opacity:1;stroke-dasharray:none"
             id="path4679"
             sodipodi:cx="165.72517"
             sodipodi:cy="74.774025"
             sodipodi:rx="7.1083102"
             sodipodi:ry="5.0773644"
             d="m 172.83348,74.774025 a 7.1083102,5.0773644 0 1 1 -14.21662,0 7.1083102,5.0773644 0 1 1 14.21662,0 z"
             transform="matrix(1.2589961,0.09054833,-0.09054833,1.2589961,508.59459,23.671625)" />
          <path
             sodipodi:nodetypes="sssss"
             inkscape:connector-curvature="0"
             id="path3831"
             d="m 710.73641,122.8605 c -1.09609,0.55534 -1.84596,-1.50219 -0.91612,-2.11555 5.5166,-3.63898 9.80231,-4.60643 14.01944,-3.93774 2.58027,0.40913 2.07276,3.42647 -0.13443,3.11815 -4.01376,-0.56069 -7.20175,0.0132 -12.96889,2.93514 z"
             style="fill:#000000;stroke:none;display:inline" />
        </g>
        <g
           id="g4708"
           transform="matrix(0.79019625,-0.05683175,0.05683175,0.79019625,-403.23484,10.402187)">
          <path
             sodipodi:type="arc"
             style="fill:#ffffff;stroke:none"
             id="path4691"
             sodipodi:cx="165.72517"
             sodipodi:cy="74.774025"
             sodipodi:rx="7.9206882"
             sodipodi:ry="5.2804589"
             d="m 173.64586,74.774025 a 7.9206882,5.2804589 0 1 1 -15.84137,0 7.9206882,5.2804589 0 1 1 15.84137,0 z"
             transform="matrix(1.2589961,0.09054833,-0.09054833,1.2589961,535.00899,25.914067)" />
          <path
             sodipodi:nodetypes="ccc"
             inkscape:connector-curvature="0"
             id="path4687"
             d="m 727.72416,131.98272 c 3.25839,1.02189 4.61731,4.02745 2.59211,7.75889 -3.4817,-2.12838 -4.23359,-5.15086 -2.59211,-7.75889 z"
             style="fill:#532c24;fill-opacity:1;stroke:none" />
          <path
             transform="matrix(1.2589961,0.09054833,-0.09054833,1.2589961,535.00899,25.914067)"
             d="m 173.64586,74.774025 a 7.9206882,5.2804589 0 1 1 -15.84137,0 7.9206882,5.2804589 0 1 1 15.84137,0 z"
             sodipodi:ry="5.2804589"
             sodipodi:rx="7.9206882"
             sodipodi:cy="74.774025"
             sodipodi:cx="165.72517"
             id="path4681"
             style="fill:none;stroke:#000000;stroke-width:1.19999993;stroke-linecap:butt;stroke-linejoin:miter;stroke-miterlimit:12;stroke-opacity:1;stroke-dasharray:none"
             sodipodi:type="arc" />
          <path
             sodipodi:nodetypes="sssss"
             inkscape:connector-curvature="0"
             id="path3831-1"
             d="m 740.13155,125.20151 c 1.14673,0.88186 2.57491,-0.72851 1.38156,-1.82914 -3.96219,-3.65433 -6.81187,-5.24726 -10.71605,-5.95906 -2.15609,-0.39308 -2.74499,2.57519 -0.54124,2.90715 3.47127,0.5229 6.04509,1.93521 9.87573,4.88105 z"
             style="fill:#000000;stroke:none;display:inline" />
        </g>
        <g
           id="g5241"
           transform="matrix(0.79019625,-0.05683175,0.05683175,0.79019625,-403.23484,10.402187)">
          <path
             sodipodi:nodetypes="ccsc"
             transform="matrix(1.2589961,0.09054833,-0.09054833,1.2589961,508.61298,23.415929)"
             inkscape:connector-curvature="0"
             id="path5239"
             d="m 170.12556,87.975176 27.41776,-5.077365 c -6.29593,5.212761 -12.60039,10.742267 -15.23209,10.967108 -1.7448,0.149068 -5.46019,-1.720362 -12.18567,-5.889743 z"
             style="fill:#600000;fill-opacity:1;stroke:none" />
          <path
             style="fill:#de8080;fill-opacity:1;stroke:#000000;stroke-width:1.26224804;stroke-linecap:butt;stroke-linejoin:miter;stroke-miterlimit:4;stroke-opacity:1;stroke-dasharray:none"
             d="m 722.64085,154.81916 c 3.8125,-2.97066 9.65697,-3.03726 14.92498,-0.4993 -7.24501,4.44491 -7.98248,5.33157 -14.92498,0.4993 z"
             id="path5237"
             inkscape:connector-curvature="0"
             sodipodi:nodetypes="ccc" />
          <path
             id="path4715"
             transform="matrix(1.2589961,0.09054833,-0.09054833,1.2589961,508.61298,23.415929)"
             style="fill:#d5d5d5;fill-opacity:1;stroke:#000000;stroke-width:1;stroke-miterlimit:4;stroke-dasharray:none"
             d="m 183.62875,85.495552 13.69077,-2.441363 -7.08473,5.840122 -6.65391,1.148876 z m -9.14315,5.122074 5.888,-0.19148 0.0479,-4.308286 -10.29591,1.857318 z"
             inkscape:connector-curvature="0"
             sodipodi:nodetypes="cccccccccc" />
          <path
             style="fill:none;stroke:#000000;stroke-width:1.20000005;stroke-linecap:butt;stroke-linejoin:miter;stroke-miterlimit:12;stroke-opacity:1;stroke-dasharray:none"
             d="m 170.12556,87.975176 27.41776,-5.077365 c -6.29593,5.212761 -12.60039,10.742267 -15.23209,10.967108 -1.7448,0.149068 -5.46019,-1.720362 -12.18567,-5.889743 z"
             id="path4683"
             inkscape:connector-curvature="0"
             transform="matrix(1.2589961,0.09054833,-0.09054833,1.2589961,508.61298,23.415929)"
             sodipodi:nodetypes="ccsc" />
        </g>
        <g
           transform="matrix(0.79019625,-0.05683175,0.05683175,0.79019625,-401.1957,-17.511522)"
           id="g5408-5"
           style="display:inline">
          <g
             id="g4651">
            <path
               sodipodi:nodetypes="sccs"
               transform="matrix(1.2589961,0.09054833,-0.09054833,1.2589961,503.51818,58.374539)"
               inkscape:connector-curvature="0"
               id="path4649"
               d="m 205.17666,66.451891 c -25.04945,-1.905706 -50.51055,-4.143215 -68.8325,-6.774559 26.53769,-7.988388 55.37712,-9.477748 81.77941,-5.145064 0,0 -3.19539,12.661497 -12.94691,11.919623 z"
               style="fill:#cdcb99;fill-opacity:1;stroke:#000000;stroke-width:2;stroke-linecap:butt;stroke-linejoin:miter;stroke-miterlimit:12;stroke-opacity:1;stroke-dasharray:none" />
            <path
               sodipodi:nodetypes="ccccc"
               inkscape:connector-curvature="0"
               id="path5387-6"
               d="m 711.113,130.86241 -17.85959,15.33311 78.48885,9.54595 3.13595,-12.42978 z"
               style="fill:#a6a453;fill-opacity:1;stroke:none;display:inline" />
            <path
               sodipodi:nodetypes="cccccc"
               inkscape:connector-curvature="0"
               id="path5391-7"
               d="m 774.87821,143.31169 6.58677,-26.10755 -52.85623,-18.207991 0.88388,16.086671 -18.37963,15.77959 z"
               style="fill:#cdcb99;fill-opacity:1;stroke:none;display:inline" />
            <path
               inkscape:connector-curvature="0"
               d="m 711.03356,130.89488 63.875,12.375 m -3.1663,12.47159 9.72272,-38.53733 -52.85623,-18.207991 0.88388,16.086671 -36.23922,31.1127 z"
               style="fill:none;stroke:#000000;stroke-width:2.52449608;stroke-linecap:butt;stroke-linejoin:miter;stroke-miterlimit:4;stroke-opacity:1;stroke-dasharray:none;display:inline"
               id="path5376-1" />
            <path
               sodipodi:nodetypes="sssss"
               inkscape:connector-curvature="0"
               id="path5379-6"
               d="m 743.54638,113.69634 c 0.12494,-3.12485 2.42685,-2.83884 2.27221,0.0884 -0.16607,3.14353 2.41313,6.54778 10.78154,12.43503 1.23107,0.86607 0.89633,2.4555 -0.88389,1.32582 -9.07155,-5.75655 -12.36269,-9.02645 -12.16986,-13.84924 z"
               style="fill:#000000;stroke:none" />
            <path
               style="fill:#cdcb99;fill-opacity:1;stroke:#000000;stroke-width:2.52449608;stroke-linecap:butt;stroke-linejoin:miter;stroke-miterlimit:12;stroke-opacity:1;stroke-dasharray:none"
               d="m 791.66441,165.82402 c -25.34451,-3.6215 -53.77359,-7.75139 -79.28154,-12.00729 93.38965,-42.97344 100.36243,-30.40703 79.28154,12.00729 z"
               id="path4647"
               inkscape:connector-curvature="0"
               sodipodi:nodetypes="ccc" />
          </g>
        </g>
      </g>
    </g>
    <g
       id="Zoey">
      <path
         inkscape:connector-curvature="0"
         id="path7033"
         d="m 75.873056,138.04715 -3.910982,18.92915 17.364761,0.86042 4.302081,-10.48144 -6.64867,-5.94469 -1.329734,-4.61496 z"
         style="fill:#ffd79d;fill-opacity:1;fill-rule:evenodd;stroke:none" />
      <g
         id="g6824">
        <path
           style="fill:#fb9d75;fill-opacity:1;stroke:#000000;stroke-width:2;stroke-miterlimit:4;stroke-dasharray:none"
           d="M 43.840621,88.680627 C 32.493665,85.32187 34.498106,77.254482 43.636117,78.515968 32.275836,70.906449 42.055188,71.109759 43.304009,70.233351 45.195901,68.905643 51.050014,56.394832 51.986175,74.863916 54.75,64.499999 59.375,64.937499 58.6875,76.062499 z"
           id="path6790"
           inkscape:connector-curvature="0"
           sodipodi:nodetypes="ccsccc" />
        <path
           sodipodi:nodetypes="cccccccc"
           inkscape:connector-curvature="0"
           id="path6708"
           d="m 61.561305,125.77234 c -1.467286,2.86201 -2.38283,7.14526 -2.525015,11.77485 l -3.532927,-1.79315 c -0.184783,-1.95921 0.0083,-4.16577 0.346941,-6.27961 -1.316941,1.1289 -2.674715,2.59382 -3.45114,4.38171 l -8.683392,-5.37179 c 2.025406,-3.87296 5.851841,-7.81057 11.657159,-7.65573 z"
           style="fill:#b00000;fill-opacity:1;stroke:#000000;stroke-width:2;stroke-linecap:round;stroke-linejoin:miter;stroke-miterlimit:4;stroke-opacity:1;stroke-dasharray:none" />
        <path
           inkscape:connector-curvature="0"
           d="m 50.668691,124.94372 c -1.580035,1.52627 -2.87648,3.33537 -3.848325,5.65262 m 6.71704,-5.09568 c -1.571508,1.93237 -3.02291,4.14714 -3.927069,6.46297"
           style="fill:none;stroke:#000000;stroke-width:1.20000005;stroke-linecap:round;stroke-linejoin:miter;stroke-miterlimit:4;stroke-opacity:1;stroke-dasharray:none"
           id="path6710" />
        <path
           style="fill:#7d1640;fill-opacity:1;stroke:#000000;stroke-width:2;stroke-linecap:round;stroke-linejoin:miter;stroke-miterlimit:4;stroke-opacity:1;stroke-dasharray:none"
           d="m 91.392559,124.5322 2.341394,2.52325 6.08322,-5.07255 -3.362574,-5.96016 z"
           id="path6667"
           inkscape:connector-curvature="0"
           sodipodi:nodetypes="ccccc" />
        <path
           style="fill:#b00000;fill-opacity:1;stroke:#000000;stroke-width:2;stroke-linecap:round;stroke-linejoin:miter;stroke-miterlimit:4;stroke-opacity:1;stroke-dasharray:none"
           d="m 93.733953,127.05545 c 1.527049,2.83057 2.532316,7.09366 2.771665,11.71924 l 3.494502,-1.86692 c 0.14361,-1.96266 -0.09571,-4.16468 -0.478701,-6.27095 1.340351,1.10101 2.728581,2.5371 3.542371,4.30829 l 8.5687,-5.5529 c -2.10627,-3.82959 -6.01453,-7.686 -11.815317,-7.40931 z"
           id="path6669"
           inkscape:connector-curvature="0"
           sodipodi:nodetypes="cccccccc" />
        <path
           id="path6701"
           style="fill:none;stroke:#000000;stroke-width:1.20000005;stroke-linecap:round;stroke-linejoin:miter;stroke-miterlimit:4;stroke-opacity:1;stroke-dasharray:none"
           d="m 104.60677,125.99833 c 1.61173,1.49276 2.94587,3.27424 3.96615,5.57058 m -6.82254,-4.95354 c 1.61173,1.89895 3.10931,4.08276 4.06189,6.3791"
           inkscape:connector-curvature="0" />
        <path
           sodipodi:nodetypes="cccccccccc"
           inkscape:connector-curvature="0"
           id="path6726"
           d="m 75.990885,137.56877 0.897834,-11.9534 -10.250468,4.19729 C 46.599587,120.19952 35.067663,105.57671 44.9516,76.872673 c 16.924547,12.862656 43.203452,11.968876 45.905376,30.355787 9.050228,-6.05973 10.364044,9.04204 -1.627575,7.75492 l -0.382959,5.26568 -5.935861,2.87219 3.309614,14.5924 z"
           style="fill:#ffd79d;fill-opacity:1;stroke:none" />
        <path
           style="fill:#000000;fill-opacity:1;fill-rule:evenodd;stroke:none"
           d="m 76.1875,134.875 9.5625,0 1.0625,5.375 -11.125,0 z"
           id="path6756"
           inkscape:connector-curvature="0"
           sodipodi:nodetypes="ccccc" />
        <path
           sodipodi:nodetypes="cc"
           inkscape:connector-curvature="0"
           id="path6751"
           d="m 44.9516,76.872673 c 1.717447,5.974324 0.892814,12.022313 -3.438215,15.292682"
           style="fill:#b00000;fill-opacity:1;stroke:none" />
        <g
           id="g6690">
          <path
             style="fill:#ffffff;stroke:none"
             d="m 68.713665,106.86297 c 5.754346,-9.951633 12.862656,-11.034804 20.647948,-5.75435 -5.822045,9.74854 -14.555112,11.2379 -20.647948,5.75435 z"
             id="path6688"
             inkscape:connector-curvature="0"
             sodipodi:nodetypes="ccc" />
          <path
             style="fill:#000000;stroke:none"
             d="m 68.710359,91.610557 c -1.509461,0.824047 -0.616741,2.374511 1.054635,1.63805 4.127166,-1.818564 8.701712,-1.926397 12.668204,0.945631 1.102665,0.798413 1.572712,-0.761559 0.877701,-1.35892 C 78.925367,89.065952 72.8232,89.365271 68.710359,91.610555 z"
             id="path6604"
             inkscape:connector-curvature="0"
             sodipodi:nodetypes="sssss" />
          <path
             sodipodi:nodetypes="cccc"
             inkscape:connector-curvature="0"
             id="path6686"
             d="m 72.810042,101.48408 c 1.483966,2.44377 0.985439,5.34981 -1.230595,7.39419 -1.034184,-0.49337 -2.019076,-1.15264 -2.933481,-2.04915 1.294625,-1.93735 2.603803,-3.85044 4.164076,-5.34504 z"
             style="fill:#5a3d34;fill-opacity:1;stroke:none" />
          <path
             sodipodi:nodetypes="ccc"
             inkscape:connector-curvature="0"
             id="path5595"
             d="m 68.713665,106.86297 c 5.754346,-9.951633 12.862656,-11.034804 20.647948,-5.75435 -5.822045,9.74854 -14.555112,11.2379 -20.647948,5.75435 z"
             style="fill:none;stroke:#000000;stroke-width:1.20000005;stroke-miterlimit:4;stroke-dasharray:none" />
          <path
             sodipodi:nodetypes="ccccc"
             inkscape:connector-curvature="0"
             id="path6684"
             d="m 68.214537,106.94124 c 3.446629,-11.20154 14.600304,-13.403553 21.493562,-6.0316 l -0.957397,0.14361 c -8.099004,-3.289688 -14.015786,-1.562078 -19.578768,5.55291 z"
             style="fill:#000000;stroke:none" />
        </g>
        <path
           sodipodi:nodetypes="cccccccsc"
           inkscape:connector-curvature="0"
           id="path6732"
           d="m 44.9516,76.872673 c 16.92455,12.862656 43.20345,11.968876 45.90538,30.355787 9.05022,-6.05973 10.36404,9.04204 -1.62758,7.75492 l -0.38296,5.26568 -5.93586,2.87219 0.3463,1.45632 8.13568,-0.0454 15.70599,-26.402295 C 115.05051,84.762385 85.29972,55.209252 44.9516,76.872673"
           style="fill:#b00000;fill-opacity:1;stroke:none" />
        <path
           id="path6746"
           style="fill:none;stroke:#000000;stroke-width:1.20000005;stroke-linecap:round;stroke-miterlimit:4;stroke-dasharray:none"
           d="m 95.588837,85.020367 c 0.660835,6.954868 0.745515,13.433381 -0.02921,20.791833 M 83.042893,81.926776 c 7.414294,5.310196 10.374736,13.727766 10.070757,24.133564"
           inkscape:connector-curvature="0"
           sodipodi:nodetypes="cccc" />
        <path
           style="fill:none;stroke:#000000;stroke-width:2;stroke-linecap:round;stroke-linejoin:miter;stroke-miterlimit:4;stroke-opacity:1;stroke-dasharray:none"
           d="m 75.990885,137.56877 0.897834,-11.9534 -10.250468,4.19729 C 46.599587,120.19952 35.067663,105.57671 44.9516,76.872673 c 40.348122,-21.663421 70.09891,7.889712 62.14695,21.257232 l -15.705991,26.402295 -8.129964,0"
           id="path6722"
           inkscape:connector-curvature="0"
           sodipodi:nodetypes="ccccscc" />
        <path
           style="fill:none;stroke:#000000;stroke-width:1.20000005;stroke-linecap:round;stroke-linejoin:round;stroke-miterlimit:4;stroke-opacity:1;stroke-dasharray:none"
           d="m 66.299743,108.58624 -4.758944,0 2.221842,3.09458"
           id="path5599"
           inkscape:connector-curvature="0"
           sodipodi:nodetypes="ccc" />
        <g
           id="g6628">
          <path
             style="fill:#880700;fill-opacity:1;stroke:none"
             d="m 78.76585,115.93453 c -6.52109,1.66724 -10.777569,3.63587 -13.201603,3.63587 -1.456554,0 -2.98507,-1.51599 -4.297384,-3.44099 6.199125,-2.66885 13.683832,-1.81765 17.498987,-0.19488 z"
             id="path6608"
             inkscape:connector-curvature="0"
             sodipodi:nodetypes="cscc" />
          <path
             sodipodi:nodetypes="cscc"
             inkscape:connector-curvature="0"
             id="path6600"
             d="m 78.76585,115.93453 c -6.52109,1.66724 -10.777569,3.63587 -13.201603,3.63587 -1.456554,0 -2.98507,-1.51599 -4.297384,-3.44099 6.199125,-2.66885 13.683832,-1.81765 17.498987,-0.19488 z"
             style="fill:none;stroke:#000000;stroke-width:1.20000005;stroke-linecap:round;stroke-linejoin:miter;stroke-miterlimit:4;stroke-opacity:1;stroke-dasharray:none" />
          <path
             sodipodi:nodetypes="cc"
             inkscape:connector-curvature="0"
             id="path6606"
             d="m 78.76585,115.93453 c -9.76545,-0.23935 -10.838532,1.29873 -16.104216,2.06465"
             style="fill:none;stroke:#000000;stroke-width:0.80000001;stroke-miterlimit:4;stroke-dasharray:none" />
        </g>
        <g
           id="g6677">
          <path
             sodipodi:nodetypes="ccc"
             inkscape:connector-curvature="0"
             id="path6675"
             d="m 59.767801,106.72757 c -5.754346,-9.951629 -11.028998,-11.117971 -16.986439,-5.02514 4.400383,9.07156 9.945828,10.57639 16.986439,5.02514 z"
             style="fill:#ffffff;stroke:none" />
          <path
             sodipodi:nodetypes="sssss"
             inkscape:connector-curvature="0"
             id="path6602"
             d="m 58.255746,91.360086 c 1.56156,0.721308 0.886978,2.459426 -0.820592,1.847679 -4.216532,-1.510598 -8.657059,-1.158286 -12.145064,2.297383 -0.96965,0.960661 -1.615144,-0.648475 -1.015473,-1.353963 3.783941,-4.45165 9.726328,-4.756455 13.981129,-2.791099 z"
             style="fill:#000000;stroke:none" />
          <path
             sodipodi:nodetypes="cccc"
             inkscape:connector-curvature="0"
             id="path6673"
             d="m 45.985448,99.009981 c 3.811663,2.532509 4.218486,6.097839 0.760153,8.631519 -1.672457,-1.9387 -2.987178,-3.92851 -4.028042,-5.95744 0.830869,-1.20147 1.987877,-2.01158 3.267889,-2.674079 z"
             style="fill:#5a3d34;fill-opacity:1;stroke:none" />
          <path
             style="fill:none;stroke:#000000;stroke-width:1.20000005;stroke-miterlimit:4;stroke-dasharray:none"
             d="m 59.767801,106.72757 c -5.754346,-9.951629 -11.028998,-11.117971 -16.986439,-5.02514 4.400383,9.07156 9.945828,10.57639 16.986439,5.02514 z"
             id="path5597"
             inkscape:connector-curvature="0"
             sodipodi:nodetypes="ccc" />
          <path
             sodipodi:nodetypes="ccccc"
             inkscape:connector-curvature="0"
             id="path6671"
             d="m 43.198433,101.81096 c 5.209188,-4.1865 10.31848,-3.572575 16.078463,4.89094 l 1.042193,0.12722 c -3.776187,-10.99158 -12.76296,-13.774458 -17.906172,-5.382 z"
             style="fill:#000000;stroke:#000000;stroke-width:0.2;stroke-linecap:round;stroke-linejoin:miter;stroke-miterlimit:4;stroke-opacity:1;stroke-dasharray:none" />
        </g>
        <path
           id="path6749"
           style="fill:none;stroke:#000000;stroke-width:2;stroke-linecap:round;stroke-linejoin:miter;stroke-miterlimit:4;stroke-opacity:1;stroke-dasharray:none"
           d="m 44.9516,76.872673 c 1.717447,5.974324 0.892814,12.022313 -3.438215,15.292682 M 44.9516,76.872673 c 16.924547,12.862656 43.203452,11.968876 45.905376,30.355787 9.050228,-6.05973 10.364044,9.04204 -1.627575,7.75492 l -0.382959,5.26568 -5.935861,2.87219 3.309614,14.5924"
           inkscape:connector-curvature="0" />
        <path
           style="fill:#000000;fill-opacity:1;fill-rule:evenodd;stroke:none"
           d="m 91.358915,111.64775 c 0.59375,-1.25 1.659391,-1.32231 2.346891,0.0214 -0.09375,-2.46875 -2.409391,-2.39644 -2.346891,-0.0214 z"
           id="path6754"
           inkscape:connector-curvature="0"
           sodipodi:nodetypes="ccc" />
      </g>
      <g
         id="g6874">
        <path
           inkscape:connector-curvature="0"
           id="path6872"
           d="m 75.686578,141.62019 c -9.065921,-1.90717 -13.650417,6.60814 -14.352017,14.45937 L 58.491237,187.8977 43.05605,224.18394 c -7.311405,-2.57253 -16.924548,-0.1354 -18.34621,16.85684 7.243706,-4.53577 12.862657,-6.78528 19.42938,-8.54544 -2.272824,2.80664 -4.309765,4.75964 -7.113618,6.72921 7.779997,-0.005 11.897544,-4.4466 13.477249,-9.66441 l -3.926495,-2.66392 20.619906,-36.20356 5.663418,-35.32008 z"
           style="fill:#ffd79d;fill-opacity:1;stroke:none"
           sodipodi:nodetypes="cscccccccccc" />
        <path
           style="fill:none;stroke:#000000;stroke-width:2;stroke-linecap:round;stroke-linejoin:miter;stroke-miterlimit:4;stroke-opacity:1;stroke-dasharray:none"
           d="m 75.990885,137.56877 -0.304307,4.05142 c -9.065921,-1.90717 -13.650417,6.60814 -14.352017,14.45937 L 58.491237,187.8977 43.05605,224.18394 c -7.311405,-2.57253 -16.924548,-0.1354 -18.34621,16.85684 7.243706,-4.53577 12.862657,-6.78528 19.42938,-8.54544 -2.272824,2.80664 -4.309765,4.75964 -7.113618,6.72921 7.779997,-0.005 11.897544,-4.4466 13.477249,-9.66441 l -3.926495,-2.66392 20.619906,-36.20356 5.663418,-35.32008"
           id="path6639"
           inkscape:connector-curvature="0" />
        <path
           id="path6651"
           style="fill:#000000;stroke:none"
           d="m 24.675991,240.6346 c 3.683641,-6.13278 9.2729,-10.22425 15.33364,-11.77949 -5.21276,2.91102 -9.206954,5.88975 -12.964203,10.45938 z m 1.387813,-7.31141 -0.880077,2.97872 c 3.317211,-4.23113 6.160535,-6.66826 9.545445,-8.66537 -3.621853,1.15087 -6.397479,2.94488 -8.665368,5.68665 z"
           inkscape:connector-curvature="0" />
        <path
           id="path6859"
           style="fill:none;stroke:#8d270c;stroke-width:1.20000005;stroke-linecap:butt;stroke-linejoin:miter;stroke-miterlimit:4;stroke-opacity:1;stroke-dasharray:none"
           d="m 40.920125,220.9358 9.690549,3.58807 m -7.378049,-9.40057 9.815549,5.96307"
           inkscape:connector-curvature="0" />
      </g>
      <g
         id="g7022">
        <path
           clip-path="none"
           sodipodi:nodetypes="ccscccsccc"
           inkscape:connector-curvature="0"
           id="path6956"
           d="m 79.017037,205.97435 4.264402,69.33853 c 25.531501,18.04841 2.087616,56.14169 2.087616,82.6736 0,9.59644 1.697884,17.11812 4.444394,26.62733 l -30.78201,0 -1.653761,-7.35845 C 70.693201,371.33099 80.470121,362.25732 79.614632,349.6103 L 74.57714,275.13917 C 49.101967,231.6424 51.797316,199.28227 72.49784,188.89731 l 0.392079,-31.52694 9.397148,1.01389 z"
           style="fill:#ffd79d;fill-opacity:1;stroke:none" />
        <path
           inkscape:connector-curvature="0"
           id="path7094"
           d="m 57.991892,379.92479 12.772581,0 c 4.781175,0 8.067013,-6.03723 15.557857,-9.78168 0.795189,4.6429 1.985613,9.2582 3.491119,14.4707 l -30.78201,0 -1.07306,-4.77461"
           style="fill:#d9b283;fill-opacity:1;stroke:#000000;stroke-width:0.30000001;stroke-linecap:butt;stroke-linejoin:miter;stroke-miterlimit:4;stroke-opacity:1;stroke-dasharray:none;display:inline" />
        <path
           clip-path="none"
           sodipodi:nodetypes="cscccccccscc"
           inkscape:connector-curvature="0"
           id="path7096"
           d="m 86.85784,344.57138 c -0.89529,4.67951 -1.488785,9.19365 -1.488785,13.4151 0,0.84043 0.01302,1.66494 0.0092,2.4779 l -4.30826,0.002 c -0.862193,2.07472 -2.15963,4.53338 -3.811117,6.77383 l 4.340865,5.73266 -4.520114,3.59162 -3.808959,-5.02926 c -2.254654,1.65636 -4.761542,2.46025 -7.548042,1.44931 8.780109,-5.84809 14.558044,-13.52814 13.892044,-23.37387 l -0.347394,-5.13564 z"
           style="fill:#4e3d38;fill-opacity:1;stroke:none" />
        <path
           style="fill:#847950;fill-opacity:1;stroke:none"
           d="m 79.017037,205.97435 4.264402,69.33853 c 8.722532,6.16602 11.728826,14.67162 11.906587,24.25648 L 76.144949,298.31668 74.57714,275.13917 C 53.490147,239.13486 51.704603,210.76098 63.455305,196.16453 l 16.224804,0.15986 z"
           id="path6969"
           inkscape:connector-curvature="0"
           sodipodi:nodetypes="cccccccc"
           clip-path="none" />
        <path
           inkscape:connector-curvature="0"
           id="path6973"
           style="fill:none;stroke:#000000;stroke-width:1.20000005;stroke-miterlimit:4;stroke-dasharray:none"
           d="m 95.031587,297.15061 -18.808418,-3.28639 m 18.964857,5.70514 -19.043077,-1.25268" />
        <path
           sodipodi:nodetypes="ccccccc"
           inkscape:connector-curvature="0"
           d="m 67.95264,147.76307 c 2.438092,2.23423 4.348048,4.15382 6.494138,6.98357 5.309726,-6.36061 10.505337,-6.16367 15.424178,0.66146 l -3.668181,21.70981 -13.557836,0 0.181179,-17.74366 c -5.866473,-0.31288 -10.985726,-6.51853 -4.873478,-11.61118 z"
           style="fill:#b00000;fill-opacity:1;stroke:none"
           id="path6940" />
        <path
           style="fill:none;stroke:#000000;stroke-width:2;stroke-linecap:round;stroke-linejoin:miter;stroke-miterlimit:4;stroke-opacity:1;stroke-dasharray:none"
           d="m 79.017037,205.97435 4.264402,69.33853 c 25.531501,18.04841 2.087616,56.14169 2.087616,82.6736 0,9.59644 1.697884,17.11812 4.444394,26.62733 l -30.78201,0 -1.653761,-7.35845 C 70.693201,371.33099 80.470121,362.25732 79.614632,349.6103 L 74.57714,275.13917 C 49.101967,231.6424 51.797316,199.28227 72.49784,188.89731 l 0.392079,-31.52694"
           id="path6895"
           inkscape:connector-curvature="0"
           sodipodi:nodetypes="ccscccsccc"
           clip-path="url(#clipPath6929)" />
        <path
           style="fill:#000000;stroke:none"
           d="m 74.838597,158.52689 c -2.55757,-0.0761 -5.184222,-0.51948 -6.832427,-2.1214 0,0 0,0 0,0 -1.122104,-1.0233 -1.729779,-2.65241 -1.555614,-4.16222 0,0 0,0 0,0 0.07532,-0.7481 0.317824,-1.48359 0.686287,-2.1605 0.401896,-0.73832 0.937555,-1.4374 1.575024,-2.0383 1.433365,-1.36649 3.495795,-2.17838 5.572634,-2.47155 -0.987801,-0.30312 -2.136735,-0.42333 -3.309629,-0.26508 -1.172894,0.15824 -2.366205,0.59759 -3.406377,1.3367 -0.907491,0.65006 -1.669308,1.51703 -2.190994,2.48713 -0.479192,0.89109 -0.798014,1.8716 -0.915242,2.89555 0,0 0,0 0,0 -0.225419,2.16765 0.592358,4.35819 2.185919,5.84656 0,0 0,0 0,0 2.288998,2.03953 5.359753,2.66014 8.164737,2.65295 z"
           id="path6891"
           inkscape:connector-curvature="0"
           sodipodi:nodetypes="cc"
           inkscape:path-effect="#path-effect6912"
           inkscape:original-d="M 74.825756,159.52681 C 60.596457,159.34407 64.250545,144.65001 74.284501,145.57292"
           clip-path="url(#clipPath6933)" />
        <path
           sodipodi:nodetypes="cccccccccccsc"
           inkscape:connector-curvature="0"
           d="m 73.312624,371.53608 3.766965,5.02804 m 0.130779,-9.30221 4.389335,5.71059 m -15.782375,0.14532 c 6.976316,2.27369 12.710835,-6.74505 15.299793,-12.65181 m -3.482558,0 8.049271,0 m -5.785282,-15.9323 6.228228,0 m -27.469977,35.39108 12.10767,0 c 4.781175,0 7.588314,-5.65427 15.052376,-9.35444"
           style="fill:none;stroke:#000000;stroke-width:1.20000005;stroke-linecap:butt;stroke-linejoin:miter;stroke-miterlimit:4;stroke-opacity:1;stroke-dasharray:none;display:inline"
           id="path7048-1" />
        <path
           sodipodi:nodetypes="cc"
           inkscape:connector-curvature="0"
           d="m 63.855653,377.2217 c -1.628577,0 -2.473609,0.74788 -2.473609,2.68822"
           style="fill:none;stroke:#000000;stroke-width:1;stroke-linecap:round;stroke-linejoin:miter;stroke-miterlimit:4;stroke-opacity:1;stroke-dasharray:none;display:inline"
           id="path7116-3" />
      </g>
      <g
         id="g6998">
        <path
           sodipodi:nodetypes="cccscccsccccc"
           inkscape:connector-curvature="0"
           d="M 90.31117,152.7969 84.25,188.75 c 24.52145,6.81066 25.40533,49.4948 10.875,85.25 31.02034,17.24159 7.33226,61.23903 7.33226,84.00988 0,7.16282 2.45324,19.78184 5.19975,29.29105 l -30.78201,0 -1.653761,-7.35845 c 24.892031,-6.70657 23.925521,-24.4263 19.010021,-56.08813 l -15.754362,-101.4772 -9.450465,-7.62461 5.581282,-11.91052 4.816931,-56.4522 z"
           style="fill:#ffd79d;fill-opacity:1;stroke:none"
           id="path6948" />
        <path
           sodipodi:nodetypes="ccccccccsc"
           inkscape:connector-curvature="0"
           d="m 96.918645,346.52374 c 0.685842,14.12565 -1.951873,23.82257 -12.211585,29.66065 2.978572,0.96812 5.598847,0.13365 7.812065,-1.71541 l 3.501271,4.48219 3.978528,-3.59162 -3.552199,-5.82166 c 1.248494,-2.19738 2.223628,-4.61484 2.884783,-6.95562 l 3.420322,0.0147 c -0.20647,-1.67632 -0.29457,-3.22967 -0.29457,-4.58707 0,-3.39754 0.52735,-7.26763 1.32165,-11.4509"
           style="fill:#4e3d38;fill-opacity:1;stroke:none"
           id="path7053" />
        <path
           sodipodi:nodetypes="sccccs"
           inkscape:connector-curvature="0"
           id="path7055"
           d="m 88.148222,382.17645 c 7.150612,0 8.874579,-5.65427 15.874198,-9.60115 1.08634,4.96819 2.32724,10.19922 3.63459,14.72563 l -30.78201,0 -1.176907,-5.1894 z"
           style="fill:#d9b283;fill-opacity:1;stroke:none" />
        <path
           id="path6960"
           style="fill:#b00000;fill-opacity:1;stroke:none"
           d="m 74.446778,154.74664 c 5.309726,-6.36061 10.505337,-6.16367 15.424178,0.66146 l -3.668181,21.70981 -11.737672,0 z"
           inkscape:connector-curvature="0"
           sodipodi:nodetypes="ccccc" />
        <path
           id="path6962"
           style="fill:#847950;fill-opacity:1;stroke:none"
           d="M 96.15675,196.75417 C 108.51179,212.29392 106.76039,245.36846 95.125,274 c 10.29828,5.72394 14.56693,14.39676 15.67443,24.26279 l -20.26431,1.78396 -12.058222,-77.6696 -9.450465,-7.62461 2.262703,-12.07645 3.874676,-6.35127 z"
           inkscape:connector-curvature="0"
           sodipodi:nodetypes="ccccccccc" />
        <path
           id="path6882"
           style="fill:none;stroke:#000000;stroke-width:2;stroke-linecap:round;stroke-linejoin:miter;stroke-miterlimit:4;stroke-opacity:1;stroke-dasharray:none"
           d="m 78.477004,222.37783 -9.450571,-7.62529 M 90.31117,152.7969 84.25,188.75 c 24.52145,6.81066 25.40533,49.4948 10.875,85.25 31.02034,17.24159 7.33226,61.23903 7.33226,84.00988 0,7.16282 2.45324,19.78184 5.19975,29.29105 l -30.78201,0 -1.653761,-7.35845 C 100.11327,373.23591 99.14676,355.51618 94.23126,323.85435 L 77.509564,216.14634 M 67.95264,147.76307 c 2.438092,2.23423 4.348048,4.15382 6.494138,6.98357 5.309726,-6.36061 10.505342,-6.16367 15.427892,0.63942"
           inkscape:connector-curvature="0"
           sodipodi:nodetypes="cccccscccscccc" />
        <path
           id="path6966"
           style="fill:none;stroke:#000000;stroke-width:1.20000005;stroke-miterlimit:4;stroke-dasharray:none"
           d="m 109.84928,293.05901 -19.63937,5.06816 m 20.58952,0.13562 -20.26431,1.78396"
           inkscape:connector-curvature="0" />
        <path
           style="fill:#000000;stroke:none"
           d="m 75.211623,154.02927 c 0.03911,-3.36345 0.759764,-5.1785 2.498423,-7.80537 -2.92863,1.8396 -4.010762,3.90801 -4.219732,7.74334 z"
           id="path6938"
           inkscape:connector-curvature="0"
           sodipodi:nodetypes="cccc" />
        <path
           inkscape:connector-curvature="0"
           d="m 92.524224,374.46472 3.496172,4.48645 m 0.401572,-9.3699 3.576956,5.77828 m -15.308487,0.8223 c 7.311405,2.36943 12.38877,-6.01738 14.690509,-13.59958 m -3.895551,0 7.311395,0 m -5.785282,-16 6.837512,0 m -28.146959,35.59418 12.446161,0 c 7.150612,0 8.874579,-5.65427 15.729358,-9.55754"
           style="fill:none;stroke:#000000;stroke-width:1.20000005;stroke-linecap:butt;stroke-linejoin:miter;stroke-miterlimit:4;stroke-opacity:1;stroke-dasharray:none"
           id="path7048" />
        <path
           inkscape:connector-curvature="0"
           d="m 82.871932,379.49923 c -1.628577,0 -2.473609,0.74788 -2.473609,2.68822 m 5.661109,-2.68822 c -1.534527,0 -2.473609,0.87288 -2.473609,2.68822 m 6.254859,-2.71947 c -2.054023,0 -3.161109,0.81038 -3.161109,2.71947"
           style="fill:none;stroke:#000000;stroke-width:1;stroke-linecap:round;stroke-linejoin:miter;stroke-miterlimit:4;stroke-opacity:1;stroke-dasharray:none"
           id="path7116" />
      </g>
      <g
         id="g6866">
        <path
           inkscape:connector-curvature="0"
           id="path6864"
           d="m 89.662504,150.18532 9.591231,38.61524 5.329455,41.28357 -4.63697,1.00579 c -0.482096,5.43039 1.68,11.08796 8.89595,13.99641 -1.86608,-2.87377 -3.02684,-5.44597 -4.08783,-8.89817 5.43519,4.08404 9.80846,8.26836 14.83565,15.17989 5.02344,-16.29467 -2.98537,-22.14387 -10.7285,-22.48627 l -0.48869,-40.66965 -6.55879,-36.03716 c -1.41144,-7.7551 -7.961815,-11.64214 -14.690883,-10.48021 z"
           style="fill:#ffd79d;fill-opacity:1;stroke:none"
           sodipodi:nodetypes="cccccccccscc" />
        <path
           style="fill:none;stroke:#000000;stroke-width:2;stroke-linecap:round;stroke-linejoin:miter;stroke-miterlimit:4;stroke-opacity:1;stroke-dasharray:none"
           d="m 89.662504,150.18532 9.591231,38.61524 5.329455,41.28357 -4.63697,1.00579 c -0.482096,5.43039 1.68,11.08796 8.89595,13.99641 -1.86608,-2.87377 -3.02684,-5.44597 -4.08783,-8.89817 5.43519,4.08404 9.80846,8.26836 14.83565,15.17989 5.02344,-16.29467 -2.98537,-22.14387 -10.7285,-22.48627 l -0.48869,-40.66965 -6.55879,-36.03716 c -1.41144,-7.7551 -7.961815,-11.64214 -14.690883,-10.48021 l -0.902932,-3.98111"
           id="path6662"
           inkscape:connector-curvature="0" />
        <path
           d="m 119.77288,251.00381 c -1.12876,-7.06427 -4.78657,-12.94641 -9.8288,-16.65138 3.74946,4.64633 6.3432,8.90054 8.12327,14.54241 z m 1.44152,-7.30093 -0.29579,3.09191 c -1.4982,-5.16354 -3.22635,-8.48574 -5.62116,-11.60196 2.93052,2.41957 4.83593,5.11996 5.91654,8.50998 z"
           style="fill:#000000;stroke:none"
           id="path6658"
           inkscape:connector-curvature="0" />
        <path
           inkscape:connector-curvature="0"
           d="m 112.11134,226.65515 -10.33229,-0.15843 m 10.27783,-6.09694 -11.30755,2.01066"
           style="fill:none;stroke:#8d270c;stroke-width:1.20000005;stroke-linecap:butt;stroke-linejoin:miter;stroke-miterlimit:4;stroke-opacity:1;stroke-dasharray:none"
           id="path6862" />
      </g>
      <g
         id="g7137">
        <path
           id="path6946"
           style="fill:none;stroke:#000000;stroke-width:1.20000005;stroke-linecap:butt;stroke-linejoin:miter;stroke-miterlimit:4;stroke-opacity:1;stroke-dasharray:none"
           d="m 63.439406,196.1843 32.68574,0.5302 m -9.922371,-19.59659 -13.557836,0"
           inkscape:connector-curvature="0" />
        <path
           style="fill:#000000;stroke:none"
           d="m 76.112193,183.5917 c 0.322279,0.66236 1.009574,1.10688 1.825079,1.21006 -1.427892,0.88146 -2.343241,0.18347 -1.825079,-1.21006 z"
           id="path7031"
           inkscape:connector-curvature="0"
           sodipodi:nodetypes="ccc" />
      </g>
    </g>
  </g>
</svg>
