<?xml version="1.0" encoding="UTF-8" standalone="no"?>
<!-- Created with Inkscape (http://www.inkscape.org/) -->

<svg
   xmlns:dc="http://purl.org/dc/elements/1.1/"
   xmlns:cc="http://creativecommons.org/ns#"
   xmlns:rdf="http://www.w3.org/1999/02/22-rdf-syntax-ns#"
   xmlns:svg="http://www.w3.org/2000/svg"
   xmlns="http://www.w3.org/2000/svg"
   xmlns:sodipodi="http://sodipodi.sourceforge.net/DTD/sodipodi-0.dtd"
   xmlns:inkscape="http://www.inkscape.org/namespaces/inkscape"
   width="1024"
   height="1024"
   id="svg2"
   version="1.1"
   inkscape:version="0.48.3.1 r9886"
   sodipodi:docname="Sonnet Revue Cutie Mark.svg"
   inkscape:export-filename="/home/parclytaxel/Pictures/Sonnet Revue Cutie Mark.png"
   inkscape:export-xdpi="415.46667"
   inkscape:export-ydpi="415.46667">
  <defs
     id="defs4" />
  <sodipodi:namedview
     id="base"
     pagecolor="#ffffff"
     bordercolor="#666666"
     borderopacity="1.0"
     inkscape:pageopacity="0.0"
     inkscape:pageshadow="2"
     inkscape:zoom="0.52148438"
     inkscape:cx="512"
     inkscape:cy="512"
     inkscape:document-units="px"
     inkscape:current-layer="layer1"
     showgrid="true"
     inkscape:window-width="1364"
     inkscape:window-height="698"
     inkscape:window-x="0"
     inkscape:window-y="0"
     inkscape:window-maximized="1">
    <inkscape:grid
       type="xygrid"
       id="grid2992"
       empspacing="8"
       visible="true"
       enabled="true"
       snapvisiblegridlinesonly="true"
       spacingx="16px"
       spacingy="16px" />
  </sodipodi:namedview>
  <metadata
     id="metadata7">
    <rdf:RDF>
      <cc:Work
         rdf:about="">
        <dc:format>image/svg+xml</dc:format>
        <dc:type
           rdf:resource="http://purl.org/dc/dcmitype/StillImage" />
        <dc:title></dc:title>
      </cc:Work>
    </rdf:RDF>
  </metadata>
  <g
     inkscape:label="Layer 1"
     inkscape:groupmode="layer"
     id="layer1"
     transform="translate(0,-28.362183)">
    <path
       sodipodi:type="star"
       style="fill:none;stroke:#a1eb9d;stroke-width:20;stroke-miterlimit:4;stroke-opacity:1;stroke-dasharray:none"
       id="path2998"
       sodipodi:sides="6"
       sodipodi:cx="512"
       sodipodi:cy="512"
       sodipodi:r1="448"
       sodipodi:r2="224"
       sodipodi:arg1="1.5707963"
       sodipodi:arg2="2.0943951"
       inkscape:flatsided="false"
       inkscape:rounded="0.24"
       inkscape:randomized="0"
       d="M 512.00001,960 C 445.37451,960 457.69938,739.30244 400,705.98969 342.30062,672.67694 157.33338,793.69939 124.02063,736.00001 90.707873,678.30063 288,578.6255 288,512 288,445.3745 90.707862,345.69939 124.02061,288.00001 157.33337,230.30063 342.30062,351.32306 400,318.01031 457.69938,284.69756 445.37449,64 511.99999,64 578.62549,64 566.30062,284.69756 624,318.01031 681.69938,351.32306 866.66662,230.30061 899.97937,287.99999 933.29213,345.69937 736,445.3745 736,512 736,578.6255 933.29214,678.30061 899.97939,735.99999 866.66663,793.69937 681.69938,672.67694 624,705.98969 566.30062,739.30244 578.62551,960 512.00001,960 z"
       transform="translate(0,28.362183)" />
    <path
       transform="matrix(0.96592583,-0.25881905,0.25881905,0.96592583,-115.06937,178.32351)"
       d="M 512.00001,960 C 445.37451,960 457.69938,739.30244 400,705.98969 342.30062,672.67694 157.33338,793.69939 124.02063,736.00001 90.707873,678.30063 288,578.6255 288,512 288,445.3745 90.707862,345.69939 124.02061,288.00001 157.33337,230.30063 342.30062,351.32306 400,318.01031 457.69938,284.69756 445.37449,64 511.99999,64 578.62549,64 566.30062,284.69756 624,318.01031 681.69938,351.32306 866.66662,230.30061 899.97937,287.99999 933.29213,345.69937 736,445.3745 736,512 736,578.6255 933.29214,678.30061 899.97939,735.99999 866.66663,793.69937 681.69938,672.67694 624,705.98969 566.30062,739.30244 578.62551,960 512.00001,960 z"
       inkscape:randomized="0"
       inkscape:rounded="0.24"
       inkscape:flatsided="false"
       sodipodi:arg2="2.0943951"
       sodipodi:arg1="1.5707963"
       sodipodi:r2="224"
       sodipodi:r1="448"
       sodipodi:cy="512"
       sodipodi:cx="512"
       sodipodi:sides="6"
       id="path3798"
       style="fill:none;stroke:#399c32;stroke-width:20;stroke-miterlimit:4;stroke-opacity:1;stroke-dasharray:none"
       sodipodi:type="star" />
  </g>
</svg>
