<?xml version="1.0" encoding="UTF-8" standalone="no"?>
<!-- Created with Inkscape (http://www.inkscape.org/) -->

<svg
   xmlns:dc="http://purl.org/dc/elements/1.1/"
   xmlns:cc="http://creativecommons.org/ns#"
   xmlns:rdf="http://www.w3.org/1999/02/22-rdf-syntax-ns#"
   xmlns:svg="http://www.w3.org/2000/svg"
   xmlns="http://www.w3.org/2000/svg"
   xmlns:sodipodi="http://sodipodi.sourceforge.net/DTD/sodipodi-0.dtd"
   xmlns:inkscape="http://www.inkscape.org/namespaces/inkscape"
   id="svg2985"
   version="1.1"
   inkscape:version="0.48.3.1 r9886"
   width="1024"
   height="1024"
   sodipodi:docname="Violet Dream Cutie Mark.svg"
   inkscape:export-filename="/home/parclytaxel/Pictures/Violet Dream Cutie Mark.png"
   inkscape:export-xdpi="563.83435"
   inkscape:export-ydpi="563.83435">
  <metadata
     id="metadata2991">
    <rdf:RDF>
      <cc:Work
         rdf:about="">
        <dc:format>image/svg+xml</dc:format>
        <dc:type
           rdf:resource="http://purl.org/dc/dcmitype/StillImage" />
        <dc:title></dc:title>
      </cc:Work>
    </rdf:RDF>
  </metadata>
  <defs
     id="defs2989">
    <clipPath
       clipPathUnits="userSpaceOnUse"
       id="clipPath3907">
      <path
         sodipodi:nodetypes="ccc"
         inkscape:connector-curvature="0"
         id="path3909"
         d="m 512,224 c 160,-304 560,96 0,480 C -48,320 352,-80 512,224 z"
         style="fill:#3b1c6a;fill-opacity:1;stroke:none" />
    </clipPath>
  </defs>
  <sodipodi:namedview
     pagecolor="#ffffff"
     bordercolor="#666666"
     borderopacity="1"
     objecttolerance="10"
     gridtolerance="10"
     guidetolerance="10"
     inkscape:pageopacity="0"
     inkscape:pageshadow="2"
     inkscape:window-width="1364"
     inkscape:window-height="698"
     id="namedview2987"
     showgrid="true"
     showguides="false"
     inkscape:zoom="0.52148438"
     inkscape:cx="512"
     inkscape:cy="512"
     inkscape:window-x="0"
     inkscape:window-y="0"
     inkscape:window-maximized="1"
     inkscape:current-layer="layer1">
    <inkscape:grid
       type="xygrid"
       id="grid2997"
       empspacing="8"
       visible="true"
       enabled="true"
       snapvisiblegridlinesonly="true"
       spacingx="16px"
       spacingy="16px" />
  </sodipodi:namedview>
  <g
     inkscape:groupmode="layer"
     id="layer1"
     inkscape:label="Drawing">
    <g
       id="g3913">
      <path
         sodipodi:nodetypes="ccc"
         inkscape:connector-curvature="0"
         id="path3007"
         d="m 512,224 c 160,-304 560,96 0,480 C -48,320 352,-80 512,224 z"
         style="fill:#3b1c6a;fill-opacity:1;stroke:none" />
      <path
         inkscape:connector-curvature="0"
         d="m 416,912 48,-80 C 304,704 224,576 192,336 160,576 240,768 416,912 z m 192,0 -48,-80 C 720,704 800,576 832,336 864,576 784,768 608,912 z"
         style="fill:#e8e2ee;fill-opacity:1;stroke:none"
         id="path3050" />
      <path
         inkscape:connector-curvature="0"
         d="m 448,800 48,-80 C 368,640 288,544 224,416 c 32,176 96,272 224,384 z m 128,0 -48,-80 C 656,640 736,544 800,416 768,592 704,688 576,800 z"
         style="fill:#cec9d3;fill-opacity:1;stroke:none"
         id="use3037" />
      <path
         sodipodi:nodetypes="ccccccccc"
         inkscape:connector-curvature="0"
         clip-path="url(#clipPath3907)"
         d="M 208,400 784,128 800,176 224,448 z M 512,704 320,80 240,96 z"
         style="fill:#d3c265;fill-opacity:1;fill-rule:nonzero;stroke:none"
         id="path3902" />
    </g>
  </g>
</svg>
