<?xml version="1.0" encoding="UTF-8" standalone="no"?>
<!-- Created with Inkscape (http://www.inkscape.org/) -->

<svg
   xmlns:dc="http://purl.org/dc/elements/1.1/"
   xmlns:cc="http://creativecommons.org/ns#"
   xmlns:rdf="http://www.w3.org/1999/02/22-rdf-syntax-ns#"
   xmlns:svg="http://www.w3.org/2000/svg"
   xmlns="http://www.w3.org/2000/svg"
   xmlns:xlink="http://www.w3.org/1999/xlink"
   xmlns:sodipodi="http://sodipodi.sourceforge.net/DTD/sodipodi-0.dtd"
   xmlns:inkscape="http://www.inkscape.org/namespaces/inkscape"
   sodipodi:docname="Apparatchik.svg"
   inkscape:version="0.48.2 r9819"
   version="1.1"
   id="svg2"
   height="687.96179"
   width="567.7771"
   inkscape:export-filename="C:\Users\tan jierui\Pictures\Apparatchik.png"
   inkscape:export-xdpi="995.21826"
   inkscape:export-ydpi="995.21826">
  <defs
     id="defs4">
    <inkscape:path-effect
       pattern-nodetypes="scsscss"
       fuse_tolerance="0"
       vertical_pattern="false"
       prop_units="false"
       tang_offset="0"
       normal_offset="0"
       spacing="0"
       scale_y_rel="false"
       prop_scale="1"
       copytype="single_stretched"
       pattern="m 755.76567,872.92234 c 5.6236,0 13.31418,0.69057 16.83193,2.34069 -6.5214,4.03603 -10.83242,5.65931 -16.83193,5.65931 l -200,0 c -3.55141,0 -19.53823,-1.36668 -27.2777,-4.11607 7.61675,-2.81563 23.97742,-3.88393 27.2777,-3.88393 z"
       is_visible="true"
       id="path-effect4012"
       effect="skeletal" />
    <inkscape:path-effect
       effect="skeletal"
       id="path-effect4406"
       is_visible="true"
       pattern="m 686.68854,520.17072 c 7.47634,0 25.9808,0.40252 32.72464,3.7737 -6.5214,2.2975 -24.63888,4.2263 -32.72464,4.2263 l -200,0 c -3.55141,0 -25.53823,-1.36668 -33.2777,-4.11607 7.61675,-2.81563 29.97742,-3.88393 33.2777,-3.88393 z"
       copytype="single_stretched"
       prop_scale="1"
       scale_y_rel="false"
       spacing="0"
       normal_offset="0"
       tang_offset="0"
       prop_units="false"
       vertical_pattern="false"
       fuse_tolerance="0"
       pattern-nodetypes="scsscss" />
    <inkscape:path-effect
       pattern-nodetypes="scsscss"
       fuse_tolerance="0"
       vertical_pattern="false"
       prop_units="false"
       tang_offset="0"
       normal_offset="-0.1"
       spacing="0"
       scale_y_rel="false"
       prop_scale="1"
       copytype="single_stretched"
       pattern="m 709.69077,858.43261 c 7.47634,0 25.9808,0.40252 32.72464,3.7737 -6.5214,2.2975 -24.63888,4.2263 -32.72464,4.2263 l -200,0 c -3.55141,0 -25.53823,-1.36668 -33.2777,-4.11607 7.61675,-2.81563 29.97742,-3.88393 33.2777,-3.88393 z"
       is_visible="true"
       id="path-effect4355"
       effect="skeletal" />
    <inkscape:path-effect
       pattern-nodetypes="scsscss"
       fuse_tolerance="0"
       vertical_pattern="false"
       prop_units="false"
       tang_offset="0"
       normal_offset="0"
       spacing="0"
       scale_y_rel="false"
       prop_scale="1"
       copytype="single_stretched"
       pattern="m 768.28315,833.97908 c 5.6236,0 13.31418,0.69057 16.83193,2.34069 -6.5214,4.03603 -10.83242,5.65931 -16.83193,5.65931 l -200,0 c -3.55141,0 -19.53823,-1.36668 -27.2777,-4.11607 7.61675,-2.81563 23.97742,-3.88393 27.2777,-3.88393 z"
       is_visible="true"
       id="path-effect4308"
       effect="skeletal" />
    <inkscape:path-effect
       pattern-nodetypes="scsscss"
       fuse_tolerance="0"
       vertical_pattern="false"
       prop_units="false"
       tang_offset="0"
       normal_offset="-0.1"
       spacing="0"
       scale_y_rel="false"
       prop_scale="1"
       copytype="single_stretched"
       pattern="m 709.69077,858.43261 c 7.47634,0 25.9808,0.40252 32.72464,3.7737 -6.5214,2.2975 -24.63888,4.2263 -32.72464,4.2263 l -200,0 c -3.55141,0 -25.53823,-1.36668 -33.2777,-4.11607 7.61675,-2.81563 29.97742,-3.88393 33.2777,-3.88393 z"
       is_visible="true"
       id="path-effect4288"
       effect="skeletal" />
    <inkscape:path-effect
       effect="skeletal"
       id="path-effect4150"
       is_visible="true"
       pattern="m 425.32113,872.92234 0,8 -200,0 c -3.55141,0 -28.45556,-0.87495 -36.19503,-3.62434 7.61675,-2.81563 32.89475,-4.37566 36.19503,-4.37566 z"
       copytype="single_stretched"
       prop_scale="1"
       scale_y_rel="false"
       spacing="0"
       normal_offset="0"
       tang_offset="0"
       prop_units="false"
       vertical_pattern="false"
       fuse_tolerance="0"
       pattern-nodetypes="ccscsc" />
    <inkscape:path-effect
       effect="skeletal"
       id="path-effect4140"
       is_visible="true"
       pattern="m 464.41251,723.63868 c 5.6236,0 16.56286,1.48783 21.55581,3.87555 -1.60407,2.06909 -13.3435,4.12445 -21.55581,4.12445 l -200,0 0,-8 z"
       copytype="single_stretched"
       prop_scale="1"
       scale_y_rel="false"
       spacing="0"
       normal_offset="0"
       tang_offset="0"
       prop_units="false"
       vertical_pattern="false"
       fuse_tolerance="0"
       pattern-nodetypes="scsccs" />
    <inkscape:path-effect
       effect="skeletal"
       id="path-effect4093"
       is_visible="true"
       pattern="m 755.76567,872.92234 c 5.6236,0 13.31418,0.69057 16.83193,2.34069 -6.5214,4.03603 -10.83242,5.65931 -16.83193,5.65931 l -200,0 c -3.55141,0 -19.53823,-1.36668 -27.2777,-4.11607 7.61675,-2.81563 23.97742,-3.88393 27.2777,-3.88393 z"
       copytype="single_stretched"
       prop_scale="1"
       scale_y_rel="false"
       spacing="0"
       normal_offset="0"
       tang_offset="0"
       prop_units="false"
       vertical_pattern="false"
       fuse_tolerance="0"
       pattern-nodetypes="scsscss" />
    <inkscape:path-effect
       effect="skeletal"
       id="path-effect4063"
       is_visible="true"
       pattern="m 709.69077,858.43261 c 7.47634,0 25.9808,0.40252 32.72464,3.7737 -6.5214,2.2975 -24.63888,4.2263 -32.72464,4.2263 l -200,0 c -3.55141,0 -25.53823,-1.36668 -33.2777,-4.11607 7.61675,-2.81563 29.97742,-3.88393 33.2777,-3.88393 z"
       copytype="single_stretched"
       prop_scale="1"
       scale_y_rel="false"
       spacing="0"
       normal_offset="-0.1"
       tang_offset="0"
       prop_units="false"
       vertical_pattern="false"
       fuse_tolerance="0"
       pattern-nodetypes="scsscss" />
    <linearGradient
       id="linearGradient4050">
      <stop
         id="stop4052"
         offset="0"
         style="stop-color:#632e1f;stop-opacity:1" />
      <stop
         id="stop4054"
         offset="1"
         style="stop-color:#c58170;stop-opacity:1" />
    </linearGradient>
    <clipPath
       clipPathUnits="userSpaceOnUse"
       id="clipPath4053">
      <path
         style="fill:none;stroke:#000000;stroke-width:1px;stroke-linecap:butt;stroke-linejoin:miter;stroke-opacity:1"
         d="m 1263,378.5 184.5,-28 48,123 -179,39 z"
         id="path4055"
         inkscape:connector-curvature="0" />
    </clipPath>
    <clipPath
       clipPathUnits="userSpaceOnUse"
       id="clipPath4036">
      <path
         transform="matrix(0.92763756,-0.58008505,0.58008505,0.92763756,-183.84371,801.37971)"
         d="m 1489.6305,411.31165 a 76.664566,98.641022 0 1 1 -153.3291,0 76.664566,98.641022 0 1 1 153.3291,0 z"
         sodipodi:ry="98.641022"
         sodipodi:rx="76.664566"
         sodipodi:cy="411.31165"
         sodipodi:cx="1412.9659"
         id="path4038"
         style="fill:none;stroke:#000000;stroke-width:1;stroke-linecap:round;stroke-linejoin:round;stroke-miterlimit:4;stroke-opacity:1;stroke-dasharray:none;stroke-dashoffset:0"
         sodipodi:type="arc" />
    </clipPath>
    <clipPath
       clipPathUnits="userSpaceOnUse"
       id="clipPath4010">
      <path
         sodipodi:type="arc"
         style="fill:none;stroke:#000000"
         id="path4012"
         sodipodi:cx="1412.9659"
         sodipodi:cy="411.31165"
         sodipodi:rx="59.878605"
         sodipodi:ry="83.57634"
         d="m 1472.8445,411.31165 a 59.878605,83.57634 0 1 1 -119.7572,0 59.878605,83.57634 0 1 1 119.7572,0 z"
         transform="matrix(1.0079509,-0.42549402,0.42549402,1.0079509,-200.55657,549.91403)" />
    </clipPath>
    <clipPath
       clipPathUnits="userSpaceOnUse"
       id="clipPath4053-1">
      <path
         style="fill:none;stroke:#000000;stroke-width:1px;stroke-linecap:butt;stroke-linejoin:miter;stroke-opacity:1"
         d="m 1263,378.5 184.5,-28 48,123 -179,39 z"
         id="path4055-7"
         inkscape:connector-curvature="0" />
    </clipPath>
    <clipPath
       clipPathUnits="userSpaceOnUse"
       id="clipPath4036-4">
      <path
         transform="matrix(0.92763756,-0.58008505,0.58008505,0.92763756,-183.84371,801.37971)"
         d="m 1489.6305,411.31165 a 76.664566,98.641022 0 1 1 -153.3291,0 76.664566,98.641022 0 1 1 153.3291,0 z"
         sodipodi:ry="98.641022"
         sodipodi:rx="76.664566"
         sodipodi:cy="411.31165"
         sodipodi:cx="1412.9659"
         id="path4038-0"
         style="fill:none;stroke:#000000;stroke-width:1;stroke-linecap:round;stroke-linejoin:round;stroke-miterlimit:4;stroke-opacity:1;stroke-dasharray:none;stroke-dashoffset:0"
         sodipodi:type="arc" />
    </clipPath>
    <linearGradient
       inkscape:collect="always"
       id="linearGradient3996">
      <stop
         style="stop-color:#6b9813;stop-opacity:1"
         offset="0"
         id="stop3998" />
      <stop
         style="stop-color:#a9cf8e;stop-opacity:1"
         offset="1"
         id="stop4000" />
    </linearGradient>
    <clipPath
       clipPathUnits="userSpaceOnUse"
       id="clipPath4010-9">
      <path
         sodipodi:type="arc"
         style="fill:none;stroke:#000000"
         id="path4012-4"
         sodipodi:cx="1412.9659"
         sodipodi:cy="411.31165"
         sodipodi:rx="59.878605"
         sodipodi:ry="83.57634"
         d="m 1472.8445,411.31165 a 59.878605,83.57634 0 1 1 -119.7572,0 59.878605,83.57634 0 1 1 119.7572,0 z"
         transform="matrix(1.0079509,-0.42549402,0.42549402,1.0079509,-200.55657,549.91403)" />
    </clipPath>
    <linearGradient
       inkscape:collect="always"
       xlink:href="#linearGradient3996"
       id="linearGradient3341"
       gradientUnits="userSpaceOnUse"
       x1="1399.631"
       y1="349.98569"
       x2="1393.8932"
       y2="476.87924" />
    <clipPath
       clipPathUnits="userSpaceOnUse"
       id="clipPath4053-5">
      <path
         style="fill:none;stroke:#000000;stroke-width:1px;stroke-linecap:butt;stroke-linejoin:miter;stroke-opacity:1"
         d="m 1263,378.5 184.5,-28 48,123 -179,39 z"
         id="path4055-2"
         inkscape:connector-curvature="0" />
    </clipPath>
    <clipPath
       clipPathUnits="userSpaceOnUse"
       id="clipPath4036-3">
      <path
         transform="matrix(0.92763756,-0.58008505,0.58008505,0.92763756,-183.84371,801.37971)"
         d="m 1489.6305,411.31165 a 76.664566,98.641022 0 1 1 -153.3291,0 76.664566,98.641022 0 1 1 153.3291,0 z"
         sodipodi:ry="98.641022"
         sodipodi:rx="76.664566"
         sodipodi:cy="411.31165"
         sodipodi:cx="1412.9659"
         id="path4038-1"
         style="fill:none;stroke:#000000;stroke-width:1;stroke-linecap:round;stroke-linejoin:round;stroke-miterlimit:4;stroke-opacity:1;stroke-dasharray:none;stroke-dashoffset:0"
         sodipodi:type="arc" />
    </clipPath>
    <linearGradient
       inkscape:collect="always"
       xlink:href="#linearGradient3996-6"
       id="linearGradient5704"
       gradientUnits="userSpaceOnUse"
       x1="1399.631"
       y1="349.98569"
       x2="1393.8932"
       y2="476.87924" />
    <linearGradient
       inkscape:collect="always"
       id="linearGradient3996-6">
      <stop
         style="stop-color:#6b9813;stop-opacity:1"
         offset="0"
         id="stop3998-8" />
      <stop
         style="stop-color:#a9cf8e;stop-opacity:1"
         offset="1"
         id="stop4000-8" />
    </linearGradient>
    <clipPath
       clipPathUnits="userSpaceOnUse"
       id="clipPath4010-2">
      <path
         sodipodi:type="arc"
         style="fill:none;stroke:#000000"
         id="path4012-7"
         sodipodi:cx="1412.9659"
         sodipodi:cy="411.31165"
         sodipodi:rx="59.878605"
         sodipodi:ry="83.57634"
         d="m 1472.8445,411.31165 a 59.878605,83.57634 0 1 1 -119.7572,0 59.878605,83.57634 0 1 1 119.7572,0 z"
         transform="matrix(1.0079509,-0.42549402,0.42549402,1.0079509,-200.55657,549.91403)" />
    </clipPath>
    <linearGradient
       inkscape:collect="always"
       xlink:href="#linearGradient4050"
       id="linearGradient4033"
       gradientUnits="userSpaceOnUse"
       x1="1398.9299"
       y1="351.47369"
       x2="1392.491"
       y2="479.85522" />
    <clipPath
       clipPathUnits="userSpaceOnUse"
       id="clipPath4249">
      <path
         style="fill:none;stroke:#000000;stroke-width:1px;stroke-linecap:butt;stroke-linejoin:miter;stroke-opacity:1"
         d="m 679.52962,392.63155 c 9.36916,2.12133 40.65864,18.73833 50.91169,31.46626 42.95673,-50.38136 80.37671,-122.35695 62.37671,-131.35695 -18,-9 -95.25879,80.16007 -113.2884,99.89069 z"
         id="path4251"
         inkscape:connector-curvature="0"
         sodipodi:nodetypes="ccsc" />
    </clipPath>
    <clipPath
       clipPathUnits="userSpaceOnUse"
       id="clipPath3953">
      <path
         style="fill:none;stroke:#ffffff"
         d="m 538.84375,640.17395 c 0.48855,27.73794 -4.53683,38.83185 -57.625,4.6875 -27.81662,45.202 -40.31374,125.16508 -31.96875,171.0625 33.35648,8.3772 62.5542,12.97218 87.78125,13.65625 -3.15944,27.39749 -4.52911,56.32293 -2.625,86.375 34.66576,2.75968 76.07377,-3.14478 108.28125,-18.25 -8.22615,-24.06874 -16.33461,-62.13873 -20.21875,-90.78125 29.23729,-23.46096 41.74521,-65.39474 38.875,-127.375 -46.31043,-24.01281 -89.87774,-36.69365 -122.5,-39.375 z"
         id="path3955"
         inkscape:connector-curvature="0" />
    </clipPath>
    <clipPath
       clipPathUnits="userSpaceOnUse"
       id="clipPath3957">
      <path
         inkscape:connector-curvature="0"
         id="path3959"
         d="m 538.84375,640.17395 c 0.48855,27.73794 -4.53683,38.83185 -57.625,4.6875 -27.81662,45.202 -40.31374,125.16508 -31.96875,171.0625 33.35648,8.3772 62.5542,12.97218 87.78125,13.65625 -3.15944,27.39749 -4.52911,56.32293 -2.625,86.375 34.66576,2.75968 76.07377,-3.14478 108.28125,-18.25 -8.22615,-24.06874 -16.33461,-62.13873 -20.21875,-90.78125 29.23729,-23.46096 41.74521,-65.39474 38.875,-127.375 -46.31043,-24.01281 -89.87774,-36.69365 -122.5,-39.375 z"
         style="fill:none;stroke:#ffffff" />
    </clipPath>
    <clipPath
       clipPathUnits="userSpaceOnUse"
       id="clipPath3971">
      <path
         sodipodi:nodetypes="ccccc"
         inkscape:connector-curvature="0"
         id="path3973"
         d="m 581.36726,789.84286 c 11.82207,17.73309 31.38047,52.58552 36.85705,75.80028 41.45223,0.0421 78.90968,-12.67971 102.37732,-41.346 -14.47418,-32.4339 -61.50457,-76.30275 -97.50943,-86.26272 z"
         style="fill:#000000;stroke:none" />
    </clipPath>
    <clipPath
       clipPathUnits="userSpaceOnUse"
       id="clipPath5355">
      <path
         style="font-size:medium;font-style:normal;font-variant:normal;font-weight:normal;font-stretch:normal;text-indent:0;text-align:start;text-decoration:none;line-height:normal;letter-spacing:normal;word-spacing:normal;text-transform:none;direction:ltr;block-progression:tb;writing-mode:lr-tb;text-anchor:start;baseline-shift:baseline;color:#000000;fill:none;stroke:#000000;stroke-width:0.1;marker:none;visibility:visible;display:inline;overflow:visible;enable-background:accumulate;font-family:Sans;-inkscape-font-specification:Sans"
         d="m 638.51987,874.10206 c -0.59161,-2.24645 -1.17576,-4.52001 -1.75196,-6.81631 34.54996,-3.33076 65.28596,-16.40893 85.75,-41.40625 l 18.4746,65.7388 -7.72884,82.74408 -114.56873,40.46272 -30.91537,-135.48202 z"
         id="path5357"
         inkscape:connector-curvature="0"
         sodipodi:nodetypes="ccc" />
    </clipPath>
    <clipPath
       clipPathUnits="userSpaceOnUse"
       id="clipPath5368">
      <path
         sodipodi:nodetypes="cc"
         inkscape:connector-curvature="0"
         id="path5370"
         d="m 618.21875,868.15625 c 41.96526,0.0426 80.24854,-12.88654 104.3125,-42.28125 l 23.46227,67.56185 -40.9174,94.11003 -88.65437,24.55042 -29.09682,-130.93567 z"
         style="font-size:medium;font-style:normal;font-variant:normal;font-weight:normal;font-stretch:normal;text-indent:0;text-align:start;text-decoration:none;line-height:normal;letter-spacing:normal;word-spacing:normal;text-transform:none;direction:ltr;block-progression:tb;writing-mode:lr-tb;text-anchor:start;baseline-shift:baseline;color:#000000;fill:none;stroke:#800080;stroke-width:1;stroke-miterlimit:4;stroke-dasharray:none;marker:none;visibility:visible;display:inline;overflow:visible;enable-background:accumulate;font-family:Sans;-inkscape-font-specification:Sans" />
    </clipPath>
  </defs>
  <sodipodi:namedview
     id="base"
     pagecolor="#ffffff"
     bordercolor="#666666"
     borderopacity="1.0"
     inkscape:pageopacity="0.0"
     inkscape:pageshadow="2"
     inkscape:zoom="0.77765947"
     inkscape:cx="283.88855"
     inkscape:cy="343.9809"
     inkscape:document-units="px"
     inkscape:current-layer="layer1"
     showgrid="true"
     inkscape:window-width="1366"
     inkscape:window-height="706"
     inkscape:window-x="-8"
     inkscape:window-y="-8"
     inkscape:window-maximized="1"
     showguides="false"
     fit-margin-top="0"
     fit-margin-left="0"
     fit-margin-right="0"
     fit-margin-bottom="0">
    <inkscape:grid
       type="xygrid"
       id="grid4061"
       empspacing="5"
       visible="true"
       enabled="false"
       snapvisiblegridlinesonly="true"
       spacingx="8px"
       spacingy="8px" />
  </sodipodi:namedview>
  <metadata
     id="metadata7">
    <rdf:RDF>
      <cc:Work
         rdf:about="">
        <dc:format>image/svg+xml</dc:format>
        <dc:type
           rdf:resource="http://purl.org/dc/dcmitype/StillImage" />
        <dc:title />
      </cc:Work>
    </rdf:RDF>
  </metadata>
  <g
     inkscape:label="Layer 1"
     inkscape:groupmode="layer"
     id="layer1"
     transform="translate(-222.70541,-336.41075)">
    <path
       sodipodi:type="arc"
       style="fill:#a9b7bc;fill-opacity:1;stroke:none"
       id="path4823"
       sodipodi:cx="297.68814"
       sodipodi:cy="678.96045"
       sodipodi:rx="145.30783"
       sodipodi:ry="18.002739"
       d="m 442.99597,678.96045 c 0,9.94264 -65.05653,18.00274 -145.30783,18.00274 -80.2513,0 -145.30783,-8.0601 -145.30783,-18.00274 0,-9.94264 65.05653,-18.00274 145.30783,-18.00274 80.2513,0 145.30783,8.0601 145.30783,18.00274 z"
       transform="translate(212.84631,324.83756)" />
    <path
       style="font-size:medium;font-style:normal;font-variant:normal;font-weight:normal;font-stretch:normal;text-indent:0;text-align:start;text-decoration:none;line-height:normal;letter-spacing:normal;word-spacing:normal;text-transform:none;direction:ltr;block-progression:tb;writing-mode:lr-tb;text-anchor:start;baseline-shift:baseline;color:#000000;fill:#ffff00;fill-opacity:1;stroke:none;stroke-width:0.10000000000000001;marker:none;visibility:visible;display:inline;overflow:visible;enable-background:accumulate;font-family:Sans;-inkscape-font-specification:Sans"
       d="m 586.04502,787.27346 c 13.78379,17.6977 38.0054,66.83796 43.78125,89.28125 l 7.75,-2 C 632.3656,854.33285 610.94315,803.4241 586.04502,787.27346 z"
       id="path4121"
       inkscape:connector-curvature="0"
       sodipodi:nodetypes="cccc" />
    <g
       id="g3975">
      <path
         style="fill:#000000;stroke:none"
         d="m 581.36726,789.84286 c 11.82207,17.73309 31.38047,52.58552 36.85705,75.80028 41.45223,0.0421 78.90968,-12.67971 102.37732,-41.346 -14.47418,-32.4339 -61.50457,-76.30275 -97.50943,-86.26272 z"
         id="path3962"
         inkscape:connector-curvature="0"
         sodipodi:nodetypes="ccccc" />
      <path
         sodipodi:nodetypes="cccccc"
         inkscape:connector-curvature="0"
         id="path3966"
         style="fill:none;stroke:#ffffff;stroke-width:6;stroke-linecap:butt;stroke-linejoin:miter;stroke-miterlimit:4;stroke-opacity:1;stroke-dasharray:none"
         d="m 641.34586,821.13826 c 10.60661,-1.41421 25.10229,-9.19238 31.1127,-16.26345 m -78.13531,-61.87184 c 51.97235,21.2132 91.92388,69.29646 109.248,114.55129 l -42.77997,15.2028 C 649.47758,824.32025 621.19331,784.36871 583.3631,764.56972"
         clip-path="url(#clipPath3971)" />
      <path
         sodipodi:nodetypes="ccccc"
         inkscape:connector-curvature="0"
         id="path4422"
         d="m 581.36726,789.84286 c 11.82207,17.73309 31.38047,52.58552 36.85705,75.80028 41.45223,0.0421 78.90968,-12.67971 102.37732,-41.346 -14.47418,-32.4339 -61.50457,-76.30275 -97.50943,-86.26272 z"
         style="fill:none;stroke:#242424;stroke-width:5;stroke-linecap:butt;stroke-linejoin:miter;stroke-miterlimit:20;stroke-opacity:1;stroke-dasharray:none" />
    </g>
    <path
       sodipodi:nodetypes="ccccc"
       inkscape:connector-curvature="0"
       id="path4390"
       d="m 528.8387,613.18863 2.08626,41.02951 c 40.08228,-2.83877 104.36283,17.64597 139.62803,38.51179 l 8.49587,-38.66665 C 644.21565,632.0635 576.09111,614.68692 528.8387,613.18863 z"
       style="fill:#f4bbe0;fill-opacity:1;stroke:#f091ce;stroke-width:5;stroke-linecap:butt;stroke-linejoin:round;stroke-miterlimit:4;stroke-opacity:1;stroke-dasharray:none" />
    <g
       id="g4257"
       transform="translate(-12.517477,38.943263)">
      <path
         sodipodi:nodetypes="cccccc"
         transform="translate(0,308.2677)"
         inkscape:connector-curvature="0"
         id="path4253"
         d="m 408.20884,333.10398 c -41.02951,-41.02952 -84.14526,-6.25874 -86.23151,79.27736 l -45.202,95.96732 -37.55244,-102.92148 C 260.78077,244.0908 368.57017,234.35499 420.72632,320.5865 z"
         style="fill:#c2a87e;fill-opacity:1;stroke:#a8874f;stroke-width:8;stroke-linecap:butt;stroke-linejoin:miter;stroke-miterlimit:4;stroke-opacity:1;stroke-dasharray:none" />
      <path
         sodipodi:nodetypes="cccc"
         transform="translate(0,308.2677)"
         inkscape:connector-curvature="0"
         id="path4255"
         d="m 254.86975,449.93377 c 4.2032,-168.56235 92.72112,-212.84654 161.68408,-124.47937 l -2.20557,2.63765 c -70.82329,-69.01486 -121.25962,-6.96863 -113.5811,129.14358"
         style="fill:none;stroke:#a8874f;stroke-width:3;stroke-linecap:butt;stroke-linejoin:miter;stroke-miterlimit:4;stroke-opacity:1;stroke-dasharray:none" />
    </g>
    <path
       sodipodi:nodetypes="cssscc"
       inkscape:connector-curvature="0"
       id="path3769"
       d="m 497.27665,706.97282 c -63.91989,148.13398 -2.9873,270.19402 -16.22829,278.3124 -27.47251,16.84408 -83.01265,15.46368 -111.50921,0 -14.21763,-7.71522 7.07343,-151.64493 29.69105,-202.82605 2.56398,-5.80201 11.81366,-10.43925 16.5682,-11.00887 7.70958,-41.06545 30.76756,-72.59037 81.47825,-64.47748 z"
       style="fill:#142450;fill-opacity:1;stroke:#0e1f46;stroke-width:8;stroke-linecap:butt;stroke-linejoin:miter;stroke-miterlimit:4;stroke-opacity:1;stroke-dasharray:none" />
    <path
       id="path4188"
       style="fill:#182f67;fill-opacity:1;stroke:none"
       d="m 376.66211,1007.2451 c -30.65503,9.9364 -85.0153,-1.5581 -109.09403,-23.26968 -12.01347,-10.83246 42.762,-147.19575 76.74477,-191.65062 3.85236,-5.0395 13.58353,-7.72749 19.20503,-7.86136 -14.10484,-55.19493 1.65007,-92.08206 25.26589,-113.73698 60.21701,-55.21699 133.25188,17.14293 150.55869,12.3355 22.25925,-6.1831 -24.45391,-149.24919 22.56971,-215.56931 28.21161,-39.78846 89.82266,-43.912 130.27012,-3.46454 26.72836,26.72836 37.38859,63.34832 67.64332,75.46745 l -18.09264,66.30602 c -35.27035,-1.73677 -65.43218,11.77518 -95.25824,14.46195 27.70459,211.2705 -53.72169,223.15034 -223.16828,176.0112 -54.94916,109.55982 -33.97362,206.86337 -46.64434,210.97037 z"
       inkscape:connector-curvature="0"
       sodipodi:nodetypes="ssscssssccccs" />
    <g
       id="g4779-1"
       transform="matrix(0.08704608,0.00183205,-0.01897098,0.08740532,381.05817,670.96317)">
      <g
         transform="matrix(-0.18293354,-0.98312528,0.98312528,-0.18293354,-34.048057,1542.5383)"
         id="g4740-7">
        <rect
           style="fill:#ffffff;fill-opacity:1;fill-rule:evenodd;stroke:none"
           id="rect4669-4"
           width="352"
           height="512"
           x="608"
           y="444.36218" />
        <path
           style="font-size:medium;font-style:normal;font-variant:normal;font-weight:normal;font-stretch:normal;text-indent:0;text-align:start;text-decoration:none;line-height:normal;letter-spacing:normal;word-spacing:normal;text-transform:none;direction:ltr;block-progression:tb;writing-mode:lr-tb;text-anchor:start;baseline-shift:baseline;color:#000000;fill:#000000;fill-opacity:1;stroke:none;stroke-width:10;marker:none;visibility:visible;display:inline;overflow:visible;enable-background:accumulate;font-family:Sans;-inkscape-font-specification:Sans"
           d="m 640,471.375 0,10 288,0 0,-10 -288,0 z m 0,32 0,10 288,0 0,-10 -288,0 z m 0,32 0,10 288,0 0,-10 -288,0 z m 0,32 0,10 288,0 0,-10 -288,0 z m 0,32 0,10 288,0 0,-10 -288,0 z m 0,32 0,10 288,0 0,-10 -288,0 z m 0,32 0,10 288,0 0,-10 -288,0 z m 0,32 0,10 288,0 0,-10 -288,0 z m 0,32 0,10 288,0 0,-10 -288,0 z m 0,32 0,10 288,0 0,-10 -288,0 z m 0,32 0,10 288,0 0,-10 -288,0 z m 0,32 0,10 288,0 0,-10 -288,0 z m 0,32 0,10 288,0 0,-10 -288,0 z m 0,32 0,10 288,0 0,-10 -288,0 z m 0,32 0,10 288,0 0,-10 -288,0 z"
           id="path4737-0"
           inkscape:connector-curvature="0" />
      </g>
      <path
         sodipodi:nodetypes="cccc"
         inkscape:connector-curvature="0"
         id="path4774-9"
         d="M 364.58241,605.34985 C 313.58894,532.29514 310.32223,468.96307 391.26567,420.63996 l 38.16117,-6.40342 c -76.41401,44.11765 -79.1714,112.46269 -64.84443,191.11331 z"
         style="fill:#20a7ac;fill-opacity:1;stroke:none" />
      <path
         style="fill:#20a7ac;fill-opacity:1;stroke:none"
         d="M 610.91462,560.21661 C 559.92115,487.1619 562.17781,428.58186 624.68732,392.49197 l 38.52645,-3.60438 c -57.80207,27.9667 -66.62612,92.6784 -52.29915,171.32902 z"
         id="path4776-4"
         inkscape:connector-curvature="0"
         sodipodi:nodetypes="cccc" />
      <path
         sodipodi:nodetypes="ccccccccccc"
         inkscape:connector-curvature="0"
         id="path4768-8"
         d="m 224.5312,423.59777 58.25556,-88.8519 -85.53892,69.63749 82.00671,-177.5546 -94.44783,140.01247 35.80938,-162.38932 -71.54917,181.2342 -3.09725,-113.80602 C 130.39667,347.25733 78.004837,491.83609 47.850469,549.25587 253.02055,447.20029 786.1325,380.98464 982.96877,388.18649 784.18978,350.79549 415.93306,381.48936 224.5312,423.59777 z"
         style="fill:#20c7c5;fill-opacity:1;stroke:none" />
    </g>
    <path
       style="font-size:medium;font-style:normal;font-variant:normal;font-weight:normal;font-stretch:normal;text-indent:0;text-align:start;text-decoration:none;line-height:normal;letter-spacing:normal;word-spacing:normal;text-transform:none;direction:ltr;block-progression:tb;writing-mode:lr-tb;text-anchor:start;baseline-shift:baseline;color:#000000;fill:#0e1f46;fill-opacity:1;stroke:none;stroke-width:0.1;marker:none;visibility:visible;display:inline;overflow:visible;enable-background:accumulate;font-family:Sans;-inkscape-font-specification:Sans"
       d="m 558.63877,465.19326 6.53125,4.625 c 26.69769,-37.6533 85.27228,-41.88397 124.1875,-2.96875 25.06694,25.06694 37.0007,61.66759 65.71875,74.84375 l -16.375,60.09375 c -58.64453,-0.93262 -84.53324,29.38004 -153.84375,6.8125 55.51442,37.84066 99.43704,-2.70633 159.875,1.34375 l 19.90625,-72.84375 c -31.18683,-10.24269 -41.81885,-48.1001 -69.625,-75.90625 -41.73942,-41.73942 -106.01911,-38.26228 -136.375,4 z"
       id="path4069"
       inkscape:connector-curvature="0"
       sodipodi:nodetypes="ccscccccsc" />
    <g
       transform="matrix(0.4420884,0.08360135,-0.08360135,0.4420884,81.089154,234.32749)"
       id="g4057">
      <g
         clip-path="url(#clipPath4053-5)"
         id="g4042">
        <path
           sodipodi:type="arc"
           style="fill:#ffffff;stroke:none"
           id="path3867-7"
           sodipodi:cx="1412.9659"
           sodipodi:cy="411.31165"
           sodipodi:rx="76.664566"
           sodipodi:ry="98.641022"
           d="m 1489.6305,411.31165 c 0,54.47793 -34.3239,98.64102 -76.6646,98.64102 -42.3406,0 -76.6645,-44.16309 -76.6645,-98.64102 0,-54.47794 34.3239,-98.64103 76.6645,-98.64103 42.3407,0 76.6646,44.16309 76.6646,98.64103 z"
           transform="matrix(0.92763756,-0.58008505,0.58008505,0.92763756,-183.84371,827.71155)" />
        <g
           id="g4014"
           transform="translate(-3.7383206e-8,26.331837)"
           clip-path="url(#clipPath4036-3)">
          <path
             sodipodi:type="arc"
             style="fill:url(#linearGradient4033);fill-opacity:1;stroke:none"
             id="path3871"
             sodipodi:cx="1412.9659"
             sodipodi:cy="411.31165"
             sodipodi:rx="59.878605"
             sodipodi:ry="83.57634"
             d="m 1472.8445,411.31165 c 0,46.15793 -26.8085,83.57634 -59.8786,83.57634 -33.07,0 -59.8786,-37.41841 -59.8786,-83.57634 0,-46.15794 26.8086,-83.57634 59.8786,-83.57634 33.0701,0 59.8786,37.4184 59.8786,83.57634 z"
             transform="matrix(1.0079509,-0.42549402,0.42549402,1.0079509,-200.55657,549.91403)" />
          <g
             clip-path="url(#clipPath4010-2)"
             id="g4004">
            <path
               style="fill:#e2b9ae;fill-opacity:1;stroke:none"
               d="m 1341.908,409.19475 25.1171,33.91273 29.435,-37.69347 -17.9954,-17.76657 z"
               id="path3886"
               inkscape:connector-curvature="0" />
            <path
               style="fill:#c98a77;fill-opacity:1;stroke:none"
               d="m 1381.9856,374.67495 -55.7763,22.65313 14.8216,28.409 45.6304,-34.48642 z"
               id="path3884"
               inkscape:connector-curvature="0" />
          </g>
          <path
             transform="matrix(1.0681955,-0.2365765,0.2365765,1.0681955,-195.41171,252.70371)"
             d="m 1460.6148,411.31165 c 0,38.35707 -21.3331,69.45162 -47.6489,69.45162 -26.3157,0 -47.6488,-31.09455 -47.6488,-69.45162 0,-38.35708 21.3331,-69.45163 47.6488,-69.45163 26.3158,0 47.6489,31.09455 47.6489,69.45163 z"
             sodipodi:ry="69.451622"
             sodipodi:rx="47.648815"
             sodipodi:cy="411.31165"
             sodipodi:cx="1412.9659"
             id="path3875-1"
             style="fill:#000000;stroke:none"
             sodipodi:type="arc" />
          <path
             transform="matrix(1.0167411,-0.40403924,0.40403924,1.0167411,-169.75891,539.53318)"
             d="m 1400.5691,362.1084 c 0,19.61162 -11.9908,35.50998 -26.7822,35.50998 -14.7914,0 -26.7823,-15.89836 -26.7823,-35.50998 0,-19.61162 11.9909,-35.50998 26.7823,-35.50998 14.7914,0 26.7822,15.89836 26.7822,35.50998 z"
             sodipodi:ry="35.509983"
             sodipodi:rx="26.782221"
             sodipodi:cy="362.1084"
             sodipodi:cx="1373.7869"
             id="path3877-2"
             style="fill:#ffffff;stroke:none"
             sodipodi:type="arc" />
        </g>
      </g>
      <path
         sodipodi:nodetypes="zcccz"
         inkscape:connector-curvature="0"
         id="path3873-6"
         d="m 1242.5814,381.43276 c -1.6462,-6.24637 175.5904,-29.67303 212.6149,-37.32605 -0.7023,-5.08976 -5.6674,-22.40411 -10.6621,-32.71163 9.3689,9.1577 20.38,30.09554 20.6437,40.86001 -46.1704,8.33073 -220.9504,35.42404 -222.5965,29.17767 z"
         style="fill:#000000;stroke:none" />
      <path
         sodipodi:nodetypes="cccc"
         inkscape:connector-curvature="0"
         id="path4023"
         d="m 1337.2716,476.93286 c -37.8583,-15.23503 -59.0412,-51.86011 -66.5768,-99.40316 l 9.3773,-1.63728 c 7.7628,46.52131 26.2075,75.77028 57.1995,101.04044 z"
         style="fill:#000000;stroke:none" />
    </g>
    <path
       style="fill:#0e1f46;fill-opacity:1;stroke:none"
       d="m 711.06756,587.27916 c 14.99786,-8.11359 35.40477,-4.22191 35.40477,-4.22191 l -1.96693,4.71365 c 0,0 -13.52265,-3.44214 -33.43784,-0.49174 z"
       id="path4035"
       inkscape:connector-curvature="0"
       sodipodi:nodetypes="cccc" />
    <path
       style="fill:#0e1f46;fill-opacity:1;stroke:none"
       d="m 733.44141,546.21939 c 2.44377,3.05473 6.41488,3.66566 10.08053,2.13831 -2.74924,6.41488 -9.4696,5.19298 -10.08053,-2.13831 z"
       id="path4037"
       inkscape:connector-curvature="0"
       sodipodi:nodetypes="ccc" />
    <path
       style="fill:#0e1f46;fill-opacity:1;stroke:none"
       d="m 362.04065,747.98928 c 0.066,3.19935 0.18236,7.16525 0.45414,11.51212 0.27177,4.34686 0.70043,9.07421 1.25001,13.77474 0.54959,4.70054 1.21652,9.3722 1.84355,13.60778 0.62703,4.23557 1.20949,8.0345 1.53395,11.01234 -0.77966,-0.7409 -2.01806,-2.90823 -3.43781,-6.09598 -1.41975,-3.18775 -3.01345,-7.40095 -4.46185,-12.19429 -1.4484,-4.79335 -2.74221,-10.16708 -3.64769,-15.59616 -0.90549,-5.42908 -1.41675,-10.90975 -1.50711,-15.8659 -0.17968,-9.85568 0.68036,-19.72749 2.85238,-29.45426 4.3772,-19.35633 14.48436,-37.42503 29.16017,-50.91182 10e-6,0 10e-6,-10e-6 2e-5,-10e-6 7.08627,-6.51202 15.21029,-12.02684 24.18597,-15.85874 10e-6,0 10e-6,0 10e-6,0 7.85591,-3.33785 16.25538,-5.30146 24.74198,-5.87512 16.07682,-1.03659 31.92223,2.61407 46.56299,8.20558 10e-6,0 10e-6,0 2e-5,10e-6 6.90976,2.61966 13.61123,5.65167 20.16769,8.87155 0,0 0,0 10e-6,0 5.78582,2.84043 11.43635,5.82567 17.0714,8.71739 4.3972,2.24706 8.64518,4.45775 12.96504,6.06203 1.54974,0.56644 2.99357,1.0498 4.34923,1.2635 1.01855,0.10803 1.77941,0.22378 2.14714,0.0434 0.14371,-0.0337 0.31162,-0.12551 0.4569,-0.23989 0.18908,-0.12833 0.39756,-0.40615 0.64281,-0.7628 0.7023,-0.99807 1.07725,-2.51214 1.48345,-4.26028 0.49382,-2.37527 0.68985,-4.91519 0.80992,-7.55866 0.14296,-3.33684 0.0977,-6.72527 -0.0158,-10.15498 -0.29033,-8.70466 -1.03273,-17.45676 -1.7685,-26.27394 0,-10e-6 0,-10e-6 0,-2e-5 -0.88523,-10.58494 -1.8129,-21.19884 -2.53095,-31.85996 -1.57728,-23.25767 -2.2828,-46.81502 0.35337,-70.26197 1.26757,-11.27428 3.3644,-22.55334 6.83948,-33.50475 3.24364,-10.24483 7.79373,-20.22073 14.1066,-29.15159 l 6.52602,4.6272 c -5.74847,8.07994 -9.93265,17.32162 -13.00887,26.94894 -3.28707,10.31151 -5.27536,21.08191 -6.51385,31.97874 -2.57821,22.68458 -1.86184,45.7633 -0.32082,68.82608 0.71022,10.55483 1.63464,21.12565 2.5212,31.73074 0,0 0,0 0,1e-5 0.73823,8.81158 1.4884,17.69637 1.79181,26.67202 0.12053,3.54017 0.1649,7.13078 0.0132,10.76152 0,0 0,10e-6 0,10e-6 -0.1122,2.84838 -0.35963,5.80843 -0.9641,8.81907 -0.39218,2.16699 -1.1294,4.57855 -2.57027,6.95278 -10e-6,10e-6 -10e-6,10e-6 -10e-6,2e-5 -0.58277,0.94623 -1.37296,1.87359 -2.38791,2.7114 -0.96791,0.77886 -2.09101,1.36017 -3.32249,1.70845 0,0 -10e-6,0 -2e-5,0 -2.14519,0.51767 -4.0622,0.46225 -5.61557,0.13757 -2.12915,-0.3726 -4.06487,-0.98803 -5.82491,-1.65974 -4.91141,-1.84899 -9.44248,-4.18475 -13.81429,-6.43724 -5.69236,-2.92058 -11.30037,-5.88448 -16.94384,-8.65337 -6.40909,-3.1434 -12.88029,-6.07555 -19.47689,-8.57199 -10e-6,0 -10e-6,0 -2e-5,-10e-6 -13.99418,-5.25518 -28.71466,-8.73903 -43.18819,-7.70515 0,0 -1e-5,0 -1e-5,0 -7.61791,0.51779 -15.15388,2.27473 -22.1515,5.2551 0,0 -10e-6,0 -2e-5,1e-5 -8.01921,3.39719 -15.38478,8.42357 -21.91063,14.39342 -1e-5,0 -1e-5,0 -1e-5,10e-6 -13.41627,12.27271 -22.72484,28.96484 -26.76443,46.78209 -2.07051,9.01076 -2.87378,18.24214 -2.68207,27.53298 z"
       id="path3761"
       inkscape:path-effect="#path-effect4140"
       inkscape:original-d="m 561.91217,467.49222 c -47.02362,66.32012 -0.31046,209.38621 -22.56971,215.56931 -17.30681,4.80743 -90.34169,-67.5525 -150.55869,-12.3355 -25.48748,23.37117 -41.81865,64.48467 -21.78002,127.2081"
       inkscape:connector-curvature="0" />
    <path
       style="fill:#c2a87e;fill-opacity:1;stroke:#a8874f;stroke-width:8;stroke-linecap:butt;stroke-linejoin:miter;stroke-miterlimit:20;stroke-opacity:1;stroke-dasharray:none"
       d="M 786.48252,475.30544 C 713.34649,464.57129 682.57301,360.93123 549.705,437.64261 c -34.17003,19.72808 -43.90924,57.74451 -49.22248,116.16283 24.01157,-44.85856 41.20803,-73.71555 60.57217,-84.89544 76.15562,-43.96847 117.72762,51.10653 225.42783,6.39544 z"
       id="path4232"
       inkscape:connector-curvature="0"
       sodipodi:nodetypes="cscsc" />
    <path
       style="fill:none;stroke:#a8874f;stroke-width:3;stroke-linecap:butt;stroke-linejoin:miter;stroke-miterlimit:4;stroke-opacity:1;stroke-dasharray:none"
       d="m 505.76905,509.09363 c 89.00366,-142.11081 183.41639,-2.45867 253.7342,-42.78076"
       id="path4261"
       inkscape:connector-curvature="0"
       sodipodi:nodetypes="cc" />
    <path
       style="fill:none;stroke:#0e1f46;stroke-width:8;stroke-linecap:butt;stroke-linejoin:miter;stroke-miterlimit:4;stroke-opacity:1;stroke-dasharray:none"
       d="M 646.57217,620.13753 C 674.17932,831.5336 592.75304,843.41344 423.39787,795.72557"
       id="path3773"
       inkscape:connector-curvature="0"
       sodipodi:nodetypes="cc" />
    <path
       style="fill:#0e1f46;fill-opacity:1;stroke:none"
       d="m 363.77867,780.46346 0.1806,7.99796 c -3.08366,0.0574 -6.23544,0.76688 -9.30778,1.85623 -3.0489,1.22972 -5.84377,2.46986 -7.16079,4.4364 -4.84371,6.3279 -9.1411,13.1577 -13.28067,20.15872 -5.08029,8.60168 -9.80827,17.43782 -14.34596,26.39575 -1e-5,10e-6 -1e-5,2e-5 -1e-5,3e-5 -10.0637,19.86984 -19.15969,40.24054 -27.45951,60.9386 -3.89458,9.71398 -7.59793,19.49255 -11.01376,29.3587 0,10e-6 -10e-6,10e-6 -10e-6,2e-5 -2.88277,8.33019 -5.57558,16.68836 -7.81188,25.1306 -1.60527,6.11177 -3.07949,12.11253 -3.57071,18.05759 -0.13975,1.9077 -0.23692,3.63518 0.0208,5.11549 0.0956,0.50822 0.16804,0.89263 0.2816,1.1117 10e-6,0 10e-6,0 10e-6,10e-6 0.10411,0.14291 0.0697,0.1676 -0.0639,-0.0165 6.24054,5.66352 13.846,9.93501 21.83674,13.5071 9.0606,4.0238 18.62718,6.97176 28.39766,9.05396 9.76288,2.0722 19.69156,3.2726 29.59653,3.2885 8.72145,-0.01 17.37481,-0.8003 25.35111,-3.4143 -0.26593,0.1254 -0.3896,0.1735 -0.39514,0.218 0.0386,9e-4 0.12411,-0.1909 0.30418,-0.5061 0.53186,-1.0027 0.79225,-2.4222 1.11972,-4.08217 0,0 0,-1e-5 0,-1e-5 0.41609,-2.34442 0.64506,-4.80247 0.84666,-7.34245 10e-6,-10e-6 10e-6,-10e-6 10e-6,-2e-5 0.25738,-3.2964 0.42299,-6.63126 0.57752,-9.99797 0.40602,-8.87545 0.7285,-17.79944 1.26253,-26.75669 0.68243,-11.44452 1.66918,-22.88923 3.09695,-34.2977 3.61151,-28.87003 10.09419,-57.44016 19.92661,-84.88758 1.39001,-3.87816 2.84681,-7.73187 4.36907,-11.55923 0.88352,-2.2214 3.15672,-7.76143 6.53952,-14.95917 3.3828,-7.19775 7.90679,-16.03745 13.07718,-24.90237 5.17038,-8.86493 10.98788,-17.74554 16.50582,-25.26742 5.51794,-7.52187 10.71397,-13.6928 14.36015,-17.40509 -2.48443,4.48212 -6.68698,11.31614 -11.33192,19.34833 -4.64493,8.03219 -9.71217,17.27281 -14.25538,26.35714 -4.54322,9.08433 -8.56529,18.00476 -11.58598,25.17857 -3.0207,7.17381 -5.07369,12.58764 -5.87643,14.60617 -1.48834,3.74247 -2.91245,7.51042 -4.27102,11.30195 -9.62065,26.83481 -15.96765,54.8366 -19.51959,83.18254 -1.40332,11.20405 -2.37416,22.47632 -3.04919,33.78039 -0.5275,8.832 -0.84803,17.71906 -1.25669,26.64587 -0.1546,3.38831 -0.32548,6.8084 -0.59332,10.25367 -0.20116,2.62977 -0.46227,5.34192 -0.94307,8.10474 0,0 0,0 -1e-5,10e-5 -0.28956,1.8537 -0.77585,3.9732 -1.79741,6.182 0,0 -10e-6,0 -10e-6,0 -0.35718,0.7955 -0.92002,1.6734 -1.73608,2.5641 -0.70462,0.7725 -1.68199,1.414 -2.90796,1.8506 -9.11142,2.9247 -18.59234,3.8475 -27.83381,3.8041 -10.53589,-0.025 -21.01399,-1.2835 -31.2448,-3.4636 -10.24234,-2.1742 -20.33555,-5.2929 -29.97756,-9.5662 -8.49023,-3.73938 -16.80007,-8.46799 -23.94985,-14.8784 -0.9635,-0.93242 -1.59387,-1.8859 -1.93044,-2.76986 -0.45214,-1.09913 -0.70876,-2.12399 -0.83431,-3.03306 0,-10e-6 0,-10e-6 0,-2e-5 -0.36798,-2.52891 -0.29304,-4.89452 -0.0875,-7.02986 0,0 0,-10e-6 0,-10e-6 0.5937,-6.75782 2.14727,-13.21494 3.80876,-19.42667 10e-6,-10e-6 10e-6,-2e-5 10e-6,-2e-5 2.31091,-8.71158 5.06148,-17.25896 7.98513,-25.69826 3.46644,-10.01047 7.21455,-19.90896 11.14809,-29.71846 8.37532,-20.89005 17.56745,-41.47316 27.74795,-61.57584 4.59071,-9.06625 9.40145,-18.05349 14.59424,-26.84902 4.20981,-7.13844 8.68486,-14.23181 13.81361,-20.94947 3.06147,-3.76122 7.07113,-5.8907 10.80516,-7.10443 3.71468,-1.35558 7.71003,-2.2222 11.83851,-2.32766 z"
       id="path3010"
       inkscape:connector-curvature="0"
       sodipodi:nodetypes="csssc"
       inkscape:transform-center-x="71.627787"
       inkscape:transform-center-y="152.29597"
       inkscape:path-effect="#path-effect4150"
       inkscape:original-d="m 457.31996,741.91955 c -96.85711,129.02763 -65.88298,260.53655 -80.65785,265.32555 -30.65503,9.9364 -85.0153,-1.5581 -109.09403,-23.26968 -12.01347,-10.83246 42.762,-147.19575 76.74477,-191.65062 3.85236,-5.0395 13.58353,-7.72749 19.55612,-7.86236" />
    <g
       id="g4228"
       clip-path="url(#clipPath4249)"
       transform="translate(-12.517477,38.943263)">
      <path
         sodipodi:nodetypes="ccc"
         inkscape:connector-curvature="0"
         id="path4191"
         d="M 666.82118,414.71588 C 817.81271,254.98592 829.12411,262.39727 707.42203,448.56887 z"
         style="fill:#182f67;fill-opacity:1;stroke:#0e1f46;stroke-width:8;stroke-linecap:butt;stroke-linejoin:miter;stroke-miterlimit:4;stroke-opacity:1;stroke-dasharray:none" />
      <path
         sodipodi:nodetypes="cccccccc"
         transform="translate(0,308.2677)"
         inkscape:connector-curvature="0"
         id="path4193"
         d="m 682,88.09448 c 14.34315,29.29289 52,11.5 52,11.5 l 15.23223,-24.999998 c 0,0 -29.37868,13.328427 -41.26776,-12.257359 L 731.81802,39.04423 c 0,0 6.20711,17.464466 33.79289,9.585786 l 16.37868,-31.767767 c 0,0 -17.4142,10.207108 -26.58578,-1.550252"
         style="fill:none;stroke:#0e1f46;stroke-width:3;stroke-linecap:butt;stroke-linejoin:miter;stroke-miterlimit:4;stroke-opacity:1;stroke-dasharray:none" />
    </g>
    <path
       style="fill:#a8874f;fill-opacity:1;stroke:none"
       d="m 662.27021,430.99174 c 17.94454,-2.59099 52.55546,19.3076 59.8033,37.5156 -10.60661,-12.02082 -45.30761,-34.68718 -59.8033,-37.5156 z"
       id="path4245"
       inkscape:connector-curvature="0"
       sodipodi:nodetypes="ccc" />
    <g
       id="g4131"
       transform="translate(-12.517477,38.943263)">
      <path
         style="fill:#182f67;fill-opacity:1;stroke:none"
         d="m 568.30758,735.55098 c -21.37283,119.27645 -11.27341,226.64051 2.69541,234.70542 25.09615,14.48927 78.57528,15.56052 105.5269,0 13.58805,-7.84506 -44.29461,-76.69413 -54.67908,-234.70542"
         id="path4129"
         inkscape:connector-curvature="0"
         sodipodi:nodetypes="cssc" />
      <path
         inkscape:original-d="m 568.30758,735.55098 c -21.37283,119.27645 -11.27341,226.64051 2.69541,234.70542 25.09615,14.48927 78.57528,15.56052 105.5269,0 13.58805,-7.84506 -44.29461,-76.69413 -54.67908,-234.70542"
         inkscape:path-effect="#path-effect4063"
         sodipodi:nodetypes="cssc"
         inkscape:connector-curvature="0"
         id="path3759"
         d="m 626.48631,808.3676 c -0.73248,-4.11205 -1.66535,-9.7535 -2.54278,-16.15394 -0.87743,-6.40043 -1.69599,-13.55989 -2.27928,-20.68734 -0.5833,-7.12745 -0.93209,-14.22175 -0.96884,-20.48073 -0.0367,-6.25898 0.23438,-11.68128 0.8298,-15.47321 0.8106,3.57574 1.73225,8.74826 2.7633,14.75769 1.03106,6.00943 2.17537,12.85521 3.37836,19.78904 1.20298,6.93384 2.46558,13.95529 3.64368,20.33568 1.1781,6.3804 2.26912,12.12038 3.05094,16.51012 1.78643,10.03032 3.82371,20.01359 6.12398,29.93602 5.57889,24.07282 12.75553,47.77745 21.35127,70.95915 3.08938,8.33234 6.37015,16.61312 9.71711,24.88706 2.44886,6.05103 4.98867,12.1437 7.28665,18.40418 10e-6,0 10e-6,10e-6 10e-6,2e-5 1.44907,3.83864 3.00548,8.07325 3.5466,12.84958 0.21159,1.44955 0.17364,3.25496 -0.41281,5.28008 -0.57033,1.76663 -1.76918,3.29423 -3.49441,4.3529 -8.00786,4.59031 -16.78173,7.30777 -25.50592,9.04713 -9.87762,1.99521 -19.93336,2.81557 -29.92961,2.74395 -9.88651,-0.0627 -19.81589,-0.99554 -29.56201,-3.05204 -8.32763,-1.73234 -16.73543,-4.33157 -24.42936,-8.73904 -1.86904,-1.18627 -3.1069,-2.59251 -3.86552,-3.87386 -10e-6,0 -10e-6,-10e-6 -2e-5,-2e-5 -1.21646,-1.85826 -2.10203,-3.75512 -2.8101,-5.56741 0,-10e-6 0,-10e-6 0,-2e-5 -2.15721,-5.4516 -3.46002,-11.03741 -4.52041,-16.48317 -10e-6,0 -10e-6,-10e-6 -10e-6,-2e-5 -1.53334,-7.78329 -2.56484,-15.61198 -3.3606,-23.41275 -1.0057,-9.83888 -1.62374,-19.6965 -1.99144,-29.54286 -0.91739,-24.55831 -0.31972,-49.13832 1.35187,-73.61004 0.28892,-4.23332 0.61106,-8.46446 0.96654,-12.69287 0.16593,-1.97374 0.63658,-6.50222 1.40039,-12.43636 0.76381,-5.93413 1.82884,-13.27262 3.13439,-20.86492 1.30555,-7.59231 2.85331,-15.43715 4.4602,-22.40278 1.60688,-6.96563 3.26797,-13.0519 4.70198,-17.15773 -0.0525,4.28419 -0.53347,10.55652 -1.14159,17.6759 -0.60812,7.11938 -1.33858,15.08689 -1.99513,22.75392 -0.65654,7.66703 -1.24115,15.03326 -1.68377,20.93818 -0.44262,5.90492 -0.75181,10.348 -0.90449,12.16401 -0.35198,4.18651 -0.67096,8.37584 -0.95709,12.56742 -1.65306,24.23864 -2.24641,48.53739 -1.33889,72.76625 0.3639,9.71212 0.96996,19.39809 1.95551,29.0279 0.78435,7.64731 1.77926,15.23118 3.25083,22.67827 0,10e-6 0,10e-6 10e-6,10e-6 1.05499,5.27285 2.21857,10.38712 4.10272,15.06855 0,10e-6 1e-5,2e-5 1e-5,2e-5 0.63335,1.54993 1.26308,2.95885 2.04259,4.10359 1e-5,10e-6 1e-5,10e-6 1e-5,10e-6 0.61159,0.77398 0.96161,1.34646 1.20201,1.37258 6.60869,3.85192 14.23466,6.15154 22.08389,7.8402 9.14257,1.93649 18.53841,2.81171 27.96138,2.87926 9.52646,0.0597 19.0352,-0.70773 28.28858,-2.58512 8.1961,-1.6869 16.16569,-4.1001 23.09305,-8.13434 -0.11671,0.13319 -0.11796,0.0826 -0.1059,0.0783 0,-10e-6 0,-10e-6 0,-10e-6 0.17265,-0.27308 0.0914,-0.9733 0.0551,-1.96451 0,0 0,0 0,0 -0.29789,-3.40598 -1.70518,-6.99509 -3.09925,-10.91311 -2.21516,-6.04338 -4.72345,-12.05432 -7.19212,-18.15899 -3.36189,-8.30954 -6.67092,-16.66323 -9.8019,-25.10582 -8.70982,-23.48759 -15.98397,-47.51726 -21.64377,-71.93427 -2.33112,-10.06012 -4.39566,-20.17794 -6.20575,-30.33964 z"
         style="fill:#0e1f46;fill-opacity:1;stroke:none" />
    </g>
    <g
       id="g4022">
      <path
         style="fill:#000000;fill-opacity:1;stroke:none"
         d="m 481.22746,644.84876 c -27.81662,45.202 -40.3341,125.17477 -31.98911,171.07219 152.29597,38.24784 218.32548,-1.96694 212.10169,-136.36533 -46.31043,-24.01281 -89.87645,-36.69316 -122.49871,-39.37451 0.48855,27.73794 -4.5257,38.812 -57.61387,4.66765 z"
         id="path4420"
         inkscape:connector-curvature="0"
         sodipodi:nodetypes="ccccc" />
      <path
         sodipodi:nodetypes="cccccccccccsssss"
         inkscape:connector-curvature="0"
         clip-path="url(#clipPath3953)"
         d="m 526.42946,643.11022 c -8.34498,25.38266 -19.81933,77.1911 -23.29641,109.52792 57.71948,11.12665 86.23151,-7.30186 93.88108,-36.85701 18.0808,11.12664 56.67634,18.08079 78.92965,15.99455 m -144.2987,23.64412 c -3.15118,14.2868 -5.07951,31.84982 -6.60645,45.54972 -28.85974,0.69541 -70.93237,-11.82207 -93.18566,-31.2937 m 4.86791,-79.62506 c 108.13709,51.80844 140.4739,27.1212 149.1666,-61.19655 M 463.49437,788.45204 c 2.78166,-14.60373 6.95416,-29.55516 10.08353,-41.37722 m 11.9959,-10.25738 c 0,5.47296 -4.43671,9.90967 -9.90967,9.90967 -5.47296,0 -9.90967,-4.43671 -9.90967,-9.90967 0,-5.47296 4.43671,-9.90967 9.90967,-9.90967 5.47296,0 9.90967,4.43671 9.90967,9.90967 z"
         style="fill:none;stroke:#ffffff;stroke-width:6;stroke-linecap:butt;stroke-linejoin:miter;stroke-miterlimit:4;stroke-opacity:1;stroke-dashoffset:0"
         id="path3889" />
      <path
         sodipodi:nodetypes="ccccc"
         inkscape:connector-curvature="0"
         id="path4386"
         d="m 481.22746,644.84876 c -27.81662,45.202 -40.3341,125.17477 -31.98911,171.07219 152.29597,38.24784 218.32548,-1.96694 212.10169,-136.36533 -46.31043,-24.01281 -89.87645,-36.69316 -122.49871,-39.37451 0.48855,27.73794 -4.5257,38.812 -57.61387,4.66765 z"
         style="fill:none;stroke:#242424;stroke-width:5;stroke-linecap:butt;stroke-linejoin:miter;stroke-miterlimit:4;stroke-opacity:1;stroke-dasharray:none" />
    </g>
    <path
       style="fill:#f4bbe0;fill-opacity:1;stroke:#f091ce;stroke-width:5;stroke-linecap:butt;stroke-linejoin:round;stroke-miterlimit:4;stroke-opacity:1;stroke-dasharray:none"
       d="m 528.8387,613.18863 2.08626,41.02951 c 25.33029,21.25614 94.88612,42.40136 142.44464,48.02346 l -4.58748,-41.15003 c -39.95067,-2.97369 -99.8285,-23.2961 -139.94342,-47.90294 z"
       id="path4388"
       inkscape:connector-curvature="0"
       sodipodi:nodetypes="ccccc" />
    <g
       id="g4080">
      <path
         sodipodi:nodetypes="scccs"
         inkscape:connector-curvature="0"
         id="path4061"
         d="m 485.55317,467.88145 0,188.94584 c 25.00508,16.8216 50.41894,13.27624 60.42097,5.09276 -3.51734,-72.08338 -4.12796,-163.01807 0,-230.22412 -55.32221,14.82354 -60.42097,20.7232 -60.42097,36.18552 z"
         style="fill:#324f1e;fill-opacity:1;stroke:#1c2f10;stroke-width:5;stroke-linecap:butt;stroke-linejoin:miter;stroke-miterlimit:4;stroke-opacity:1;stroke-dasharray:none" />
      <path
         sodipodi:nodetypes="cc"
         inkscape:connector-curvature="0"
         id="path4063"
         d="m 536.47261,666.37469 c -3.75574,-60.93957 -4.54981,-137.52533 -1.0992,-205.80694"
         style="fill:none;stroke:#1c2f10;stroke-width:3;stroke-linecap:butt;stroke-linejoin:miter;stroke-miterlimit:4;stroke-opacity:1;stroke-dasharray:none" />
      <path
         sodipodi:nodetypes="cc"
         transform="translate(0,308.2677)"
         inkscape:connector-curvature="0"
         id="path4076"
         d="m 484.75,163.84448 c 15.9876,-6.2996 43.53935,-11.94014 59.2748,-12.67774"
         style="fill:none;stroke:#1c2f10;stroke-width:5;stroke-linecap:butt;stroke-linejoin:miter;stroke-miterlimit:4;stroke-opacity:1;stroke-dasharray:none" />
    </g>
    <g
       id="g4056"
       transform="translate(-12.517477,38.943263)">
      <path
         style="font-size:medium;font-style:normal;font-variant:normal;font-weight:normal;font-stretch:normal;text-indent:0;text-align:start;text-decoration:none;line-height:normal;letter-spacing:normal;word-spacing:normal;text-transform:none;direction:ltr;block-progression:tb;writing-mode:lr-tb;text-anchor:start;baseline-shift:baseline;color:#000000;fill:#182f67;fill-opacity:1;stroke:none;stroke-width:0.1;marker:none;visibility:visible;display:inline;overflow:visible;enable-background:accumulate;font-family:Sans;-inkscape-font-specification:Sans"
         d="m 564.59375,499.09375 c -45.39487,-54.04731 -14.73876,-137.563 6.43337,-137.563 14.48805,0 35.66619,38.29582 39.47288,66.53175 z"
         id="path4045"
         inkscape:connector-curvature="0"
         sodipodi:nodetypes="cscc" />
      <path
         sodipodi:nodetypes="scscs"
         inkscape:connector-curvature="0"
         id="path4039"
         d="m 570.78125,357.21875 c -29.61465,0 -54.50745,97.23348 -6.1875,141.875 -39.24821,-55.52251 -11.29663,-133.875 6.1875,-133.875 11.53766,0 33.4534,39.52515 39.71875,62.84375 -1.59541,-41.1116 -25.0965,-70.84375 -39.71875,-70.84375 z"
         style="font-size:medium;font-style:normal;font-variant:normal;font-weight:normal;font-stretch:normal;text-indent:0;text-align:start;text-decoration:none;line-height:normal;letter-spacing:normal;word-spacing:normal;text-transform:none;direction:ltr;block-progression:tb;writing-mode:lr-tb;text-anchor:start;baseline-shift:baseline;color:#000000;fill:#0e1f46;fill-opacity:1;stroke:none;stroke-width:0.1;marker:none;visibility:visible;display:inline;overflow:visible;enable-background:accumulate;font-family:Sans;-inkscape-font-specification:Sans" />
      <path
         sodipodi:nodetypes="ccc"
         transform="translate(0,308.2677)"
         inkscape:connector-curvature="0"
         id="path4047"
         d="m 568.68916,85.909931 c -9.5888,14.014389 -11.30986,44.010099 -4.17973,60.483149 -2.45867,-15.73545 -0.49174,-46.468761 4.17973,-60.483149 z"
         style="fill:#0e1f46;fill-opacity:1;stroke:none" />
    </g>
    <g
       id="g4017">
      <path
         sodipodi:nodetypes="ccccc"
         inkscape:connector-curvature="0"
         id="path4392"
         d="m 541.03365,800.79054 c -5.77159,35.63964 -9.21656,74.36203 -6.63162,115.15938 34.66576,2.75968 76.08811,-3.14432 108.29559,-18.24954 -10.06039,-29.43551 -19.97365,-79.80789 -22.15736,-108.27277 z"
         style="fill:#000000;stroke:none" />
      <path
         inkscape:connector-curvature="0"
         clip-path="url(#clipPath3957)"
         d="m 565.02502,750.20419 c -5.21562,44.15888 -4.52021,139.7785 1.04312,182.19884 m 55.98095,-206.8861 c -37.20473,64.67364 -20.51477,155.07765 -7.99729,201.67048 m -53.19928,-59.80572 c 11.82206,-1e-5 28.85974,-2.08625 40.33409,-4.86791"
         style="fill:none;stroke:#ffffff;stroke-width:6;stroke-linecap:butt;stroke-linejoin:miter;stroke-miterlimit:4;stroke-opacity:1;stroke-dashoffset:0"
         id="path3922" />
      <path
         sodipodi:nodetypes="ccccccc"
         inkscape:connector-curvature="0"
         id="path4414"
         d="m 619.70809,772.90528 c -2.78366,38.43287 10.8656,94.8682 19.93068,123.36818 -30.74455,13.89881 -69.75787,19.54979 -102.84375,17.28125 -3.80928,-33.40717 5.74165,-113.75637 8.59375,-138.4375 -10.54636,40.08132 -17.00626,100.37225 -13.28125,143.15625 40.54805,3.50679 82.03257,-4.15825 113.6875,-19.25 -11.59216,-35.49251 -21.49105,-84.91203 -26.08693,-126.11818 z"
         style="font-size:medium;font-style:normal;font-variant:normal;font-weight:normal;font-stretch:normal;text-indent:0;text-align:start;text-decoration:none;line-height:normal;letter-spacing:normal;word-spacing:normal;text-transform:none;direction:ltr;block-progression:tb;writing-mode:lr-tb;text-anchor:start;baseline-shift:baseline;color:#000000;fill:#242424;fill-opacity:1;stroke:none;stroke-width:0.1;marker:none;visibility:visible;display:inline;overflow:visible;enable-background:accumulate;font-family:Sans;-inkscape-font-specification:Sans" />
    </g>
    <g
       id="g5363">
      <path
         clip-path="url(#clipPath5355)"
         sodipodi:nodetypes="cssscc"
         inkscape:connector-curvature="0"
         id="path4127"
         d="m 631.8209,751.4796 c 59.33288,35.11446 93.49851,83.07992 93.49851,137.29001 0,84.56742 -82.3973,111.34379 -92.4272,101.31389 -18.254,-18.254 -31.8764,-75.70734 -25.39001,-99.91491 1.73873,-6.48902 13.07573,-12.11068 25.68404,-14.69506 -2.51702,-17.00364 -25.13674,-62.98067 -39.15113,-79.45372 z"
         style="fill:#182f67;fill-opacity:1;stroke:none" />
      <path
         clip-path="url(#clipPath5368)"
         inkscape:original-d="m 620.06041,744.86428 c 66.55632,35.5845 105.259,86.20797 105.259,143.90533 0,84.56742 -82.3973,111.34379 -92.4272,101.31389 -18.254,-18.254 -31.87641,-75.70734 -25.39001,-99.91491 2.59778,-9.69506 26.62128,-17.45393 44.29896,-16.03972"
         inkscape:path-effect="#path-effect4093"
         style="fill:#0e1f46;fill-opacity:1;stroke:none"
         d="m 616.69849,876.62824 c 1.87955,-0.9002 3.91503,-1.69461 6.00178,-2.36741 2.59835,-0.85826 5.34958,-1.58237 8.11341,-2.109 2.76382,-0.52662 5.53894,-0.85509 8.17269,-0.97745 2.63374,-0.12236 5.12487,-0.0392 7.32787,0.20102 2.20299,0.24017 4.11715,0.63527 5.61924,1.09944 -2.8862,0.6096 -5.45904,1.32907 -7.84025,2.07626 -2.38121,0.74718 -4.57045,1.52374 -6.66884,2.30128 -4.19677,1.55509 -8.04434,3.09108 -12.16021,4.76909 -1.69326,0.70591 -3.40845,1.42325 -5.12743,2.23433 -1.70938,0.80655 -3.31834,1.71378 -4.77659,2.77163 -2.0122,1.65758 -3.83921,3.10644 -3.99426,4.57644 -1.87687,6.79969 -1.70996,14.30565 -1.21016,21.93618 0,10e-6 0,2e-5 10e-6,2e-5 0.67599,9.48742 2.34009,18.93684 4.64628,28.25608 2.31853,9.33129 5.25967,18.47235 9.15868,27.13982 3.21112,7.01661 6.70551,13.7521 11.75993,18.7191 -0.0414,0.0839 0.36202,0.17682 0.97471,0.43034 0,0 1e-5,0 1e-5,0 0.85953,0.27046 1.92508,0.35154 3.12587,0.39378 3.4358,0.0935 7.03738,-0.61851 10.71932,-1.56883 10.72983,-2.82388 20.83034,-8.17097 29.96239,-14.83644 11.56823,-8.48016 21.37009,-19.41002 28.28512,-31.92307 8.53916,-15.37922 12.51381,-33.21856 12.53135,-50.98123 0,0 0,-1e-5 0,-1e-5 0.0446,-27.81512 -10.23738,-55.33194 -26.88617,-77.8655 -8.81937,-11.95314 -19.22369,-22.63824 -30.6839,-32.21239 -1.36176,-1.13765 -3.87438,-3.32204 -7.14211,-6.04671 -3.26774,-2.72467 -7.29779,-5.98299 -11.62583,-9.32823 -4.32804,-3.34525 -8.95276,-6.77653 -13.30059,-9.96206 -4.34782,-3.18554 -8.41443,-6.12871 -11.56567,-8.5928 3.75211,1.20772 8.43276,3.11457 13.37983,5.47415 4.94708,2.35958 10.15492,5.17671 14.9922,8.08241 4.83728,2.9057 9.30129,5.89837 12.86106,8.46001 3.55977,2.56164 6.22162,4.68248 7.53189,5.78002 11.86593,9.9395 22.70352,21.08267 31.9837,33.58663 17.60584,23.75313 28.41098,52.85627 28.45559,82.62447 0,1e-5 0,1e-5 0,2e-5 0.0175,18.9654 -4.29042,38.09566 -13.53124,54.854 -7.51734,13.57366 -18.07651,25.36367 -30.55707,34.50355 -9.75041,7.16931 -20.74378,12.94299 -32.641,16.11618 -4.03836,1.09587 -8.37504,1.89633 -12.9246,1.83431 -1.60418,-0.0124 -3.35934,-0.1981 -5.19468,-0.70776 -1.36339,-0.31852 -2.91095,-1.08726 -4.40704,-2.45798 -6.10397,-6.19139 -10.14524,-13.71976 -13.40056,-21.09774 -4.13194,-9.20978 -7.2289,-18.80192 -9.62614,-28.49307 0,-10e-6 0,-10e-6 -10e-6,-2e-5 -2.40284,-9.67604 -4.13847,-19.57656 -4.86087,-29.60938 -10e-6,-10e-6 -10e-6,-2e-5 -10e-6,-2e-5 -0.61466,-7.92622 -0.69752,-16.31291 1.46231,-24.57839 1.38592,-4.28098 4.23791,-7.209 7.0692,-9.01392 1.92697,-1.36218 3.94068,-2.50925 5.99079,-3.49115 z"
         id="path4180"
         inkscape:connector-curvature="0"
         sodipodi:nodetypes="csssc" />
    </g>
  </g>
</svg>
